[
  {
    "link_thumb": "https://live.staticflickr.com/65535/50021112341_e6c70984c4_n.jpg",
    "id_album": "-462831704",
    "description": "Cat_555299",
    "title": "Cat_555299",
    "link_img": "https://live.staticflickr.com/65535/50021112341_c2584b086c_o.jpg",
    "id_image": "Cat_555299",
    "count_view": 0
  },
  {
    "link_thumb": "https://live.staticflickr.com/65535/50022631792_9122b6b972_n.jpg",
    "id_album": "106807275",
    "description": "Otter_766726",
    "title": "Otter_766726",
    "link_img": "https://live.staticflickr.com/65535/50022631792_b63e360c9c_o.jpg",
    "id_image": "Otter_766726",
    "count_view": 0
  },
  {
    "link_thumb": "https://live.staticflickr.com/65535/50017514003_a39e24deed_n.jpg",
    "id_album": "-462831702",
    "description": "Cat_355109",
    "title": "Cat_355109",
    "link_img": "https://live.staticflickr.com/65535/50017514003_1f45cd34ac_o.jpg",
    "id_image": "Cat_355109",
    "count_view": 0
  },
  {
    "link_thumb": "https://live.staticflickr.com/65535/50351872838_1e0eed4dce_n.jpg",
    "id_album": "-462831703",
    "description": "Cat_499000",
    "title": "Cat_499000",
    "link_img": "https://live.staticflickr.com/65535/50351872838_4237f0f2ce_o.jpg",
    "id_image": "Cat_499000",
    "count_view": 0
  },
  {
    "link_thumb": "https://live.staticflickr.com/65535/50020980501_0e22454765_n.jpg",
    "id_album": "-128218148",
    "description": "Fox_593673",
    "title": "Fox_593673",
    "link_img": "https://live.staticflickr.com/65535/50020980501_f23ab28e63_o.jpg",
    "id_image": "Fox_593673",
    "count_view": 0
  },
  {
    "link_thumb": "https://live.staticflickr.com/65535/50016973153_6c7e15770d_n.jpg",
    "id_album": "782930701",
    "description": "BorderCollie_854676",
    "title": "BorderCollie_854676",
    "link_img": "https://live.staticflickr.com/65535/50016973153_5140a5071e_o.jpg",
    "id_image": "BorderCollie_854676",
    "count_view": 0
  },
  {
    "link_thumb": "https://live.staticflickr.com/65535/50020437831_02bef9b4d0_n.jpg",
    "id_album": "-149330231",
    "description": "Dog_490920",
    "title": "Dog_490920",
    "link_img": "https://live.staticflickr.com/65535/50020437831_978a0bb591_o.jpg",
    "id_image": "Dog_490920",
    "count_view": 0
  },
  {
    "link_thumb": "https://live.staticflickr.com/65535/50020980977_0745e9fc28_n.jpg",
    "id_album": "-39098563",
    "description": "Eagle_88902",
    "title": "Eagle_88902",
    "link_img": "https://live.staticflickr.com/65535/50020980977_af74932dff_o.jpg",
    "id_image": "Eagle_88902",
    "count_view": 0
  },
  {
    "link_thumb": "https://live.staticflickr.com/65535/50021898357_6497a1d472_n.jpg",
    "id_album": "-737856092",
    "description": "Iguana_207227",
    "title": "Iguana_207227",
    "link_img": "https://live.staticflickr.com/65535/50021898357_3e315767f4_o.jpg",
    "id_image": "Iguana_207227",
    "count_view": 0
  },
  {
    "link_thumb": "https://live.staticflickr.com/65535/50020973058_1109d10f86_n.jpg",
    "id_album": "-1933715543",
    "description": "Horse_424006",
    "title": "Horse_424006",
    "link_img": "https://live.staticflickr.com/65535/50020973058_b68129a589_o.jpg",
    "id_image": "Horse_424006",
    "count_view": 0
  },
  {
    "link_thumb": "https://live.staticflickr.com/65535/50017576323_2136de6068_n.jpg",
    "id_album": "-462831702",
    "description": "Cat_379095",
    "title": "Cat_379095",
    "link_img": "https://live.staticflickr.com/65535/50017576323_1e39153e70_o.jpg",
    "id_image": "Cat_379095",
    "count_view": 0
  },
  {
    "link_thumb": "https://live.staticflickr.com/65535/50022205242_bab945e78f_n.jpg",
    "id_album": "1392348450",
    "description": "Leopard_737447",
    "title": "Leopard_737447",
    "link_img": "https://live.staticflickr.com/65535/50022205242_35831dc023_o.jpg",
    "id_image": "Leopard_737447",
    "count_view": 0
  },
  {
    "link_thumb": "https://live.staticflickr.com/65535/50017605986_333b0cbef3_n.jpg",
    "id_album": "-401151552",
    "description": "Butterfly_467081",
    "title": "Butterfly_467081",
    "link_img": "https://live.staticflickr.com/65535/50017605986_285ef76fde_o.jpg",
    "id_image": "Butterfly_467081",
    "count_view": 0
  },
  {
    "link_thumb": "https://live.staticflickr.com/65535/50019920143_8eb576305d_n.jpg",
    "id_album": "-149330231",
    "description": "Dog_529894",
    "title": "Dog_529894",
    "link_img": "https://live.staticflickr.com/65535/50019920143_02dc742102_o.jpg",
    "id_image": "Dog_529894",
    "count_view": 0
  },
  {
    "link_thumb": "https://live.staticflickr.com/65535/50016485648_43c56ba2be_n.jpg",
    "id_album": "-422187261",
    "description": "Bear_253419",
    "title": "Bear_253419",
    "link_img": "https://live.staticflickr.com/65535/50016485648_a97590d142_o.jpg",
    "id_image": "Bear_253419",
    "count_view": 0
  },
  {
    "link_thumb": "https://live.staticflickr.com/65535/50352612232_2bc71774aa_n.jpg",
    "id_album": "-462831703",
    "description": "Cat_280164",
    "title": "Cat_280164",
    "link_img": "https://live.staticflickr.com/65535/50352612232_5bb15f0131_o.jpg",
    "id_image": "Cat_280164",
    "count_view": 0
  },
  {
    "link_thumb": "https://live.staticflickr.com/65535/50021761316_cc5a85f473_n.jpg",
    "id_album": "1562047127",
    "description": "Jellyfish_236349",
    "title": "Jellyfish_236349",
    "link_img": "https://live.staticflickr.com/65535/50021761316_d4c0defa69_o.jpg",
    "id_image": "Jellyfish_236349",
    "count_view": 0
  },
  {
    "link_thumb": "https://live.staticflickr.com/65535/50023985268_bc0a4fe4a5_n.jpg",
    "id_album": "-709711865",
    "description": "Wolf_676888",
    "title": "Wolf_676888",
    "link_img": "https://live.staticflickr.com/65535/50023985268_c686a04342_o.jpg",
    "id_image": "Wolf_676888",
    "count_view": 0
  },
  {
    "link_thumb": "https://live.staticflickr.com/65535/50017717347_95d2313e64_n.jpg",
    "id_album": "-1561645279",
    "description": "BlackPanther_512023",
    "title": "BlackPanther_512023",
    "link_img": "https://live.staticflickr.com/65535/50017717347_f755704a8a_o.jpg",
    "id_image": "BlackPanther_512023",
    "count_view": 0
  },
  {
    "link_thumb": "https://live.staticflickr.com/65535/50019269646_b7100e31b2_n.jpg",
    "id_album": "-462831704",
    "description": "Cat_510619",
    "title": "Cat_510619",
    "link_img": "https://live.staticflickr.com/65535/50019269646_e2d14f2acb_o.jpg",
    "id_image": "Cat_510619",
    "count_view": 0
  },
  {
    "link_thumb": "https://live.staticflickr.com/65535/50019431483_f194970bf7_n.jpg",
    "id_album": "1831085598",
    "description": "Dachshund_999042",
    "title": "Dachshund_999042",
    "link_img": "https://live.staticflickr.com/65535/50019431483_53d69e76c6_o.jpg",
    "id_image": "Dachshund_999042",
    "count_view": 0
  },
  {
    "link_thumb": "https://live.staticflickr.com/65535/50017854941_34e9e0370a_n.jpg",
    "id_album": "-462831705",
    "description": "Cat_210130",
    "title": "Cat_210130",
    "link_img": "https://live.staticflickr.com/65535/50017854941_0b54a14a71_o.jpg",
    "id_image": "Cat_210130",
    "count_view": 0
  },
  {
    "link_thumb": "https://live.staticflickr.com/65535/50017045301_b923eaf2d1_n.jpg",
    "id_album": "-422187261",
    "description": "Bear_433071",
    "title": "Bear_433071",
    "link_img": "https://live.staticflickr.com/65535/50017045301_2d8a8be985_o.jpg",
    "id_image": "Bear_433071",
    "count_view": 0
  },
  {
    "link_thumb": "https://live.staticflickr.com/65535/50017389187_0966c2bd7d_n.jpg",
    "id_album": "1699594607",
    "description": "Bee_359890",
    "title": "Bee_359890",
    "link_img": "https://live.staticflickr.com/65535/50017389187_c5939d2337_o.jpg",
    "id_image": "Bee_359890",
    "count_view": 0
  },
  {
    "link_thumb": "https://live.staticflickr.com/65535/50019418343_e05884868f_n.jpg",
    "id_album": "1831085598",
    "description": "Dachshund_331433",
    "title": "Dachshund_331433",
    "link_img": "https://live.staticflickr.com/65535/50019418343_c55f69eee6_o.jpg",
    "id_image": "Dachshund_331433",
    "count_view": 0
  },
  {
    "link_thumb": "https://live.staticflickr.com/65535/50021441061_3ff7a2ef0a_n.jpg",
    "id_album": "1469520430",
    "description": "Hedgehog_986109",
    "title": "Hedgehog_986109",
    "link_img": "https://live.staticflickr.com/65535/50021441061_2738e9b6fe_o.jpg",
    "id_image": "Hedgehog_986109",
    "count_view": 0
  },
  {
    "link_thumb": "https://live.staticflickr.com/65535/50020187461_9cb9c18b6d_n.jpg",
    "id_album": "-149330232",
    "description": "Dog_260120",
    "title": "Dog_260120",
    "link_img": "https://live.staticflickr.com/65535/50020187461_b8c92c25c4_o.jpg",
    "id_image": "Dog_260120",
    "count_view": 0
  },
  {
    "link_thumb": "https://live.staticflickr.com/65535/50019027033_e54621fe5b_n.jpg",
    "id_album": "-462831703",
    "description": "Cat_985125",
    "title": "Cat_985125",
    "link_img": "https://live.staticflickr.com/65535/50019027033_6a6c6a2b13_o.jpg",
    "id_image": "Cat_985125",
    "count_view": 0
  },
  {
    "link_thumb": "https://live.staticflickr.com/65535/50021659196_8f0f9c9c68_n.jpg",
    "id_album": "1658866795",
    "description": "Insect_206080",
    "title": "Insect_206080",
    "link_img": "https://live.staticflickr.com/65535/50021659196_d00657ca2c_o.jpg",
    "id_image": "Insect_206080",
    "count_view": 0
  },
  {
    "link_thumb": "https://live.staticflickr.com/65535/50021557208_c66957b12d_n.jpg",
    "id_album": "-656526748",
    "description": "Lizard_180344",
    "title": "Lizard_180344",
    "link_img": "https://live.staticflickr.com/65535/50021557208_3952cc941c_o.jpg",
    "id_image": "Lizard_180344",
    "count_view": 0
  },
  {
    "link_thumb": "https://live.staticflickr.com/65535/50024549797_09745d0e46_n.jpg",
    "id_album": "901523298",
    "description": "TreeFrog_384725",
    "title": "TreeFrog_384725",
    "link_img": "https://live.staticflickr.com/65535/50024549797_0806747e14_o.jpg",
    "id_image": "TreeFrog_384725",
    "count_view": 0
  },
  {
    "link_thumb": "https://live.staticflickr.com/65535/50021416591_5b3b24bd48_n.jpg",
    "id_album": "109779448",
    "description": "Hare_795835",
    "title": "Hare_795835",
    "link_img": "https://live.staticflickr.com/65535/50021416591_78486acdeb_o.jpg",
    "id_image": "Hare_795835",
    "count_view": 0
  },
  {
    "link_thumb": "https://live.staticflickr.com/65535/50024485242_20fed556b5_n.jpg",
    "id_album": "405170427",
    "description": "Tiger_864599",
    "title": "Tiger_864599",
    "link_img": "https://live.staticflickr.com/65535/50024485242_6b768e9425_o.jpg",
    "id_image": "Tiger_864599",
    "count_view": 0
  },
  {
    "link_thumb": "https://live.staticflickr.com/65535/50022046413_c84ffe1057_n.jpg",
    "id_album": "-801414987",
    "description": "Peacock_394666",
    "title": "Peacock_394666",
    "link_img": "https://live.staticflickr.com/65535/50022046413_b4a19a14d3_o.jpg",
    "id_image": "Peacock_394666",
    "count_view": 0
  },
  {
    "link_thumb": "https://live.staticflickr.com/65535/50024441507_ca120bc33b_n.jpg",
    "id_album": "405170427",
    "description": "Tiger_592509",
    "title": "Tiger_592509",
    "link_img": "https://live.staticflickr.com/65535/50024441507_438d9b83d1_o.jpg",
    "id_image": "Tiger_592509",
    "count_view": 0
  },
  {
    "link_thumb": "https://live.staticflickr.com/65535/50018956398_79ed3d1cfb_n.jpg",
    "id_album": "-462831703",
    "description": "Cat_932561",
    "title": "Cat_932561",
    "link_img": "https://live.staticflickr.com/65535/50018956398_b4d47a54ae_o.jpg",
    "id_image": "Cat_932561",
    "count_view": 0
  },
  {
    "link_thumb": "https://live.staticflickr.com/65535/50020646137_f7b6b89349_n.jpg",
    "id_album": "-149330231",
    "description": "Dog_409412",
    "title": "Dog_409412",
    "link_img": "https://live.staticflickr.com/65535/50020646137_e0238de202_o.jpg",
    "id_image": "Dog_409412",
    "count_view": 0
  },
  {
    "link_thumb": "https://live.staticflickr.com/65535/50024000643_a1b8505e17_n.jpg",
    "id_album": "-709711865",
    "description": "Wolf_776552",
    "title": "Wolf_776552",
    "link_img": "https://live.staticflickr.com/65535/50024000643_0523e760e6_o.jpg",
    "id_image": "Wolf_776552",
    "count_view": 0
  },
  {
    "link_thumb": "https://live.staticflickr.com/65535/50020208641_8049d4845b_n.jpg",
    "id_album": "-149330232",
    "description": "Dog_275586",
    "title": "Dog_275586",
    "link_img": "https://live.staticflickr.com/65535/50020208641_b7c98b8233_o.jpg",
    "id_image": "Dog_275586",
    "count_view": 0
  },
  {
    "link_thumb": "https://live.staticflickr.com/65535/50023996893_7d343f07b7_n.jpg",
    "id_album": "-709711865",
    "description": "Wolf_716591",
    "title": "Wolf_716591",
    "link_img": "https://live.staticflickr.com/65535/50023996893_b2efca0dd8_o.jpg",
    "id_image": "Wolf_716591",
    "count_view": 0
  },
  {
    "link_thumb": "https://live.staticflickr.com/65535/50352688457_1b34a47b63_n.jpg",
    "id_album": "-462831703",
    "description": "Cat_446891",
    "title": "Cat_446891",
    "link_img": "https://live.staticflickr.com/65535/50352688457_b4f31a42ec_o.jpg",
    "id_image": "Cat_446891",
    "count_view": 0
  },
  {
    "link_thumb": "https://live.staticflickr.com/65535/50022429082_8b1daa7241_n.jpg",
    "id_album": "1894617400",
    "description": "Lynx_929603",
    "title": "Lynx_929603",
    "link_img": "https://live.staticflickr.com/65535/50022429082_9491a19f99_o.jpg",
    "id_image": "Lynx_929603",
    "count_view": 0
  },
  {
    "link_thumb": "https://live.staticflickr.com/65535/50019701882_cd7d246669_n.jpg",
    "id_album": "-462831703",
    "description": "Cat_913802",
    "title": "Cat_913802",
    "link_img": "https://live.staticflickr.com/65535/50019701882_043deaed0f_o.jpg",
    "id_image": "Cat_913802",
    "count_view": 0
  },
  {
    "link_thumb": "https://live.staticflickr.com/65535/50022190412_6030df760c_n.jpg",
    "id_album": "1392348450",
    "description": "Leopard_529707",
    "title": "Leopard_529707",
    "link_img": "https://live.staticflickr.com/65535/50022190412_b46d39016c_o.jpg",
    "id_image": "Leopard_529707",
    "count_view": 0
  },
  {
    "link_thumb": "https://live.staticflickr.com/65535/50020150592_7ed365416f_n.jpg",
    "id_album": "1475096665",
    "description": "Crocodile_428554",
    "title": "Crocodile_428554",
    "link_img": "https://live.staticflickr.com/65535/50020150592_f5c0d9d59f_o.jpg",
    "id_image": "Crocodile_428554",
    "count_view": 0
  },
  {
    "link_thumb": "https://live.staticflickr.com/65535/50019413651_5edcb1df4b_n.jpg",
    "id_album": "-462831703",
    "description": "Cat_900346",
    "title": "Cat_900346",
    "link_img": "https://live.staticflickr.com/65535/50019413651_fc4e0bda2e_o.jpg",
    "id_image": "Cat_900346",
    "count_view": 0
  },
  {
    "link_thumb": "https://live.staticflickr.com/65535/50021686252_448d9b1255_n.jpg",
    "id_album": "1469520430",
    "description": "Hedgehog_502649",
    "title": "Hedgehog_502649",
    "link_img": "https://live.staticflickr.com/65535/50021686252_26b70a690b_o.jpg",
    "id_image": "Hedgehog_502649",
    "count_view": 0
  },
  {
    "link_thumb": "https://live.staticflickr.com/65535/50018159202_7f06a5b101_n.jpg",
    "id_album": "-462831705",
    "description": "Cat_243878",
    "title": "Cat_243878",
    "link_img": "https://live.staticflickr.com/65535/50018159202_f20e4f79d0_o.jpg",
    "id_image": "Cat_243878",
    "count_view": 0
  },
  {
    "link_thumb": "https://live.staticflickr.com/65535/50021499061_5dac37aab0_n.jpg",
    "id_album": "-1933715543",
    "description": "Horse_349865",
    "title": "Horse_349865",
    "link_img": "https://live.staticflickr.com/65535/50021499061_962cdde476_o.jpg",
    "id_image": "Horse_349865",
    "count_view": 0
  },
  {
    "link_thumb": "https://live.staticflickr.com/65535/50019757152_4590abf0e9_n.jpg",
    "id_album": "-462831703",
    "description": "Cat_941356",
    "title": "Cat_941356",
    "link_img": "https://live.staticflickr.com/65535/50019757152_220c6f65f0_o.jpg",
    "id_image": "Cat_941356",
    "count_view": 0
  },
  {
    "link_thumb": "https://live.staticflickr.com/65535/50019984341_c3d55d6ce7_n.jpg",
    "id_album": "1903411565",
    "description": "Deer_266784",
    "title": "Deer_266784",
    "link_img": "https://live.staticflickr.com/65535/50019984341_e77e1392d7_o.jpg",
    "id_image": "Deer_266784",
    "count_view": 0
  },
  {
    "link_thumb": "https://live.staticflickr.com/65535/50023610863_88f8fe4736_n.jpg",
    "id_album": "405170427",
    "description": "Tiger_543006",
    "title": "Tiger_543006",
    "link_img": "https://live.staticflickr.com/65535/50023610863_4c01db232f_o.jpg",
    "id_image": "Tiger_543006",
    "count_view": 0
  },
  {
    "link_thumb": "https://live.staticflickr.com/65535/50017469701_83bac1733b_n.jpg",
    "id_album": "-530283314",
    "description": "BlueandyellowMacaw_597034",
    "title": "BlueandyellowMacaw_597034",
    "link_img": "https://live.staticflickr.com/65535/50017469701_b38236635a_o.jpg",
    "id_image": "BlueandyellowMacaw_597034",
    "count_view": 0
  },
  {
    "link_thumb": "https://live.staticflickr.com/65535/50016903321_b2a1590fd8_n.jpg",
    "id_album": "523598895",
    "description": "Artistic_405311",
    "title": "Artistic_405311",
    "link_img": "https://live.staticflickr.com/65535/50016903321_5eeea8583e_o.jpg",
    "id_image": "Artistic_405311",
    "count_view": 0
  },
  {
    "link_thumb": "https://live.staticflickr.com/65535/50021926871_a2962eeae9_n.jpg",
    "id_album": "1392348450",
    "description": "Leopard_433120",
    "title": "Leopard_433120",
    "link_img": "https://live.staticflickr.com/65535/50021926871_a4a5e1fc69_o.jpg",
    "id_image": "Leopard_433120",
    "count_view": 0
  },
  {
    "link_thumb": "https://live.staticflickr.com/65535/50022703161_c69326b57d_n.jpg",
    "id_album": "392248205",
    "description": "Penguin_484891",
    "title": "Penguin_484891",
    "link_img": "https://live.staticflickr.com/65535/50022703161_00b70f10c4_o.jpg",
    "id_image": "Penguin_484891",
    "count_view": 0
  },
  {
    "link_thumb": "https://live.staticflickr.com/65535/50016353953_93f9876abe_n.jpg",
    "id_album": "523598895",
    "description": "Artistic_215917",
    "title": "Artistic_215917",
    "link_img": "https://live.staticflickr.com/65535/50016353953_73a511844b_o.jpg",
    "id_image": "Artistic_215917",
    "count_view": 0
  },
  {
    "link_thumb": "https://live.staticflickr.com/65535/50017083576_ca5d436ae2_n.jpg",
    "id_album": "-422187261",
    "description": "Bear_801374",
    "title": "Bear_801374",
    "link_img": "https://live.staticflickr.com/65535/50017083576_ec58c584f2_o.jpg",
    "id_image": "Bear_801374",
    "count_view": 0
  },
  {
    "link_thumb": "https://live.staticflickr.com/65535/50019722356_6d0d86ff59_n.jpg",
    "id_album": "-1481843714",
    "description": "Cheetah_697570",
    "title": "Cheetah_697570",
    "link_img": "https://live.staticflickr.com/65535/50019722356_c50e6b1d1c_o.jpg",
    "id_image": "Cheetah_697570",
    "count_view": 0
  },
  {
    "link_thumb": "https://live.staticflickr.com/65535/50022957147_1ec684c42b_n.jpg",
    "id_album": "392248205",
    "description": "Penguin_454429",
    "title": "Penguin_454429",
    "link_img": "https://live.staticflickr.com/65535/50022957147_5b78a16ccd_o.jpg",
    "id_image": "Penguin_454429",
    "count_view": 0
  },
  {
    "link_thumb": "https://live.staticflickr.com/65535/50023171472_5e4dda9f39_n.jpg",
    "id_album": "-356780855",
    "description": "Puffin_352314",
    "title": "Puffin_352314",
    "link_img": "https://live.staticflickr.com/65535/50023171472_5efd813c03_o.jpg",
    "id_image": "Puffin_352314",
    "count_view": 0
  },
  {
    "link_thumb": "https://live.staticflickr.com/65535/50017805026_ee0132702b_n.jpg",
    "id_album": "-462831705",
    "description": "Cat_168895",
    "title": "Cat_168895",
    "link_img": "https://live.staticflickr.com/65535/50017805026_03d88c7752_o.jpg",
    "id_image": "Cat_168895",
    "count_view": 0
  },
  {
    "link_thumb": "https://live.staticflickr.com/65535/50024700822_7078c733df_n.jpg",
    "id_album": "766572659",
    "description": "WhiteTiger_428587",
    "title": "WhiteTiger_428587",
    "link_img": "https://live.staticflickr.com/65535/50024700822_6647a86b0a_o.jpg",
    "id_image": "WhiteTiger_428587",
    "count_view": 0
  },
  {
    "link_thumb": "https://live.staticflickr.com/65535/50022085722_53b334b86d_n.jpg",
    "id_album": "1307335982",
    "description": "LabradorRetriever_657418",
    "title": "LabradorRetriever_657418",
    "link_img": "https://live.staticflickr.com/65535/50022085722_2a7983cd66_o.jpg",
    "id_image": "LabradorRetriever_657418",
    "count_view": 0
  },
  {
    "link_thumb": "https://live.staticflickr.com/65535/50017942826_e6265967dd_n.jpg",
    "id_album": "-462831702",
    "description": "Cat_291524",
    "title": "Cat_291524",
    "link_img": "https://live.staticflickr.com/65535/50017942826_33bea0cd22_o.jpg",
    "id_image": "Cat_291524",
    "count_view": 0
  },
  {
    "link_thumb": "https://live.staticflickr.com/65535/50352623141_aef6d7b812_n.jpg",
    "id_album": "-462831703",
    "description": "Cat_597286",
    "title": "Cat_597286",
    "link_img": "https://live.staticflickr.com/65535/50352623141_01b633f0f3_o.jpg",
    "id_image": "Cat_597286",
    "count_view": 0
  },
  {
    "link_thumb": "https://live.staticflickr.com/65535/50018803678_c335e2df45_n.jpg",
    "id_album": "-462831703",
    "description": "Cat_861515",
    "title": "Cat_861515",
    "link_img": "https://live.staticflickr.com/65535/50018803678_3bc8584a6e_o.jpg",
    "id_image": "Cat_861515",
    "count_view": 0
  },
  {
    "link_thumb": "https://live.staticflickr.com/65535/50022827728_d23a858c2d_n.jpg",
    "id_album": "1656131695",
    "description": "Seagull_475583",
    "title": "Seagull_475583",
    "link_img": "https://live.staticflickr.com/65535/50022827728_12745e2222_o.jpg",
    "id_image": "Seagull_475583",
    "count_view": 0
  },
  {
    "link_thumb": "https://live.staticflickr.com/65535/50022652072_3565fae1da_n.jpg",
    "id_album": "-1384601601",
    "description": "Owl_332229",
    "title": "Owl_332229",
    "link_img": "https://live.staticflickr.com/65535/50022652072_842b674b80_o.jpg",
    "id_image": "Owl_332229",
    "count_view": 0
  },
  {
    "link_thumb": "https://live.staticflickr.com/65535/50351876003_1622ce944f_n.jpg",
    "id_album": "-462831703",
    "description": "Cat_503107",
    "title": "Cat_503107",
    "link_img": "https://live.staticflickr.com/65535/50351876003_7996424795_o.jpg",
    "id_image": "Cat_503107",
    "count_view": 0
  },
  {
    "link_thumb": "https://live.staticflickr.com/65535/50020970262_5ac89f47d9_n.jpg",
    "id_album": "-39098563",
    "description": "Eagle_543070",
    "title": "Eagle_543070",
    "link_img": "https://live.staticflickr.com/65535/50020970262_81ec9f982f_o.jpg",
    "id_image": "Eagle_543070",
    "count_view": 0
  },
  {
    "link_thumb": "https://live.staticflickr.com/65535/50021325962_20e67b05c6_n.jpg",
    "id_album": "844170697",
    "description": "Frog_716830",
    "title": "Frog_716830",
    "link_img": "https://live.staticflickr.com/65535/50021325962_d60e344fd6_o.jpg",
    "id_image": "Frog_716830",
    "count_view": 0
  },
  {
    "link_thumb": "https://live.staticflickr.com/65535/50018730678_7dd8df2c64_n.jpg",
    "id_album": "-462831704",
    "description": "Cat_499238",
    "title": "Cat_499238",
    "link_img": "https://live.staticflickr.com/65535/50018730678_aa876efaf7_o.jpg",
    "id_image": "Cat_499238",
    "count_view": 0
  },
  {
    "link_thumb": "https://live.staticflickr.com/65535/50019399783_8760545101_n.jpg",
    "id_album": "1273365283",
    "description": "Cute_282687",
    "title": "Cute_282687",
    "link_img": "https://live.staticflickr.com/65535/50019399783_cfc7d22a72_o.jpg",
    "id_image": "Cute_282687",
    "count_view": 0
  },
  {
    "link_thumb": "https://live.staticflickr.com/65535/50017589886_5941620382_n.jpg",
    "id_album": "-401151552",
    "description": "Butterfly_419831",
    "title": "Butterfly_419831",
    "link_img": "https://live.staticflickr.com/65535/50017589886_c7e2c028fa_o.jpg",
    "id_image": "Butterfly_419831",
    "count_view": 0
  },
  {
    "link_thumb": "https://live.staticflickr.com/65535/50020768708_893577ed70_n.jpg",
    "id_album": "-405626519",
    "description": "GermanShepherd_907244",
    "title": "GermanShepherd_907244",
    "link_img": "https://live.staticflickr.com/65535/50020768708_8dc530be8c_o.jpg",
    "id_image": "GermanShepherd_907244",
    "count_view": 0
  },
  {
    "link_thumb": "https://live.staticflickr.com/65535/50018953073_4e2a067e8f_n.jpg",
    "id_album": "-462831703",
    "description": "Cat_931139",
    "title": "Cat_931139",
    "link_img": "https://live.staticflickr.com/65535/50018953073_411ca66e92_o.jpg",
    "id_image": "Cat_931139",
    "count_view": 0
  },
  {
    "link_thumb": "https://live.staticflickr.com/65535/50020027492_f38a3f5de3_n.jpg",
    "id_album": "791455625",
    "description": "Chipmunk_778950",
    "title": "Chipmunk_778950",
    "link_img": "https://live.staticflickr.com/65535/50020027492_afa9210513_o.jpg",
    "id_image": "Chipmunk_778950",
    "count_view": 0
  },
  {
    "link_thumb": "https://live.staticflickr.com/65535/50019210581_5557fe80be_n.jpg",
    "id_album": "-462831704",
    "description": "Cat_442126",
    "title": "Cat_442126",
    "link_img": "https://live.staticflickr.com/65535/50019210581_d0408548e2_o.jpg",
    "id_image": "Cat_442126",
    "count_view": 0
  },
  {
    "link_thumb": "https://live.staticflickr.com/65535/50016889356_7fc1ceaa75_n.jpg",
    "id_album": "523598895",
    "description": "Artistic_266139",
    "title": "Artistic_266139",
    "link_img": "https://live.staticflickr.com/65535/50016889356_608437cfff_o.jpg",
    "id_image": "Artistic_266139",
    "count_view": 0
  },
  {
    "link_thumb": "https://live.staticflickr.com/65535/50021350368_92668b6060_n.jpg",
    "id_album": "1392348450",
    "description": "Leopard_246393",
    "title": "Leopard_246393",
    "link_img": "https://live.staticflickr.com/65535/50021350368_18169b8358_o.jpg",
    "id_image": "Leopard_246393",
    "count_view": 0
  },
  {
    "link_thumb": "https://live.staticflickr.com/65535/50024002797_42b9e62c14_n.jpg",
    "id_album": "-1082521515",
    "description": "Spider_390264",
    "title": "Spider_390264",
    "link_img": "https://live.staticflickr.com/65535/50024002797_699f8df691_o.jpg",
    "id_image": "Spider_390264",
    "count_view": 0
  },
  {
    "link_thumb": "https://live.staticflickr.com/65535/50017566406_ff5f408272_n.jpg",
    "id_album": "-401151552",
    "description": "Butterfly_346817",
    "title": "Butterfly_346817",
    "link_img": "https://live.staticflickr.com/65535/50017566406_7ab5b04c9c_o.jpg",
    "id_image": "Butterfly_346817",
    "count_view": 0
  },
  {
    "link_thumb": "https://live.staticflickr.com/65535/50023070551_dba103d51e_n.jpg",
    "id_album": "-353898617",
    "description": "Puppy_909843",
    "title": "Puppy_909843",
    "link_img": "https://live.staticflickr.com/65535/50023070551_47fd9c98da_o.jpg",
    "id_image": "Puppy_909843",
    "count_view": 0
  },
  {
    "link_thumb": "https://live.staticflickr.com/65535/50017620108_00eb917164_n.jpg",
    "id_album": "-462831702",
    "description": "Cat_407063",
    "title": "Cat_407063",
    "link_img": "https://live.staticflickr.com/65535/50017620108_8611e1a183_o.jpg",
    "id_image": "Cat_407063",
    "count_view": 0
  },
  {
    "link_thumb": "https://live.staticflickr.com/65535/50017865252_6470346b6b_n.jpg",
    "id_album": "-401151552",
    "description": "Butterfly_458315",
    "title": "Butterfly_458315",
    "link_img": "https://live.staticflickr.com/65535/50017865252_a7c73ca3d5_o.jpg",
    "id_image": "Butterfly_458315",
    "count_view": 0
  },
  {
    "link_thumb": "https://live.staticflickr.com/65535/50022265841_c504954e6f_n.jpg",
    "id_album": "-817970387",
    "description": "Moose_325715",
    "title": "Moose_325715",
    "link_img": "https://live.staticflickr.com/65535/50022265841_84d84f4a8e_o.jpg",
    "id_image": "Moose_325715",
    "count_view": 0
  },
  {
    "link_thumb": "https://live.staticflickr.com/65535/50019254473_f486c95433_n.jpg",
    "id_album": "643379324",
    "description": "Clownfish_464903",
    "title": "Clownfish_464903",
    "link_img": "https://live.staticflickr.com/65535/50019254473_f23a7ff231_o.jpg",
    "id_image": "Clownfish_464903",
    "count_view": 0
  },
  {
    "link_thumb": "https://live.staticflickr.com/65535/50021267597_83339ec091_n.jpg",
    "id_album": "-128218148",
    "description": "Fox_864408",
    "title": "Fox_864408",
    "link_img": "https://live.staticflickr.com/65535/50021267597_75c002f545_o.jpg",
    "id_image": "Fox_864408",
    "count_view": 0
  },
  {
    "link_thumb": "https://live.staticflickr.com/65535/50023971172_c0bc7d257b_n.jpg",
    "id_album": "-359606417",
    "description": "Sparrow_743758",
    "title": "Sparrow_743758",
    "link_img": "https://live.staticflickr.com/65535/50023971172_ee7800b28a_o.jpg",
    "id_image": "Sparrow_743758",
    "count_view": 0
  },
  {
    "link_thumb": "https://live.staticflickr.com/65535/50019890181_ee43ac4332_n.jpg",
    "id_album": "1475096665",
    "description": "Crocodile_391840",
    "title": "Crocodile_391840",
    "link_img": "https://live.staticflickr.com/65535/50019890181_dccc8fb03f_o.jpg",
    "id_image": "Crocodile_391840",
    "count_view": 0
  },
  {
    "link_thumb": "https://live.staticflickr.com/65535/50022855838_69acd0c19b_n.jpg",
    "id_album": "1961094930",
    "description": "Seal_247637",
    "title": "Seal_247637",
    "link_img": "https://live.staticflickr.com/65535/50022855838_762470c062_o.jpg",
    "id_image": "Seal_247637",
    "count_view": 0
  },
  {
    "link_thumb": "https://live.staticflickr.com/65535/50020363416_8459cbd178_n.jpg",
    "id_album": "-149330231",
    "description": "Dog_385808",
    "title": "Dog_385808",
    "link_img": "https://live.staticflickr.com/65535/50020363416_7e254c48e9_o.jpg",
    "id_image": "Dog_385808",
    "count_view": 0
  },
  {
    "link_thumb": "https://live.staticflickr.com/65535/50020796217_a9a9fa8882_n.jpg",
    "id_album": "-149330231",
    "description": "Dog_901185",
    "title": "Dog_901185",
    "link_img": "https://live.staticflickr.com/65535/50020796217_6a29ebbaaa_o.jpg",
    "id_image": "Dog_901185",
    "count_view": 0
  },
  {
    "link_thumb": "https://live.staticflickr.com/65535/50018011466_2652a8d4ef_n.jpg",
    "id_album": "-462831702",
    "description": "Cat_341115",
    "title": "Cat_341115",
    "link_img": "https://live.staticflickr.com/65535/50018011466_8dcdd62c12_o.jpg",
    "id_image": "Cat_341115",
    "count_view": 0
  },
  {
    "link_thumb": "https://live.staticflickr.com/65535/50021034312_d61bfab88c_n.jpg",
    "id_album": "1270947998",
    "description": "Elephant_641163",
    "title": "Elephant_641163",
    "link_img": "https://live.staticflickr.com/65535/50021034312_51cab6b203_o.jpg",
    "id_image": "Elephant_641163",
    "count_view": 0
  },
  {
    "link_thumb": "https://live.staticflickr.com/65535/50020548692_770a4851a4_n.jpg",
    "id_album": "-149330232",
    "description": "Dog_346007",
    "title": "Dog_346007",
    "link_img": "https://live.staticflickr.com/65535/50020548692_4c7345eb17_o.jpg",
    "id_image": "Dog_346007",
    "count_view": 0
  },
  {
    "link_thumb": "https://live.staticflickr.com/65535/50023720668_a8636dbf42_n.jpg",
    "id_album": "-809392728",
    "description": "Titmouse_925210",
    "title": "Titmouse_925210",
    "link_img": "https://live.staticflickr.com/65535/50023720668_6866ecc5fa_o.jpg",
    "id_image": "Titmouse_925210",
    "count_view": 0
  },
  {
    "link_thumb": "https://live.staticflickr.com/65535/50021410327_d3b706f624_n.jpg",
    "id_album": "-462831704",
    "description": "Cat_668922",
    "title": "Cat_668922",
    "link_img": "https://live.staticflickr.com/65535/50021410327_3bce090daf_o.jpg",
    "id_image": "Cat_668922",
    "count_view": 0
  },
  {
    "link_thumb": "https://live.staticflickr.com/65535/50023740248_566bcbb4aa_n.jpg",
    "id_album": "-1103743486",
    "description": "Toucan_808510",
    "title": "Toucan_808510",
    "link_img": "https://live.staticflickr.com/65535/50023740248_def8868283_o.jpg",
    "id_image": "Toucan_808510",
    "count_view": 0
  },
  {
    "link_thumb": "https://live.staticflickr.com/65535/50019786916_78220114ae_n.jpg",
    "id_album": "643379324",
    "description": "Clownfish_785004",
    "title": "Clownfish_785004",
    "link_img": "https://live.staticflickr.com/65535/50019786916_85d8cd1628_o.jpg",
    "id_image": "Clownfish_785004",
    "count_view": 0
  },
  {
    "link_thumb": "https://live.staticflickr.com/65535/50019812958_9c075153c8_n.jpg",
    "id_album": "-149330232",
    "description": "Dog_370834",
    "title": "Dog_370834",
    "link_img": "https://live.staticflickr.com/65535/50019812958_69992b11f5_o.jpg",
    "id_image": "Dog_370834",
    "count_view": 0
  },
  {
    "link_thumb": "https://live.staticflickr.com/65535/50019430787_14ec7ac815_n.jpg",
    "id_album": "-462831702",
    "description": "Cat_426591",
    "title": "Cat_426591",
    "link_img": "https://live.staticflickr.com/65535/50019430787_cfa77cd938_o.jpg",
    "id_image": "Cat_426591",
    "count_view": 0
  },
  {
    "link_thumb": "https://live.staticflickr.com/65535/50016917328_80e46945e2_n.jpg",
    "id_album": "-1846011410",
    "description": "Bird_960325",
    "title": "Bird_960325",
    "link_img": "https://live.staticflickr.com/65535/50016917328_8fe7ddc5d8_o.jpg",
    "id_image": "Bird_960325",
    "count_view": 0
  },
  {
    "link_thumb": "https://live.staticflickr.com/65535/50020235103_9f8e293d7a_n.jpg",
    "id_album": "1270947998",
    "description": "Elephant_565134",
    "title": "Elephant_565134",
    "link_img": "https://live.staticflickr.com/65535/50020235103_c0a62379c3_o.jpg",
    "id_image": "Elephant_565134",
    "count_view": 0
  },
  {
    "link_thumb": "https://live.staticflickr.com/65535/50021623168_f53616fea4_n.jpg",
    "id_album": "1894617400",
    "description": "Lynx_875430",
    "title": "Lynx_875430",
    "link_img": "https://live.staticflickr.com/65535/50021623168_2dd1cfba26_o.jpg",
    "id_image": "Lynx_875430",
    "count_view": 0
  },
  {
    "link_thumb": "https://live.staticflickr.com/65535/50018774408_745a048dde_n.jpg",
    "id_album": "-462831704",
    "description": "Cat_534698",
    "title": "Cat_534698",
    "link_img": "https://live.staticflickr.com/65535/50018774408_e4e10b1d6e_o.jpg",
    "id_image": "Cat_534698",
    "count_view": 0
  },
  {
    "link_thumb": "https://live.staticflickr.com/65535/50019206438_5841cb44c1_n.jpg",
    "id_album": "-1481843714",
    "description": "Cheetah_910129",
    "title": "Cheetah_910129",
    "link_img": "https://live.staticflickr.com/65535/50019206438_f4e850a11a_o.jpg",
    "id_image": "Cheetah_910129",
    "count_view": 0
  },
  {
    "link_thumb": "https://live.staticflickr.com/65535/50016418418_283a1f045a_n.jpg",
    "id_album": "390697200",
    "description": "AustralianShepherd_882990",
    "title": "AustralianShepherd_882990",
    "link_img": "https://live.staticflickr.com/65535/50016418418_9f5be9e975_o.jpg",
    "id_image": "AustralianShepherd_882990",
    "count_view": 0
  },
  {
    "link_thumb": "https://live.staticflickr.com/65535/50024531746_b93ee4d8ca_n.jpg",
    "id_album": "-709711865",
    "description": "Wolf_692269",
    "title": "Wolf_692269",
    "link_img": "https://live.staticflickr.com/65535/50024531746_b0a8471e09_o.jpg",
    "id_image": "Wolf_692269",
    "count_view": 0
  },
  {
    "link_thumb": "https://live.staticflickr.com/65535/50017941662_230a824f9f_n.jpg",
    "id_album": "-401151552",
    "description": "Butterfly_859726",
    "title": "Butterfly_859726",
    "link_img": "https://live.staticflickr.com/65535/50017941662_c60971c760_o.jpg",
    "id_image": "Butterfly_859726",
    "count_view": 0
  },
  {
    "link_thumb": "https://live.staticflickr.com/65535/50021925897_a44f616eb4_n.jpg",
    "id_album": "1658866795",
    "description": "Insect_393116",
    "title": "Insect_393116",
    "link_img": "https://live.staticflickr.com/65535/50021925897_64e7a04980_o.jpg",
    "id_image": "Insect_393116",
    "count_view": 0
  },
  {
    "link_thumb": "https://live.staticflickr.com/65535/50019469576_491b46fa5d_n.jpg",
    "id_album": "-462831703",
    "description": "Cat_919878",
    "title": "Cat_919878",
    "link_img": "https://live.staticflickr.com/65535/50019469576_6cd6e7a43c_o.jpg",
    "id_image": "Cat_919878",
    "count_view": 0
  },
  {
    "link_thumb": "https://live.staticflickr.com/65535/50021302218_78a1bd5f62_n.jpg",
    "id_album": "-1882491687",
    "description": "Ladybug_353512",
    "title": "Ladybug_353512",
    "link_img": "https://live.staticflickr.com/65535/50021302218_545d185375_o.jpg",
    "id_image": "Ladybug_353512",
    "count_view": 0
  },
  {
    "link_thumb": "https://live.staticflickr.com/65535/50017188688_a022fd3e9d_n.jpg",
    "id_album": "-401151552",
    "description": "Butterfly_948272",
    "title": "Butterfly_948272",
    "link_img": "https://live.staticflickr.com/65535/50017188688_dd8cd71c0a_o.jpg",
    "id_image": "Butterfly_948272",
    "count_view": 0
  },
  {
    "link_thumb": "https://live.staticflickr.com/65535/50018643153_6a8ac1e780_n.jpg",
    "id_album": "-462831702",
    "description": "Cat_426748",
    "title": "Cat_426748",
    "link_img": "https://live.staticflickr.com/65535/50018643153_718c871a8c_o.jpg",
    "id_image": "Cat_426748",
    "count_view": 0
  },
  {
    "link_thumb": "https://live.staticflickr.com/65535/50021599228_33884bebba_n.jpg",
    "id_album": "1894617400",
    "description": "Lynx_386100",
    "title": "Lynx_386100",
    "link_img": "https://live.staticflickr.com/65535/50021599228_30f40bef29_o.jpg",
    "id_image": "Lynx_386100",
    "count_view": 0
  },
  {
    "link_thumb": "https://live.staticflickr.com/65535/50016719058_dd596dfe1f_n.jpg",
    "id_album": "-1846011410",
    "description": "Bird_332950",
    "title": "Bird_332950",
    "link_img": "https://live.staticflickr.com/65535/50016719058_6622bf3188_o.jpg",
    "id_image": "Bird_332950",
    "count_view": 0
  },
  {
    "link_thumb": "https://live.staticflickr.com/65535/50022504031_1f2deb2fb1_n.jpg",
    "id_album": "-1384601601",
    "description": "Owl_935178",
    "title": "Owl_935178",
    "link_img": "https://live.staticflickr.com/65535/50022504031_fd108851d7_o.jpg",
    "id_image": "Owl_935178",
    "count_view": 0
  },
  {
    "link_thumb": "https://live.staticflickr.com/65535/50024264346_058d6b1859_n.jpg",
    "id_album": "-809392728",
    "description": "Titmouse_886575",
    "title": "Titmouse_886575",
    "link_img": "https://live.staticflickr.com/65535/50024264346_9d70b376af_o.jpg",
    "id_image": "Titmouse_886575",
    "count_view": 0
  },
  {
    "link_thumb": "https://live.staticflickr.com/65535/50021099451_fb2600422f_n.jpg",
    "id_album": "-462831704",
    "description": "Cat_542310",
    "title": "Cat_542310",
    "link_img": "https://live.staticflickr.com/65535/50021099451_c049484aee_o.jpg",
    "id_image": "Cat_542310",
    "count_view": 0
  },
  {
    "link_thumb": "https://live.staticflickr.com/65535/50017914807_69eef6362c_n.jpg",
    "id_album": "-401151552",
    "description": "Butterfly_718480",
    "title": "Butterfly_718480",
    "link_img": "https://live.staticflickr.com/65535/50017914807_7fba04aacd_o.jpg",
    "id_image": "Butterfly_718480",
    "count_view": 0
  },
  {
    "link_thumb": "https://live.staticflickr.com/65535/50018834523_566031a60b_n.jpg",
    "id_album": "-462831703",
    "description": "Cat_873416",
    "title": "Cat_873416",
    "link_img": "https://live.staticflickr.com/65535/50018834523_f7037349cc_o.jpg",
    "id_image": "Cat_873416",
    "count_view": 0
  },
  {
    "link_thumb": "https://live.staticflickr.com/65535/50017006201_6db00c56f2_n.jpg",
    "id_album": "-422187261",
    "description": "Bear_191618",
    "title": "Bear_191618",
    "link_img": "https://live.staticflickr.com/65535/50017006201_a036a36eec_o.jpg",
    "id_image": "Bear_191618",
    "count_view": 0
  },
  {
    "link_thumb": "https://live.staticflickr.com/65535/50352398561_dd037fdd3e_n.jpg",
    "id_album": "-462831703",
    "description": "Cat_113902",
    "title": "Cat_113902",
    "link_img": "https://live.staticflickr.com/65535/50352398561_f50d5356d4_o.jpg",
    "id_image": "Cat_113902",
    "count_view": 0
  },
  {
    "link_thumb": "https://live.staticflickr.com/65535/50018254457_2686d6f404_n.jpg",
    "id_album": "-462831702",
    "description": "Cat_333262",
    "title": "Cat_333262",
    "link_img": "https://live.staticflickr.com/65535/50018254457_047b9554d9_o.jpg",
    "id_image": "Cat_333262",
    "count_view": 0
  },
  {
    "link_thumb": "https://live.staticflickr.com/65535/50021307858_b71f034575_n.jpg",
    "id_album": "-1882491687",
    "description": "Ladybug_422809",
    "title": "Ladybug_422809",
    "link_img": "https://live.staticflickr.com/65535/50021307858_7389502df1_o.jpg",
    "id_image": "Ladybug_422809",
    "count_view": 0
  },
  {
    "link_thumb": "https://live.staticflickr.com/65535/50019139531_4764344f9d_n.jpg",
    "id_album": "-462831702",
    "description": "Cat_411194",
    "title": "Cat_411194",
    "link_img": "https://live.staticflickr.com/65535/50019139531_a7cc586ff0_o.jpg",
    "id_image": "Cat_411194",
    "count_view": 0
  },
  {
    "link_thumb": "https://live.staticflickr.com/65535/50016446953_69dcf65dfe_n.jpg",
    "id_album": "231236068",
    "description": "BaldEagle_986997",
    "title": "BaldEagle_986997",
    "link_img": "https://live.staticflickr.com/65535/50016446953_76079f496f_o.jpg",
    "id_image": "BaldEagle_986997",
    "count_view": 0
  },
  {
    "link_thumb": "https://live.staticflickr.com/65535/50017273002_55dd24c75a_n.jpg",
    "id_album": "-422187261",
    "description": "Bear_242001",
    "title": "Bear_242001",
    "link_img": "https://live.staticflickr.com/65535/50017273002_3355f4ef66_o.jpg",
    "id_image": "Bear_242001",
    "count_view": 0
  },
  {
    "link_thumb": "https://live.staticflickr.com/65535/50021111408_8db42622dc_n.jpg",
    "id_album": "-737856092",
    "description": "Iguana_734818",
    "title": "Iguana_734818",
    "link_img": "https://live.staticflickr.com/65535/50021111408_bc2d41b114_o.jpg",
    "id_image": "Iguana_734818",
    "count_view": 0
  },
  {
    "link_thumb": "https://live.staticflickr.com/65535/50019789656_83b9c1a15e_n.jpg",
    "id_album": "-1462118852",
    "description": "Corgi_22714",
    "title": "Corgi_22714",
    "link_img": "https://live.staticflickr.com/65535/50019789656_eb7be8dd9c_o.jpg",
    "id_image": "Corgi_22714",
    "count_view": 0
  },
  {
    "link_thumb": "https://live.staticflickr.com/65535/50021626988_8fe5fd4684_n.jpg",
    "id_album": "1894617400",
    "description": "Lynx_925599",
    "title": "Lynx_925599",
    "link_img": "https://live.staticflickr.com/65535/50021626988_7db74822b7_o.jpg",
    "id_image": "Lynx_925599",
    "count_view": 0
  },
  {
    "link_thumb": "https://live.staticflickr.com/65535/50019453218_82feebba34_n.jpg",
    "id_album": "1903411565",
    "description": "Deer_264658",
    "title": "Deer_264658",
    "link_img": "https://live.staticflickr.com/65535/50019453218_1e9433d4c3_o.jpg",
    "id_image": "Deer_264658",
    "count_view": 0
  },
  {
    "link_thumb": "https://live.staticflickr.com/65535/50019639772_24e6b25e5b_n.jpg",
    "id_album": "-462831703",
    "description": "Cat_878537",
    "title": "Cat_878537",
    "link_img": "https://live.staticflickr.com/65535/50019639772_6689c4ea0f_o.jpg",
    "id_image": "Cat_878537",
    "count_view": 0
  },
  {
    "link_thumb": "https://live.staticflickr.com/65535/50022404223_c1661bff4b_n.jpg",
    "id_album": "-1431524681",
    "description": "Pug_379474",
    "title": "Pug_379474",
    "link_img": "https://live.staticflickr.com/65535/50022404223_d19c488318_o.jpg",
    "id_image": "Pug_379474",
    "count_view": 0
  },
  {
    "link_thumb": "https://live.staticflickr.com/65535/50016343533_c141c57a1a_n.jpg",
    "id_album": "523598895",
    "description": "Artistic_156643",
    "title": "Artistic_156643",
    "link_img": "https://live.staticflickr.com/65535/50016343533_f2259078a7_o.jpg",
    "id_image": "Artistic_156643",
    "count_view": 0
  },
  {
    "link_thumb": "https://live.staticflickr.com/65535/50016913556_987368a3cc_n.jpg",
    "id_album": "523598895",
    "description": "Artistic_671019",
    "title": "Artistic_671019",
    "link_img": "https://live.staticflickr.com/65535/50016913556_c84481758e_o.jpg",
    "id_image": "Artistic_671019",
    "count_view": 0
  },
  {
    "link_thumb": "https://live.staticflickr.com/65535/50020558157_0d37f44fe2_n.jpg",
    "id_album": "-149330232",
    "description": "Dog_351198",
    "title": "Dog_351198",
    "link_img": "https://live.staticflickr.com/65535/50020558157_51a579f3f8_o.jpg",
    "id_image": "Dog_351198",
    "count_view": 0
  },
  {
    "link_thumb": "https://live.staticflickr.com/65535/50017123062_801c0ebeaa_n.jpg",
    "id_album": "523598895",
    "description": "Artistic_113826",
    "title": "Artistic_113826",
    "link_img": "https://live.staticflickr.com/65535/50017123062_5b15e0d9aa_o.jpg",
    "id_image": "Artistic_113826",
    "count_view": 0
  },
  {
    "link_thumb": "https://live.staticflickr.com/65535/50023074301_0a4efef892_n.jpg",
    "id_album": "-353898617",
    "description": "Puppy_979730",
    "title": "Puppy_979730",
    "link_img": "https://live.staticflickr.com/65535/50023074301_1da09b57b1_o.jpg",
    "id_image": "Puppy_979730",
    "count_view": 0
  },
  {
    "link_thumb": "https://live.staticflickr.com/65535/50020162318_6e0b2ae375_n.jpg",
    "id_album": "-39098563",
    "description": "Eagle_354726",
    "title": "Eagle_354726",
    "link_img": "https://live.staticflickr.com/65535/50020162318_6dca30f32c_o.jpg",
    "id_image": "Eagle_354726",
    "count_view": 0
  },
  {
    "link_thumb": "https://live.staticflickr.com/65535/50352008358_22f41a4dfa_n.jpg",
    "id_album": "-462831702",
    "description": "Cat_84686",
    "title": "Cat_84686",
    "link_img": "https://live.staticflickr.com/65535/50352008358_232a6433ee_o.jpg",
    "id_image": "Cat_84686",
    "count_view": 0
  },
  {
    "link_thumb": "https://live.staticflickr.com/65535/50019314888_2c522ce500_n.jpg",
    "id_album": "-2144640780",
    "description": "Cow_425019",
    "title": "Cow_425019",
    "link_img": "https://live.staticflickr.com/65535/50019314888_ca7db2f15b_o.jpg",
    "id_image": "Cow_425019",
    "count_view": 0
  },
  {
    "link_thumb": "https://live.staticflickr.com/65535/50017347818_f84d7bf03d_n.jpg",
    "id_album": "-462831705",
    "description": "Cat_228715",
    "title": "Cat_228715",
    "link_img": "https://live.staticflickr.com/65535/50017347818_1398370dda_o.jpg",
    "id_image": "Cat_228715",
    "count_view": 0
  },
  {
    "link_thumb": "https://live.staticflickr.com/65535/50022612248_53e90ed1f3_n.jpg",
    "id_album": "248289288",
    "description": "Raccoon_588907",
    "title": "Raccoon_588907",
    "link_img": "https://live.staticflickr.com/65535/50022612248_aa95d8757d_o.jpg",
    "id_image": "Raccoon_588907",
    "count_view": 0
  },
  {
    "link_thumb": "https://live.staticflickr.com/65535/50018380367_5584ff6b3f_n.jpg",
    "id_album": "-462831702",
    "description": "Cat_387669",
    "title": "Cat_387669",
    "link_img": "https://live.staticflickr.com/65535/50018380367_6fd73ea248_o.jpg",
    "id_image": "Cat_387669",
    "count_view": 0
  },
  {
    "link_thumb": "https://live.staticflickr.com/65535/50019786947_9a8084c46e_n.jpg",
    "id_album": "-462831703",
    "description": "Cat_964139",
    "title": "Cat_964139",
    "link_img": "https://live.staticflickr.com/65535/50019786947_8ae4fae550_o.jpg",
    "id_image": "Cat_964139",
    "count_view": 0
  },
  {
    "link_thumb": "https://live.staticflickr.com/65535/50017207852_1422b4fc48_n.jpg",
    "id_album": "390697200",
    "description": "AustralianShepherd_912500",
    "title": "AustralianShepherd_912500",
    "link_img": "https://live.staticflickr.com/65535/50017207852_be653da3a3_o.jpg",
    "id_image": "AustralianShepherd_912500",
    "count_view": 0
  },
  {
    "link_thumb": "https://live.staticflickr.com/65535/50018959528_ca9ca3cf94_n.jpg",
    "id_album": "-462831703",
    "description": "Cat_935000",
    "title": "Cat_935000",
    "link_img": "https://live.staticflickr.com/65535/50018959528_fbaec0fe0b_o.jpg",
    "id_image": "Cat_935000",
    "count_view": 0
  },
  {
    "link_thumb": "https://live.staticflickr.com/65535/50017440928_73c40fe8cd_n.jpg",
    "id_album": "-462831702",
    "description": "Cat_323972",
    "title": "Cat_323972",
    "link_img": "https://live.staticflickr.com/65535/50017440928_8b46bd739b_o.jpg",
    "id_image": "Cat_323972",
    "count_view": 0
  },
  {
    "link_thumb": "https://live.staticflickr.com/65535/50016417918_9222419e82_n.jpg",
    "id_album": "390697200",
    "description": "AustralianShepherd_876922",
    "title": "AustralianShepherd_876922",
    "link_img": "https://live.staticflickr.com/65535/50016417918_bcfe6d9787_o.jpg",
    "id_image": "AustralianShepherd_876922",
    "count_view": 0
  },
  {
    "link_thumb": "https://live.staticflickr.com/65535/50021390906_5b88e91249_n.jpg",
    "id_album": "1950225324",
    "description": "Gorilla_348776",
    "title": "Gorilla_348776",
    "link_img": "https://live.staticflickr.com/65535/50021390906_43d152bf56_o.jpg",
    "id_image": "Gorilla_348776",
    "count_view": 0
  },
  {
    "link_thumb": "https://live.staticflickr.com/65535/50020535106_5f7b7d4fdc_n.jpg",
    "id_album": "-149330231",
    "description": "Dog_884998",
    "title": "Dog_884998",
    "link_img": "https://live.staticflickr.com/65535/50020535106_474cd8dfbd_o.jpg",
    "id_image": "Dog_884998",
    "count_view": 0
  },
  {
    "link_thumb": "https://live.staticflickr.com/65535/50021760571_b1c113222a_n.jpg",
    "id_album": "1562047127",
    "description": "Jellyfish_215946",
    "title": "Jellyfish_215946",
    "link_img": "https://live.staticflickr.com/65535/50021760571_e36c3891c3_o.jpg",
    "id_image": "Jellyfish_215946",
    "count_view": 0
  },
  {
    "link_thumb": "https://live.staticflickr.com/65535/50019561397_0f9c711547_n.jpg",
    "id_album": "-462831704",
    "description": "Cat_534109",
    "title": "Cat_534109",
    "link_img": "https://live.staticflickr.com/65535/50019561397_83c257134b_o.jpg",
    "id_image": "Cat_534109",
    "count_view": 0
  },
  {
    "link_thumb": "https://live.staticflickr.com/65535/50021429846_36271d36ce_n.jpg",
    "id_album": "1469520430",
    "description": "Hedgehog_369291",
    "title": "Hedgehog_369291",
    "link_img": "https://live.staticflickr.com/65535/50021429846_da0806e400_o.jpg",
    "id_image": "Hedgehog_369291",
    "count_view": 0
  },
  {
    "link_thumb": "https://live.staticflickr.com/65535/50024181771_586bb7f7e2_n.jpg",
    "id_album": "405170427",
    "description": "Tiger_590491",
    "title": "Tiger_590491",
    "link_img": "https://live.staticflickr.com/65535/50024181771_74b3535fd6_o.jpg",
    "id_image": "Tiger_590491",
    "count_view": 0
  },
  {
    "link_thumb": "https://live.staticflickr.com/65535/50023581627_f2518ee20b_n.jpg",
    "id_album": "1512228924",
    "description": "ScarletMacaw_419704",
    "title": "ScarletMacaw_419704",
    "link_img": "https://live.staticflickr.com/65535/50023581627_4931e30ec0_o.jpg",
    "id_image": "ScarletMacaw_419704",
    "count_view": 0
  },
  {
    "link_thumb": "https://live.staticflickr.com/65535/50021836741_b303c6b9c0_n.jpg",
    "id_album": "1307335982",
    "description": "LabradorRetriever_911913",
    "title": "LabradorRetriever_911913",
    "link_img": "https://live.staticflickr.com/65535/50021836741_6e3d669d7a_o.jpg",
    "id_image": "LabradorRetriever_911913",
    "count_view": 0
  },
  {
    "link_thumb": "https://live.staticflickr.com/65535/50352612012_42daa39c0d_n.jpg",
    "id_album": "-462831703",
    "description": "Cat_275315",
    "title": "Cat_275315",
    "link_img": "https://live.staticflickr.com/65535/50352612012_4c38d12b1a_o.jpg",
    "id_image": "Cat_275315",
    "count_view": 0
  },
  {
    "link_thumb": "https://live.staticflickr.com/65535/50022552972_977acf4b33_n.jpg",
    "id_album": "1957967135",
    "description": "Mouse_742013",
    "title": "Mouse_742013",
    "link_img": "https://live.staticflickr.com/65535/50022552972_7b3745ac45_o.jpg",
    "id_image": "Mouse_742013",
    "count_view": 0
  },
  {
    "link_thumb": "https://live.staticflickr.com/65535/50017670257_ee392b4944_n.jpg",
    "id_album": "-1846011410",
    "description": "Bird_709035",
    "title": "Bird_709035",
    "link_img": "https://live.staticflickr.com/65535/50017670257_557acea687_o.jpg",
    "id_image": "Bird_709035",
    "count_view": 0
  },
  {
    "link_thumb": "https://live.staticflickr.com/65535/50018842708_6264ed46bf_n.jpg",
    "id_album": "-462831703",
    "description": "Cat_876160",
    "title": "Cat_876160",
    "link_img": "https://live.staticflickr.com/65535/50018842708_c6c67aed6d_o.jpg",
    "id_image": "Cat_876160",
    "count_view": 0
  },
  {
    "link_thumb": "https://live.staticflickr.com/65535/50019944837_f558d1d0b2_n.jpg",
    "id_album": "-1481843714",
    "description": "Cheetah_295038",
    "title": "Cheetah_295038",
    "link_img": "https://live.staticflickr.com/65535/50019944837_ea5332a26c_o.jpg",
    "id_image": "Cheetah_295038",
    "count_view": 0
  },
  {
    "link_thumb": "https://live.staticflickr.com/65535/50021542132_5d6398890b_n.jpg",
    "id_album": "-405626519",
    "description": "GermanShepherd_408028",
    "title": "GermanShepherd_408028",
    "link_img": "https://live.staticflickr.com/65535/50021542132_995c656f58_o.jpg",
    "id_image": "GermanShepherd_408028",
    "count_view": 0
  },
  {
    "link_thumb": "https://live.staticflickr.com/65535/50019292423_0b983f7695_n.jpg",
    "id_album": "-1868680171",
    "description": "Cougar_555301",
    "title": "Cougar_555301",
    "link_img": "https://live.staticflickr.com/65535/50019292423_d94a144207_o.jpg",
    "id_image": "Cougar_555301",
    "count_view": 0
  },
  {
    "link_thumb": "https://live.staticflickr.com/65535/50020682593_586ec3626c_n.jpg",
    "id_album": "-462831703",
    "description": "Cat_744571",
    "title": "Cat_744571",
    "link_img": "https://live.staticflickr.com/65535/50020682593_9385da5b7d_o.jpg",
    "id_image": "Cat_744571",
    "count_view": 0
  },
  {
    "link_thumb": "https://live.staticflickr.com/65535/50023530098_df116d4797_n.jpg",
    "id_album": "405170427",
    "description": "Tiger_351444",
    "title": "Tiger_351444",
    "link_img": "https://live.staticflickr.com/65535/50023530098_76c03b4414_o.jpg",
    "id_image": "Tiger_351444",
    "count_view": 0
  },
  {
    "link_thumb": "https://live.staticflickr.com/65535/50017391077_f532287f90_n.jpg",
    "id_album": "1699594607",
    "description": "Bee_364923",
    "title": "Bee_364923",
    "link_img": "https://live.staticflickr.com/65535/50017391077_dc6a619851_o.jpg",
    "id_image": "Bee_364923",
    "count_view": 0
  },
  {
    "link_thumb": "https://live.staticflickr.com/65535/50023166417_93240021d3_n.jpg",
    "id_album": "-356780855",
    "description": "Puffin_272223",
    "title": "Puffin_272223",
    "link_img": "https://live.staticflickr.com/65535/50023166417_ee10f58cc6_o.jpg",
    "id_image": "Puffin_272223",
    "count_view": 0
  },
  {
    "link_thumb": "https://live.staticflickr.com/65535/50017965921_ce631e0729_n.jpg",
    "id_album": "-462831702",
    "description": "Cat_323669",
    "title": "Cat_323669",
    "link_img": "https://live.staticflickr.com/65535/50017965921_e819676b0e_o.jpg",
    "id_image": "Cat_323669",
    "count_view": 0
  },
  {
    "link_thumb": "https://live.staticflickr.com/65535/50020751793_7eedf3f4bc_n.jpg",
    "id_album": "-405626519",
    "description": "GermanShepherd_653469",
    "title": "GermanShepherd_653469",
    "link_img": "https://live.staticflickr.com/65535/50020751793_2247dbc117_o.jpg",
    "id_image": "GermanShepherd_653469",
    "count_view": 0
  },
  {
    "link_thumb": "https://live.staticflickr.com/65535/50024284972_ced5d5c1e1_n.jpg",
    "id_album": "405170427",
    "description": "Tiger_117350",
    "title": "Tiger_117350",
    "link_img": "https://live.staticflickr.com/65535/50024284972_eb658cf858_o.jpg",
    "id_image": "Tiger_117350",
    "count_view": 0
  },
  {
    "link_thumb": "https://live.staticflickr.com/65535/50016333028_3c881f4d01_n.jpg",
    "id_album": "523598895",
    "description": "Artistic_113072",
    "title": "Artistic_113072",
    "link_img": "https://live.staticflickr.com/65535/50016333028_aa10c57da1_o.jpg",
    "id_image": "Artistic_113072",
    "count_view": 0
  },
  {
    "link_thumb": "https://live.staticflickr.com/65535/50020115436_bee82b60d8_n.jpg",
    "id_album": "-149330232",
    "description": "Dog_109858",
    "title": "Dog_109858",
    "link_img": "https://live.staticflickr.com/65535/50020115436_f028c24f9e_o.jpg",
    "id_image": "Dog_109858",
    "count_view": 0
  },
  {
    "link_thumb": "https://live.staticflickr.com/65535/50017776516_940a0f94a6_n.jpg",
    "id_album": "-462831705",
    "description": "Cat_121409",
    "title": "Cat_121409",
    "link_img": "https://live.staticflickr.com/65535/50017776516_a8359aeb24_o.jpg",
    "id_image": "Cat_121409",
    "count_view": 0
  },
  {
    "link_thumb": "https://live.staticflickr.com/65535/50351955218_24fa4a82cb_n.jpg",
    "id_album": "-462831703",
    "description": "Cat_698282",
    "title": "Cat_698282",
    "link_img": "https://live.staticflickr.com/65535/50351955218_a06b7d476e_o.jpg",
    "id_image": "Cat_698282",
    "count_view": 0
  },
  {
    "link_thumb": "https://live.staticflickr.com/65535/50020424017_14be7e5a80_n.jpg",
    "id_album": "-149330232",
    "description": "Dog_232989",
    "title": "Dog_232989",
    "link_img": "https://live.staticflickr.com/65535/50020424017_cb0da19d40_o.jpg",
    "id_image": "Dog_232989",
    "count_view": 0
  },
  {
    "link_thumb": "https://live.staticflickr.com/65535/50351877898_e902446fc8_n.jpg",
    "id_album": "-462831703",
    "description": "Cat_505463",
    "title": "Cat_505463",
    "link_img": "https://live.staticflickr.com/65535/50351877898_acd79a2a4e_o.jpg",
    "id_image": "Cat_505463",
    "count_view": 0
  },
  {
    "link_thumb": "https://live.staticflickr.com/65535/50023276532_a8c89bb3b0_n.jpg",
    "id_album": "-353898617",
    "description": "Puppy_549945",
    "title": "Puppy_549945",
    "link_img": "https://live.staticflickr.com/65535/50023276532_eaaeb5c3e2_o.jpg",
    "id_image": "Puppy_549945",
    "count_view": 0
  },
  {
    "link_thumb": "https://live.staticflickr.com/65535/50018276387_cace12ebfc_n.jpg",
    "id_album": "-462831702",
    "description": "Cat_343072",
    "title": "Cat_343072",
    "link_img": "https://live.staticflickr.com/65535/50018276387_ea1cebd1a9_o.jpg",
    "id_image": "Cat_343072",
    "count_view": 0
  },
  {
    "link_thumb": "https://live.staticflickr.com/65535/50024289086_21255b683e_n.jpg",
    "id_album": "-1103743486",
    "description": "Toucan_955102",
    "title": "Toucan_955102",
    "link_img": "https://live.staticflickr.com/65535/50024289086_bde6aaf1a3_o.jpg",
    "id_image": "Toucan_955102",
    "count_view": 0
  },
  {
    "link_thumb": "https://live.staticflickr.com/65535/50017481158_b37cf89ed0_n.jpg",
    "id_album": "-462831702",
    "description": "Cat_339359",
    "title": "Cat_339359",
    "link_img": "https://live.staticflickr.com/65535/50017481158_50b372dc87_o.jpg",
    "id_image": "Cat_339359",
    "count_view": 0
  },
  {
    "link_thumb": "https://live.staticflickr.com/65535/50022448502_d65cdbd7a3_n.jpg",
    "id_album": "-1720012921",
    "description": "Meerkat_726656",
    "title": "Meerkat_726656",
    "link_img": "https://live.staticflickr.com/65535/50022448502_80a477869e_o.jpg",
    "id_image": "Meerkat_726656",
    "count_view": 0
  },
  {
    "link_thumb": "https://live.staticflickr.com/65535/50022680458_b267475614_n.jpg",
    "id_album": "332874268",
    "description": "RedPanda_681941",
    "title": "RedPanda_681941",
    "link_img": "https://live.staticflickr.com/65535/50022680458_290f1942e8_o.jpg",
    "id_image": "RedPanda_681941",
    "count_view": 0
  },
  {
    "link_thumb": "https://live.staticflickr.com/65535/50022301337_3cf682d006_n.jpg",
    "id_album": "416744915",
    "description": "Lion_687576",
    "title": "Lion_687576",
    "link_img": "https://live.staticflickr.com/65535/50022301337_c4ca021806_o.jpg",
    "id_image": "Lion_687576",
    "count_view": 0
  },
  {
    "link_thumb": "https://live.staticflickr.com/65535/50021656042_339eb28d78_n.jpg",
    "id_album": "-1168906494",
    "description": "Grasshopper_587682",
    "title": "Grasshopper_587682",
    "link_img": "https://live.staticflickr.com/65535/50021656042_a7797b075e_o.jpg",
    "id_image": "Grasshopper_587682",
    "count_view": 0
  },
  {
    "link_thumb": "https://live.staticflickr.com/65535/50020863773_24511a5be7_n.jpg",
    "id_album": "-1168906494",
    "description": "Grasshopper_976322",
    "title": "Grasshopper_976322",
    "link_img": "https://live.staticflickr.com/65535/50020863773_e7b2e3ecf9_o.jpg",
    "id_image": "Grasshopper_976322",
    "count_view": 0
  },
  {
    "link_thumb": "https://live.staticflickr.com/65535/50019989968_c776223293_n.jpg",
    "id_album": "-149330231",
    "description": "Dog_848280",
    "title": "Dog_848280",
    "link_img": "https://live.staticflickr.com/65535/50019989968_3b24f9633e_o.jpg",
    "id_image": "Dog_848280",
    "count_view": 0
  },
  {
    "link_thumb": "https://live.staticflickr.com/65535/50021588218_de651ab73c_n.jpg",
    "id_album": "1894617400",
    "description": "Lynx_277056",
    "title": "Lynx_277056",
    "link_img": "https://live.staticflickr.com/65535/50021588218_42bddc447e_o.jpg",
    "id_image": "Lynx_277056",
    "count_view": 0
  },
  {
    "link_thumb": "https://live.staticflickr.com/65535/50017426043_646592b120_n.jpg",
    "id_album": "-462831702",
    "description": "Cat_310024",
    "title": "Cat_310024",
    "link_img": "https://live.staticflickr.com/65535/50017426043_caed2e1190_o.jpg",
    "id_image": "Cat_310024",
    "count_view": 0
  },
  {
    "link_thumb": "https://live.staticflickr.com/65535/50018274747_f3a714de1d_n.jpg",
    "id_album": "-462831702",
    "description": "Cat_342717",
    "title": "Cat_342717",
    "link_img": "https://live.staticflickr.com/65535/50018274747_10bc8e5376_o.jpg",
    "id_image": "Cat_342717",
    "count_view": 0
  },
  {
    "link_thumb": "https://live.staticflickr.com/65535/50023802326_960848cd68_n.jpg",
    "id_album": "-1082521515",
    "description": "Spider_919126",
    "title": "Spider_919126",
    "link_img": "https://live.staticflickr.com/65535/50023802326_d2e8909e95_o.jpg",
    "id_image": "Spider_919126",
    "count_view": 0
  },
  {
    "link_thumb": "https://live.staticflickr.com/65535/50017742356_d095f26958_n.jpg",
    "id_album": "-462831703",
    "description": "Cat_1002236",
    "title": "Cat_1002236",
    "link_img": "https://live.staticflickr.com/65535/50017742356_81e635c4a4_o.jpg",
    "id_image": "Cat_1002236",
    "count_view": 0
  },
  {
    "link_thumb": "https://live.staticflickr.com/65535/50019352823_653cf009d5_n.jpg",
    "id_album": "815329026",
    "description": "Crab_796905",
    "title": "Crab_796905",
    "link_img": "https://live.staticflickr.com/65535/50019352823_4d3a1ef7c4_o.jpg",
    "id_image": "Crab_796905",
    "count_view": 0
  },
  {
    "link_thumb": "https://live.staticflickr.com/65535/50352690006_2280b5461b_n.jpg",
    "id_album": "-462831702",
    "description": "Cat_144567",
    "title": "Cat_144567",
    "link_img": "https://live.staticflickr.com/65535/50352690006_5321b8059e_o.jpg",
    "id_image": "Cat_144567",
    "count_view": 0
  },
  {
    "link_thumb": "https://live.staticflickr.com/65535/50019773742_fdf9c945ef_n.jpg",
    "id_album": "-462831703",
    "description": "Cat_955356",
    "title": "Cat_955356",
    "link_img": "https://live.staticflickr.com/65535/50019773742_b7b840329d_o.jpg",
    "id_image": "Cat_955356",
    "count_view": 0
  },
  {
    "link_thumb": "https://live.staticflickr.com/65535/50017380578_279210888d_n.jpg",
    "id_album": "-462831705",
    "description": "Cat_254853",
    "title": "Cat_254853",
    "link_img": "https://live.staticflickr.com/65535/50017380578_e9d9fdc325_o.jpg",
    "id_image": "Cat_254853",
    "count_view": 0
  },
  {
    "link_thumb": "https://live.staticflickr.com/65535/50018281192_2dc054f95f_n.jpg",
    "id_album": "-462831702",
    "description": "Cat_345549",
    "title": "Cat_345549",
    "link_img": "https://live.staticflickr.com/65535/50018281192_bd11e31c7c_o.jpg",
    "id_image": "Cat_345549",
    "count_view": 0
  },
  {
    "link_thumb": "https://live.staticflickr.com/65535/50021383308_ab88ef1f7d_n.jpg",
    "id_album": "1392348450",
    "description": "Leopard_427798",
    "title": "Leopard_427798",
    "link_img": "https://live.staticflickr.com/65535/50021383308_be7d1011e0_o.jpg",
    "id_image": "Leopard_427798",
    "count_view": 0
  },
  {
    "link_thumb": "https://live.staticflickr.com/65535/50019511191_aa60cdb744_n.jpg",
    "id_album": "-462831703",
    "description": "Cat_948483",
    "title": "Cat_948483",
    "link_img": "https://live.staticflickr.com/65535/50019511191_35eedeb53a_o.jpg",
    "id_image": "Cat_948483",
    "count_view": 0
  },
  {
    "link_thumb": "https://live.staticflickr.com/65535/50017918257_2fbe7592b9_n.jpg",
    "id_album": "-401151552",
    "description": "Butterfly_731659",
    "title": "Butterfly_731659",
    "link_img": "https://live.staticflickr.com/65535/50017918257_f49f75984b_o.jpg",
    "id_image": "Butterfly_731659",
    "count_view": 0
  },
  {
    "link_thumb": "https://live.staticflickr.com/65535/50021175403_387aa774eb_n.jpg",
    "id_album": "-843028318",
    "description": "Jaguar_276672",
    "title": "Jaguar_276672",
    "link_img": "https://live.staticflickr.com/65535/50021175403_0dec34a82a_o.jpg",
    "id_image": "Jaguar_276672",
    "count_view": 0
  },
  {
    "link_thumb": "https://live.staticflickr.com/65535/50022517617_89eccb1898_n.jpg",
    "id_album": "-784970094",
    "description": "Monkey_688162",
    "title": "Monkey_688162",
    "link_img": "https://live.staticflickr.com/65535/50022517617_e66f3abdbc_o.jpg",
    "id_image": "Monkey_688162",
    "count_view": 0
  },
  {
    "link_thumb": "https://live.staticflickr.com/65535/50017767736_bd1ee77462_n.jpg",
    "id_album": "-462831705",
    "description": "Cat_117126",
    "title": "Cat_117126",
    "link_img": "https://live.staticflickr.com/65535/50017767736_04e65b6a1c_o.jpg",
    "id_image": "Cat_117126",
    "count_view": 0
  },
  {
    "link_thumb": "https://live.staticflickr.com/65535/50022137741_ee2bbec3c9_n.jpg",
    "id_album": "1894617400",
    "description": "Lynx_364318",
    "title": "Lynx_364318",
    "link_img": "https://live.staticflickr.com/65535/50022137741_7988540bd0_o.jpg",
    "id_image": "Lynx_364318",
    "count_view": 0
  },
  {
    "link_thumb": "https://live.staticflickr.com/65535/50017475613_e6597999b0_n.jpg",
    "id_album": "-462831702",
    "description": "Cat_336575",
    "title": "Cat_336575",
    "link_img": "https://live.staticflickr.com/65535/50017475613_63f3a08c79_o.jpg",
    "id_image": "Cat_336575",
    "count_view": 0
  },
  {
    "link_thumb": "https://live.staticflickr.com/65535/50021912932_f41e5e69fb_n.jpg",
    "id_album": "1658866795",
    "description": "Insect_211115",
    "title": "Insect_211115",
    "link_img": "https://live.staticflickr.com/65535/50021912932_e3d8a42cce_o.jpg",
    "id_image": "Insect_211115",
    "count_view": 0
  },
  {
    "link_thumb": "https://live.staticflickr.com/65535/50016424583_4bbb77f3b2_n.jpg",
    "id_album": "390697200",
    "description": "AustralianShepherd_997672",
    "title": "AustralianShepherd_997672",
    "link_img": "https://live.staticflickr.com/65535/50016424583_d5b2334e2e_o.jpg",
    "id_image": "AustralianShepherd_997672",
    "count_view": 0
  },
  {
    "link_thumb": "https://live.staticflickr.com/65535/50019198913_ae477dffd9_n.jpg",
    "id_album": "-1481843714",
    "description": "Cheetah_770839",
    "title": "Cheetah_770839",
    "link_img": "https://live.staticflickr.com/65535/50019198913_2cb56e764c_o.jpg",
    "id_image": "Cheetah_770839",
    "count_view": 0
  },
  {
    "link_thumb": "https://live.staticflickr.com/65535/50021920226_c66b8391ab_n.jpg",
    "id_album": "1392348450",
    "description": "Leopard_406303",
    "title": "Leopard_406303",
    "link_img": "https://live.staticflickr.com/65535/50021920226_7307e4a737_o.jpg",
    "id_image": "Leopard_406303",
    "count_view": 0
  },
  {
    "link_thumb": "https://live.staticflickr.com/65535/50018712208_f01b59dc88_n.jpg",
    "id_album": "-462831704",
    "description": "Cat_469868",
    "title": "Cat_469868",
    "link_img": "https://live.staticflickr.com/65535/50018712208_2aae5a3fd5_o.jpg",
    "id_image": "Cat_469868",
    "count_view": 0
  },
  {
    "link_thumb": "https://live.staticflickr.com/65535/50021419158_d5fb1dd1da_n.jpg",
    "id_album": "1392348450",
    "description": "Leopard_941337",
    "title": "Leopard_941337",
    "link_img": "https://live.staticflickr.com/65535/50021419158_a42183f63c_o.jpg",
    "id_image": "Leopard_941337",
    "count_view": 0
  },
  {
    "link_thumb": "https://live.staticflickr.com/65535/50019301043_2149971955_n.jpg",
    "id_album": "-1868680171",
    "description": "Cougar_884543",
    "title": "Cougar_884543",
    "link_img": "https://live.staticflickr.com/65535/50019301043_b9fd73b8ea_o.jpg",
    "id_image": "Cougar_884543",
    "count_view": 0
  },
  {
    "link_thumb": "https://live.staticflickr.com/65535/50018704743_ecc7f04c23_n.jpg",
    "id_album": "-462831704",
    "description": "Cat_462828",
    "title": "Cat_462828",
    "link_img": "https://live.staticflickr.com/65535/50018704743_0601384075_o.jpg",
    "id_image": "Cat_462828",
    "count_view": 0
  },
  {
    "link_thumb": "https://live.staticflickr.com/65535/50020936856_106195a5d2_n.jpg",
    "id_album": "-128218148",
    "description": "Fox_208643",
    "title": "Fox_208643",
    "link_img": "https://live.staticflickr.com/65535/50020936856_45ef46bc46_o.jpg",
    "id_image": "Fox_208643",
    "count_view": 0
  },
  {
    "link_thumb": "https://live.staticflickr.com/65535/50020905631_7d39f8e44c_n.jpg",
    "id_album": "-1758557371",
    "description": "Flamingo_564714",
    "title": "Flamingo_564714",
    "link_img": "https://live.staticflickr.com/65535/50020905631_8c7a6bd91f_o.jpg",
    "id_image": "Flamingo_564714",
    "count_view": 0
  },
  {
    "link_thumb": "https://live.staticflickr.com/65535/50021357758_2976355b4c_n.jpg",
    "id_album": "1392348450",
    "description": "Leopard_342058",
    "title": "Leopard_342058",
    "link_img": "https://live.staticflickr.com/65535/50021357758_93566a4823_o.jpg",
    "id_image": "Leopard_342058",
    "count_view": 0
  },
  {
    "link_thumb": "https://live.staticflickr.com/65535/50022821098_709ce3a8f1_n.jpg",
    "id_album": "1656131695",
    "description": "Seagull_430727",
    "title": "Seagull_430727",
    "link_img": "https://live.staticflickr.com/65535/50022821098_1c1d006998_o.jpg",
    "id_image": "Seagull_430727",
    "count_view": 0
  },
  {
    "link_thumb": "https://live.staticflickr.com/65535/50022402156_9b7a492ed1_n.jpg",
    "id_album": "-1384601601",
    "description": "Owl_368514",
    "title": "Owl_368514",
    "link_img": "https://live.staticflickr.com/65535/50022402156_ab6c94d678_o.jpg",
    "id_image": "Owl_368514",
    "count_view": 0
  },
  {
    "link_thumb": "https://live.staticflickr.com/65535/50016325468_8f4272561b_n.jpg",
    "id_album": "-834314226",
    "description": "ArcticFox_927994",
    "title": "ArcticFox_927994",
    "link_img": "https://live.staticflickr.com/65535/50016325468_cff22c95a5_o.jpg",
    "id_image": "ArcticFox_927994",
    "count_view": 0
  },
  {
    "link_thumb": "https://live.staticflickr.com/65535/50020223342_4b79aaf5db_n.jpg",
    "id_album": "-1783645069",
    "description": "Dalmatian_363114",
    "title": "Dalmatian_363114",
    "link_img": "https://live.staticflickr.com/65535/50020223342_be30702dcb_o.jpg",
    "id_image": "Dalmatian_363114",
    "count_view": 0
  },
  {
    "link_thumb": "https://live.staticflickr.com/65535/50019288616_b42bcf64e1_n.jpg",
    "id_album": "-462831704",
    "description": "Cat_525633",
    "title": "Cat_525633",
    "link_img": "https://live.staticflickr.com/65535/50019288616_74d0eaa0b2_o.jpg",
    "id_image": "Cat_525633",
    "count_view": 0
  },
  {
    "link_thumb": "https://live.staticflickr.com/65535/50021228036_e4b09f6a4d_n.jpg",
    "id_album": "-462831703",
    "description": "Cat_749004",
    "title": "Cat_749004",
    "link_img": "https://live.staticflickr.com/65535/50021228036_3265753845_o.jpg",
    "id_image": "Cat_749004",
    "count_view": 0
  },
  {
    "link_thumb": "https://live.staticflickr.com/65535/50023574057_8d7189be8e_n.jpg",
    "id_album": "1926701726",
    "description": "Robin_744037",
    "title": "Robin_744037",
    "link_img": "https://live.staticflickr.com/65535/50023574057_fb03820d8f_o.jpg",
    "id_image": "Robin_744037",
    "count_view": 0
  },
  {
    "link_thumb": "https://live.staticflickr.com/65535/50021641726_5716093aba_n.jpg",
    "id_album": "-712553376",
    "description": "Husky_863638",
    "title": "Husky_863638",
    "link_img": "https://live.staticflickr.com/65535/50021641726_93359eb871_o.jpg",
    "id_image": "Husky_863638",
    "count_view": 0
  },
  {
    "link_thumb": "https://live.staticflickr.com/65535/50019672642_2e0b1d4f50_n.jpg",
    "id_album": "-462831703",
    "description": "Cat_900689",
    "title": "Cat_900689",
    "link_img": "https://live.staticflickr.com/65535/50019672642_e304330097_o.jpg",
    "id_image": "Cat_900689",
    "count_view": 0
  },
  {
    "link_thumb": "https://live.staticflickr.com/65535/50017215662_0ff9a05a81_n.jpg",
    "id_album": "231236068",
    "description": "BaldEagle_366951",
    "title": "BaldEagle_366951",
    "link_img": "https://live.staticflickr.com/65535/50017215662_7401d97938_o.jpg",
    "id_image": "BaldEagle_366951",
    "count_view": 0
  },
  {
    "link_thumb": "https://live.staticflickr.com/65535/50022167081_2ef667f59a_n.jpg",
    "id_album": "1894617400",
    "description": "Lynx_915712",
    "title": "Lynx_915712",
    "link_img": "https://live.staticflickr.com/65535/50022167081_26f37603ff_o.jpg",
    "id_image": "Lynx_915712",
    "count_view": 0
  },
  {
    "link_thumb": "https://live.staticflickr.com/65535/50017299077_da1daba944_n.jpg",
    "id_album": "-422187261",
    "description": "Bear_384401",
    "title": "Bear_384401",
    "link_img": "https://live.staticflickr.com/65535/50017299077_60da2cc0ec_o.jpg",
    "id_image": "Bear_384401",
    "count_view": 0
  },
  {
    "link_thumb": "https://live.staticflickr.com/65535/50017078956_78aac14351_n.jpg",
    "id_album": "-422187261",
    "description": "Bear_777941",
    "title": "Bear_777941",
    "link_img": "https://live.staticflickr.com/65535/50017078956_7fc91a808f_o.jpg",
    "id_image": "Bear_777941",
    "count_view": 0
  },
  {
    "link_thumb": "https://live.staticflickr.com/65535/50016568068_3777fab94b_n.jpg",
    "id_album": "-422187261",
    "description": "Bear_873513",
    "title": "Bear_873513",
    "link_img": "https://live.staticflickr.com/65535/50016568068_0298108ecd_o.jpg",
    "id_image": "Bear_873513",
    "count_view": 0
  },
  {
    "link_thumb": "https://live.staticflickr.com/65535/50023455932_b1432ecec0_n.jpg",
    "id_album": "-1862965835",
    "description": "RedEyedTreeFrog_939989",
    "title": "RedEyedTreeFrog_939989",
    "link_img": "https://live.staticflickr.com/65535/50023455932_a45318f41b_o.jpg",
    "id_image": "RedEyedTreeFrog_939989",
    "count_view": 0
  },
  {
    "link_thumb": "https://live.staticflickr.com/65535/50021357148_714bcecf62_n.jpg",
    "id_album": "1392348450",
    "description": "Leopard_339904",
    "title": "Leopard_339904",
    "link_img": "https://live.staticflickr.com/65535/50021357148_bfa171eb61_o.jpg",
    "id_image": "Leopard_339904",
    "count_view": 0
  },
  {
    "link_thumb": "https://live.staticflickr.com/65535/50017114593_9a1612f0bf_n.jpg",
    "id_album": "-401151552",
    "description": "Butterfly_680665",
    "title": "Butterfly_680665",
    "link_img": "https://live.staticflickr.com/65535/50017114593_d019845b3f_o.jpg",
    "id_image": "Butterfly_680665",
    "count_view": 0
  },
  {
    "link_thumb": "https://live.staticflickr.com/65535/50017571051_d7a0bcabc1_n.jpg",
    "id_album": "-401151552",
    "description": "Butterfly_366100",
    "title": "Butterfly_366100",
    "link_img": "https://live.staticflickr.com/65535/50017571051_8182bb4b10_o.jpg",
    "id_image": "Butterfly_366100",
    "count_view": 0
  },
  {
    "link_thumb": "https://live.staticflickr.com/65535/50021080196_3a289bc2d9_n.jpg",
    "id_album": "844170697",
    "description": "Frog_858400",
    "title": "Frog_858400",
    "link_img": "https://live.staticflickr.com/65535/50021080196_5f5a496020_o.jpg",
    "id_image": "Frog_858400",
    "count_view": 0
  },
  {
    "link_thumb": "https://live.staticflickr.com/65535/50016946331_ac05b3653b_n.jpg",
    "id_album": "390697200",
    "description": "AustralianShepherd_911909",
    "title": "AustralianShepherd_911909",
    "link_img": "https://live.staticflickr.com/65535/50016946331_54038c8b82_o.jpg",
    "id_image": "AustralianShepherd_911909",
    "count_view": 0
  },
  {
    "link_thumb": "https://live.staticflickr.com/65535/50020178521_1308fe360d_n.jpg",
    "id_album": "-149330232",
    "description": "Dog_247577",
    "title": "Dog_247577",
    "link_img": "https://live.staticflickr.com/65535/50020178521_e2d32f71b9_o.jpg",
    "id_image": "Dog_247577",
    "count_view": 0
  },
  {
    "link_thumb": "https://live.staticflickr.com/65535/50023882316_f3421f09c2_n.jpg",
    "id_album": "702283289",
    "description": "Squirrel_433280",
    "title": "Squirrel_433280",
    "link_img": "https://live.staticflickr.com/65535/50023882316_4d420a6a0f_o.jpg",
    "id_image": "Squirrel_433280",
    "count_view": 0
  },
  {
    "link_thumb": "https://live.staticflickr.com/65535/50017400528_17ef73d2c4_n.jpg",
    "id_album": "-462831705",
    "description": "Cat_275303",
    "title": "Cat_275303",
    "link_img": "https://live.staticflickr.com/65535/50017400528_3aa7ea77f2_o.jpg",
    "id_image": "Cat_275303",
    "count_view": 0
  },
  {
    "link_thumb": "https://live.staticflickr.com/65535/50018020801_44c6fbaba0_n.jpg",
    "id_album": "-462831702",
    "description": "Cat_344951",
    "title": "Cat_344951",
    "link_img": "https://live.staticflickr.com/65535/50018020801_4805351b09_o.jpg",
    "id_image": "Cat_344951",
    "count_view": 0
  },
  {
    "link_thumb": "https://live.staticflickr.com/65535/50020574117_a96505fdf2_n.jpg",
    "id_album": "-149330232",
    "description": "Dog_359394",
    "title": "Dog_359394",
    "link_img": "https://live.staticflickr.com/65535/50020574117_6a89bdf690_o.jpg",
    "id_image": "Dog_359394",
    "count_view": 0
  },
  {
    "link_thumb": "https://live.staticflickr.com/65535/50017120731_e49f8d4fc3_n.jpg",
    "id_album": "1699594607",
    "description": "Bee_249758",
    "title": "Bee_249758",
    "link_img": "https://live.staticflickr.com/65535/50017120731_3bbabc18f2_o.jpg",
    "id_image": "Bee_249758",
    "count_view": 0
  },
  {
    "link_thumb": "https://live.staticflickr.com/65535/50016959696_6998c05ac0_n.jpg",
    "id_album": "231236068",
    "description": "BaldEagle_504664",
    "title": "BaldEagle_504664",
    "link_img": "https://live.staticflickr.com/65535/50016959696_871dcfe1f3_o.jpg",
    "id_image": "BaldEagle_504664",
    "count_view": 0
  },
  {
    "link_thumb": "https://live.staticflickr.com/65535/50016706903_9e9345ec82_n.jpg",
    "id_album": "-1846011410",
    "description": "Bird_301712",
    "title": "Bird_301712",
    "link_img": "https://live.staticflickr.com/65535/50016706903_7d68e16354_o.jpg",
    "id_image": "Bird_301712",
    "count_view": 0
  },
  {
    "link_thumb": "https://live.staticflickr.com/65535/50020489662_a665751790_n.jpg",
    "id_album": "-149330232",
    "description": "Dog_305835",
    "title": "Dog_305835",
    "link_img": "https://live.staticflickr.com/65535/50020489662_c165c29ca7_o.jpg",
    "id_image": "Dog_305835",
    "count_view": 0
  },
  {
    "link_thumb": "https://live.staticflickr.com/65535/50022166216_fde3e9b8e0_n.jpg",
    "id_album": "1894617400",
    "description": "Lynx_902175",
    "title": "Lynx_902175",
    "link_img": "https://live.staticflickr.com/65535/50022166216_08f9644597_o.jpg",
    "id_image": "Lynx_902175",
    "count_view": 0
  },
  {
    "link_thumb": "https://live.staticflickr.com/65535/50019476241_d0090a2441_n.jpg",
    "id_album": "-462831703",
    "description": "Cat_924608",
    "title": "Cat_924608",
    "link_img": "https://live.staticflickr.com/65535/50019476241_d171838fb5_o.jpg",
    "id_image": "Cat_924608",
    "count_view": 0
  },
  {
    "link_thumb": "https://live.staticflickr.com/65535/50023491128_03e510981d_n.jpg",
    "id_album": "405170427",
    "description": "Tiger_216445",
    "title": "Tiger_216445",
    "link_img": "https://live.staticflickr.com/65535/50023491128_fb253f2ac7_o.jpg",
    "id_image": "Tiger_216445",
    "count_view": 0
  },
  {
    "link_thumb": "https://live.staticflickr.com/65535/50017377661_9a4ee5c664_n.jpg",
    "id_album": "-1846011410",
    "description": "Bird_589152",
    "title": "Bird_589152",
    "link_img": "https://live.staticflickr.com/65535/50017377661_db9dd83f15_o.jpg",
    "id_image": "Bird_589152",
    "count_view": 0
  },
  {
    "link_thumb": "https://live.staticflickr.com/65535/50021440786_f1dda43323_n.jpg",
    "id_album": "1469520430",
    "description": "Hedgehog_985945",
    "title": "Hedgehog_985945",
    "link_img": "https://live.staticflickr.com/65535/50021440786_e186d539e0_o.jpg",
    "id_image": "Hedgehog_985945",
    "count_view": 0
  },
  {
    "link_thumb": "https://live.staticflickr.com/65535/50017166686_bd4807f3dd_n.jpg",
    "id_album": "1699594607",
    "description": "Bee_926235",
    "title": "Bee_926235",
    "link_img": "https://live.staticflickr.com/65535/50017166686_83a9848710_o.jpg",
    "id_image": "Bee_926235",
    "count_view": 0
  },
  {
    "link_thumb": "https://live.staticflickr.com/65535/50017969112_a2bcc3c8b8_n.jpg",
    "id_album": "-401151552",
    "description": "Butterfly_926944",
    "title": "Butterfly_926944",
    "link_img": "https://live.staticflickr.com/65535/50017969112_f15914d56f_o.jpg",
    "id_image": "Butterfly_926944",
    "count_view": 0
  },
  {
    "link_thumb": "https://live.staticflickr.com/65535/50020917478_0c5a159528_n.jpg",
    "id_album": "-1933715543",
    "description": "Horse_104626",
    "title": "Horse_104626",
    "link_img": "https://live.staticflickr.com/65535/50020917478_a351a0e8b8_o.jpg",
    "id_image": "Horse_104626",
    "count_view": 0
  },
  {
    "link_thumb": "https://live.staticflickr.com/65535/50018202297_e7e09a0d27_n.jpg",
    "id_album": "-462831702",
    "description": "Cat_291173",
    "title": "Cat_291173",
    "link_img": "https://live.staticflickr.com/65535/50018202297_5b8b6eb65f_o.jpg",
    "id_image": "Cat_291173",
    "count_view": 0
  },
  {
    "link_thumb": "https://live.staticflickr.com/65535/50017178206_07e110cf35_n.jpg",
    "id_album": "172748811",
    "description": "Beeeater_929706",
    "title": "Beeeater_929706",
    "link_img": "https://live.staticflickr.com/65535/50017178206_e981478402_o.jpg",
    "id_image": "Beeeater_929706",
    "count_view": 0
  },
  {
    "link_thumb": "https://live.staticflickr.com/65535/50022442302_6fc6767bb6_n.jpg",
    "id_album": "-1720012921",
    "description": "Meerkat_260402",
    "title": "Meerkat_260402",
    "link_img": "https://live.staticflickr.com/65535/50022442302_7bea11e5a5_o.jpg",
    "id_image": "Meerkat_260402",
    "count_view": 0
  },
  {
    "link_thumb": "https://live.staticflickr.com/65535/50019389133_2426808360_n.jpg",
    "id_album": "1273365283",
    "description": "Cute_264696",
    "title": "Cute_264696",
    "link_img": "https://live.staticflickr.com/65535/50019389133_0780973737_o.jpg",
    "id_image": "Cute_264696",
    "count_view": 0
  },
  {
    "link_thumb": "https://live.staticflickr.com/65535/50017578021_d19cb073a8_n.jpg",
    "id_album": "-401151552",
    "description": "Butterfly_383368",
    "title": "Butterfly_383368",
    "link_img": "https://live.staticflickr.com/65535/50017578021_e3a71cca58_o.jpg",
    "id_image": "Butterfly_383368",
    "count_view": 0
  },
  {
    "link_thumb": "https://live.staticflickr.com/65535/50016426483_4fbee523cc_n.jpg",
    "id_album": "231236068",
    "description": "BaldEagle_277988",
    "title": "BaldEagle_277988",
    "link_img": "https://live.staticflickr.com/65535/50016426483_2d9677c9f1_o.jpg",
    "id_image": "BaldEagle_277988",
    "count_view": 0
  },
  {
    "link_thumb": "https://live.staticflickr.com/65535/50021624777_957263c5a6_n.jpg",
    "id_album": "2060159334",
    "description": "GoldenRetriever_923092",
    "title": "GoldenRetriever_923092",
    "link_img": "https://live.staticflickr.com/65535/50021624777_4989168ed0_o.jpg",
    "id_image": "GoldenRetriever_923092",
    "count_view": 0
  },
  {
    "link_thumb": "https://live.staticflickr.com/65535/50021087868_c9851e4404_n.jpg",
    "id_album": "-712553376",
    "description": "Husky_365156",
    "title": "Husky_365156",
    "link_img": "https://live.staticflickr.com/65535/50021087868_8a4fd02239_o.jpg",
    "id_image": "Husky_365156",
    "count_view": 0
  },
  {
    "link_thumb": "https://live.staticflickr.com/65535/50016895773_b2fbdf80c5_n.jpg",
    "id_album": "-1846011410",
    "description": "Bird_772228",
    "title": "Bird_772228",
    "link_img": "https://live.staticflickr.com/65535/50016895773_998d4749e6_o.jpg",
    "id_image": "Bird_772228",
    "count_view": 0
  },
  {
    "link_thumb": "https://live.staticflickr.com/65535/50020619371_e1497e9761_n.jpg",
    "id_album": "-405058657",
    "description": "Dragonfly_401708",
    "title": "Dragonfly_401708",
    "link_img": "https://live.staticflickr.com/65535/50020619371_01bdd96bb4_o.jpg",
    "id_image": "Dragonfly_401708",
    "count_view": 0
  },
  {
    "link_thumb": "https://live.staticflickr.com/65535/50019698878_583aeaec09_n.jpg",
    "id_album": "-149330232",
    "description": "Dog_303843",
    "title": "Dog_303843",
    "link_img": "https://live.staticflickr.com/65535/50019698878_1965e580ba_o.jpg",
    "id_image": "Dog_303843",
    "count_view": 0
  },
  {
    "link_thumb": "https://live.staticflickr.com/65535/50020697336_5418d22fa6_n.jpg",
    "id_album": "-39098563",
    "description": "Eagle_356235",
    "title": "Eagle_356235",
    "link_img": "https://live.staticflickr.com/65535/50020697336_e2e4a79a8b_o.jpg",
    "id_image": "Eagle_356235",
    "count_view": 0
  },
  {
    "link_thumb": "https://live.staticflickr.com/65535/50020143073_f719a1227e_n.jpg",
    "id_album": "1168627767",
    "description": "Duck_890018",
    "title": "Duck_890018",
    "link_img": "https://live.staticflickr.com/65535/50020143073_d5fb4ee715_o.jpg",
    "id_image": "Duck_890018",
    "count_view": 0
  },
  {
    "link_thumb": "https://live.staticflickr.com/65535/50020885472_82fdb88f50_n.jpg",
    "id_album": "-405058657",
    "description": "Dragonfly_509035",
    "title": "Dragonfly_509035",
    "link_img": "https://live.staticflickr.com/65535/50020885472_251de93f8c_o.jpg",
    "id_image": "Dragonfly_509035",
    "count_view": 0
  },
  {
    "link_thumb": "https://live.staticflickr.com/65535/50022469638_72372f3326_n.jpg",
    "id_album": "-353898617",
    "description": "Puppy_528607",
    "title": "Puppy_528607",
    "link_img": "https://live.staticflickr.com/65535/50022469638_24781209ca_o.jpg",
    "id_image": "Puppy_528607",
    "count_view": 0
  },
  {
    "link_thumb": "https://live.staticflickr.com/65535/50016860871_087092ae32_n.jpg",
    "id_album": "523598895",
    "description": "Artistic_112692",
    "title": "Artistic_112692",
    "link_img": "https://live.staticflickr.com/65535/50016860871_482fbf1dcb_o.jpg",
    "id_image": "Artistic_112692",
    "count_view": 0
  },
  {
    "link_thumb": "https://live.staticflickr.com/65535/50021154878_c5bea83706_n.jpg",
    "id_album": "1658866795",
    "description": "Insect_410212",
    "title": "Insect_410212",
    "link_img": "https://live.staticflickr.com/65535/50021154878_1fcfedd541_o.jpg",
    "id_image": "Insect_410212",
    "count_view": 0
  },
  {
    "link_thumb": "https://live.staticflickr.com/65535/50016665283_5a266d7aff_n.jpg",
    "id_album": "-1846011410",
    "description": "Bird_104224",
    "title": "Bird_104224",
    "link_img": "https://live.staticflickr.com/65535/50016665283_4957e14757_o.jpg",
    "id_image": "Bird_104224",
    "count_view": 0
  },
  {
    "link_thumb": "https://live.staticflickr.com/65535/50021523707_f86f6e5795_n.jpg",
    "id_album": "-462831703",
    "description": "Cat_831237",
    "title": "Cat_831237",
    "link_img": "https://live.staticflickr.com/65535/50021523707_85f3bda30d_o.jpg",
    "id_image": "Cat_831237",
    "count_view": 0
  },
  {
    "link_thumb": "https://live.staticflickr.com/65535/50351772553_61b341aaff_n.jpg",
    "id_album": "-462831703",
    "description": "Cat_365182",
    "title": "Cat_365182",
    "link_img": "https://live.staticflickr.com/65535/50351772553_edee6349a6_o.jpg",
    "id_image": "Cat_365182",
    "count_view": 0
  },
  {
    "link_thumb": "https://live.staticflickr.com/65535/50021093658_b080589639_n.jpg",
    "id_album": "-712553376",
    "description": "Husky_534557",
    "title": "Husky_534557",
    "link_img": "https://live.staticflickr.com/65535/50021093658_114c8d8551_o.jpg",
    "id_image": "Husky_534557",
    "count_view": 0
  },
  {
    "link_thumb": "https://live.staticflickr.com/65535/50016978938_953fee767c_n.jpg",
    "id_album": "782930701",
    "description": "BorderCollie_876476",
    "title": "BorderCollie_876476",
    "link_img": "https://live.staticflickr.com/65535/50016978938_2ed540645a_o.jpg",
    "id_image": "BorderCollie_876476",
    "count_view": 0
  },
  {
    "link_thumb": "https://live.staticflickr.com/65535/50352804422_232d483d79_n.jpg",
    "id_album": "-462831703",
    "description": "Cat_686323",
    "title": "Cat_686323",
    "link_img": "https://live.staticflickr.com/65535/50352804422_74682566b0_o.jpg",
    "id_image": "Cat_686323",
    "count_view": 0
  },
  {
    "link_thumb": "https://live.staticflickr.com/65535/50023215236_7fcf6bd5d2_n.jpg",
    "id_album": "332874268",
    "description": "RedPanda_571361",
    "title": "RedPanda_571361",
    "link_img": "https://live.staticflickr.com/65535/50023215236_fdd4f51939_o.jpg",
    "id_image": "RedPanda_571361",
    "count_view": 0
  },
  {
    "link_thumb": "https://live.staticflickr.com/65535/50020780927_a86436945a_n.jpg",
    "id_album": "-149330231",
    "description": "Dog_856030",
    "title": "Dog_856030",
    "link_img": "https://live.staticflickr.com/65535/50020780927_25fd9b62b8_o.jpg",
    "id_image": "Dog_856030",
    "count_view": 0
  },
  {
    "link_thumb": "https://live.staticflickr.com/65535/50021183847_cbfc009639_n.jpg",
    "id_album": "-1694105481",
    "description": "Fly_889061",
    "title": "Fly_889061",
    "link_img": "https://live.staticflickr.com/65535/50021183847_bfec7e2262_o.jpg",
    "id_image": "Fly_889061",
    "count_view": 0
  },
  {
    "link_thumb": "https://live.staticflickr.com/65535/50021299927_017677471b_n.jpg",
    "id_album": "704811092",
    "description": "FrenchBulldog_771066",
    "title": "FrenchBulldog_771066",
    "link_img": "https://live.staticflickr.com/65535/50021299927_7e0613a410_o.jpg",
    "id_image": "FrenchBulldog_771066",
    "count_view": 0
  },
  {
    "link_thumb": "https://live.staticflickr.com/65535/50018266062_a2c05dc0cf_n.jpg",
    "id_album": "-462831702",
    "description": "Cat_337735",
    "title": "Cat_337735",
    "link_img": "https://live.staticflickr.com/65535/50018266062_b1caa5534b_o.jpg",
    "id_image": "Cat_337735",
    "count_view": 0
  },
  {
    "link_thumb": "https://live.staticflickr.com/65535/50019716921_5a2402e681_n.jpg",
    "id_album": "-1481843714",
    "description": "Cheetah_538883",
    "title": "Cheetah_538883",
    "link_img": "https://live.staticflickr.com/65535/50019716921_f699edffde_o.jpg",
    "id_image": "Cheetah_538883",
    "count_view": 0
  },
  {
    "link_thumb": "https://live.staticflickr.com/65535/50022954837_d332209546_n.jpg",
    "id_album": "392248205",
    "description": "Penguin_404050",
    "title": "Penguin_404050",
    "link_img": "https://live.staticflickr.com/65535/50022954837_d1e0feb9c1_o.jpg",
    "id_image": "Penguin_404050",
    "count_view": 0
  },
  {
    "link_thumb": "https://live.staticflickr.com/65535/50022687466_a97145b185_n.jpg",
    "id_album": "392248205",
    "description": "Penguin_340527",
    "title": "Penguin_340527",
    "link_img": "https://live.staticflickr.com/65535/50022687466_45dd0345ff_o.jpg",
    "id_image": "Penguin_340527",
    "count_view": 0
  },
  {
    "link_thumb": "https://live.staticflickr.com/65535/50021516211_e914b31920_n.jpg",
    "id_album": "-1933715543",
    "description": "Horse_426861",
    "title": "Horse_426861",
    "link_img": "https://live.staticflickr.com/65535/50021516211_0320c3cbdb_o.jpg",
    "id_image": "Horse_426861",
    "count_view": 0
  },
  {
    "link_thumb": "https://live.staticflickr.com/65535/50020975846_f5954f70ce_n.jpg",
    "id_album": "-128218148",
    "description": "Fox_548663",
    "title": "Fox_548663",
    "link_img": "https://live.staticflickr.com/65535/50020975846_fc5dd8c202_o.jpg",
    "id_image": "Fox_548663",
    "count_view": 0
  },
  {
    "link_thumb": "https://live.staticflickr.com/65535/50020671972_950fdabdec_n.jpg",
    "id_album": "-149330231",
    "description": "Dog_438951",
    "title": "Dog_438951",
    "link_img": "https://live.staticflickr.com/65535/50020671972_a973f9a4a7_o.jpg",
    "id_image": "Dog_438951",
    "count_view": 0
  },
  {
    "link_thumb": "https://live.staticflickr.com/65535/50019479807_da2840095f_n.jpg",
    "id_album": "-462831704",
    "description": "Cat_453869",
    "title": "Cat_453869",
    "link_img": "https://live.staticflickr.com/65535/50019479807_493acf4a66_o.jpg",
    "id_image": "Cat_453869",
    "count_view": 0
  },
  {
    "link_thumb": "https://live.staticflickr.com/65535/50022460142_31a9f087ff_n.jpg",
    "id_album": "-784970094",
    "description": "Monkey_332174",
    "title": "Monkey_332174",
    "link_img": "https://live.staticflickr.com/65535/50022460142_f7fcb6a16b_o.jpg",
    "id_image": "Monkey_332174",
    "count_view": 0
  },
  {
    "link_thumb": "https://live.staticflickr.com/65535/50018277787_8353790ba1_n.jpg",
    "id_album": "-462831702",
    "description": "Cat_343941",
    "title": "Cat_343941",
    "link_img": "https://live.staticflickr.com/65535/50018277787_091d743726_o.jpg",
    "id_image": "Cat_343941",
    "count_view": 0
  },
  {
    "link_thumb": "https://live.staticflickr.com/65535/50017586618_aaa4775f8d_n.jpg",
    "id_album": "-462831702",
    "description": "Cat_385747",
    "title": "Cat_385747",
    "link_img": "https://live.staticflickr.com/65535/50017586618_d557a56cac_o.jpg",
    "id_image": "Cat_385747",
    "count_view": 0
  },
  {
    "link_thumb": "https://live.staticflickr.com/65535/50017817336_d6efa950ab_n.jpg",
    "id_album": "-462831705",
    "description": "Cat_179660",
    "title": "Cat_179660",
    "link_img": "https://live.staticflickr.com/65535/50017817336_b71db84b77_o.jpg",
    "id_image": "Cat_179660",
    "count_view": 0
  },
  {
    "link_thumb": "https://live.staticflickr.com/65535/50017937731_49356b0c75_n.jpg",
    "id_album": "-462831702",
    "description": "Cat_284990",
    "title": "Cat_284990",
    "link_img": "https://live.staticflickr.com/65535/50017937731_19b7b5c126_o.jpg",
    "id_image": "Cat_284990",
    "count_view": 0
  },
  {
    "link_thumb": "https://live.staticflickr.com/65535/50020321357_06ea48a6e0_n.jpg",
    "id_album": "1903411565",
    "description": "Deer_920487",
    "title": "Deer_920487",
    "link_img": "https://live.staticflickr.com/65535/50020321357_058b6e1c64_o.jpg",
    "id_image": "Deer_920487",
    "count_view": 0
  },
  {
    "link_thumb": "https://live.staticflickr.com/65535/50017365688_2759227aef_n.jpg",
    "id_album": "-462831705",
    "description": "Cat_239366",
    "title": "Cat_239366",
    "link_img": "https://live.staticflickr.com/65535/50017365688_62659e7d4e_o.jpg",
    "id_image": "Cat_239366",
    "count_view": 0
  },
  {
    "link_thumb": "https://live.staticflickr.com/65535/50016472378_f905c08aa6_n.jpg",
    "id_album": "809937717",
    "description": "Beagle_977029",
    "title": "Beagle_977029",
    "link_img": "https://live.staticflickr.com/65535/50016472378_0e5ce01503_o.jpg",
    "id_image": "Beagle_977029",
    "count_view": 0
  },
  {
    "link_thumb": "https://live.staticflickr.com/65535/50021757628_d2139a0cc3_n.jpg",
    "id_album": "1957967135",
    "description": "Mouse_877422",
    "title": "Mouse_877422",
    "link_img": "https://live.staticflickr.com/65535/50021757628_803a41b4a5_o.jpg",
    "id_image": "Mouse_877422",
    "count_view": 0
  }
]