[
  {
    "link_thumb": "https://live.staticflickr.com/65535/50021292078_baa6d97f99_n.jpg",
    "id_album": "1307335982",
    "description": "LabradorRetriever_872777",
    "title": "LabradorRetriever_872777",
    "link_img": "https://live.staticflickr.com/65535/50021292078_57edfffd7d_o.jpg",
    "id_image": "LabradorRetriever_872777",
    "count_view": 0
  },
  {
    "link_thumb": "https://live.staticflickr.com/65535/50017456832_13740eeec9_n.jpg",
    "id_album": "-1846011410",
    "description": "Bird_116971",
    "title": "Bird_116971",
    "link_img": "https://live.staticflickr.com/65535/50017456832_795875526f_o.jpg",
    "id_image": "Bird_116971",
    "count_view": 0
  },
  {
    "link_thumb": "https://live.staticflickr.com/65535/50022561396_50f3a85790_n.jpg",
    "id_album": "405592235",
    "description": "Parrot_354030",
    "title": "Parrot_354030",
    "link_img": "https://live.staticflickr.com/65535/50022561396_74e2351b96_o.jpg",
    "id_image": "Parrot_354030",
    "count_view": 0
  },
  {
    "link_thumb": "https://live.staticflickr.com/65535/50020634867_f1a8edf7b9_n.jpg",
    "id_album": "-149330231",
    "description": "Dog_404489",
    "title": "Dog_404489",
    "link_img": "https://live.staticflickr.com/65535/50020634867_f39943cca0_o.jpg",
    "id_image": "Dog_404489",
    "count_view": 0
  },
  {
    "link_thumb": "https://live.staticflickr.com/65535/50019409546_0063063500_n.jpg",
    "id_album": "-462831703",
    "description": "Cat_899352",
    "title": "Cat_899352",
    "link_img": "https://live.staticflickr.com/65535/50019409546_43f1131007_o.jpg",
    "id_image": "Cat_899352",
    "count_view": 0
  },
  {
    "link_thumb": "https://live.staticflickr.com/65535/50019479362_e09e75edfb_n.jpg",
    "id_album": "-462831704",
    "description": "Cat_453862",
    "title": "Cat_453862",
    "link_img": "https://live.staticflickr.com/65535/50019479362_06f071e6d0_o.jpg",
    "id_image": "Cat_453862",
    "count_view": 0
  },
  {
    "link_thumb": "https://live.staticflickr.com/65535/50351984833_993eb8923a_n.jpg",
    "id_album": "-462831702",
    "description": "Cat_114969",
    "title": "Cat_114969",
    "link_img": "https://live.staticflickr.com/65535/50351984833_6931034a93_o.jpg",
    "id_image": "Cat_114969",
    "count_view": 0
  },
  {
    "link_thumb": "https://live.staticflickr.com/65535/50017287338_caa3702fc0_n.jpg",
    "id_album": "-462831705",
    "description": "Cat_176735",
    "title": "Cat_176735",
    "link_img": "https://live.staticflickr.com/65535/50017287338_7a4518778a_o.jpg",
    "id_image": "Cat_176735",
    "count_view": 0
  },
  {
    "link_thumb": "https://live.staticflickr.com/65535/50023220006_a457f282c1_n.jpg",
    "id_album": "332874268",
    "description": "RedPanda_681931",
    "title": "RedPanda_681931",
    "link_img": "https://live.staticflickr.com/65535/50023220006_db6f999c5b_o.jpg",
    "id_image": "RedPanda_681931",
    "count_view": 0
  },
  {
    "link_thumb": "https://live.staticflickr.com/65535/50022271261_7cd094dc39_n.jpg",
    "id_album": "-817970387",
    "description": "Moose_782411",
    "title": "Moose_782411",
    "link_img": "https://live.staticflickr.com/65535/50022271261_a894cbb2d2_o.jpg",
    "id_image": "Moose_782411",
    "count_view": 0
  },
  {
    "link_thumb": "https://live.staticflickr.com/65535/50023464543_85ca5f41b3_n.jpg",
    "id_album": "1579675410",
    "description": "Swan_543068",
    "title": "Swan_543068",
    "link_img": "https://live.staticflickr.com/65535/50023464543_98f5dfe79b_o.jpg",
    "id_image": "Swan_543068",
    "count_view": 0
  },
  {
    "link_thumb": "https://live.staticflickr.com/65535/50023830962_c24baae7de_n.jpg",
    "id_album": "-1182356179",
    "description": "Snake_354930",
    "title": "Snake_354930",
    "link_img": "https://live.staticflickr.com/65535/50023830962_4472eac39b_o.jpg",
    "id_image": "Snake_354930",
    "count_view": 0
  },
  {
    "link_thumb": "https://live.staticflickr.com/65535/50352684586_75f62c6956_n.jpg",
    "id_album": "-462831702",
    "description": "Cat_116593",
    "title": "Cat_116593",
    "link_img": "https://live.staticflickr.com/65535/50352684586_6f8f401375_o.jpg",
    "id_image": "Cat_116593",
    "count_view": 0
  },
  {
    "link_thumb": "https://live.staticflickr.com/65535/50021085118_2fdf1320d1_n.jpg",
    "id_album": "-712553376",
    "description": "Husky_260847",
    "title": "Husky_260847",
    "link_img": "https://live.staticflickr.com/65535/50021085118_b5a75a0157_o.jpg",
    "id_image": "Husky_260847",
    "count_view": 0
  },
  {
    "link_thumb": "https://live.staticflickr.com/65535/50021537717_88f1b68ec8_n.jpg",
    "id_album": "-405626519",
    "description": "GermanShepherd_330495",
    "title": "GermanShepherd_330495",
    "link_img": "https://live.staticflickr.com/65535/50021537717_2e4b1c4c2b_o.jpg",
    "id_image": "GermanShepherd_330495",
    "count_view": 0
  },
  {
    "link_thumb": "https://live.staticflickr.com/65535/50017056973_2f406d99a6_n.jpg",
    "id_album": "-401151552",
    "description": "Butterfly_398727",
    "title": "Butterfly_398727",
    "link_img": "https://live.staticflickr.com/65535/50017056973_40ea48b5d2_o.jpg",
    "id_image": "Butterfly_398727",
    "count_view": 0
  },
  {
    "link_thumb": "https://live.staticflickr.com/65535/50021749776_e6430e99ec_n.jpg",
    "id_album": "665694624",
    "description": "JapaneseMacaque_390683",
    "title": "JapaneseMacaque_390683",
    "link_img": "https://live.staticflickr.com/65535/50021749776_187ca8aba7_o.jpg",
    "id_image": "JapaneseMacaque_390683",
    "count_view": 0
  },
  {
    "link_thumb": "https://live.staticflickr.com/65535/50021264192_2d9a3a080a_n.jpg",
    "id_album": "-128218148",
    "description": "Fox_831689",
    "title": "Fox_831689",
    "link_img": "https://live.staticflickr.com/65535/50021264192_9e9c0456a2_o.jpg",
    "id_image": "Fox_831689",
    "count_view": 0
  },
  {
    "link_thumb": "https://live.staticflickr.com/65535/50018103096_0a2f182d88_n.jpg",
    "id_album": "-462831702",
    "description": "Cat_377997",
    "title": "Cat_377997",
    "link_img": "https://live.staticflickr.com/65535/50018103096_06ea0d66f3_o.jpg",
    "id_image": "Cat_377997",
    "count_view": 0
  },
  {
    "link_thumb": "https://live.staticflickr.com/65535/50020478052_65e2666871_n.jpg",
    "id_album": "-149330232",
    "description": "Dog_280990",
    "title": "Dog_280990",
    "link_img": "https://live.staticflickr.com/65535/50020478052_7d5d63f56f_o.jpg",
    "id_image": "Dog_280990",
    "count_view": 0
  },
  {
    "link_thumb": "https://live.staticflickr.com/65535/50016450083_528bd92008_n.jpg",
    "id_album": "-80092825",
    "description": "Barnowl_32875",
    "title": "Barnowl_32875",
    "link_img": "https://live.staticflickr.com/65535/50016450083_1d4c89e44d_o.jpg",
    "id_image": "Barnowl_32875",
    "count_view": 0
  },
  {
    "link_thumb": "https://live.staticflickr.com/65535/50017830027_79ba2397d1_n.jpg",
    "id_album": "-401151552",
    "description": "Butterfly_354554",
    "title": "Butterfly_354554",
    "link_img": "https://live.staticflickr.com/65535/50017830027_9776789eb1_o.jpg",
    "id_image": "Butterfly_354554",
    "count_view": 0
  },
  {
    "link_thumb": "https://live.staticflickr.com/65535/50016955766_9ecd5fec9e_n.jpg",
    "id_album": "231236068",
    "description": "BaldEagle_381009",
    "title": "BaldEagle_381009",
    "link_img": "https://live.staticflickr.com/65535/50016955766_eccbfb4b6c_o.jpg",
    "id_image": "BaldEagle_381009",
    "count_view": 0
  },
  {
    "link_thumb": "https://live.staticflickr.com/65535/50019778198_3a6b6b6ee8_n.jpg",
    "id_album": "-149330232",
    "description": "Dog_356048",
    "title": "Dog_356048",
    "link_img": "https://live.staticflickr.com/65535/50019778198_ab93691034_o.jpg",
    "id_image": "Dog_356048",
    "count_view": 0
  },
  {
    "link_thumb": "https://live.staticflickr.com/65535/50021821643_ff4b9b9a32_n.jpg",
    "id_album": "106807275",
    "description": "Otter_271688",
    "title": "Otter_271688",
    "link_img": "https://live.staticflickr.com/65535/50021821643_017f02a52c_o.jpg",
    "id_image": "Otter_271688",
    "count_view": 0
  },
  {
    "link_thumb": "https://live.staticflickr.com/65535/50020632258_406220b743_n.jpg",
    "id_album": "-462831704",
    "description": "Cat_696196",
    "title": "Cat_696196",
    "link_img": "https://live.staticflickr.com/65535/50020632258_61053a3713_o.jpg",
    "id_image": "Cat_696196",
    "count_view": 0
  },
  {
    "link_thumb": "https://live.staticflickr.com/65535/50352432116_ea52b217c9_n.jpg",
    "id_album": "-462831703",
    "description": "Cat_229670",
    "title": "Cat_229670",
    "link_img": "https://live.staticflickr.com/65535/50352432116_76034a1ff9_o.jpg",
    "id_image": "Cat_229670",
    "count_view": 0
  },
  {
    "link_thumb": "https://live.staticflickr.com/65535/50021473447_8ff5103960_n.jpg",
    "id_album": "-462831703",
    "description": "Cat_740903",
    "title": "Cat_740903",
    "link_img": "https://live.staticflickr.com/65535/50021473447_b825f67292_o.jpg",
    "id_image": "Cat_740903",
    "count_view": 0
  },
  {
    "link_thumb": "https://live.staticflickr.com/65535/50023508201_750f6d3ee9_n.jpg",
    "id_album": "-800019164",
    "description": "Snail_229850",
    "title": "Snail_229850",
    "link_img": "https://live.staticflickr.com/65535/50023508201_fa41d747e1_o.jpg",
    "id_image": "Snail_229850",
    "count_view": 0
  },
  {
    "link_thumb": "https://live.staticflickr.com/65535/50021025761_365906d336_n.jpg",
    "id_album": "-128218148",
    "description": "Fox_921930",
    "title": "Fox_921930",
    "link_img": "https://live.staticflickr.com/65535/50021025761_2a07b1ce05_o.jpg",
    "id_image": "Fox_921930",
    "count_view": 0
  },
  {
    "link_thumb": "https://live.staticflickr.com/65535/50020737681_a9d53795e2_n.jpg",
    "id_album": "1270947998",
    "description": "Elephant_272299",
    "title": "Elephant_272299",
    "link_img": "https://live.staticflickr.com/65535/50020737681_b111664e0f_o.jpg",
    "id_image": "Elephant_272299",
    "count_view": 0
  },
  {
    "link_thumb": "https://live.staticflickr.com/65535/50021408451_8549fb8885_n.jpg",
    "id_album": "82558972",
    "description": "GuineaPig_420037",
    "title": "GuineaPig_420037",
    "link_img": "https://live.staticflickr.com/65535/50021408451_180e6b4712_o.jpg",
    "id_image": "GuineaPig_420037",
    "count_view": 0
  },
  {
    "link_thumb": "https://live.staticflickr.com/65535/50352537996_8466c17fbf_n.jpg",
    "id_album": "-462831703",
    "description": "Cat_458833",
    "title": "Cat_458833",
    "link_img": "https://live.staticflickr.com/65535/50352537996_69c51e6a47_o.jpg",
    "id_image": "Cat_458833",
    "count_view": 0
  },
  {
    "link_thumb": "https://live.staticflickr.com/65535/50017827692_09f7974b2c_n.jpg",
    "id_album": "-401151552",
    "description": "Butterfly_346503",
    "title": "Butterfly_346503",
    "link_img": "https://live.staticflickr.com/65535/50017827692_4cf97d4ff0_o.jpg",
    "id_image": "Butterfly_346503",
    "count_view": 0
  },
  {
    "link_thumb": "https://live.staticflickr.com/65535/50021139906_6564065400_n.jpg",
    "id_album": "-462831704",
    "description": "Cat_597288",
    "title": "Cat_597288",
    "link_img": "https://live.staticflickr.com/65535/50021139906_e880422024_o.jpg",
    "id_image": "Cat_597288",
    "count_view": 0
  },
  {
    "link_thumb": "https://live.staticflickr.com/65535/50018357592_75e835bf2a_n.jpg",
    "id_album": "-462831702",
    "description": "Cat_373237",
    "title": "Cat_373237",
    "link_img": "https://live.staticflickr.com/65535/50018357592_65388c128b_o.jpg",
    "id_image": "Cat_373237",
    "count_view": 0
  },
  {
    "link_thumb": "https://live.staticflickr.com/65535/50020755863_4762bceace_n.jpg",
    "id_album": "-405626519",
    "description": "GermanShepherd_726789",
    "title": "GermanShepherd_726789",
    "link_img": "https://live.staticflickr.com/65535/50020755863_dcec5a0b72_o.jpg",
    "id_image": "GermanShepherd_726789",
    "count_view": 0
  },
  {
    "link_thumb": "https://live.staticflickr.com/65535/50024013898_9e78c9e251_n.jpg",
    "id_album": "-709711865",
    "description": "Wolf_892299",
    "title": "Wolf_892299",
    "link_img": "https://live.staticflickr.com/65535/50024013898_b448bd74e0_o.jpg",
    "id_image": "Wolf_892299",
    "count_view": 0
  },
  {
    "link_thumb": "https://live.staticflickr.com/65535/50017754161_f75e006b0e_n.jpg",
    "id_album": "-462831705",
    "description": "Cat_111498",
    "title": "Cat_111498",
    "link_img": "https://live.staticflickr.com/65535/50017754161_f510223bac_o.jpg",
    "id_image": "Cat_111498",
    "count_view": 0
  },
  {
    "link_thumb": "https://live.staticflickr.com/65535/50021824381_661292be9a_n.jpg",
    "id_album": "771796001",
    "description": "Koala_864388",
    "title": "Koala_864388",
    "link_img": "https://live.staticflickr.com/65535/50021824381_e60fa6477e_o.jpg",
    "id_image": "Koala_864388",
    "count_view": 0
  },
  {
    "link_thumb": "https://live.staticflickr.com/65535/50017659137_1c195b8f9d_n.jpg",
    "id_album": "-1846011410",
    "description": "Bird_652336",
    "title": "Bird_652336",
    "link_img": "https://live.staticflickr.com/65535/50017659137_7e9e50d798_o.jpg",
    "id_image": "Bird_652336",
    "count_view": 0
  },
  {
    "link_thumb": "https://live.staticflickr.com/65535/50020049227_4d91d436ea_n.jpg",
    "id_album": "-1462118852",
    "description": "Corgi_355253",
    "title": "Corgi_355253",
    "link_img": "https://live.staticflickr.com/65535/50020049227_a956e71a9b_o.jpg",
    "id_image": "Corgi_355253",
    "count_view": 0
  },
  {
    "link_thumb": "https://live.staticflickr.com/65535/50024334041_3fbf51abfb_n.jpg",
    "id_album": "461588038",
    "description": "Vulture_275183",
    "title": "Vulture_275183",
    "link_img": "https://live.staticflickr.com/65535/50024334041_ef9b814702_o.jpg",
    "id_image": "Vulture_275183",
    "count_view": 0
  },
  {
    "link_thumb": "https://live.staticflickr.com/65535/50021367311_0589d9c9fe_n.jpg",
    "id_album": "2060159334",
    "description": "GoldenRetriever_905768",
    "title": "GoldenRetriever_905768",
    "link_img": "https://live.staticflickr.com/65535/50021367311_b126850ab5_o.jpg",
    "id_image": "GoldenRetriever_905768",
    "count_view": 0
  },
  {
    "link_thumb": "https://live.staticflickr.com/65535/50019437946_96372a3094_n.jpg",
    "id_album": "-462831703",
    "description": "Cat_911624",
    "title": "Cat_911624",
    "link_img": "https://live.staticflickr.com/65535/50019437946_f84cd07266_o.jpg",
    "id_image": "Cat_911624",
    "count_view": 0
  },
  {
    "link_thumb": "https://live.staticflickr.com/65535/50021440356_626f91c8aa_n.jpg",
    "id_album": "1469520430",
    "description": "Hedgehog_959019",
    "title": "Hedgehog_959019",
    "link_img": "https://live.staticflickr.com/65535/50021440356_041bb3f486_o.jpg",
    "id_image": "Hedgehog_959019",
    "count_view": 0
  },
  {
    "link_thumb": "https://live.staticflickr.com/65535/50018239262_f91f59c7cb_n.jpg",
    "id_album": "-462831702",
    "description": "Cat_327010",
    "title": "Cat_327010",
    "link_img": "https://live.staticflickr.com/65535/50018239262_e2277c6b7f_o.jpg",
    "id_image": "Cat_327010",
    "count_view": 0
  },
  {
    "link_thumb": "https://live.staticflickr.com/65535/50018215727_59e7da5d58_n.jpg",
    "id_album": "-462831702",
    "description": "Cat_311224",
    "title": "Cat_311224",
    "link_img": "https://live.staticflickr.com/65535/50018215727_7d2cc6088e_o.jpg",
    "id_image": "Cat_311224",
    "count_view": 0
  },
  {
    "link_thumb": "https://live.staticflickr.com/65535/50020032012_f5d5d86b6f_n.jpg",
    "id_album": "791455625",
    "description": "Chipmunk_950808",
    "title": "Chipmunk_950808",
    "link_img": "https://live.staticflickr.com/65535/50020032012_4b14934669_o.jpg",
    "id_image": "Chipmunk_950808",
    "count_view": 0
  },
  {
    "link_thumb": "https://live.staticflickr.com/65535/50021616862_8829cc9d8a_n.jpg",
    "id_album": "2060159334",
    "description": "GoldenRetriever_865305",
    "title": "GoldenRetriever_865305",
    "link_img": "https://live.staticflickr.com/65535/50021616862_b0944ae4ef_o.jpg",
    "id_image": "GoldenRetriever_865305",
    "count_view": 0
  },
  {
    "link_thumb": "https://live.staticflickr.com/65535/50016942541_5d84728866_n.jpg",
    "id_album": "390697200",
    "description": "AustralianShepherd_870350",
    "title": "AustralianShepherd_870350",
    "link_img": "https://live.staticflickr.com/65535/50016942541_5a199efd94_o.jpg",
    "id_image": "AustralianShepherd_870350",
    "count_view": 0
  },
  {
    "link_thumb": "https://live.staticflickr.com/65535/50020628021_a9d17a9448_n.jpg",
    "id_album": "-405058657",
    "description": "Dragonfly_503775",
    "title": "Dragonfly_503775",
    "link_img": "https://live.staticflickr.com/65535/50020628021_6ca8fa1ccf_o.jpg",
    "id_image": "Dragonfly_503775",
    "count_view": 0
  },
  {
    "link_thumb": "https://live.staticflickr.com/65535/50021292858_4fff780163_n.jpg",
    "id_album": "1307335982",
    "description": "LabradorRetriever_875246",
    "title": "LabradorRetriever_875246",
    "link_img": "https://live.staticflickr.com/65535/50021292858_07a3878582_o.jpg",
    "id_image": "LabradorRetriever_875246",
    "count_view": 0
  },
  {
    "link_thumb": "https://live.staticflickr.com/65535/50022655193_76e210ae9f_n.jpg",
    "id_album": "-1862965835",
    "description": "RedEyedTreeFrog_904994",
    "title": "RedEyedTreeFrog_904994",
    "link_img": "https://live.staticflickr.com/65535/50022655193_96dcba6520_o.jpg",
    "id_image": "RedEyedTreeFrog_904994",
    "count_view": 0
  },
  {
    "link_thumb": "https://live.staticflickr.com/65535/50351853638_35eb834db3_n.jpg",
    "id_album": "-462831703",
    "description": "Cat_467519",
    "title": "Cat_467519",
    "link_img": "https://live.staticflickr.com/65535/50351853638_33642531a9_o.jpg",
    "id_image": "Cat_467519",
    "count_view": 0
  },
  {
    "link_thumb": "https://live.staticflickr.com/65535/50022930696_c99ea63c66_n.jpg",
    "id_album": "-356780855",
    "description": "Puffin_787128",
    "title": "Puffin_787128",
    "link_img": "https://live.staticflickr.com/65535/50022930696_40b62a17e9_o.jpg",
    "id_image": "Puffin_787128",
    "count_view": 0
  },
  {
    "link_thumb": "https://live.staticflickr.com/65535/50021918247_e23579ea96_n.jpg",
    "id_album": "1658866795",
    "description": "Insect_350325",
    "title": "Insect_350325",
    "link_img": "https://live.staticflickr.com/65535/50021918247_50065cdfea_o.jpg",
    "id_image": "Insect_350325",
    "count_view": 0
  },
  {
    "link_thumb": "https://live.staticflickr.com/65535/50019767527_625d3fd2c7_n.jpg",
    "id_album": "-462831703",
    "description": "Cat_949085",
    "title": "Cat_949085",
    "link_img": "https://live.staticflickr.com/65535/50019767527_efe012a7a3_o.jpg",
    "id_image": "Cat_949085",
    "count_view": 0
  },
  {
    "link_thumb": "https://live.staticflickr.com/65535/50020526741_587560bc56_n.jpg",
    "id_album": "-149330231",
    "description": "Dog_863828",
    "title": "Dog_863828",
    "link_img": "https://live.staticflickr.com/65535/50020526741_c97f6b1233_o.jpg",
    "id_image": "Dog_863828",
    "count_view": 0
  },
  {
    "link_thumb": "https://live.staticflickr.com/65535/50018132402_0b562db361_n.jpg",
    "id_album": "-462831705",
    "description": "Cat_221772",
    "title": "Cat_221772",
    "link_img": "https://live.staticflickr.com/65535/50018132402_1b982d1a46_o.jpg",
    "id_image": "Cat_221772",
    "count_view": 0
  },
  {
    "link_thumb": "https://live.staticflickr.com/65535/50019406421_63fd08955a_n.jpg",
    "id_album": "-462831703",
    "description": "Cat_897348",
    "title": "Cat_897348",
    "link_img": "https://live.staticflickr.com/65535/50019406421_99400792a1_o.jpg",
    "id_image": "Cat_897348",
    "count_view": 0
  },
  {
    "link_thumb": "https://live.staticflickr.com/65535/50021278352_f0449fb0b4_n.jpg",
    "id_album": "-128218148",
    "description": "Fox_917458",
    "title": "Fox_917458",
    "link_img": "https://live.staticflickr.com/65535/50021278352_24cd339a3f_o.jpg",
    "id_image": "Fox_917458",
    "count_view": 0
  },
  {
    "link_thumb": "https://live.staticflickr.com/65535/50021845716_a2d61dbbe0_n.jpg",
    "id_album": "-1882491687",
    "description": "Ladybug_375924",
    "title": "Ladybug_375924",
    "link_img": "https://live.staticflickr.com/65535/50021845716_f6c243a664_o.jpg",
    "id_image": "Ladybug_375924",
    "count_view": 0
  },
  {
    "link_thumb": "https://live.staticflickr.com/65535/50022352971_4f94dffcc8_n.jpg",
    "id_album": "588679857",
    "description": "Orangutan_668055",
    "title": "Orangutan_668055",
    "link_img": "https://live.staticflickr.com/65535/50022352971_6fe05cef1a_o.jpg",
    "id_image": "Orangutan_668055",
    "count_view": 0
  },
  {
    "link_thumb": "https://live.staticflickr.com/65535/50016580443_c95247dd16_n.jpg",
    "id_album": "-422187261",
    "description": "Bear_944507",
    "title": "Bear_944507",
    "link_img": "https://live.staticflickr.com/65535/50016580443_edaef4940b_o.jpg",
    "id_image": "Bear_944507",
    "count_view": 0
  },
  {
    "link_thumb": "https://live.staticflickr.com/65535/50019959753_e6dff47c87_n.jpg",
    "id_album": "-149330231",
    "description": "Dog_715658",
    "title": "Dog_715658",
    "link_img": "https://live.staticflickr.com/65535/50019959753_82c403d8a9_o.jpg",
    "id_image": "Dog_715658",
    "count_view": 0
  },
  {
    "link_thumb": "https://live.staticflickr.com/65535/50023676166_fddcc445d1_n.jpg",
    "id_album": "-1131363127",
    "description": "SnowLeopard_905403",
    "title": "SnowLeopard_905403",
    "link_img": "https://live.staticflickr.com/65535/50023676166_446b14b09d_o.jpg",
    "id_image": "SnowLeopard_905403",
    "count_view": 0
  },
  {
    "link_thumb": "https://live.staticflickr.com/65535/50023590052_ca7c9f5c3a_n.jpg",
    "id_album": "-419757464",
    "description": "SeaLife_144574",
    "title": "SeaLife_144574",
    "link_img": "https://live.staticflickr.com/65535/50023590052_d29b980720_o.jpg",
    "id_image": "SeaLife_144574",
    "count_view": 0
  },
  {
    "link_thumb": "https://live.staticflickr.com/65535/50017389967_64db159100_n.jpg",
    "id_album": "1699594607",
    "description": "Bee_364716",
    "title": "Bee_364716",
    "link_img": "https://live.staticflickr.com/65535/50017389967_5e9cb059cc_o.jpg",
    "id_image": "Bee_364716",
    "count_view": 0
  },
  {
    "link_thumb": "https://live.staticflickr.com/65535/50020620378_54a913ec43_n.jpg",
    "id_album": "-462831704",
    "description": "Cat_678049",
    "title": "Cat_678049",
    "link_img": "https://live.staticflickr.com/65535/50020620378_bf6750f3b8_o.jpg",
    "id_image": "Cat_678049",
    "count_view": 0
  },
  {
    "link_thumb": "https://live.staticflickr.com/65535/50017826292_bc028aede2_n.jpg",
    "id_album": "-401151552",
    "description": "Butterfly_342015",
    "title": "Butterfly_342015",
    "link_img": "https://live.staticflickr.com/65535/50017826292_418528e6f5_o.jpg",
    "id_image": "Butterfly_342015",
    "count_view": 0
  },
  {
    "link_thumb": "https://live.staticflickr.com/65535/50352445646_08b5b98145_n.jpg",
    "id_album": "-462831703",
    "description": "Cat_261324",
    "title": "Cat_261324",
    "link_img": "https://live.staticflickr.com/65535/50352445646_c8f87d388d_o.jpg",
    "id_image": "Cat_261324",
    "count_view": 0
  },
  {
    "link_thumb": "https://live.staticflickr.com/65535/50019336286_73a4599df6_n.jpg",
    "id_album": "-462831703",
    "description": "Cat_863613",
    "title": "Cat_863613",
    "link_img": "https://live.staticflickr.com/65535/50019336286_6fd01c012b_o.jpg",
    "id_image": "Cat_863613",
    "count_view": 0
  },
  {
    "link_thumb": "https://live.staticflickr.com/65535/50020697956_f87dc79edb_n.jpg",
    "id_album": "-39098563",
    "description": "Eagle_357227",
    "title": "Eagle_357227",
    "link_img": "https://live.staticflickr.com/65535/50020697956_e478cdd3d1_o.jpg",
    "id_image": "Eagle_357227",
    "count_view": 0
  },
  {
    "link_thumb": "https://live.staticflickr.com/65535/50018322782_76d635926c_n.jpg",
    "id_album": "-462831702",
    "description": "Cat_363212",
    "title": "Cat_363212",
    "link_img": "https://live.staticflickr.com/65535/50018322782_06954f6d4c_o.jpg",
    "id_image": "Cat_363212",
    "count_view": 0
  },
  {
    "link_thumb": "https://live.staticflickr.com/65535/50021193296_c0b74b5309_n.jpg",
    "id_album": "-462831704",
    "description": "Cat_709923",
    "title": "Cat_709923",
    "link_img": "https://live.staticflickr.com/65535/50021193296_2088f4befa_o.jpg",
    "id_image": "Cat_709923",
    "count_view": 0
  },
  {
    "link_thumb": "https://live.staticflickr.com/65535/50020445928_392324d542_n.jpg",
    "id_album": "-128218148",
    "description": "Fox_677656",
    "title": "Fox_677656",
    "link_img": "https://live.staticflickr.com/65535/50020445928_b598fc6c2a_o.jpg",
    "id_image": "Fox_677656",
    "count_view": 0
  },
  {
    "link_thumb": "https://live.staticflickr.com/65535/50018199557_60119e29dc_n.jpg",
    "id_album": "-462831702",
    "description": "Cat_287909",
    "title": "Cat_287909",
    "link_img": "https://live.staticflickr.com/65535/50018199557_025916e840_o.jpg",
    "id_image": "Cat_287909",
    "count_view": 0
  },
  {
    "link_thumb": "https://live.staticflickr.com/65535/50016910148_227ea987a6_n.jpg",
    "id_album": "-1846011410",
    "description": "Bird_876630",
    "title": "Bird_876630",
    "link_img": "https://live.staticflickr.com/65535/50016910148_14f7189c95_o.jpg",
    "id_image": "Bird_876630",
    "count_view": 0
  },
  {
    "link_thumb": "https://live.staticflickr.com/65535/50022670988_14f1404188_n.jpg",
    "id_album": "332874268",
    "description": "RedPanda_485837",
    "title": "RedPanda_485837",
    "link_img": "https://live.staticflickr.com/65535/50022670988_0c5116bc3e_o.jpg",
    "id_image": "RedPanda_485837",
    "count_view": 0
  },
  {
    "link_thumb": "https://live.staticflickr.com/65535/50021729682_dbddab479a_n.jpg",
    "id_album": "-1933715543",
    "description": "Horse_270317",
    "title": "Horse_270317",
    "link_img": "https://live.staticflickr.com/65535/50021729682_744eaeb2d0_o.jpg",
    "id_image": "Horse_270317",
    "count_view": 0
  },
  {
    "link_thumb": "https://live.staticflickr.com/65535/50020876626_1343098668_n.jpg",
    "id_album": "-1118073211",
    "description": "Fish_829811",
    "title": "Fish_829811",
    "link_img": "https://live.staticflickr.com/65535/50020876626_21a943e18a_o.jpg",
    "id_image": "Fish_829811",
    "count_view": 0
  },
  {
    "link_thumb": "https://live.staticflickr.com/65535/50022080682_bd388d9567_n.jpg",
    "id_album": "1307335982",
    "description": "LabradorRetriever_177032",
    "title": "LabradorRetriever_177032",
    "link_img": "https://live.staticflickr.com/65535/50022080682_ffd13b1cca_o.jpg",
    "id_image": "LabradorRetriever_177032",
    "count_view": 0
  },
  {
    "link_thumb": "https://live.staticflickr.com/65535/50021097646_ac0f191e99_n.jpg",
    "id_album": "-462831704",
    "description": "Cat_536232",
    "title": "Cat_536232",
    "link_img": "https://live.staticflickr.com/65535/50021097646_8c85a055f6_o.jpg",
    "id_image": "Cat_536232",
    "count_view": 0
  },
  {
    "link_thumb": "https://live.staticflickr.com/65535/50024298692_cc8f63e1d4_n.jpg",
    "id_album": "405170427",
    "description": "Tiger_225202",
    "title": "Tiger_225202",
    "link_img": "https://live.staticflickr.com/65535/50024298692_150b8ea1dd_o.jpg",
    "id_image": "Tiger_225202",
    "count_view": 0
  },
  {
    "link_thumb": "https://live.staticflickr.com/65535/50018643153_6a8ac1e780_n.jpg",
    "id_album": "-462831702",
    "description": "Cat_426748",
    "title": "Cat_426748",
    "link_img": "https://live.staticflickr.com/65535/50018643153_718c871a8c_o.jpg",
    "id_image": "Cat_426748",
    "count_view": 0
  },
  {
    "link_thumb": "https://live.staticflickr.com/65535/50021680946_c4216f9314_n.jpg",
    "id_album": "1658866795",
    "description": "Insect_403685",
    "title": "Insect_403685",
    "link_img": "https://live.staticflickr.com/65535/50021680946_9392deb564_o.jpg",
    "id_image": "Insect_403685",
    "count_view": 0
  },
  {
    "link_thumb": "https://live.staticflickr.com/65535/50022900422_96e49d7f00_n.jpg",
    "id_album": "1146438617",
    "description": "Pelican_468298",
    "title": "Pelican_468298",
    "link_img": "https://live.staticflickr.com/65535/50022900422_3e119aa7bb_o.jpg",
    "id_image": "Pelican_468298",
    "count_view": 0
  },
  {
    "link_thumb": "https://live.staticflickr.com/65535/50019202123_1f3172d428_n.jpg",
    "id_album": "-1481843714",
    "description": "Cheetah_815946",
    "title": "Cheetah_815946",
    "link_img": "https://live.staticflickr.com/65535/50019202123_ff139db329_o.jpg",
    "id_image": "Cheetah_815946",
    "count_view": 0
  },
  {
    "link_thumb": "https://live.staticflickr.com/65535/50022173667_83374de3f9_n.jpg",
    "id_album": "1392348450",
    "description": "Leopard_385063",
    "title": "Leopard_385063",
    "link_img": "https://live.staticflickr.com/65535/50022173667_a568f5cddb_o.jpg",
    "id_image": "Leopard_385063",
    "count_view": 0
  },
  {
    "link_thumb": "https://live.staticflickr.com/65535/50022388008_cf5c6d60db_n.jpg",
    "id_album": "-356780855",
    "description": "Puffin_829213",
    "title": "Puffin_829213",
    "link_img": "https://live.staticflickr.com/65535/50022388008_1524d3cfb6_o.jpg",
    "id_image": "Puffin_829213",
    "count_view": 0
  },
  {
    "link_thumb": "https://live.staticflickr.com/65535/50018764873_196b685e64_n.jpg",
    "id_album": "-462831704",
    "description": "Cat_529747",
    "title": "Cat_529747",
    "link_img": "https://live.staticflickr.com/65535/50018764873_c5a8270f92_o.jpg",
    "id_image": "Cat_529747",
    "count_view": 0
  },
  {
    "link_thumb": "https://live.staticflickr.com/65535/50017416023_f5cbb06c5d_n.jpg",
    "id_album": "-462831702",
    "description": "Cat_292926",
    "title": "Cat_292926",
    "link_img": "https://live.staticflickr.com/65535/50017416023_dae7204aac_o.jpg",
    "id_image": "Cat_292926",
    "count_view": 0
  },
  {
    "link_thumb": "https://live.staticflickr.com/65535/50021464616_786042c6de_n.jpg",
    "id_album": "-1933715543",
    "description": "Horse_165605",
    "title": "Horse_165605",
    "link_img": "https://live.staticflickr.com/65535/50021464616_7be4e7a72e_o.jpg",
    "id_image": "Horse_165605",
    "count_view": 0
  },
  {
    "link_thumb": "https://live.staticflickr.com/65535/50021360466_b77cd3102f_n.jpg",
    "id_album": "2060159334",
    "description": "GoldenRetriever_821312",
    "title": "GoldenRetriever_821312",
    "link_img": "https://live.staticflickr.com/65535/50021360466_9c4362a62d_o.jpg",
    "id_image": "GoldenRetriever_821312",
    "count_view": 0
  },
  {
    "link_thumb": "https://live.staticflickr.com/65535/50017789081_ec5f109247_n.jpg",
    "id_album": "-462831705",
    "description": "Cat_157665",
    "title": "Cat_157665",
    "link_img": "https://live.staticflickr.com/65535/50017789081_b541821d76_o.jpg",
    "id_image": "Cat_157665",
    "count_view": 0
  },
  {
    "link_thumb": "https://live.staticflickr.com/65535/50351759718_0d47a356f9_n.jpg",
    "id_album": "-462831703",
    "description": "Cat_328499",
    "title": "Cat_328499",
    "link_img": "https://live.staticflickr.com/65535/50351759718_3d882b2648_o.jpg",
    "id_image": "Cat_328499",
    "count_view": 0
  },
  {
    "link_thumb": "https://live.staticflickr.com/65535/50022536622_f45c964ec5_n.jpg",
    "id_album": "1610416937",
    "description": "Moth_438982",
    "title": "Moth_438982",
    "link_img": "https://live.staticflickr.com/65535/50022536622_571a873450_o.jpg",
    "id_image": "Moth_438982",
    "count_view": 0
  },
  {
    "link_thumb": "https://live.staticflickr.com/65535/50020619523_3a42008fe8_n.jpg",
    "id_album": "-462831704",
    "description": "Cat_677077",
    "title": "Cat_677077",
    "link_img": "https://live.staticflickr.com/65535/50020619523_f93e819db0_o.jpg",
    "id_image": "Cat_677077",
    "count_view": 0
  },
  {
    "link_thumb": "https://live.staticflickr.com/65535/50018378982_a650ac320e_n.jpg",
    "id_album": "-462831702",
    "description": "Cat_386806",
    "title": "Cat_386806",
    "link_img": "https://live.staticflickr.com/65535/50018378982_060f40b437_o.jpg",
    "id_image": "Cat_386806",
    "count_view": 0
  },
  {
    "link_thumb": "https://live.staticflickr.com/65535/50352678887_510a97c2da_n.jpg",
    "id_album": "-462831703",
    "description": "Cat_435348",
    "title": "Cat_435348",
    "link_img": "https://live.staticflickr.com/65535/50352678887_71785c86e8_o.jpg",
    "id_image": "Cat_435348",
    "count_view": 0
  },
  {
    "link_thumb": "https://live.staticflickr.com/65535/50022299481_2aa2c1dc08_n.jpg",
    "id_album": "1957967135",
    "description": "Mouse_934260",
    "title": "Mouse_934260",
    "link_img": "https://live.staticflickr.com/65535/50022299481_d6458c1e2e_o.jpg",
    "id_image": "Mouse_934260",
    "count_view": 0
  },
  {
    "link_thumb": "https://live.staticflickr.com/65535/50017434436_3f646b757e_n.jpg",
    "id_album": "-1846011410",
    "description": "Bird_866839",
    "title": "Bird_866839",
    "link_img": "https://live.staticflickr.com/65535/50017434436_258e62dd21_o.jpg",
    "id_image": "Bird_866839",
    "count_view": 0
  },
  {
    "link_thumb": "https://live.staticflickr.com/65535/50023533283_2d0da7f032_n.jpg",
    "id_album": "405170427",
    "description": "Tiger_355765",
    "title": "Tiger_355765",
    "link_img": "https://live.staticflickr.com/65535/50023533283_8dd98473e7_o.jpg",
    "id_image": "Tiger_355765",
    "count_view": 0
  },
  {
    "link_thumb": "https://live.staticflickr.com/65535/50017170662_2d724cbd69_n.jpg",
    "id_album": "523598895",
    "description": "Artistic_55234",
    "title": "Artistic_55234",
    "link_img": "https://live.staticflickr.com/65535/50017170662_90940a396b_o.jpg",
    "id_image": "Artistic_55234",
    "count_view": 0
  },
  {
    "link_thumb": "https://live.staticflickr.com/65535/50019641998_d38988c524_n.jpg",
    "id_album": "-149330232",
    "description": "Dog_242915",
    "title": "Dog_242915",
    "link_img": "https://live.staticflickr.com/65535/50019641998_b1ef4ca375_o.jpg",
    "id_image": "Dog_242915",
    "count_view": 0
  },
  {
    "link_thumb": "https://live.staticflickr.com/65535/50024486851_6d6f589cf3_n.jpg",
    "id_album": "-709711865",
    "description": "Wolf_364910",
    "title": "Wolf_364910",
    "link_img": "https://live.staticflickr.com/65535/50024486851_8269318fb4_o.jpg",
    "id_image": "Wolf_364910",
    "count_view": 0
  },
  {
    "link_thumb": "https://live.staticflickr.com/65535/50016729423_02f907d8e0_n.jpg",
    "id_album": "-1846011410",
    "description": "Bird_344947",
    "title": "Bird_344947",
    "link_img": "https://live.staticflickr.com/65535/50016729423_38228fbaf5_o.jpg",
    "id_image": "Bird_344947",
    "count_view": 0
  },
  {
    "link_thumb": "https://live.staticflickr.com/65535/50021824821_5001d9aee6_n.jpg",
    "id_album": "1307335982",
    "description": "LabradorRetriever_101818",
    "title": "LabradorRetriever_101818",
    "link_img": "https://live.staticflickr.com/65535/50021824821_26275d0277_o.jpg",
    "id_image": "LabradorRetriever_101818",
    "count_view": 0
  },
  {
    "link_thumb": "https://live.staticflickr.com/65535/50017333546_39483a76bc_n.jpg",
    "id_album": "-1846011410",
    "description": "Bird_436258",
    "title": "Bird_436258",
    "link_img": "https://live.staticflickr.com/65535/50017333546_f510ca4253_o.jpg",
    "id_image": "Bird_436258",
    "count_view": 0
  },
  {
    "link_thumb": "https://live.staticflickr.com/65535/50017259763_b60cf59061_n.jpg",
    "id_album": "-462831705",
    "description": "Cat_155494",
    "title": "Cat_155494",
    "link_img": "https://live.staticflickr.com/65535/50017259763_0dcababf30_o.jpg",
    "id_image": "Cat_155494",
    "count_view": 0
  },
  {
    "link_thumb": "https://live.staticflickr.com/65535/50018397137_fa971960ac_n.jpg",
    "id_album": "-462831702",
    "description": "Cat_398164",
    "title": "Cat_398164",
    "link_img": "https://live.staticflickr.com/65535/50018397137_cbd2570a07_o.jpg",
    "id_image": "Cat_398164",
    "count_view": 0
  },
  {
    "link_thumb": "https://live.staticflickr.com/65535/50019734157_d5c6b97383_n.jpg",
    "id_album": "-462831703",
    "description": "Cat_926762",
    "title": "Cat_926762",
    "link_img": "https://live.staticflickr.com/65535/50019734157_1823112364_o.jpg",
    "id_image": "Cat_926762",
    "count_view": 0
  },
  {
    "link_thumb": "https://live.staticflickr.com/65535/50020800077_678181e356_n.jpg",
    "id_album": "-149330231",
    "description": "Dog_917942",
    "title": "Dog_917942",
    "link_img": "https://live.staticflickr.com/65535/50020800077_fcfb769dd9_o.jpg",
    "id_image": "Dog_917942",
    "count_view": 0
  },
  {
    "link_thumb": "https://live.staticflickr.com/65535/50016306268_0a7bb79dd0_n.jpg",
    "id_album": "-1741290715",
    "description": "Ant_425018",
    "title": "Ant_425018",
    "link_img": "https://live.staticflickr.com/65535/50016306268_cf6bfe8847_o.jpg",
    "id_image": "Ant_425018",
    "count_view": 0
  },
  {
    "link_thumb": "https://live.staticflickr.com/65535/50023454772_3ca10ec242_n.jpg",
    "id_album": "-1862965835",
    "description": "RedEyedTreeFrog_918968",
    "title": "RedEyedTreeFrog_918968",
    "link_img": "https://live.staticflickr.com/65535/50023454772_6223a7e7b5_o.jpg",
    "id_image": "RedEyedTreeFrog_918968",
    "count_view": 0
  },
  {
    "link_thumb": "https://live.staticflickr.com/65535/50022952726_a5f668f9cc_n.jpg",
    "id_album": "-1431524681",
    "description": "Pug_533727",
    "title": "Pug_533727",
    "link_img": "https://live.staticflickr.com/65535/50022952726_b5b75a4e70_o.jpg",
    "id_image": "Pug_533727",
    "count_view": 0
  },
  {
    "link_thumb": "https://live.staticflickr.com/65535/50023328277_ede7aca6cc_n.jpg",
    "id_album": "-353898617",
    "description": "Puppy_921271",
    "title": "Puppy_921271",
    "link_img": "https://live.staticflickr.com/65535/50023328277_6dc65bee2f_o.jpg",
    "id_image": "Puppy_921271",
    "count_view": 0
  },
  {
    "link_thumb": "https://live.staticflickr.com/65535/50023745778_1776bd956c_n.jpg",
    "id_album": "901523298",
    "description": "TreeFrog_386498",
    "title": "TreeFrog_386498",
    "link_img": "https://live.staticflickr.com/65535/50023745778_9b46e65df5_o.jpg",
    "id_image": "TreeFrog_386498",
    "count_view": 0
  },
  {
    "link_thumb": "https://live.staticflickr.com/65535/50016856088_ecca0ddf06_n.jpg",
    "id_album": "-1846011410",
    "description": "Bird_594003",
    "title": "Bird_594003",
    "link_img": "https://live.staticflickr.com/65535/50016856088_eaa7aa8ec9_o.jpg",
    "id_image": "Bird_594003",
    "count_view": 0
  },
  {
    "link_thumb": "https://live.staticflickr.com/65535/50022573717_4842c7de8e_n.jpg",
    "id_album": "1015034486",
    "description": "Muteswan_376047",
    "title": "Muteswan_376047",
    "link_img": "https://live.staticflickr.com/65535/50022573717_edbbda56bd_o.jpg",
    "id_image": "Muteswan_376047",
    "count_view": 0
  },
  {
    "link_thumb": "https://live.staticflickr.com/65535/50021258216_bda9381d46_n.jpg",
    "id_album": "-462831703",
    "description": "Cat_803447",
    "title": "Cat_803447",
    "link_img": "https://live.staticflickr.com/65535/50021258216_ed3ece3940_o.jpg",
    "id_image": "Cat_803447",
    "count_view": 0
  },
  {
    "link_thumb": "https://live.staticflickr.com/65535/50021592187_c9937b9e32_n.jpg",
    "id_album": "-804131074",
    "description": "Goat_10687",
    "title": "Goat_10687",
    "link_img": "https://live.staticflickr.com/65535/50021592187_58cf00e304_o.jpg",
    "id_image": "Goat_10687",
    "count_view": 0
  },
  {
    "link_thumb": "https://live.staticflickr.com/65535/50022413563_785bba22fc_n.jpg",
    "id_album": "-1431524681",
    "description": "Pug_904345",
    "title": "Pug_904345",
    "link_img": "https://live.staticflickr.com/65535/50022413563_009e9f3c72_o.jpg",
    "id_image": "Pug_904345",
    "count_view": 0
  },
  {
    "link_thumb": "https://live.staticflickr.com/65535/50022260556_430128b473_n.jpg",
    "id_album": "-784970094",
    "description": "Monkey_759321",
    "title": "Monkey_759321",
    "link_img": "https://live.staticflickr.com/65535/50022260556_98e9d1e01c_o.jpg",
    "id_image": "Monkey_759321",
    "count_view": 0
  },
  {
    "link_thumb": "https://live.staticflickr.com/65535/50021346366_4dc618439a_n.jpg",
    "id_album": "2060159334",
    "description": "GoldenRetriever_364238",
    "title": "GoldenRetriever_364238",
    "link_img": "https://live.staticflickr.com/65535/50021346366_3acfd196d1_o.jpg",
    "id_image": "GoldenRetriever_364238",
    "count_view": 0
  },
  {
    "link_thumb": "https://live.staticflickr.com/65535/50020822548_d88a13a049_n.jpg",
    "id_album": "2060159334",
    "description": "GoldenRetriever_889081",
    "title": "GoldenRetriever_889081",
    "link_img": "https://live.staticflickr.com/65535/50020822548_6598f904ee_o.jpg",
    "id_image": "GoldenRetriever_889081",
    "count_view": 0
  },
  {
    "link_thumb": "https://live.staticflickr.com/65535/50017950371_295e883c5b_n.jpg",
    "id_album": "-462831702",
    "description": "Cat_304537",
    "title": "Cat_304537",
    "link_img": "https://live.staticflickr.com/65535/50017950371_8375c7e255_o.jpg",
    "id_image": "Cat_304537",
    "count_view": 0
  },
  {
    "link_thumb": "https://live.staticflickr.com/65535/50019299146_c86c1fc6e5_n.jpg",
    "id_album": "-462831704",
    "description": "Cat_532997",
    "title": "Cat_532997",
    "link_img": "https://live.staticflickr.com/65535/50019299146_43508f73d5_o.jpg",
    "id_image": "Cat_532997",
    "count_view": 0
  },
  {
    "link_thumb": "https://live.staticflickr.com/65535/50020674958_25e71a90dd_n.jpg",
    "id_album": "-462831703",
    "description": "Cat_738230",
    "title": "Cat_738230",
    "link_img": "https://live.staticflickr.com/65535/50020674958_54c9145beb_o.jpg",
    "id_image": "Cat_738230",
    "count_view": 0
  },
  {
    "link_thumb": "https://live.staticflickr.com/65535/50021659787_e9c1bb8048_n.jpg",
    "id_album": "82558972",
    "description": "GuineaPig_367179",
    "title": "GuineaPig_367179",
    "link_img": "https://live.staticflickr.com/65535/50021659787_e2a740a496_o.jpg",
    "id_image": "GuineaPig_367179",
    "count_view": 0
  },
  {
    "link_thumb": "https://live.staticflickr.com/65535/50020719813_5f5ed825ee_n.jpg",
    "id_album": "-462831703",
    "description": "Cat_814490",
    "title": "Cat_814490",
    "link_img": "https://live.staticflickr.com/65535/50020719813_8588484558_o.jpg",
    "id_image": "Cat_814490",
    "count_view": 0
  },
  {
    "link_thumb": "https://live.staticflickr.com/65535/50017323163_af31f0f492_n.jpg",
    "id_album": "-462831705",
    "description": "Cat_207600",
    "title": "Cat_207600",
    "link_img": "https://live.staticflickr.com/65535/50017323163_749204ab6c_o.jpg",
    "id_image": "Cat_207600",
    "count_view": 0
  },
  {
    "link_thumb": "https://live.staticflickr.com/65535/50021622542_42ec3507d2_n.jpg",
    "id_album": "2060159334",
    "description": "GoldenRetriever_911384",
    "title": "GoldenRetriever_911384",
    "link_img": "https://live.staticflickr.com/65535/50021622542_84557c4a52_o.jpg",
    "id_image": "GoldenRetriever_911384",
    "count_view": 0
  },
  {
    "link_thumb": "https://live.staticflickr.com/65535/50021471092_e04fdece1d_n.jpg",
    "id_album": "-462831703",
    "description": "Cat_738451",
    "title": "Cat_738451",
    "link_img": "https://live.staticflickr.com/65535/50021471092_2e0199532c_o.jpg",
    "id_image": "Cat_738451",
    "count_view": 0
  },
  {
    "link_thumb": "https://live.staticflickr.com/65535/50020712482_b88c64bdb1_n.jpg",
    "id_album": "-149330231",
    "description": "Dog_543062",
    "title": "Dog_543062",
    "link_img": "https://live.staticflickr.com/65535/50020712482_a0a3b73510_o.jpg",
    "id_image": "Dog_543062",
    "count_view": 0
  },
  {
    "link_thumb": "https://live.staticflickr.com/65535/50016751838_a5753f161c_n.jpg",
    "id_album": "-1846011410",
    "description": "Bird_367251",
    "title": "Bird_367251",
    "link_img": "https://live.staticflickr.com/65535/50016751838_2f839221eb_o.jpg",
    "id_image": "Bird_367251",
    "count_view": 0
  },
  {
    "link_thumb": "https://live.staticflickr.com/65535/50021410058_0fa760f48b_n.jpg",
    "id_album": "1392348450",
    "description": "Leopard_835995",
    "title": "Leopard_835995",
    "link_img": "https://live.staticflickr.com/65535/50021410058_aa7287c3cd_o.jpg",
    "id_image": "Leopard_835995",
    "count_view": 0
  },
  {
    "link_thumb": "https://live.staticflickr.com/65535/50021184323_5a14848072_n.jpg",
    "id_album": "-843028318",
    "description": "Jaguar_443474",
    "title": "Jaguar_443474",
    "link_img": "https://live.staticflickr.com/65535/50021184323_ee7f3573fb_o.jpg",
    "id_image": "Jaguar_443474",
    "count_view": 0
  },
  {
    "link_thumb": "https://live.staticflickr.com/65535/50017536788_e9c006e4e5_n.jpg",
    "id_album": "-462831702",
    "description": "Cat_363881",
    "title": "Cat_363881",
    "link_img": "https://live.staticflickr.com/65535/50017536788_502dc91a04_o.jpg",
    "id_image": "Cat_363881",
    "count_view": 0
  },
  {
    "link_thumb": "https://live.staticflickr.com/65535/50021915752_4a26cd0d8d_n.jpg",
    "id_album": "1658866795",
    "description": "Insect_289238",
    "title": "Insect_289238",
    "link_img": "https://live.staticflickr.com/65535/50021915752_b866d9b231_o.jpg",
    "id_image": "Insect_289238",
    "count_view": 0
  },
  {
    "link_thumb": "https://live.staticflickr.com/65535/50020069146_95c53f58df_n.jpg",
    "id_album": "1903411565",
    "description": "Deer_975984",
    "title": "Deer_975984",
    "link_img": "https://live.staticflickr.com/65535/50020069146_a6a6a257e2_o.jpg",
    "id_image": "Deer_975984",
    "count_view": 0
  },
  {
    "link_thumb": "https://live.staticflickr.com/65535/50021971197_41e7f62d36_n.jpg",
    "id_album": "-843028318",
    "description": "Jaguar_241689",
    "title": "Jaguar_241689",
    "link_img": "https://live.staticflickr.com/65535/50021971197_81d7ccf752_o.jpg",
    "id_image": "Jaguar_241689",
    "count_view": 0
  },
  {
    "link_thumb": "https://live.staticflickr.com/65535/50351964688_b12931830c_n.jpg",
    "id_album": "-462831703",
    "description": "Cat_746308",
    "title": "Cat_746308",
    "link_img": "https://live.staticflickr.com/65535/50351964688_b017c9aac7_o.jpg",
    "id_image": "Cat_746308",
    "count_view": 0
  },
  {
    "link_thumb": "https://live.staticflickr.com/65535/50016581843_f607ae0343_n.jpg",
    "id_album": "-422187261",
    "description": "Bear_950106",
    "title": "Bear_950106",
    "link_img": "https://live.staticflickr.com/65535/50016581843_3e042d26d8_o.jpg",
    "id_image": "Bear_950106",
    "count_view": 0
  },
  {
    "link_thumb": "https://live.staticflickr.com/65535/50017673436_0af2428d16_n.jpg",
    "id_album": "-401151552",
    "description": "Butterfly_815864",
    "title": "Butterfly_815864",
    "link_img": "https://live.staticflickr.com/65535/50017673436_e3c0cb26a3_o.jpg",
    "id_image": "Butterfly_815864",
    "count_view": 0
  },
  {
    "link_thumb": "https://live.staticflickr.com/65535/50017353758_6cec436286_n.jpg",
    "id_album": "-462831705",
    "description": "Cat_235798",
    "title": "Cat_235798",
    "link_img": "https://live.staticflickr.com/65535/50017353758_d7b82de032_o.jpg",
    "id_image": "Cat_235798",
    "count_view": 0
  },
  {
    "link_thumb": "https://live.staticflickr.com/65535/50021548901_c1e6661a41_n.jpg",
    "id_album": "-1933715543",
    "description": "Horse_657219",
    "title": "Horse_657219",
    "link_img": "https://live.staticflickr.com/65535/50021548901_487899e90f_o.jpg",
    "id_image": "Horse_657219",
    "count_view": 0
  },
  {
    "link_thumb": "https://live.staticflickr.com/65535/50019291938_5b739299a9_n.jpg",
    "id_album": "-1868680171",
    "description": "Cougar_552744",
    "title": "Cougar_552744",
    "link_img": "https://live.staticflickr.com/65535/50019291938_80b09da6c1_o.jpg",
    "id_image": "Cougar_552744",
    "count_view": 0
  },
  {
    "link_thumb": "https://live.staticflickr.com/65535/50020237991_82c58dde2b_n.jpg",
    "id_album": "-149330232",
    "description": "Dog_323387",
    "title": "Dog_323387",
    "link_img": "https://live.staticflickr.com/65535/50020237991_3f669e1792_o.jpg",
    "id_image": "Dog_323387",
    "count_view": 0
  },
  {
    "link_thumb": "https://live.staticflickr.com/65535/50021832071_75568a75d8_n.jpg",
    "id_album": "1307335982",
    "description": "LabradorRetriever_734383",
    "title": "LabradorRetriever_734383",
    "link_img": "https://live.staticflickr.com/65535/50021832071_b95c2f6aa8_o.jpg",
    "id_image": "LabradorRetriever_734383",
    "count_view": 0
  },
  {
    "link_thumb": "https://live.staticflickr.com/65535/50023679203_8631833538_n.jpg",
    "id_album": "405170427",
    "description": "Tiger_856014",
    "title": "Tiger_856014",
    "link_img": "https://live.staticflickr.com/65535/50023679203_01a33279e9_o.jpg",
    "id_image": "Tiger_856014",
    "count_view": 0
  },
  {
    "link_thumb": "https://live.staticflickr.com/65535/50022209272_42b22e3de7_n.jpg",
    "id_album": "1392348450",
    "description": "Leopard_812022",
    "title": "Leopard_812022",
    "link_img": "https://live.staticflickr.com/65535/50022209272_d32452971d_o.jpg",
    "id_image": "Leopard_812022",
    "count_view": 0
  },
  {
    "link_thumb": "https://live.staticflickr.com/65535/50016740898_cb4c671e1e_n.jpg",
    "id_album": "-1846011410",
    "description": "Bird_354245",
    "title": "Bird_354245",
    "link_img": "https://live.staticflickr.com/65535/50016740898_d6c2d1560a_o.jpg",
    "id_image": "Bird_354245",
    "count_view": 0
  },
  {
    "link_thumb": "https://live.staticflickr.com/65535/50021365431_7ed96875e1_n.jpg",
    "id_album": "2060159334",
    "description": "GoldenRetriever_891389",
    "title": "GoldenRetriever_891389",
    "link_img": "https://live.staticflickr.com/65535/50021365431_2bdba19c9a_o.jpg",
    "id_image": "GoldenRetriever_891389",
    "count_view": 0
  },
  {
    "link_thumb": "https://live.staticflickr.com/65535/50021445598_9533ba8f0f_n.jpg",
    "id_album": "416744915",
    "description": "Lion_283321",
    "title": "Lion_283321",
    "link_img": "https://live.staticflickr.com/65535/50021445598_113257d9dc_o.jpg",
    "id_image": "Lion_283321",
    "count_view": 0
  },
  {
    "link_thumb": "https://live.staticflickr.com/65535/50023689913_28bf0fa77d_n.jpg",
    "id_album": "405170427",
    "description": "Tiger_901724",
    "title": "Tiger_901724",
    "link_img": "https://live.staticflickr.com/65535/50023689913_fe0a26cde1_o.jpg",
    "id_image": "Tiger_901724",
    "count_view": 0
  },
  {
    "link_thumb": "https://live.staticflickr.com/65535/50023240581_d9a3bc7b0e_n.jpg",
    "id_album": "332874268",
    "description": "RedPanda_994874",
    "title": "RedPanda_994874",
    "link_img": "https://live.staticflickr.com/65535/50023240581_ef982a2763_o.jpg",
    "id_image": "RedPanda_994874",
    "count_view": 0
  },
  {
    "link_thumb": "https://live.staticflickr.com/65535/50017325356_9c652ed6b4_n.jpg",
    "id_album": "-1846011410",
    "description": "Bird_426863",
    "title": "Bird_426863",
    "link_img": "https://live.staticflickr.com/65535/50017325356_8a4cb872de_o.jpg",
    "id_image": "Bird_426863",
    "count_view": 0
  },
  {
    "link_thumb": "https://live.staticflickr.com/65535/50019845348_90c0abea81_n.jpg",
    "id_album": "-149330231",
    "description": "Dog_404281",
    "title": "Dog_404281",
    "link_img": "https://live.staticflickr.com/65535/50019845348_9f78604592_o.jpg",
    "id_image": "Dog_404281",
    "count_view": 0
  },
  {
    "link_thumb": "https://live.staticflickr.com/65535/50021260258_225ba00553_n.jpg",
    "id_album": "770105808",
    "description": "Kingfisher_555333",
    "title": "Kingfisher_555333",
    "link_img": "https://live.staticflickr.com/65535/50021260258_dba573a66d_o.jpg",
    "id_image": "Kingfisher_555333",
    "count_view": 0
  },
  {
    "link_thumb": "https://live.staticflickr.com/65535/50020869091_d7059ddca0_n.jpg",
    "id_album": "-1118073211",
    "description": "Fish_607734",
    "title": "Fish_607734",
    "link_img": "https://live.staticflickr.com/65535/50020869091_a5b97fba4f_o.jpg",
    "id_image": "Fish_607734",
    "count_view": 0
  },
  {
    "link_thumb": "https://live.staticflickr.com/65535/50020685256_2265c86dd2_n.jpg",
    "id_album": "-39098563",
    "description": "Eagle_234440",
    "title": "Eagle_234440",
    "link_img": "https://live.staticflickr.com/65535/50020685256_a574c27d18_o.jpg",
    "id_image": "Eagle_234440",
    "count_view": 0
  },
  {
    "link_thumb": "https://live.staticflickr.com/65535/50017100107_df911bc41e_n.jpg",
    "id_album": "-1741290715",
    "description": "Ant_800598",
    "title": "Ant_800598",
    "link_img": "https://live.staticflickr.com/65535/50017100107_3d6465725c_o.jpg",
    "id_image": "Ant_800598",
    "count_view": 0
  },
  {
    "link_thumb": "https://live.staticflickr.com/65535/50022817032_171fa35772_n.jpg",
    "id_album": "405592235",
    "description": "Parrot_225206",
    "title": "Parrot_225206",
    "link_img": "https://live.staticflickr.com/65535/50022817032_8886d4f07c_o.jpg",
    "id_image": "Parrot_225206",
    "count_view": 0
  },
  {
    "link_thumb": "https://live.staticflickr.com/65535/50016555488_7cac7ef51e_n.jpg",
    "id_album": "-422187261",
    "description": "Bear_789633",
    "title": "Bear_789633",
    "link_img": "https://live.staticflickr.com/65535/50016555488_65c84249df_o.jpg",
    "id_image": "Bear_789633",
    "count_view": 0
  },
  {
    "link_thumb": "https://live.staticflickr.com/65535/50024306441_fdd3942b2e_n.jpg",
    "id_album": "46520366",
    "description": "Turtle_354207",
    "title": "Turtle_354207",
    "link_img": "https://live.staticflickr.com/65535/50024306441_1132d56df8_o.jpg",
    "id_image": "Turtle_354207",
    "count_view": 0
  },
  {
    "link_thumb": "https://live.staticflickr.com/65535/50021599192_2f26e1707d_n.jpg",
    "id_album": "-804131074",
    "description": "Goat_856295",
    "title": "Goat_856295",
    "link_img": "https://live.staticflickr.com/65535/50021599192_4cfc25434a_o.jpg",
    "id_image": "Goat_856295",
    "count_view": 0
  },
  {
    "link_thumb": "https://live.staticflickr.com/65535/50020726918_a83474dc17_n.jpg",
    "id_album": "-462831703",
    "description": "Cat_830141",
    "title": "Cat_830141",
    "link_img": "https://live.staticflickr.com/65535/50020726918_99095d3eed_o.jpg",
    "id_image": "Cat_830141",
    "count_view": 0
  },
  {
    "link_thumb": "https://live.staticflickr.com/65535/50023749093_d56ea314a8_n.jpg",
    "id_album": "901523298",
    "description": "TreeFrog_591704",
    "title": "TreeFrog_591704",
    "link_img": "https://live.staticflickr.com/65535/50023749093_2b627ee3f7_o.jpg",
    "id_image": "TreeFrog_591704",
    "count_view": 0
  },
  {
    "link_thumb": "https://live.staticflickr.com/65535/50021140498_82aa13a660_n.jpg",
    "id_album": "1658866795",
    "description": "Insect_403960",
    "title": "Insect_403960",
    "link_img": "https://live.staticflickr.com/65535/50021140498_fce4dac48a_o.jpg",
    "id_image": "Insect_403960",
    "count_view": 0
  },
  {
    "link_thumb": "https://live.staticflickr.com/65535/50019649166_c6a100c137_n.jpg",
    "id_album": "-766919393",
    "description": "Chameleon_415423",
    "title": "Chameleon_415423",
    "link_img": "https://live.staticflickr.com/65535/50019649166_2ca192531e_o.jpg",
    "id_image": "Chameleon_415423",
    "count_view": 0
  },
  {
    "link_thumb": "https://live.staticflickr.com/65535/50019194206_dd2815c666_n.jpg",
    "id_album": "-462831704",
    "description": "Cat_434567",
    "title": "Cat_434567",
    "link_img": "https://live.staticflickr.com/65535/50019194206_9b7d70c072_o.jpg",
    "id_image": "Cat_434567",
    "count_view": 0
  },
  {
    "link_thumb": "https://live.staticflickr.com/65535/50021757628_d2139a0cc3_n.jpg",
    "id_album": "1957967135",
    "description": "Mouse_877422",
    "title": "Mouse_877422",
    "link_img": "https://live.staticflickr.com/65535/50021757628_803a41b4a5_o.jpg",
    "id_image": "Mouse_877422",
    "count_view": 0
  },
  {
    "link_thumb": "https://live.staticflickr.com/65535/50017516891_a08584a75f_n.jpg",
    "id_album": "1696155652",
    "description": "Boxer_262708",
    "title": "Boxer_262708",
    "link_img": "https://live.staticflickr.com/65535/50017516891_1c4b1bd334_o.jpg",
    "id_image": "Boxer_262708",
    "count_view": 0
  },
  {
    "link_thumb": "https://live.staticflickr.com/65535/50021304616_93d2cef433_n.jpg",
    "id_album": "-405626519",
    "description": "GermanShepherd_857137",
    "title": "GermanShepherd_857137",
    "link_img": "https://live.staticflickr.com/65535/50021304616_5ecd028410_o.jpg",
    "id_image": "GermanShepherd_857137",
    "count_view": 0
  },
  {
    "link_thumb": "https://live.staticflickr.com/65535/50020227593_0105d72843_n.jpg",
    "id_album": "1270947998",
    "description": "Elephant_466866",
    "title": "Elephant_466866",
    "link_img": "https://live.staticflickr.com/65535/50020227593_cc2b87f053_o.jpg",
    "id_image": "Elephant_466866",
    "count_view": 0
  },
  {
    "link_thumb": "https://live.staticflickr.com/65535/50020899328_66a79944cb_n.jpg",
    "id_album": "1469520430",
    "description": "Hedgehog_986829",
    "title": "Hedgehog_986829",
    "link_img": "https://live.staticflickr.com/65535/50020899328_2bf728ce73_o.jpg",
    "id_image": "Hedgehog_986829",
    "count_view": 0
  },
  {
    "link_thumb": "https://live.staticflickr.com/65535/50020698676_33ae86d65c_n.jpg",
    "id_album": "-39098563",
    "description": "Eagle_361503",
    "title": "Eagle_361503",
    "link_img": "https://live.staticflickr.com/65535/50020698676_ab96e7e45a_o.jpg",
    "id_image": "Eagle_361503",
    "count_view": 0
  },
  {
    "link_thumb": "https://live.staticflickr.com/65535/50020458858_8a23ea3ac0_n.jpg",
    "id_album": "-128218148",
    "description": "Fox_767524",
    "title": "Fox_767524",
    "link_img": "https://live.staticflickr.com/65535/50020458858_81bae20ba1_o.jpg",
    "id_image": "Fox_767524",
    "count_view": 0
  },
  {
    "link_thumb": "https://live.staticflickr.com/65535/50016993816_72ba2bf237_n.jpg",
    "id_album": "809937717",
    "description": "Beagle_727145",
    "title": "Beagle_727145",
    "link_img": "https://live.staticflickr.com/65535/50016993816_808b8575a5_o.jpg",
    "id_image": "Beagle_727145",
    "count_view": 0
  },
  {
    "link_thumb": "https://live.staticflickr.com/65535/50020011193_74260c5cfe_n.jpg",
    "id_album": "-149330231",
    "description": "Dog_918950",
    "title": "Dog_918950",
    "link_img": "https://live.staticflickr.com/65535/50020011193_6ef821c36d_o.jpg",
    "id_image": "Dog_918950",
    "count_view": 0
  },
  {
    "link_thumb": "https://live.staticflickr.com/65535/50020146628_4af34493d3_n.jpg",
    "id_album": "-39098563",
    "description": "Eagle_114308",
    "title": "Eagle_114308",
    "link_img": "https://live.staticflickr.com/65535/50020146628_f6b17b9110_o.jpg",
    "id_image": "Eagle_114308",
    "count_view": 0
  },
  {
    "link_thumb": "https://live.staticflickr.com/65535/50023720668_a8636dbf42_n.jpg",
    "id_album": "-809392728",
    "description": "Titmouse_925210",
    "title": "Titmouse_925210",
    "link_img": "https://live.staticflickr.com/65535/50023720668_6866ecc5fa_o.jpg",
    "id_image": "Titmouse_925210",
    "count_view": 0
  },
  {
    "link_thumb": "https://live.staticflickr.com/65535/50021832356_d33866445e_n.jpg",
    "id_album": "1307335982",
    "description": "LabradorRetriever_740453",
    "title": "LabradorRetriever_740453",
    "link_img": "https://live.staticflickr.com/65535/50021832356_6a0b9d67de_o.jpg",
    "id_image": "LabradorRetriever_740453",
    "count_view": 0
  },
  {
    "link_thumb": "https://live.staticflickr.com/65535/50020376247_ea166ffa1f_n.jpg",
    "id_album": "-149330232",
    "description": "Dog_113328",
    "title": "Dog_113328",
    "link_img": "https://live.staticflickr.com/65535/50020376247_eec73ca3c7_o.jpg",
    "id_image": "Dog_113328",
    "count_view": 0
  },
  {
    "link_thumb": "https://live.staticflickr.com/65535/50017340903_b59230a31a_n.jpg",
    "id_album": "-462831705",
    "description": "Cat_218831",
    "title": "Cat_218831",
    "link_img": "https://live.staticflickr.com/65535/50017340903_f18ca00bae_o.jpg",
    "id_image": "Cat_218831",
    "count_view": 0
  },
  {
    "link_thumb": "https://live.staticflickr.com/65535/50019804796_027e3675a4_n.jpg",
    "id_album": "-1868680171",
    "description": "Cougar_330284",
    "title": "Cougar_330284",
    "link_img": "https://live.staticflickr.com/65535/50019804796_187056b768_o.jpg",
    "id_image": "Cougar_330284",
    "count_view": 0
  },
  {
    "link_thumb": "https://live.staticflickr.com/65535/50024082797_bf0f9e0e6a_n.jpg",
    "id_album": "702283289",
    "description": "Squirrel_315291",
    "title": "Squirrel_315291",
    "link_img": "https://live.staticflickr.com/65535/50024082797_951d078b27_o.jpg",
    "id_image": "Squirrel_315291",
    "count_view": 0
  },
  {
    "link_thumb": "https://live.staticflickr.com/65535/50019181793_ae243d0682_n.jpg",
    "id_album": "-1481843714",
    "description": "Cheetah_458505",
    "title": "Cheetah_458505",
    "link_img": "https://live.staticflickr.com/65535/50019181793_7a891ce221_o.jpg",
    "id_image": "Cheetah_458505",
    "count_view": 0
  },
  {
    "link_thumb": "https://live.staticflickr.com/65535/50016631493_6eaa8614ba_n.jpg",
    "id_album": "1699594607",
    "description": "Bee_724396",
    "title": "Bee_724396",
    "link_img": "https://live.staticflickr.com/65535/50016631493_4d9a00bedf_o.jpg",
    "id_image": "Bee_724396",
    "count_view": 0
  },
  {
    "link_thumb": "https://live.staticflickr.com/65535/50017295526_7669f23c13_n.jpg",
    "id_album": "-1846011410",
    "description": "Bird_390618",
    "title": "Bird_390618",
    "link_img": "https://live.staticflickr.com/65535/50017295526_9e4a8e29d7_o.jpg",
    "id_image": "Bird_390618",
    "count_view": 0
  },
  {
    "link_thumb": "https://live.staticflickr.com/65535/50016644163_d63c6940c8_n.jpg",
    "id_album": "1699594607",
    "description": "Bee_946324",
    "title": "Bee_946324",
    "link_img": "https://live.staticflickr.com/65535/50016644163_f6221b4b6f_o.jpg",
    "id_image": "Bee_946324",
    "count_view": 0
  },
  {
    "link_thumb": "https://live.staticflickr.com/65535/50023043756_5a8eb92ca5_n.jpg",
    "id_album": "-353898617",
    "description": "Puppy_661288",
    "title": "Puppy_661288",
    "link_img": "https://live.staticflickr.com/65535/50023043756_7f45a57a13_o.jpg",
    "id_image": "Puppy_661288",
    "count_view": 0
  },
  {
    "link_thumb": "https://live.staticflickr.com/65535/50352639932_bf32e05e26_n.jpg",
    "id_album": "-462831703",
    "description": "Cat_374120",
    "title": "Cat_374120",
    "link_img": "https://live.staticflickr.com/65535/50352639932_b40652ee12_o.jpg",
    "id_image": "Cat_374120",
    "count_view": 0
  },
  {
    "link_thumb": "https://live.staticflickr.com/65535/50018312192_fc0385ec91_n.jpg",
    "id_album": "-462831702",
    "description": "Cat_359747",
    "title": "Cat_359747",
    "link_img": "https://live.staticflickr.com/65535/50018312192_fa8250ea5f_o.jpg",
    "id_image": "Cat_359747",
    "count_view": 0
  },
  {
    "link_thumb": "https://live.staticflickr.com/65535/50018415342_914e23fc58_n.jpg",
    "id_album": "-462831702",
    "description": "Cat_408040",
    "title": "Cat_408040",
    "link_img": "https://live.staticflickr.com/65535/50018415342_bb18c13922_o.jpg",
    "id_image": "Cat_408040",
    "count_view": 0
  },
  {
    "link_thumb": "https://live.staticflickr.com/65535/50020151873_2249babe2b_n.jpg",
    "id_album": "-39098563",
    "description": "Eagle_250261",
    "title": "Eagle_250261",
    "link_img": "https://live.staticflickr.com/65535/50020151873_3f5ae99fa7_o.jpg",
    "id_image": "Eagle_250261",
    "count_view": 0
  },
  {
    "link_thumb": "https://live.staticflickr.com/65535/50021404698_54e79fbffb_n.jpg",
    "id_album": "1392348450",
    "description": "Leopard_734487",
    "title": "Leopard_734487",
    "link_img": "https://live.staticflickr.com/65535/50021404698_7469e70c1c_o.jpg",
    "id_image": "Leopard_734487",
    "count_view": 0
  },
  {
    "link_thumb": "https://live.staticflickr.com/65535/50022738353_0347e9fd65_n.jpg",
    "id_album": "48367914",
    "description": "Rhino_404828",
    "title": "Rhino_404828",
    "link_img": "https://live.staticflickr.com/65535/50022738353_3ace369503_o.jpg",
    "id_image": "Rhino_404828",
    "count_view": 0
  },
  {
    "link_thumb": "https://live.staticflickr.com/65535/50019570467_fe2a7d2acc_n.jpg",
    "id_album": "-462831703",
    "description": "Cat_841546",
    "title": "Cat_841546",
    "link_img": "https://live.staticflickr.com/65535/50019570467_95f853e69e_o.jpg",
    "id_image": "Cat_841546",
    "count_view": 0
  },
  {
    "link_thumb": "https://live.staticflickr.com/65535/50024418067_8bb858ffa0_n.jpg",
    "id_album": "405170427",
    "description": "Tiger_543447",
    "title": "Tiger_543447",
    "link_img": "https://live.staticflickr.com/65535/50024418067_2718c17ee3_o.jpg",
    "id_image": "Tiger_543447",
    "count_view": 0
  },
  {
    "link_thumb": "https://live.staticflickr.com/65535/50017532541_d29d9d904f_n.jpg",
    "id_album": "-401151552",
    "description": "Butterfly_111076",
    "title": "Butterfly_111076",
    "link_img": "https://live.staticflickr.com/65535/50017532541_3fdbee56fa_o.jpg",
    "id_image": "Butterfly_111076",
    "count_view": 0
  },
  {
    "link_thumb": "https://live.staticflickr.com/65535/50022173468_d45532a214_n.jpg",
    "id_album": "392248205",
    "description": "Penguin_72629",
    "title": "Penguin_72629",
    "link_img": "https://live.staticflickr.com/65535/50022173468_b2637425a2_o.jpg",
    "id_image": "Penguin_72629",
    "count_view": 0
  },
  {
    "link_thumb": "https://live.staticflickr.com/65535/50351949868_e59940719c_n.jpg",
    "id_album": "-462831703",
    "description": "Cat_690961",
    "title": "Cat_690961",
    "link_img": "https://live.staticflickr.com/65535/50351949868_af8c166386_o.jpg",
    "id_image": "Cat_690961",
    "count_view": 0
  },
  {
    "link_thumb": "https://live.staticflickr.com/65535/50017732356_b4c5fd3875_n.jpg",
    "id_album": "189994021",
    "description": "Cardinal_367680",
    "title": "Cardinal_367680",
    "link_img": "https://live.staticflickr.com/65535/50017732356_a8af5fd319_o.jpg",
    "id_image": "Cardinal_367680",
    "count_view": 0
  },
  {
    "link_thumb": "https://live.staticflickr.com/65535/50019655367_69057390fc_n.jpg",
    "id_album": "-462831703",
    "description": "Cat_887815",
    "title": "Cat_887815",
    "link_img": "https://live.staticflickr.com/65535/50019655367_29371434c6_o.jpg",
    "id_image": "Cat_887815",
    "count_view": 0
  },
  {
    "link_thumb": "https://live.staticflickr.com/65535/50016888101_6e516cb322_n.jpg",
    "id_album": "523598895",
    "description": "Artistic_246116",
    "title": "Artistic_246116",
    "link_img": "https://live.staticflickr.com/65535/50016888101_87a60186bf_o.jpg",
    "id_image": "Artistic_246116",
    "count_view": 0
  },
  {
    "link_thumb": "https://live.staticflickr.com/65535/50024368097_1ed158510c_n.jpg",
    "id_album": "405170427",
    "description": "Tiger_385800",
    "title": "Tiger_385800",
    "link_img": "https://live.staticflickr.com/65535/50024368097_021fc481df_o.jpg",
    "id_image": "Tiger_385800",
    "count_view": 0
  },
  {
    "link_thumb": "https://live.staticflickr.com/65535/50022209013_93266db6af_n.jpg",
    "id_album": "407660898",
    "description": "Pigeon_275235",
    "title": "Pigeon_275235",
    "link_img": "https://live.staticflickr.com/65535/50022209013_68d561a7fc_o.jpg",
    "id_image": "Pigeon_275235",
    "count_view": 0
  },
  {
    "link_thumb": "https://live.staticflickr.com/65535/50017119936_b2c32349da_n.jpg",
    "id_album": "1699594607",
    "description": "Bee_234168",
    "title": "Bee_234168",
    "link_img": "https://live.staticflickr.com/65535/50017119936_fa83c23e1f_o.jpg",
    "id_image": "Bee_234168",
    "count_view": 0
  },
  {
    "link_thumb": "https://live.staticflickr.com/65535/50019092063_c0642acd0b_n.jpg",
    "id_album": "1889777354",
    "description": "CGI_224334",
    "title": "CGI_224334",
    "link_img": "https://live.staticflickr.com/65535/50019092063_0abe77573b_o.jpg",
    "id_image": "CGI_224334",
    "count_view": 0
  },
  {
    "link_thumb": "https://live.staticflickr.com/65535/50023099116_7137931527_n.jpg",
    "id_album": "-1940643173",
    "description": "Rabbit_364835",
    "title": "Rabbit_364835",
    "link_img": "https://live.staticflickr.com/65535/50023099116_5fb655b4cb_o.jpg",
    "id_image": "Rabbit_364835",
    "count_view": 0
  },
  {
    "link_thumb": "https://live.staticflickr.com/65535/50352637482_b519ff7f83_n.jpg",
    "id_album": "-462831703",
    "description": "Cat_373217",
    "title": "Cat_373217",
    "link_img": "https://live.staticflickr.com/65535/50352637482_4668681a9c_o.jpg",
    "id_image": "Cat_373217",
    "count_view": 0
  },
  {
    "link_thumb": "https://live.staticflickr.com/65535/50020716478_626012b1ca_n.jpg",
    "id_album": "-462831703",
    "description": "Cat_804022",
    "title": "Cat_804022",
    "link_img": "https://live.staticflickr.com/65535/50020716478_1eaf250bfe_o.jpg",
    "id_image": "Cat_804022",
    "count_view": 0
  },
  {
    "link_thumb": "https://live.staticflickr.com/65535/50016938266_cf32bbf355_n.jpg",
    "id_album": "390697200",
    "description": "AustralianShepherd_835300",
    "title": "AustralianShepherd_835300",
    "link_img": "https://live.staticflickr.com/65535/50016938266_c04aa169b8_o.jpg",
    "id_image": "AustralianShepherd_835300",
    "count_view": 0
  },
  {
    "link_thumb": "https://live.staticflickr.com/65535/50016897801_a13d8e47c3_n.jpg",
    "id_album": "523598895",
    "description": "Artistic_343794",
    "title": "Artistic_343794",
    "link_img": "https://live.staticflickr.com/65535/50016897801_4e8b6afac8_o.jpg",
    "id_image": "Artistic_343794",
    "count_view": 0
  },
  {
    "link_thumb": "https://live.staticflickr.com/65535/50017435847_f071790b77_n.jpg",
    "id_album": "172748811",
    "description": "Beeeater_669378",
    "title": "Beeeater_669378",
    "link_img": "https://live.staticflickr.com/65535/50017435847_ec82630f80_o.jpg",
    "id_image": "Beeeater_669378",
    "count_view": 0
  },
  {
    "link_thumb": "https://live.staticflickr.com/65535/50019884507_1a52e2ea79_n.jpg",
    "id_album": "1889777354",
    "description": "CGI_443185",
    "title": "CGI_443185",
    "link_img": "https://live.staticflickr.com/65535/50019884507_7db3d1e6ee_o.jpg",
    "id_image": "CGI_443185",
    "count_view": 0
  },
  {
    "link_thumb": "https://live.staticflickr.com/65535/50021846716_bf2b32e572_n.jpg",
    "id_album": "-1882491687",
    "description": "Ladybug_385377",
    "title": "Ladybug_385377",
    "link_img": "https://live.staticflickr.com/65535/50021846716_818b5ec6cf_o.jpg",
    "id_image": "Ladybug_385377",
    "count_view": 0
  },
  {
    "link_thumb": "https://live.staticflickr.com/65535/50021900976_4dd8ffb9ef_n.jpg",
    "id_album": "1392348450",
    "description": "Leopard_347061",
    "title": "Leopard_347061",
    "link_img": "https://live.staticflickr.com/65535/50021900976_755aa9ac8d_o.jpg",
    "id_image": "Leopard_347061",
    "count_view": 0
  },
  {
    "link_thumb": "https://live.staticflickr.com/65535/50022633922_aa36d906a4_n.jpg",
    "id_album": "-1384601601",
    "description": "Owl_128917",
    "title": "Owl_128917",
    "link_img": "https://live.staticflickr.com/65535/50022633922_93039e0780_o.jpg",
    "id_image": "Owl_128917",
    "count_view": 0
  },
  {
    "link_thumb": "https://live.staticflickr.com/65535/50022102112_f41c2e44b2_n.jpg",
    "id_album": "-1882491687",
    "description": "Ladybug_381568",
    "title": "Ladybug_381568",
    "link_img": "https://live.staticflickr.com/65535/50022102112_ee8942e0a4_o.jpg",
    "id_image": "Ladybug_381568",
    "count_view": 0
  },
  {
    "link_thumb": "https://live.staticflickr.com/65535/50022194302_fb6fa45425_n.jpg",
    "id_album": "1392348450",
    "description": "Leopard_570921",
    "title": "Leopard_570921",
    "link_img": "https://live.staticflickr.com/65535/50022194302_89e5456ab2_o.jpg",
    "id_image": "Leopard_570921",
    "count_view": 0
  },
  {
    "link_thumb": "https://live.staticflickr.com/65535/50019992301_e6b4164785_n.jpg",
    "id_album": "1903411565",
    "description": "Deer_329707",
    "title": "Deer_329707",
    "link_img": "https://live.staticflickr.com/65535/50019992301_a3b037117a_o.jpg",
    "id_image": "Deer_329707",
    "count_view": 0
  },
  {
    "link_thumb": "https://live.staticflickr.com/65535/50020335266_f9c3457f57_n.jpg",
    "id_album": "-149330232",
    "description": "Dog_367451",
    "title": "Dog_367451",
    "link_img": "https://live.staticflickr.com/65535/50020335266_287bbe1193_o.jpg",
    "id_image": "Dog_367451",
    "count_view": 0
  },
  {
    "link_thumb": "https://live.staticflickr.com/65535/50023449858_d6185d5cbd_n.jpg",
    "id_album": "1244464375",
    "description": "Starfish_454380",
    "title": "Starfish_454380",
    "link_img": "https://live.staticflickr.com/65535/50023449858_7155ae17ca_o.jpg",
    "id_image": "Starfish_454380",
    "count_view": 0
  },
  {
    "link_thumb": "https://live.staticflickr.com/65535/50016987663_4ccd12a222_n.jpg",
    "id_album": "782930701",
    "description": "BorderCollie_978402",
    "title": "BorderCollie_978402",
    "link_img": "https://live.staticflickr.com/65535/50016987663_94d4918316_o.jpg",
    "id_image": "BorderCollie_978402",
    "count_view": 0
  },
  {
    "link_thumb": "https://live.staticflickr.com/65535/50024414716_c7d17c7b4f_n.jpg",
    "id_album": "545627045",
    "description": "Whitestork_431651",
    "title": "Whitestork_431651",
    "link_img": "https://live.staticflickr.com/65535/50024414716_ff87e23a42_o.jpg",
    "id_image": "Whitestork_431651",
    "count_view": 0
  },
  {
    "link_thumb": "https://live.staticflickr.com/65535/50021052836_409ec7b50b_n.jpg",
    "id_album": "844170697",
    "description": "Frog_242888",
    "title": "Frog_242888",
    "link_img": "https://live.staticflickr.com/65535/50021052836_0d5ed2ef13_o.jpg",
    "id_image": "Frog_242888",
    "count_view": 0
  },
  {
    "link_thumb": "https://live.staticflickr.com/65535/50019493771_79eb3139b3_n.jpg",
    "id_album": "-462831703",
    "description": "Cat_936941",
    "title": "Cat_936941",
    "link_img": "https://live.staticflickr.com/65535/50019493771_bca1c74e27_o.jpg",
    "id_image": "Cat_936941",
    "count_view": 0
  },
  {
    "link_thumb": "https://live.staticflickr.com/65535/50023084516_3892e90568_n.jpg",
    "id_album": "470794721",
    "description": "Python_878154",
    "title": "Python_878154",
    "link_img": "https://live.staticflickr.com/65535/50023084516_8b69bd5371_o.jpg",
    "id_image": "Python_878154",
    "count_view": 0
  },
  {
    "link_thumb": "https://live.staticflickr.com/65535/50023319012_3d63bc551e_n.jpg",
    "id_album": "-353898617",
    "description": "Puppy_799325",
    "title": "Puppy_799325",
    "link_img": "https://live.staticflickr.com/65535/50023319012_1b915c43d7_o.jpg",
    "id_image": "Puppy_799325",
    "count_view": 0
  },
  {
    "link_thumb": "https://live.staticflickr.com/65535/50019510327_5c4a73746c_n.jpg",
    "id_album": "-462831704",
    "description": "Cat_485915",
    "title": "Cat_485915",
    "link_img": "https://live.staticflickr.com/65535/50019510327_9af08a5d86_o.jpg",
    "id_image": "Cat_485915",
    "count_view": 0
  },
  {
    "link_thumb": "https://live.staticflickr.com/65535/50022419367_6ef1cdabcb_n.jpg",
    "id_album": "1894617400",
    "description": "Lynx_754621",
    "title": "Lynx_754621",
    "link_img": "https://live.staticflickr.com/65535/50022419367_b0ae8e40a0_o.jpg",
    "id_image": "Lynx_754621",
    "count_view": 0
  },
  {
    "link_thumb": "https://live.staticflickr.com/65535/50023504148_e2f89cf0da_n.jpg",
    "id_album": "405170427",
    "description": "Tiger_248480",
    "title": "Tiger_248480",
    "link_img": "https://live.staticflickr.com/65535/50023504148_7aaa9987be_o.jpg",
    "id_image": "Tiger_248480",
    "count_view": 0
  },
  {
    "link_thumb": "https://live.staticflickr.com/65535/50021200301_e84aaa6d6b_n.jpg",
    "id_album": "-462831704",
    "description": "Cat_717197",
    "title": "Cat_717197",
    "link_img": "https://live.staticflickr.com/65535/50021200301_c0093f0015_o.jpg",
    "id_image": "Cat_717197",
    "count_view": 0
  },
  {
    "link_thumb": "https://live.staticflickr.com/65535/50018993383_92850c7cd6_n.jpg",
    "id_album": "-462831703",
    "description": "Cat_960300",
    "title": "Cat_960300",
    "link_img": "https://live.staticflickr.com/65535/50018993383_3a7231cff9_o.jpg",
    "id_image": "Cat_960300",
    "count_view": 0
  },
  {
    "link_thumb": "https://live.staticflickr.com/65535/50020256712_8d9b30c4c9_n.jpg",
    "id_album": "1903411565",
    "description": "Deer_367468",
    "title": "Deer_367468",
    "link_img": "https://live.staticflickr.com/65535/50020256712_f4089ec7ae_o.jpg",
    "id_image": "Deer_367468",
    "count_view": 0
  },
  {
    "link_thumb": "https://live.staticflickr.com/65535/50021766926_aefa9ba193_n.jpg",
    "id_album": "1562047127",
    "description": "Jellyfish_528775",
    "title": "Jellyfish_528775",
    "link_img": "https://live.staticflickr.com/65535/50021766926_bf1a94000e_o.jpg",
    "id_image": "Jellyfish_528775",
    "count_view": 0
  },
  {
    "link_thumb": "https://live.staticflickr.com/65535/50020805518_01b81b2e45_n.jpg",
    "id_album": "2060159334",
    "description": "GoldenRetriever_416104",
    "title": "GoldenRetriever_416104",
    "link_img": "https://live.staticflickr.com/65535/50020805518_1289cc63bf_o.jpg",
    "id_image": "GoldenRetriever_416104",
    "count_view": 0
  },
  {
    "link_thumb": "https://live.staticflickr.com/65535/50018150037_3ea40b8451_n.jpg",
    "id_album": "-462831705",
    "description": "Cat_236919",
    "title": "Cat_236919",
    "link_img": "https://live.staticflickr.com/65535/50018150037_4aefe79d4a_o.jpg",
    "id_image": "Cat_236919",
    "count_view": 0
  },
  {
    "link_thumb": "https://live.staticflickr.com/65535/50019156018_b689f4460d_n.jpg",
    "id_album": "-1481843714",
    "description": "Cheetah_260848",
    "title": "Cheetah_260848",
    "link_img": "https://live.staticflickr.com/65535/50019156018_2c1bf5f2ce_o.jpg",
    "id_image": "Cheetah_260848",
    "count_view": 0
  },
  {
    "link_thumb": "https://live.staticflickr.com/65535/50017669606_48340a5310_n.jpg",
    "id_album": "-401151552",
    "description": "Butterfly_790419",
    "title": "Butterfly_790419",
    "link_img": "https://live.staticflickr.com/65535/50017669606_fb50de7c6a_o.jpg",
    "id_image": "Butterfly_790419",
    "count_view": 0
  },
  {
    "link_thumb": "https://live.staticflickr.com/65535/50022365436_731dea3367_n.jpg",
    "id_album": "106807275",
    "description": "Otter_430795",
    "title": "Otter_430795",
    "link_img": "https://live.staticflickr.com/65535/50022365436_b3147ba982_o.jpg",
    "id_image": "Otter_430795",
    "count_view": 0
  },
  {
    "link_thumb": "https://live.staticflickr.com/65535/50017370647_6cf2fd0a6c_n.jpg",
    "id_album": "-422187261",
    "description": "Bear_956364",
    "title": "Bear_956364",
    "link_img": "https://live.staticflickr.com/65535/50017370647_f7dee3f34c_o.jpg",
    "id_image": "Bear_956364",
    "count_view": 0
  },
  {
    "link_thumb": "https://live.staticflickr.com/65535/50020751911_72c7a7f516_n.jpg",
    "id_album": "1270947998",
    "description": "Elephant_382503",
    "title": "Elephant_382503",
    "link_img": "https://live.staticflickr.com/65535/50020751911_911193fea2_o.jpg",
    "id_image": "Elephant_382503",
    "count_view": 0
  },
  {
    "link_thumb": "https://live.staticflickr.com/65535/50022017567_0f73aca2db_n.jpg",
    "id_album": "1562047127",
    "description": "Jellyfish_351177",
    "title": "Jellyfish_351177",
    "link_img": "https://live.staticflickr.com/65535/50022017567_abd11478c5_o.jpg",
    "id_image": "Jellyfish_351177",
    "count_view": 0
  },
  {
    "link_thumb": "https://live.staticflickr.com/65535/50020577781_24c9159e13_n.jpg",
    "id_album": "-54509188",
    "description": "Dolphin_469357",
    "title": "Dolphin_469357",
    "link_img": "https://live.staticflickr.com/65535/50020577781_ddd974019b_o.jpg",
    "id_image": "Dolphin_469357",
    "count_view": 0
  },
  {
    "link_thumb": "https://live.staticflickr.com/65535/50017718662_d3d22a3101_n.jpg",
    "id_album": "-1561645279",
    "description": "BlackPanther_572283",
    "title": "BlackPanther_572283",
    "link_img": "https://live.staticflickr.com/65535/50017718662_23055d2e6e_o.jpg",
    "id_image": "BlackPanther_572283",
    "count_view": 0
  }
]