[
  {
    "link_thumb": "https://live.staticflickr.com/65535/50022164962_0b4553eacf_n.jpg",
    "id_album": "1392348450",
    "description": "Leopard_365031",
    "title": "Leopard_365031",
    "link_img": "https://live.staticflickr.com/65535/50022164962_b6b88c6ac2_o.jpg",
    "id_image": "Leopard_365031",
    "count_view": 0
  },
  {
    "link_thumb": "https://live.staticflickr.com/65535/50022614706_dfd10dff2b_n.jpg",
    "id_album": "1146438617",
    "description": "Pelican_329671",
    "title": "Pelican_329671",
    "link_img": "https://live.staticflickr.com/65535/50022614706_24dac24192_o.jpg",
    "id_image": "Pelican_329671",
    "count_view": 0
  },
  {
    "link_thumb": "https://live.staticflickr.com/65535/50016596453_6c20f7fc3b_n.jpg",
    "id_album": "1699594607",
    "description": "Bee_284668",
    "title": "Bee_284668",
    "link_img": "https://live.staticflickr.com/65535/50016596453_c4b9f64983_o.jpg",
    "id_image": "Bee_284668",
    "count_view": 0
  },
  {
    "link_thumb": "https://live.staticflickr.com/65535/50023999863_327be92395_n.jpg",
    "id_album": "-709711865",
    "description": "Wolf_749836",
    "title": "Wolf_749836",
    "link_img": "https://live.staticflickr.com/65535/50023999863_497b441e75_o.jpg",
    "id_image": "Wolf_749836",
    "count_view": 0
  },
  {
    "link_thumb": "https://live.staticflickr.com/65535/50022879652_18600a541c_n.jpg",
    "id_album": "1146438617",
    "description": "Pelican_370000",
    "title": "Pelican_370000",
    "link_img": "https://live.staticflickr.com/65535/50022879652_7b2d6ef317_o.jpg",
    "id_image": "Pelican_370000",
    "count_view": 0
  },
  {
    "link_thumb": "https://live.staticflickr.com/65535/50022383337_fe1da4748f_n.jpg",
    "id_album": "-656526748",
    "description": "Lizard_650517",
    "title": "Lizard_650517",
    "link_img": "https://live.staticflickr.com/65535/50022383337_23c09baf75_o.jpg",
    "id_image": "Lizard_650517",
    "count_view": 0
  },
  {
    "link_thumb": "https://live.staticflickr.com/65535/50017737576_4dc7df8b37_n.jpg",
    "id_album": "189994021",
    "description": "Cardinal_777661",
    "title": "Cardinal_777661",
    "link_img": "https://live.staticflickr.com/65535/50017737576_f1946cb24c_o.jpg",
    "id_image": "Cardinal_777661",
    "count_view": 0
  },
  {
    "link_thumb": "https://live.staticflickr.com/65535/50021058028_44256532c5_n.jpg",
    "id_album": "773713550",
    "description": "Hoverfly_926186",
    "title": "Hoverfly_926186",
    "link_img": "https://live.staticflickr.com/65535/50021058028_83ec37f51f_o.jpg",
    "id_image": "Hoverfly_926186",
    "count_view": 0
  },
  {
    "link_thumb": "https://live.staticflickr.com/65535/50021219793_251760c8b3_n.jpg",
    "id_album": "1562047127",
    "description": "Jellyfish_347356",
    "title": "Jellyfish_347356",
    "link_img": "https://live.staticflickr.com/65535/50021219793_79b42ac487_o.jpg",
    "id_image": "Jellyfish_347356",
    "count_view": 0
  },
  {
    "link_thumb": "https://live.staticflickr.com/65535/50023478421_489ba7ec47_n.jpg",
    "id_album": "-755466332",
    "description": "Sheep_407539",
    "title": "Sheep_407539",
    "link_img": "https://live.staticflickr.com/65535/50023478421_731ae69cbb_o.jpg",
    "id_image": "Sheep_407539",
    "count_view": 0
  },
  {
    "link_thumb": "https://live.staticflickr.com/65535/50016708738_5fff773471_n.jpg",
    "id_album": "-1846011410",
    "description": "Bird_312842",
    "title": "Bird_312842",
    "link_img": "https://live.staticflickr.com/65535/50016708738_f041029d17_o.jpg",
    "id_image": "Bird_312842",
    "count_view": 0
  },
  {
    "link_thumb": "https://live.staticflickr.com/65535/50018271312_e3e2202b2a_n.jpg",
    "id_album": "-462831702",
    "description": "Cat_341162",
    "title": "Cat_341162",
    "link_img": "https://live.staticflickr.com/65535/50018271312_82a1a62e3c_o.jpg",
    "id_image": "Cat_341162",
    "count_view": 0
  },
  {
    "link_thumb": "https://live.staticflickr.com/65535/50017327706_6d1034cf03_n.jpg",
    "id_album": "-1846011410",
    "description": "Bird_429637",
    "title": "Bird_429637",
    "link_img": "https://live.staticflickr.com/65535/50017327706_d8a4ff30a1_o.jpg",
    "id_image": "Bird_429637",
    "count_view": 0
  },
  {
    "link_thumb": "https://live.staticflickr.com/65535/50017055403_8b18852c43_n.jpg",
    "id_album": "-401151552",
    "description": "Butterfly_392486",
    "title": "Butterfly_392486",
    "link_img": "https://live.staticflickr.com/65535/50017055403_db7a629c1c_o.jpg",
    "id_image": "Butterfly_392486",
    "count_view": 0
  },
  {
    "link_thumb": "https://live.staticflickr.com/65535/50017073691_67d4c6c5b0_n.jpg",
    "id_album": "-422187261",
    "description": "Bear_727256",
    "title": "Bear_727256",
    "link_img": "https://live.staticflickr.com/65535/50017073691_4c5faaa1ca_o.jpg",
    "id_image": "Bear_727256",
    "count_view": 0
  },
  {
    "link_thumb": "https://live.staticflickr.com/65535/50022963038_04b17cbdd7_n.jpg",
    "id_album": "-800019164",
    "description": "Snail_109980",
    "title": "Snail_109980",
    "link_img": "https://live.staticflickr.com/65535/50022963038_752b1200d6_o.jpg",
    "id_image": "Snail_109980",
    "count_view": 0
  },
  {
    "link_thumb": "https://live.staticflickr.com/65535/50022016101_a38a424b3c_n.jpg",
    "id_album": "416744915",
    "description": "Lion_427475",
    "title": "Lion_427475",
    "link_img": "https://live.staticflickr.com/65535/50022016101_f829487ca6_o.jpg",
    "id_image": "Lion_427475",
    "count_view": 0
  },
  {
    "link_thumb": "https://live.staticflickr.com/65535/50022446478_a3ecf0af9b_n.jpg",
    "id_album": "-353898617",
    "description": "Puppy_417092",
    "title": "Puppy_417092",
    "link_img": "https://live.staticflickr.com/65535/50022446478_968887a1c5_o.jpg",
    "id_image": "Puppy_417092",
    "count_view": 0
  },
  {
    "link_thumb": "https://live.staticflickr.com/65535/50020303352_2fdeee0960_n.jpg",
    "id_album": "1903411565",
    "description": "Deer_722934",
    "title": "Deer_722934",
    "link_img": "https://live.staticflickr.com/65535/50020303352_4dc6ec8533_o.jpg",
    "id_image": "Deer_722934",
    "count_view": 0
  },
  {
    "link_thumb": "https://live.staticflickr.com/65535/50022550557_2ca8efc5e9_n.jpg",
    "id_album": "1957967135",
    "description": "Mouse_433152",
    "title": "Mouse_433152",
    "link_img": "https://live.staticflickr.com/65535/50022550557_e3aa4b0477_o.jpg",
    "id_image": "Mouse_433152",
    "count_view": 0
  },
  {
    "link_thumb": "https://live.staticflickr.com/65535/50017368657_bd1dcd6b8b_n.jpg",
    "id_album": "-422187261",
    "description": "Bear_946325",
    "title": "Bear_946325",
    "link_img": "https://live.staticflickr.com/65535/50017368657_9f182e6fc4_o.jpg",
    "id_image": "Bear_946325",
    "count_view": 0
  },
  {
    "link_thumb": "https://live.staticflickr.com/65535/50020265367_d52437e775_n.jpg",
    "id_album": "1903411565",
    "description": "Deer_427835",
    "title": "Deer_427835",
    "link_img": "https://live.staticflickr.com/65535/50020265367_acb471eb43_o.jpg",
    "id_image": "Deer_427835",
    "count_view": 0
  },
  {
    "link_thumb": "https://live.staticflickr.com/65535/50020946397_3d6a42399a_n.jpg",
    "id_album": "-39098563",
    "description": "Eagle_327491",
    "title": "Eagle_327491",
    "link_img": "https://live.staticflickr.com/65535/50020946397_e6652fc9ea_o.jpg",
    "id_image": "Eagle_327491",
    "count_view": 0
  },
  {
    "link_thumb": "https://live.staticflickr.com/65535/50017154007_f74788c992_n.jpg",
    "id_album": "523598895",
    "description": "Artistic_307345",
    "title": "Artistic_307345",
    "link_img": "https://live.staticflickr.com/65535/50017154007_a99c17be8d_o.jpg",
    "id_image": "Artistic_307345",
    "count_view": 0
  },
  {
    "link_thumb": "https://live.staticflickr.com/65535/50017279083_36016cf3d9_n.jpg",
    "id_album": "-462831705",
    "description": "Cat_169504",
    "title": "Cat_169504",
    "link_img": "https://live.staticflickr.com/65535/50017279083_a1c2e067a6_o.jpg",
    "id_image": "Cat_169504",
    "count_view": 0
  },
  {
    "link_thumb": "https://live.staticflickr.com/65535/50016960176_ef0350d19a_n.jpg",
    "id_album": "231236068",
    "description": "BaldEagle_529620",
    "title": "BaldEagle_529620",
    "link_img": "https://live.staticflickr.com/65535/50016960176_7041669fc2_o.jpg",
    "id_image": "BaldEagle_529620",
    "count_view": 0
  },
  {
    "link_thumb": "https://live.staticflickr.com/65535/50021912012_e5e9041283_n.jpg",
    "id_album": "1658866795",
    "description": "Insect_190970",
    "title": "Insect_190970",
    "link_img": "https://live.staticflickr.com/65535/50021912012_f4fa222c10_o.jpg",
    "id_image": "Insect_190970",
    "count_view": 0
  },
  {
    "link_thumb": "https://live.staticflickr.com/65535/50021424312_36685d316b_n.jpg",
    "id_album": "-462831704",
    "description": "Cat_689452",
    "title": "Cat_689452",
    "link_img": "https://live.staticflickr.com/65535/50021424312_fd763eac5f_o.jpg",
    "id_image": "Cat_689452",
    "count_view": 0
  },
  {
    "link_thumb": "https://live.staticflickr.com/65535/50021130181_903aba7dbf_n.jpg",
    "id_album": "-462831704",
    "description": "Cat_592483",
    "title": "Cat_592483",
    "link_img": "https://live.staticflickr.com/65535/50021130181_a630e78942_o.jpg",
    "id_image": "Cat_592483",
    "count_view": 0
  },
  {
    "link_thumb": "https://live.staticflickr.com/65535/50023150617_d308325636_n.jpg",
    "id_album": "191452764",
    "description": "PrayingMantis_536219",
    "title": "PrayingMantis_536219",
    "link_img": "https://live.staticflickr.com/65535/50023150617_e43a8557fe_o.jpg",
    "id_image": "PrayingMantis_536219",
    "count_view": 0
  },
  {
    "link_thumb": "https://live.staticflickr.com/65535/50022618552_977ba8a80d_n.jpg",
    "id_album": "588679857",
    "description": "Orangutan_863210",
    "title": "Orangutan_863210",
    "link_img": "https://live.staticflickr.com/65535/50022618552_028e7e9910_o.jpg",
    "id_image": "Orangutan_863210",
    "count_view": 0
  },
  {
    "link_thumb": "https://live.staticflickr.com/65535/50021086208_fe567555b3_n.jpg",
    "id_album": "-712553376",
    "description": "Husky_344770",
    "title": "Husky_344770",
    "link_img": "https://live.staticflickr.com/65535/50021086208_165f4d81c3_o.jpg",
    "id_image": "Husky_344770",
    "count_view": 0
  },
  {
    "link_thumb": "https://live.staticflickr.com/65535/50022204528_334d76c34f_n.jpg",
    "id_album": "407660898",
    "description": "Pigeon_109768",
    "title": "Pigeon_109768",
    "link_img": "https://live.staticflickr.com/65535/50022204528_6584306681_o.jpg",
    "id_image": "Pigeon_109768",
    "count_view": 0
  },
  {
    "link_thumb": "https://live.staticflickr.com/65535/50017405768_f48818e5c8_n.jpg",
    "id_album": "-462831702",
    "description": "Cat_277815",
    "title": "Cat_277815",
    "link_img": "https://live.staticflickr.com/65535/50017405768_2a84a383f8_o.jpg",
    "id_image": "Cat_277815",
    "count_view": 0
  },
  {
    "link_thumb": "https://live.staticflickr.com/65535/50021853418_37e7a7e34d_n.jpg",
    "id_album": "-1384601601",
    "description": "Owl_341029",
    "title": "Owl_341029",
    "link_img": "https://live.staticflickr.com/65535/50021853418_63d700d4bc_o.jpg",
    "id_image": "Owl_341029",
    "count_view": 0
  },
  {
    "link_thumb": "https://live.staticflickr.com/65535/50017918257_2fbe7592b9_n.jpg",
    "id_album": "-401151552",
    "description": "Butterfly_731659",
    "title": "Butterfly_731659",
    "link_img": "https://live.staticflickr.com/65535/50017918257_f49f75984b_o.jpg",
    "id_image": "Butterfly_731659",
    "count_view": 0
  },
  {
    "link_thumb": "https://live.staticflickr.com/65535/50023585843_084071563f_n.jpg",
    "id_album": "405170427",
    "description": "Tiger_433062",
    "title": "Tiger_433062",
    "link_img": "https://live.staticflickr.com/65535/50023585843_66f751d920_o.jpg",
    "id_image": "Tiger_433062",
    "count_view": 0
  },
  {
    "link_thumb": "https://live.staticflickr.com/65535/50017719062_9ba83fce59_n.jpg",
    "id_album": "-1561645279",
    "description": "BlackPanther_691586",
    "title": "BlackPanther_691586",
    "link_img": "https://live.staticflickr.com/65535/50017719062_92891e239e_o.jpg",
    "id_image": "BlackPanther_691586",
    "count_view": 0
  },
  {
    "link_thumb": "https://live.staticflickr.com/65535/50023185611_fc6a264697_n.jpg",
    "id_album": "-1862965835",
    "description": "RedEyedTreeFrog_260622",
    "title": "RedEyedTreeFrog_260622",
    "link_img": "https://live.staticflickr.com/65535/50023185611_5786925e93_o.jpg",
    "id_image": "RedEyedTreeFrog_260622",
    "count_view": 0
  },
  {
    "link_thumb": "https://live.staticflickr.com/65535/50019087523_a4fee481ee_n.jpg",
    "id_album": "1889777354",
    "description": "CGI_110971",
    "title": "CGI_110971",
    "link_img": "https://live.staticflickr.com/65535/50019087523_e103118995_o.jpg",
    "id_image": "CGI_110971",
    "count_view": 0
  },
  {
    "link_thumb": "https://live.staticflickr.com/65535/50021930646_47abc7fd8f_n.jpg",
    "id_album": "1392348450",
    "description": "Leopard_514556",
    "title": "Leopard_514556",
    "link_img": "https://live.staticflickr.com/65535/50021930646_8043cd32cc_o.jpg",
    "id_image": "Leopard_514556",
    "count_view": 0
  },
  {
    "link_thumb": "https://live.staticflickr.com/65535/50017524038_623c2953c1_n.jpg",
    "id_album": "-462831702",
    "description": "Cat_359893",
    "title": "Cat_359893",
    "link_img": "https://live.staticflickr.com/65535/50017524038_6637781174_o.jpg",
    "id_image": "Cat_359893",
    "count_view": 0
  },
  {
    "link_thumb": "https://live.staticflickr.com/65535/50023668063_5078487f45_n.jpg",
    "id_album": "405170427",
    "description": "Tiger_778984",
    "title": "Tiger_778984",
    "link_img": "https://live.staticflickr.com/65535/50023668063_38cc0bcc04_o.jpg",
    "id_image": "Tiger_778984",
    "count_view": 0
  },
  {
    "link_thumb": "https://live.staticflickr.com/65535/50023034167_a4fabbdd7c_n.jpg",
    "id_album": "1008910300",
    "description": "PolarBear_116464",
    "title": "PolarBear_116464",
    "link_img": "https://live.staticflickr.com/65535/50023034167_14d528ae01_o.jpg",
    "id_image": "PolarBear_116464",
    "count_view": 0
  },
  {
    "link_thumb": "https://live.staticflickr.com/65535/50020892257_977898e846_n.jpg",
    "id_album": "-405058657",
    "description": "Dragonfly_691707",
    "title": "Dragonfly_691707",
    "link_img": "https://live.staticflickr.com/65535/50020892257_a6d510f36c_o.jpg",
    "id_image": "Dragonfly_691707",
    "count_view": 0
  },
  {
    "link_thumb": "https://live.staticflickr.com/65535/50017377176_712d7c371d_n.jpg",
    "id_album": "-1846011410",
    "description": "Bird_587906",
    "title": "Bird_587906",
    "link_img": "https://live.staticflickr.com/65535/50017377176_59629881fd_o.jpg",
    "id_image": "Bird_587906",
    "count_view": 0
  },
  {
    "link_thumb": "https://live.staticflickr.com/65535/50020035233_a947562071_n.jpg",
    "id_album": "-54509188",
    "description": "Dolphin_341925",
    "title": "Dolphin_341925",
    "link_img": "https://live.staticflickr.com/65535/50020035233_96c9282c05_o.jpg",
    "id_image": "Dolphin_341925",
    "count_view": 0
  },
  {
    "link_thumb": "https://live.staticflickr.com/65535/50017453972_fb6956fa8c_n.jpg",
    "id_album": "-1846011410",
    "description": "Bird_108411",
    "title": "Bird_108411",
    "link_img": "https://live.staticflickr.com/65535/50017453972_0cc4462512_o.jpg",
    "id_image": "Bird_108411",
    "count_view": 0
  },
  {
    "link_thumb": "https://live.staticflickr.com/65535/50019968768_9b214d7161_n.jpg",
    "id_album": "-149330231",
    "description": "Dog_737446",
    "title": "Dog_737446",
    "link_img": "https://live.staticflickr.com/65535/50019968768_848a87512f_o.jpg",
    "id_image": "Dog_737446",
    "count_view": 0
  },
  {
    "link_thumb": "https://live.staticflickr.com/65535/50017738066_14e0c936dc_n.jpg",
    "id_album": "189994021",
    "description": "Cardinal_790224",
    "title": "Cardinal_790224",
    "link_img": "https://live.staticflickr.com/65535/50017738066_1f9cd5bbb0_o.jpg",
    "id_image": "Cardinal_790224",
    "count_view": 0
  },
  {
    "link_thumb": "https://live.staticflickr.com/65535/50021962217_945c233044_n.jpg",
    "id_album": "1658866795",
    "description": "Insect_586131",
    "title": "Insect_586131",
    "link_img": "https://live.staticflickr.com/65535/50021962217_fb4f1c5bd5_o.jpg",
    "id_image": "Insect_586131",
    "count_view": 0
  },
  {
    "link_thumb": "https://live.staticflickr.com/65535/50019898798_fee8bb654c_n.jpg",
    "id_album": "-149330231",
    "description": "Dog_464836",
    "title": "Dog_464836",
    "link_img": "https://live.staticflickr.com/65535/50019898798_faf5c9e97f_o.jpg",
    "id_image": "Dog_464836",
    "count_view": 0
  },
  {
    "link_thumb": "https://live.staticflickr.com/65535/50021112753_da3c8ba68b_n.jpg",
    "id_album": "-737856092",
    "description": "Iguana_805633",
    "title": "Iguana_805633",
    "link_img": "https://live.staticflickr.com/65535/50021112753_d3f2d29345_o.jpg",
    "id_image": "Iguana_805633",
    "count_view": 0
  },
  {
    "link_thumb": "https://live.staticflickr.com/65535/50018012762_9dd95faa74_n.jpg",
    "id_album": "-462831705",
    "description": "Cat_111011",
    "title": "Cat_111011",
    "link_img": "https://live.staticflickr.com/65535/50018012762_84da86085a_o.jpg",
    "id_image": "Cat_111011",
    "count_view": 0
  },
  {
    "link_thumb": "https://live.staticflickr.com/65535/50017598343_78c472b2c2_n.jpg",
    "id_album": "-462831702",
    "description": "Cat_394100",
    "title": "Cat_394100",
    "link_img": "https://live.staticflickr.com/65535/50017598343_fd298829d8_o.jpg",
    "id_image": "Cat_394100",
    "count_view": 0
  },
  {
    "link_thumb": "https://live.staticflickr.com/65535/50020562723_51e35720ce_n.jpg",
    "id_album": "-462831704",
    "description": "Cat_548833",
    "title": "Cat_548833",
    "link_img": "https://live.staticflickr.com/65535/50020562723_bfa6276373_o.jpg",
    "id_image": "Cat_548833",
    "count_view": 0
  },
  {
    "link_thumb": "https://live.staticflickr.com/65535/50019664826_7409fd7cdd_n.jpg",
    "id_album": "-766919393",
    "description": "Chameleon_776091",
    "title": "Chameleon_776091",
    "link_img": "https://live.staticflickr.com/65535/50019664826_585627c266_o.jpg",
    "id_image": "Chameleon_776091",
    "count_view": 0
  },
  {
    "link_thumb": "https://live.staticflickr.com/65535/50351912983_143364a111_n.jpg",
    "id_album": "-462831703",
    "description": "Cat_567461",
    "title": "Cat_567461",
    "link_img": "https://live.staticflickr.com/65535/50351912983_b45c92578f_o.jpg",
    "id_image": "Cat_567461",
    "count_view": 0
  },
  {
    "link_thumb": "https://live.staticflickr.com/65535/50020872946_f0abed5197_n.jpg",
    "id_album": "-1118073211",
    "description": "Fish_701185",
    "title": "Fish_701185",
    "link_img": "https://live.staticflickr.com/65535/50020872946_f3fee63a76_o.jpg",
    "id_image": "Fish_701185",
    "count_view": 0
  },
  {
    "link_thumb": "https://live.staticflickr.com/65535/50022214768_f358c3c737_n.jpg",
    "id_album": "407660898",
    "description": "Pigeon_398661",
    "title": "Pigeon_398661",
    "link_img": "https://live.staticflickr.com/65535/50022214768_55bf455c94_o.jpg",
    "id_image": "Pigeon_398661",
    "count_view": 0
  },
  {
    "link_thumb": "https://live.staticflickr.com/65535/50023171972_c2b850f7c6_n.jpg",
    "id_album": "-356780855",
    "description": "Puffin_360994",
    "title": "Puffin_360994",
    "link_img": "https://live.staticflickr.com/65535/50023171972_0bbff85667_o.jpg",
    "id_image": "Puffin_360994",
    "count_view": 0
  },
  {
    "link_thumb": "https://live.staticflickr.com/65535/50020287152_b33181e961_n.jpg",
    "id_album": "1903411565",
    "description": "Deer_596094",
    "title": "Deer_596094",
    "link_img": "https://live.staticflickr.com/65535/50020287152_83c8e63b2a_o.jpg",
    "id_image": "Deer_596094",
    "count_view": 0
  },
  {
    "link_thumb": "https://live.staticflickr.com/65535/50020932932_f84293d2c9_n.jpg",
    "id_album": "1168627767",
    "description": "Duck_879064",
    "title": "Duck_879064",
    "link_img": "https://live.staticflickr.com/65535/50020932932_77ced892b7_o.jpg",
    "id_image": "Duck_879064",
    "count_view": 0
  },
  {
    "link_thumb": "https://live.staticflickr.com/65535/50020640768_363f52e464_n.jpg",
    "id_album": "-462831704",
    "description": "Cat_702176",
    "title": "Cat_702176",
    "link_img": "https://live.staticflickr.com/65535/50020640768_7cbed5691d_o.jpg",
    "id_image": "Cat_702176",
    "count_view": 0
  },
  {
    "link_thumb": "https://live.staticflickr.com/65535/50018136581_5986529cfc_n.jpg",
    "id_album": "-462831702",
    "description": "Cat_398743",
    "title": "Cat_398743",
    "link_img": "https://live.staticflickr.com/65535/50018136581_a21590b07f_o.jpg",
    "id_image": "Cat_398743",
    "count_view": 0
  },
  {
    "link_thumb": "https://live.staticflickr.com/65535/50017500962_7771c39062_n.jpg",
    "id_album": "-1846011410",
    "description": "Bird_327465",
    "title": "Bird_327465",
    "link_img": "https://live.staticflickr.com/65535/50017500962_bd9cdd5e63_o.jpg",
    "id_image": "Bird_327465",
    "count_view": 0
  },
  {
    "link_thumb": "https://live.staticflickr.com/65535/50024193381_8e5885fef8_n.jpg",
    "id_album": "405170427",
    "description": "Tiger_691632",
    "title": "Tiger_691632",
    "link_img": "https://live.staticflickr.com/65535/50024193381_98e8860a5d_o.jpg",
    "id_image": "Tiger_691632",
    "count_view": 0
  },
  {
    "link_thumb": "https://live.staticflickr.com/65535/50022084492_39f9bddebf_n.jpg",
    "id_album": "1307335982",
    "description": "LabradorRetriever_459246",
    "title": "LabradorRetriever_459246",
    "link_img": "https://live.staticflickr.com/65535/50022084492_7e6c00274a_o.jpg",
    "id_image": "LabradorRetriever_459246",
    "count_view": 0
  },
  {
    "link_thumb": "https://live.staticflickr.com/65535/50022190412_6030df760c_n.jpg",
    "id_album": "1392348450",
    "description": "Leopard_529707",
    "title": "Leopard_529707",
    "link_img": "https://live.staticflickr.com/65535/50022190412_b46d39016c_o.jpg",
    "id_image": "Leopard_529707",
    "count_view": 0
  },
  {
    "link_thumb": "https://live.staticflickr.com/65535/50017838101_c32bd402f8_n.jpg",
    "id_album": "-462831705",
    "description": "Cat_196393",
    "title": "Cat_196393",
    "link_img": "https://live.staticflickr.com/65535/50017838101_48bfd9302c_o.jpg",
    "id_image": "Cat_196393",
    "count_view": 0
  },
  {
    "link_thumb": "https://live.staticflickr.com/65535/50019428331_b7f5d69d53_n.jpg",
    "id_album": "-462831703",
    "description": "Cat_905558",
    "title": "Cat_905558",
    "link_img": "https://live.staticflickr.com/65535/50019428331_8d5db605be_o.jpg",
    "id_image": "Cat_905558",
    "count_view": 0
  },
  {
    "link_thumb": "https://live.staticflickr.com/65535/50020490763_dfaf094eee_n.jpg",
    "id_album": "-128218148",
    "description": "Fox_983061",
    "title": "Fox_983061",
    "link_img": "https://live.staticflickr.com/65535/50020490763_602a0fb8dd_o.jpg",
    "id_image": "Fox_983061",
    "count_view": 0
  },
  {
    "link_thumb": "https://live.staticflickr.com/65535/50016764208_6f5ce624c1_n.jpg",
    "id_album": "-1846011410",
    "description": "Bird_384312",
    "title": "Bird_384312",
    "link_img": "https://live.staticflickr.com/65535/50016764208_89aa753f45_o.jpg",
    "id_image": "Bird_384312",
    "count_view": 0
  },
  {
    "link_thumb": "https://live.staticflickr.com/65535/50022401467_ba4b89c418_n.jpg",
    "id_album": "1894617400",
    "description": "Lynx_391845",
    "title": "Lynx_391845",
    "link_img": "https://live.staticflickr.com/65535/50022401467_46815a9cff_o.jpg",
    "id_image": "Lynx_391845",
    "count_view": 0
  },
  {
    "link_thumb": "https://live.staticflickr.com/65535/50020465522_6936ab32e6_n.jpg",
    "id_album": "-149330232",
    "description": "Dog_275573",
    "title": "Dog_275573",
    "link_img": "https://live.staticflickr.com/65535/50020465522_805d7ce07f_o.jpg",
    "id_image": "Dog_275573",
    "count_view": 0
  },
  {
    "link_thumb": "https://live.staticflickr.com/65535/50352680566_bb72a8bcaa_n.jpg",
    "id_album": "-462831702",
    "description": "Cat_108980",
    "title": "Cat_108980",
    "link_img": "https://live.staticflickr.com/65535/50352680566_0745afa319_o.jpg",
    "id_image": "Cat_108980",
    "count_view": 0
  },
  {
    "link_thumb": "https://live.staticflickr.com/65535/50021609373_e24d4f516b_n.jpg",
    "id_album": "1894617400",
    "description": "Lynx_534087",
    "title": "Lynx_534087",
    "link_img": "https://live.staticflickr.com/65535/50021609373_1219399d24_o.jpg",
    "id_image": "Lynx_534087",
    "count_view": 0
  },
  {
    "link_thumb": "https://live.staticflickr.com/65535/50019206321_49de80ddc2_n.jpg",
    "id_album": "-462831704",
    "description": "Cat_439985",
    "title": "Cat_439985",
    "link_img": "https://live.staticflickr.com/65535/50019206321_1a28be4093_o.jpg",
    "id_image": "Cat_439985",
    "count_view": 0
  },
  {
    "link_thumb": "https://live.staticflickr.com/65535/50017361442_c413057bac_n.jpg",
    "id_album": "-422187261",
    "description": "Bear_913678",
    "title": "Bear_913678",
    "link_img": "https://live.staticflickr.com/65535/50017361442_ef009731d3_o.jpg",
    "id_image": "Bear_913678",
    "count_view": 0
  },
  {
    "link_thumb": "https://live.staticflickr.com/65535/50017291841_85b58be973_n.jpg",
    "id_album": "-1846011410",
    "description": "Bird_385218",
    "title": "Bird_385218",
    "link_img": "https://live.staticflickr.com/65535/50017291841_c76a92882b_o.jpg",
    "id_image": "Bird_385218",
    "count_view": 0
  },
  {
    "link_thumb": "https://live.staticflickr.com/65535/50017490171_0c464b8d46_n.jpg",
    "id_album": "782930701",
    "description": "BorderCollie_734403",
    "title": "BorderCollie_734403",
    "link_img": "https://live.staticflickr.com/65535/50017490171_4555038419_o.jpg",
    "id_image": "BorderCollie_734403",
    "count_view": 0
  },
  {
    "link_thumb": "https://live.staticflickr.com/65535/50017806432_512f5b91ed_n.jpg",
    "id_album": "-401151552",
    "description": "Butterfly_217950",
    "title": "Butterfly_217950",
    "link_img": "https://live.staticflickr.com/65535/50017806432_768fcf28f0_o.jpg",
    "id_image": "Butterfly_217950",
    "count_view": 0
  },
  {
    "link_thumb": "https://live.staticflickr.com/65535/50022680458_b267475614_n.jpg",
    "id_album": "332874268",
    "description": "RedPanda_681941",
    "title": "RedPanda_681941",
    "link_img": "https://live.staticflickr.com/65535/50022680458_290f1942e8_o.jpg",
    "id_image": "RedPanda_681941",
    "count_view": 0
  },
  {
    "link_thumb": "https://live.staticflickr.com/65535/50017769486_7ef69c790e_n.jpg",
    "id_album": "-462831705",
    "description": "Cat_117474",
    "title": "Cat_117474",
    "link_img": "https://live.staticflickr.com/65535/50017769486_4586575be4_o.jpg",
    "id_image": "Cat_117474",
    "count_view": 0
  },
  {
    "link_thumb": "https://live.staticflickr.com/65535/50017975267_c680d8217b_n.jpg",
    "id_album": "-401151552",
    "description": "Butterfly_935529",
    "title": "Butterfly_935529",
    "link_img": "https://live.staticflickr.com/65535/50017975267_fc667121e0_o.jpg",
    "id_image": "Butterfly_935529",
    "count_view": 0
  },
  {
    "link_thumb": "https://live.staticflickr.com/65535/50022237267_e491cc8faf_n.jpg",
    "id_album": "416744915",
    "description": "Lion_247671",
    "title": "Lion_247671",
    "link_img": "https://live.staticflickr.com/65535/50022237267_c7082f9e46_o.jpg",
    "id_image": "Lion_247671",
    "count_view": 0
  },
  {
    "link_thumb": "https://live.staticflickr.com/65535/50022422392_080b36f26a_n.jpg",
    "id_album": "1894617400",
    "description": "Lynx_793719",
    "title": "Lynx_793719",
    "link_img": "https://live.staticflickr.com/65535/50022422392_ecd6ea58a5_o.jpg",
    "id_image": "Lynx_793719",
    "count_view": 0
  },
  {
    "link_thumb": "https://live.staticflickr.com/65535/50021975272_fbfa65579d_n.jpg",
    "id_album": "-843028318",
    "description": "Jaguar_371121",
    "title": "Jaguar_371121",
    "link_img": "https://live.staticflickr.com/65535/50021975272_53ac1a70b5_o.jpg",
    "id_image": "Jaguar_371121",
    "count_view": 0
  },
  {
    "link_thumb": "https://live.staticflickr.com/65535/50021184371_7d29cfc91c_n.jpg",
    "id_album": "-462831704",
    "description": "Cat_702962",
    "title": "Cat_702962",
    "link_img": "https://live.staticflickr.com/65535/50021184371_f6bebb8d54_o.jpg",
    "id_image": "Cat_702962",
    "count_view": 0
  },
  {
    "link_thumb": "https://live.staticflickr.com/65535/50022250093_d5bcd98521_n.jpg",
    "id_album": "1008910300",
    "description": "PolarBear_253444",
    "title": "PolarBear_253444",
    "link_img": "https://live.staticflickr.com/65535/50022250093_2cec924d91_o.jpg",
    "id_image": "PolarBear_253444",
    "count_view": 0
  },
  {
    "link_thumb": "https://live.staticflickr.com/65535/50017571957_ac1e980643_n.jpg",
    "id_album": "-1846011410",
    "description": "Bird_406143",
    "title": "Bird_406143",
    "link_img": "https://live.staticflickr.com/65535/50017571957_ee2f8aa253_o.jpg",
    "id_image": "Bird_406143",
    "count_view": 0
  },
  {
    "link_thumb": "https://live.staticflickr.com/65535/50024073636_22b937b7ca_n.jpg",
    "id_album": "405170427",
    "description": "Tiger_350375",
    "title": "Tiger_350375",
    "link_img": "https://live.staticflickr.com/65535/50024073636_2cd690e67c_o.jpg",
    "id_image": "Tiger_350375",
    "count_view": 0
  },
  {
    "link_thumb": "https://live.staticflickr.com/65535/50020500032_99756892b7_n.jpg",
    "id_album": "-149330232",
    "description": "Dog_323428",
    "title": "Dog_323428",
    "link_img": "https://live.staticflickr.com/65535/50020500032_e10b8cc8a9_o.jpg",
    "id_image": "Dog_323428",
    "count_view": 0
  },
  {
    "link_thumb": "https://live.staticflickr.com/65535/50019470156_5b05324a69_n.jpg",
    "id_album": "-462831703",
    "description": "Cat_920514",
    "title": "Cat_920514",
    "link_img": "https://live.staticflickr.com/65535/50019470156_20f6820977_o.jpg",
    "id_image": "Cat_920514",
    "count_view": 0
  },
  {
    "link_thumb": "https://live.staticflickr.com/65535/50016865056_4a449d7edf_n.jpg",
    "id_album": "523598895",
    "description": "Artistic_115970",
    "title": "Artistic_115970",
    "link_img": "https://live.staticflickr.com/65535/50016865056_0527f75f37_o.jpg",
    "id_image": "Artistic_115970",
    "count_view": 0
  },
  {
    "link_thumb": "https://live.staticflickr.com/65535/50018099346_e47ef93e35_n.jpg",
    "id_album": "-462831702",
    "description": "Cat_374329",
    "title": "Cat_374329",
    "link_img": "https://live.staticflickr.com/65535/50018099346_d176fdc107_o.jpg",
    "id_image": "Cat_374329",
    "count_view": 0
  },
  {
    "link_thumb": "https://live.staticflickr.com/65535/50023887577_8c155e5a76_n.jpg",
    "id_album": "-1131363127",
    "description": "SnowLeopard_326453",
    "title": "SnowLeopard_326453",
    "link_img": "https://live.staticflickr.com/65535/50023887577_c3033a7e47_o.jpg",
    "id_image": "SnowLeopard_326453",
    "count_view": 0
  },
  {
    "link_thumb": "https://live.staticflickr.com/65535/50017514003_a39e24deed_n.jpg",
    "id_album": "-462831702",
    "description": "Cat_355109",
    "title": "Cat_355109",
    "link_img": "https://live.staticflickr.com/65535/50017514003_1f45cd34ac_o.jpg",
    "id_image": "Cat_355109",
    "count_view": 0
  },
  {
    "link_thumb": "https://live.staticflickr.com/65535/50019697678_f147b267d2_n.jpg",
    "id_album": "-149330232",
    "description": "Dog_302707",
    "title": "Dog_302707",
    "link_img": "https://live.staticflickr.com/65535/50019697678_b0466769e3_o.jpg",
    "id_image": "Dog_302707",
    "count_view": 0
  },
  {
    "link_thumb": "https://live.staticflickr.com/65535/50352587751_7daee38b47_n.jpg",
    "id_album": "-462831703",
    "description": "Cat_526588",
    "title": "Cat_526588",
    "link_img": "https://live.staticflickr.com/65535/50352587751_117f7102df_o.jpg",
    "id_image": "Cat_526588",
    "count_view": 0
  },
  {
    "link_thumb": "https://live.staticflickr.com/65535/50022315578_f310eedb4f_n.jpg",
    "id_album": "1008910300",
    "description": "PolarBear_787302",
    "title": "PolarBear_787302",
    "link_img": "https://live.staticflickr.com/65535/50022315578_b1d04fbe67_o.jpg",
    "id_image": "PolarBear_787302",
    "count_view": 0
  },
  {
    "link_thumb": "https://live.staticflickr.com/65535/50021762626_6e332647fd_n.jpg",
    "id_album": "1562047127",
    "description": "Jellyfish_290263",
    "title": "Jellyfish_290263",
    "link_img": "https://live.staticflickr.com/65535/50021762626_45df62c4f5_o.jpg",
    "id_image": "Jellyfish_290263",
    "count_view": 0
  },
  {
    "link_thumb": "https://live.staticflickr.com/65535/50022640533_4c6dd3c711_n.jpg",
    "id_album": "-434874555",
    "description": "RainbowLorikeet_825879",
    "title": "RainbowLorikeet_825879",
    "link_img": "https://live.staticflickr.com/65535/50022640533_2da64fe3d1_o.jpg",
    "id_image": "RainbowLorikeet_825879",
    "count_view": 0
  },
  {
    "link_thumb": "https://live.staticflickr.com/65535/50021594653_54959dd054_n.jpg",
    "id_album": "1894617400",
    "description": "Lynx_358871",
    "title": "Lynx_358871",
    "link_img": "https://live.staticflickr.com/65535/50021594653_584509625e_o.jpg",
    "id_image": "Lynx_358871",
    "count_view": 0
  },
  {
    "link_thumb": "https://live.staticflickr.com/65535/50352620016_f722ebf96b_n.jpg",
    "id_album": "-462831703",
    "description": "Cat_594874",
    "title": "Cat_594874",
    "link_img": "https://live.staticflickr.com/65535/50352620016_ab27c2ebfc_o.jpg",
    "id_image": "Cat_594874",
    "count_view": 0
  },
  {
    "link_thumb": "https://live.staticflickr.com/65535/50017376708_0eb8b89d1c_n.jpg",
    "id_album": "-462831705",
    "description": "Cat_250318",
    "title": "Cat_250318",
    "link_img": "https://live.staticflickr.com/65535/50017376708_6055d4ca2b_o.jpg",
    "id_image": "Cat_250318",
    "count_view": 0
  },
  {
    "link_thumb": "https://live.staticflickr.com/65535/50017333546_39483a76bc_n.jpg",
    "id_album": "-1846011410",
    "description": "Bird_436258",
    "title": "Bird_436258",
    "link_img": "https://live.staticflickr.com/65535/50017333546_f510ca4253_o.jpg",
    "id_image": "Bird_436258",
    "count_view": 0
  },
  {
    "link_thumb": "https://live.staticflickr.com/65535/50021631327_96a1822d36_n.jpg",
    "id_album": "-975314166",
    "description": "Goldfish_364856",
    "title": "Goldfish_364856",
    "link_img": "https://live.staticflickr.com/65535/50021631327_1f2bb55964_o.jpg",
    "id_image": "Goldfish_364856",
    "count_view": 0
  },
  {
    "link_thumb": "https://live.staticflickr.com/65535/50024152146_4589587436_n.jpg",
    "id_album": "405170427",
    "description": "Tiger_530734",
    "title": "Tiger_530734",
    "link_img": "https://live.staticflickr.com/65535/50024152146_7013c908fc_o.jpg",
    "id_image": "Tiger_530734",
    "count_view": 0
  },
  {
    "link_thumb": "https://live.staticflickr.com/65535/50016999436_8c9b6b208f_n.jpg",
    "id_album": "809937717",
    "description": "Beagle_923481",
    "title": "Beagle_923481",
    "link_img": "https://live.staticflickr.com/65535/50016999436_8ce9bc89d1_o.jpg",
    "id_image": "Beagle_923481",
    "count_view": 0
  },
  {
    "link_thumb": "https://live.staticflickr.com/65535/50022678008_96ac188413_n.jpg",
    "id_album": "332874268",
    "description": "RedPanda_660913",
    "title": "RedPanda_660913",
    "link_img": "https://live.staticflickr.com/65535/50022678008_b29222fc51_o.jpg",
    "id_image": "RedPanda_660913",
    "count_view": 0
  },
  {
    "link_thumb": "https://live.staticflickr.com/65535/50020666786_164c56dca1_n.jpg",
    "id_album": "1168627767",
    "description": "Duck_656563",
    "title": "Duck_656563",
    "link_img": "https://live.staticflickr.com/65535/50020666786_f8bb927e80_o.jpg",
    "id_image": "Duck_656563",
    "count_view": 0
  },
  {
    "link_thumb": "https://live.staticflickr.com/65535/50022124677_6948e9c654_n.jpg",
    "id_album": "-1882491687",
    "description": "Ladybug_918641",
    "title": "Ladybug_918641",
    "link_img": "https://live.staticflickr.com/65535/50022124677_c89f45608b_o.jpg",
    "id_image": "Ladybug_918641",
    "count_view": 0
  },
  {
    "link_thumb": "https://live.staticflickr.com/65535/50019495002_d42c7c6db9_n.jpg",
    "id_album": "-462831704",
    "description": "Cat_464620",
    "title": "Cat_464620",
    "link_img": "https://live.staticflickr.com/65535/50019495002_f9be6183e4_o.jpg",
    "id_image": "Cat_464620",
    "count_view": 0
  },
  {
    "link_thumb": "https://live.staticflickr.com/65535/50017713996_896fd6f570_n.jpg",
    "id_album": "-401151552",
    "description": "Butterfly_935016",
    "title": "Butterfly_935016",
    "link_img": "https://live.staticflickr.com/65535/50017713996_a56b20a34d_o.jpg",
    "id_image": "Butterfly_935016",
    "count_view": 0
  },
  {
    "link_thumb": "https://live.staticflickr.com/65535/50018974733_4c4b751482_n.jpg",
    "id_album": "-462831705",
    "description": "Cat_94351",
    "title": "Cat_94351",
    "link_img": "https://live.staticflickr.com/65535/50018974733_c7f99f083d_o.jpg",
    "id_image": "Cat_94351",
    "count_view": 0
  },
  {
    "link_thumb": "https://live.staticflickr.com/65535/50020335416_f3f30c00cb_n.jpg",
    "id_album": "-149330232",
    "description": "Dog_367517",
    "title": "Dog_367517",
    "link_img": "https://live.staticflickr.com/65535/50020335416_bd1e2920bc_o.jpg",
    "id_image": "Dog_367517",
    "count_view": 0
  },
  {
    "link_thumb": "https://live.staticflickr.com/65535/50024509662_ab4398e859_n.jpg",
    "id_album": "405170427",
    "description": "Tiger_948455",
    "title": "Tiger_948455",
    "link_img": "https://live.staticflickr.com/65535/50024509662_ba2aaede9c_o.jpg",
    "id_image": "Tiger_948455",
    "count_view": 0
  },
  {
    "link_thumb": "https://live.staticflickr.com/65535/50019616117_ac26b05873_n.jpg",
    "id_album": "-462831703",
    "description": "Cat_871113",
    "title": "Cat_871113",
    "link_img": "https://live.staticflickr.com/65535/50019616117_14d634ea04_o.jpg",
    "id_image": "Cat_871113",
    "count_view": 0
  },
  {
    "link_thumb": "https://live.staticflickr.com/65535/50018808253_af040d7a0e_n.jpg",
    "id_album": "-462831703",
    "description": "Cat_864322",
    "title": "Cat_864322",
    "link_img": "https://live.staticflickr.com/65535/50018808253_fc532e8e24_o.jpg",
    "id_image": "Cat_864322",
    "count_view": 0
  },
  {
    "link_thumb": "https://live.staticflickr.com/65535/50023336967_bd85e1eb52_n.jpg",
    "id_album": "470794721",
    "description": "Python_559466",
    "title": "Python_559466",
    "link_img": "https://live.staticflickr.com/65535/50023336967_6603fe95bd_o.jpg",
    "id_image": "Python_559466",
    "count_view": 0
  },
  {
    "link_thumb": "https://live.staticflickr.com/65535/50021468846_04b29cf13b_n.jpg",
    "id_album": "-1933715543",
    "description": "Horse_213417",
    "title": "Horse_213417",
    "link_img": "https://live.staticflickr.com/65535/50021468846_14633442b6_o.jpg",
    "id_image": "Horse_213417",
    "count_view": 0
  },
  {
    "link_thumb": "https://live.staticflickr.com/65535/50021471202_525b3087f7_n.jpg",
    "id_album": "-462831703",
    "description": "Cat_738545",
    "title": "Cat_738545",
    "link_img": "https://live.staticflickr.com/65535/50021471202_f9e84ac03e_o.jpg",
    "id_image": "Cat_738545",
    "count_view": 0
  },
  {
    "link_thumb": "https://live.staticflickr.com/65535/50020548692_770a4851a4_n.jpg",
    "id_album": "-149330232",
    "description": "Dog_346007",
    "title": "Dog_346007",
    "link_img": "https://live.staticflickr.com/65535/50020548692_4c7345eb17_o.jpg",
    "id_image": "Dog_346007",
    "count_view": 0
  },
  {
    "link_thumb": "https://live.staticflickr.com/65535/50018695548_5ee2afa9c6_n.jpg",
    "id_album": "-462831704",
    "description": "Cat_456273",
    "title": "Cat_456273",
    "link_img": "https://live.staticflickr.com/65535/50018695548_3ed6ced1ec_o.jpg",
    "id_image": "Cat_456273",
    "count_view": 0
  },
  {
    "link_thumb": "https://live.staticflickr.com/65535/50021119402_fb5bb535b6_n.jpg",
    "id_album": "-1118073211",
    "description": "Fish_561853",
    "title": "Fish_561853",
    "link_img": "https://live.staticflickr.com/65535/50021119402_cd52f614c9_o.jpg",
    "id_image": "Fish_561853",
    "count_view": 0
  },
  {
    "link_thumb": "https://live.staticflickr.com/65535/50019220896_7b18b44768_n.jpg",
    "id_album": "-462831704",
    "description": "Cat_453850",
    "title": "Cat_453850",
    "link_img": "https://live.staticflickr.com/65535/50019220896_4d26b9b1cc_o.jpg",
    "id_image": "Cat_453850",
    "count_view": 0
  },
  {
    "link_thumb": "https://live.staticflickr.com/65535/50022094747_bdabce5ebe_n.jpg",
    "id_album": "-1882491687",
    "description": "Ladybug_162087",
    "title": "Ladybug_162087",
    "link_img": "https://live.staticflickr.com/65535/50022094747_015ccdcd83_o.jpg",
    "id_image": "Ladybug_162087",
    "count_view": 0
  },
  {
    "link_thumb": "https://live.staticflickr.com/65535/50017155918_733767bc04_n.jpg",
    "id_album": "-401151552",
    "description": "Butterfly_868516",
    "title": "Butterfly_868516",
    "link_img": "https://live.staticflickr.com/65535/50017155918_cb88f6bd9e_o.jpg",
    "id_image": "Butterfly_868516",
    "count_view": 0
  },
  {
    "link_thumb": "https://live.staticflickr.com/65535/50017354188_1d55fd4b51_n.jpg",
    "id_album": "-462831705",
    "description": "Cat_236142",
    "title": "Cat_236142",
    "link_img": "https://live.staticflickr.com/65535/50017354188_574470b0e8_o.jpg",
    "id_image": "Cat_236142",
    "count_view": 0
  },
  {
    "link_thumb": "https://live.staticflickr.com/65535/50024361862_f4d378553c_n.jpg",
    "id_album": "405170427",
    "description": "Tiger_380139",
    "title": "Tiger_380139",
    "link_img": "https://live.staticflickr.com/65535/50024361862_daa47f366e_o.jpg",
    "id_image": "Tiger_380139",
    "count_view": 0
  },
  {
    "link_thumb": "https://live.staticflickr.com/65535/50017950371_295e883c5b_n.jpg",
    "id_album": "-462831702",
    "description": "Cat_304537",
    "title": "Cat_304537",
    "link_img": "https://live.staticflickr.com/65535/50017950371_8375c7e255_o.jpg",
    "id_image": "Cat_304537",
    "count_view": 0
  },
  {
    "link_thumb": "https://live.staticflickr.com/65535/50020737161_88c89d1db6_n.jpg",
    "id_album": "1270947998",
    "description": "Elephant_258267",
    "title": "Elephant_258267",
    "link_img": "https://live.staticflickr.com/65535/50020737161_3635bdbac8_o.jpg",
    "id_image": "Elephant_258267",
    "count_view": 0
  },
  {
    "link_thumb": "https://live.staticflickr.com/65535/50021641606_8e38476cd9_n.jpg",
    "id_album": "-712553376",
    "description": "Husky_857477",
    "title": "Husky_857477",
    "link_img": "https://live.staticflickr.com/65535/50021641606_c6422e74c4_o.jpg",
    "id_image": "Husky_857477",
    "count_view": 0
  },
  {
    "link_thumb": "https://live.staticflickr.com/65535/50016952288_98ac26e2d0_n.jpg",
    "id_album": "782930701",
    "description": "BorderCollie_246200",
    "title": "BorderCollie_246200",
    "link_img": "https://live.staticflickr.com/65535/50016952288_624b3d1a4d_o.jpg",
    "id_image": "BorderCollie_246200",
    "count_view": 0
  },
  {
    "link_thumb": "https://live.staticflickr.com/65535/50020442813_f84a813cb7_n.jpg",
    "id_album": "-128218148",
    "description": "Fox_668850",
    "title": "Fox_668850",
    "link_img": "https://live.staticflickr.com/65535/50020442813_8eb6290a78_o.jpg",
    "id_image": "Fox_668850",
    "count_view": 0
  },
  {
    "link_thumb": "https://live.staticflickr.com/65535/50018976763_86f93b5294_n.jpg",
    "id_album": "-462831703",
    "description": "Cat_945451",
    "title": "Cat_945451",
    "link_img": "https://live.staticflickr.com/65535/50018976763_ee84424674_o.jpg",
    "id_image": "Cat_945451",
    "count_view": 0
  },
  {
    "link_thumb": "https://live.staticflickr.com/65535/50020585642_21c2b17353_n.jpg",
    "id_album": "-149330232",
    "description": "Dog_365198",
    "title": "Dog_365198",
    "link_img": "https://live.staticflickr.com/65535/50020585642_1fab5c65d4_o.jpg",
    "id_image": "Dog_365198",
    "count_view": 0
  },
  {
    "link_thumb": "https://live.staticflickr.com/65535/50020012117_434105cc03_n.jpg",
    "id_album": "791455625",
    "description": "Chipmunk_274923",
    "title": "Chipmunk_274923",
    "link_img": "https://live.staticflickr.com/65535/50020012117_0ed333ce65_o.jpg",
    "id_image": "Chipmunk_274923",
    "count_view": 0
  },
  {
    "link_thumb": "https://live.staticflickr.com/65535/50020698013_94f2cf8b4a_n.jpg",
    "id_album": "-462831703",
    "description": "Cat_778534",
    "title": "Cat_778534",
    "link_img": "https://live.staticflickr.com/65535/50020698013_5ecdaa73ff_o.jpg",
    "id_image": "Cat_778534",
    "count_view": 0
  },
  {
    "link_thumb": "https://live.staticflickr.com/65535/50021343021_8f9e881693_n.jpg",
    "id_album": "-804131074",
    "description": "Goat_572358",
    "title": "Goat_572358",
    "link_img": "https://live.staticflickr.com/65535/50021343021_bf014bd0b6_o.jpg",
    "id_image": "Goat_572358",
    "count_view": 0
  },
  {
    "link_thumb": "https://live.staticflickr.com/65535/50023736426_83599ab267_n.jpg",
    "id_album": "-1082521515",
    "description": "Spider_367365",
    "title": "Spider_367365",
    "link_img": "https://live.staticflickr.com/65535/50023736426_5a6491262b_o.jpg",
    "id_image": "Spider_367365",
    "count_view": 0
  },
  {
    "link_thumb": "https://live.staticflickr.com/65535/50023316576_228b472262_n.jpg",
    "id_album": "1926701726",
    "description": "Robin_779106",
    "title": "Robin_779106",
    "link_img": "https://live.staticflickr.com/65535/50023316576_d4bd889702_o.jpg",
    "id_image": "Robin_779106",
    "count_view": 0
  },
  {
    "link_thumb": "https://live.staticflickr.com/65535/50020267412_3806fb2c2e_n.jpg",
    "id_album": "1903411565",
    "description": "Deer_433563",
    "title": "Deer_433563",
    "link_img": "https://live.staticflickr.com/65535/50020267412_8dc77d83d7_o.jpg",
    "id_image": "Deer_433563",
    "count_view": 0
  },
  {
    "link_thumb": "https://live.staticflickr.com/65535/50016665843_fa7109e900_n.jpg",
    "id_album": "-1846011410",
    "description": "Bird_105990",
    "title": "Bird_105990",
    "link_img": "https://live.staticflickr.com/65535/50016665843_f84964df3d_o.jpg",
    "id_image": "Bird_105990",
    "count_view": 0
  },
  {
    "link_thumb": "https://live.staticflickr.com/65535/50017862977_1051c21316_n.jpg",
    "id_album": "-401151552",
    "description": "Butterfly_453825",
    "title": "Butterfly_453825",
    "link_img": "https://live.staticflickr.com/65535/50017862977_d71337ecba_o.jpg",
    "id_image": "Butterfly_453825",
    "count_view": 0
  },
  {
    "link_thumb": "https://live.staticflickr.com/65535/50021893756_477cee1880_n.jpg",
    "id_album": "1392348450",
    "description": "Leopard_248742",
    "title": "Leopard_248742",
    "link_img": "https://live.staticflickr.com/65535/50021893756_ee85d58347_o.jpg",
    "id_image": "Leopard_248742",
    "count_view": 0
  },
  {
    "link_thumb": "https://live.staticflickr.com/65535/50017428962_0287a59ac6_n.jpg",
    "id_album": "1699594607",
    "description": "Bee_926246",
    "title": "Bee_926246",
    "link_img": "https://live.staticflickr.com/65535/50017428962_1111c2b206_o.jpg",
    "id_image": "Bee_926246",
    "count_view": 0
  },
  {
    "link_thumb": "https://live.staticflickr.com/65535/50352623141_aef6d7b812_n.jpg",
    "id_album": "-462831703",
    "description": "Cat_597286",
    "title": "Cat_597286",
    "link_img": "https://live.staticflickr.com/65535/50352623141_01b633f0f3_o.jpg",
    "id_image": "Cat_597286",
    "count_view": 0
  },
  {
    "link_thumb": "https://live.staticflickr.com/65535/50017666696_1e938b3cf9_n.jpg",
    "id_album": "-401151552",
    "description": "Butterfly_779257",
    "title": "Butterfly_779257",
    "link_img": "https://live.staticflickr.com/65535/50017666696_b08095242b_o.jpg",
    "id_image": "Butterfly_779257",
    "count_view": 0
  },
  {
    "link_thumb": "https://live.staticflickr.com/65535/50017845252_2115d85383_n.jpg",
    "id_album": "-401151552",
    "description": "Butterfly_402358",
    "title": "Butterfly_402358",
    "link_img": "https://live.staticflickr.com/65535/50017845252_0f3f0edaec_o.jpg",
    "id_image": "Butterfly_402358",
    "count_view": 0
  },
  {
    "link_thumb": "https://live.staticflickr.com/65535/50020938106_55f678cec1_n.jpg",
    "id_album": "-128218148",
    "description": "Fox_245300",
    "title": "Fox_245300",
    "link_img": "https://live.staticflickr.com/65535/50020938106_882ed59186_o.jpg",
    "id_image": "Fox_245300",
    "count_view": 0
  },
  {
    "link_thumb": "https://live.staticflickr.com/65535/50020140878_62f159389f_n.jpg",
    "id_album": "1168627767",
    "description": "Duck_853666",
    "title": "Duck_853666",
    "link_img": "https://live.staticflickr.com/65535/50020140878_4258a769a2_o.jpg",
    "id_image": "Duck_853666",
    "count_view": 0
  },
  {
    "link_thumb": "https://live.staticflickr.com/65535/50017433297_4ee640dd6a_n.jpg",
    "id_album": "172748811",
    "description": "Beeeater_419495",
    "title": "Beeeater_419495",
    "link_img": "https://live.staticflickr.com/65535/50017433297_7c9dae8e4b_o.jpg",
    "id_image": "Beeeater_419495",
    "count_view": 0
  },
  {
    "link_thumb": "https://live.staticflickr.com/65535/50021886331_827988c768_n.jpg",
    "id_album": "1392348450",
    "description": "Leopard_205021",
    "title": "Leopard_205021",
    "link_img": "https://live.staticflickr.com/65535/50021886331_cda95ee7c0_o.jpg",
    "id_image": "Leopard_205021",
    "count_view": 0
  },
  {
    "link_thumb": "https://live.staticflickr.com/65535/50017128927_69e9acdeca_n.jpg",
    "id_album": "523598895",
    "description": "Artistic_128802",
    "title": "Artistic_128802",
    "link_img": "https://live.staticflickr.com/65535/50017128927_6719617096_o.jpg",
    "id_image": "Artistic_128802",
    "count_view": 0
  },
  {
    "link_thumb": "https://live.staticflickr.com/65535/50021674511_13384b1d87_n.jpg",
    "id_album": "1658866795",
    "description": "Insect_403225",
    "title": "Insect_403225",
    "link_img": "https://live.staticflickr.com/65535/50021674511_fb0eedf95c_o.jpg",
    "id_image": "Insect_403225",
    "count_view": 0
  },
  {
    "link_thumb": "https://live.staticflickr.com/65535/50021485931_1c874f3053_n.jpg",
    "id_album": "-1933715543",
    "description": "Horse_311994",
    "title": "Horse_311994",
    "link_img": "https://live.staticflickr.com/65535/50021485931_2f48ec59e1_o.jpg",
    "id_image": "Horse_311994",
    "count_view": 0
  },
  {
    "link_thumb": "https://live.staticflickr.com/65535/50352712177_28ca2f9d7e_n.jpg",
    "id_album": "-462831703",
    "description": "Cat_469335",
    "title": "Cat_469335",
    "link_img": "https://live.staticflickr.com/65535/50352712177_f986b8c03b_o.jpg",
    "id_image": "Cat_469335",
    "count_view": 0
  },
  {
    "link_thumb": "https://live.staticflickr.com/65535/50019499296_1e0c9a26c3_n.jpg",
    "id_album": "-462831703",
    "description": "Cat_939769",
    "title": "Cat_939769",
    "link_img": "https://live.staticflickr.com/65535/50019499296_01f0f4656e_o.jpg",
    "id_image": "Cat_939769",
    "count_view": 0
  },
  {
    "link_thumb": "https://live.staticflickr.com/65535/50019387436_6ce17e9ded_n.jpg",
    "id_album": "-462831703",
    "description": "Cat_880235",
    "title": "Cat_880235",
    "link_img": "https://live.staticflickr.com/65535/50019387436_ecfd7b668d_o.jpg",
    "id_image": "Cat_880235",
    "count_view": 0
  },
  {
    "link_thumb": "https://live.staticflickr.com/65535/50017398162_f96889cece_n.jpg",
    "id_album": "1699594607",
    "description": "Bee_428932",
    "title": "Bee_428932",
    "link_img": "https://live.staticflickr.com/65535/50017398162_ed5c75bfdd_o.jpg",
    "id_image": "Bee_428932",
    "count_view": 0
  },
  {
    "link_thumb": "https://live.staticflickr.com/65535/50016409568_718d21017b_n.jpg",
    "id_album": "390697200",
    "description": "AustralianShepherd_766872",
    "title": "AustralianShepherd_766872",
    "link_img": "https://live.staticflickr.com/65535/50016409568_4fa8a6bdc4_o.jpg",
    "id_image": "AustralianShepherd_766872",
    "count_view": 0
  },
  {
    "link_thumb": "https://live.staticflickr.com/65535/50017620002_b4720fe96a_n.jpg",
    "id_album": "-1846011410",
    "description": "Bird_533734",
    "title": "Bird_533734",
    "link_img": "https://live.staticflickr.com/65535/50017620002_0683d67748_o.jpg",
    "id_image": "Bird_533734",
    "count_view": 0
  },
  {
    "link_thumb": "https://live.staticflickr.com/65535/50016904748_685a2f393f_n.jpg",
    "id_album": "-1846011410",
    "description": "Bird_830756",
    "title": "Bird_830756",
    "link_img": "https://live.staticflickr.com/65535/50016904748_64d78548f9_o.jpg",
    "id_image": "Bird_830756",
    "count_view": 0
  },
  {
    "link_thumb": "https://live.staticflickr.com/65535/50017076408_2cd645efd9_n.jpg",
    "id_album": "-401151552",
    "description": "Butterfly_453836",
    "title": "Butterfly_453836",
    "link_img": "https://live.staticflickr.com/65535/50017076408_c47480429f_o.jpg",
    "id_image": "Butterfly_453836",
    "count_view": 0
  },
  {
    "link_thumb": "https://live.staticflickr.com/65535/50020935752_c5c98ccbec_n.jpg",
    "id_album": "1168627767",
    "description": "Duck_984016",
    "title": "Duck_984016",
    "link_img": "https://live.staticflickr.com/65535/50020935752_c28f9dae9d_o.jpg",
    "id_image": "Duck_984016",
    "count_view": 0
  },
  {
    "link_thumb": "https://live.staticflickr.com/65535/50021045371_ca7c3bafc0_n.jpg",
    "id_album": "704811092",
    "description": "FrenchBulldog_744337",
    "title": "FrenchBulldog_744337",
    "link_img": "https://live.staticflickr.com/65535/50021045371_104052186d_o.jpg",
    "id_image": "FrenchBulldog_744337",
    "count_view": 0
  },
  {
    "link_thumb": "https://live.staticflickr.com/65535/50022079748_7b57819704_n.jpg",
    "id_album": "1146438617",
    "description": "Pelican_369999",
    "title": "Pelican_369999",
    "link_img": "https://live.staticflickr.com/65535/50022079748_03102b85c8_o.jpg",
    "id_image": "Pelican_369999",
    "count_view": 0
  },
  {
    "link_thumb": "https://live.staticflickr.com/65535/50022640918_9ded2e1412_n.jpg",
    "id_album": "-434874555",
    "description": "RainbowLorikeet_874988",
    "title": "RainbowLorikeet_874988",
    "link_img": "https://live.staticflickr.com/65535/50022640918_520a95a503_o.jpg",
    "id_image": "RainbowLorikeet_874988",
    "count_view": 0
  },
  {
    "link_thumb": "https://live.staticflickr.com/65535/50022292028_e749022859_n.jpg",
    "id_album": "1008910300",
    "description": "PolarBear_47044",
    "title": "PolarBear_47044",
    "link_img": "https://live.staticflickr.com/65535/50022292028_2171e2c76c_o.jpg",
    "id_image": "PolarBear_47044",
    "count_view": 0
  },
  {
    "link_thumb": "https://live.staticflickr.com/65535/50016898776_86521fff3a_n.jpg",
    "id_album": "523598895",
    "description": "Artistic_349352",
    "title": "Artistic_349352",
    "link_img": "https://live.staticflickr.com/65535/50016898776_3db8200c7a_o.jpg",
    "id_image": "Artistic_349352",
    "count_view": 0
  },
  {
    "link_thumb": "https://live.staticflickr.com/65535/50022966938_4721681c7c_n.jpg",
    "id_album": "-800019164",
    "description": "Snail_328357",
    "title": "Snail_328357",
    "link_img": "https://live.staticflickr.com/65535/50022966938_0b4072ffd2_o.jpg",
    "id_image": "Snail_328357",
    "count_view": 0
  },
  {
    "link_thumb": "https://live.staticflickr.com/65535/50019460067_1b394b4317_n.jpg",
    "id_album": "-462831704",
    "description": "Cat_439077",
    "title": "Cat_439077",
    "link_img": "https://live.staticflickr.com/65535/50019460067_b1d12b71cc_o.jpg",
    "id_image": "Cat_439077",
    "count_view": 0
  },
  {
    "link_thumb": "https://live.staticflickr.com/65535/50021845541_eebdc7c691_n.jpg",
    "id_album": "-1882491687",
    "description": "Ladybug_373750",
    "title": "Ladybug_373750",
    "link_img": "https://live.staticflickr.com/65535/50021845541_878bc726a6_o.jpg",
    "id_image": "Ladybug_373750",
    "count_view": 0
  },
  {
    "link_thumb": "https://live.staticflickr.com/65535/50352693701_832e0cf6de_n.jpg",
    "id_album": "-462831702",
    "description": "Cat_150722",
    "title": "Cat_150722",
    "link_img": "https://live.staticflickr.com/65535/50352693701_e835083897_o.jpg",
    "id_image": "Cat_150722",
    "count_view": 0
  },
  {
    "link_thumb": "https://live.staticflickr.com/65535/50023689322_688099d3ff_n.jpg",
    "id_album": "-1596347105",
    "description": "Shark_270580",
    "title": "Shark_270580",
    "link_img": "https://live.staticflickr.com/65535/50023689322_abdf80aa87_o.jpg",
    "id_image": "Shark_270580",
    "count_view": 0
  },
  {
    "link_thumb": "https://live.staticflickr.com/65535/50020667548_c100503df1_n.jpg",
    "id_album": "-462831704",
    "description": "Cat_729654",
    "title": "Cat_729654",
    "link_img": "https://live.staticflickr.com/65535/50020667548_51b69ffeff_o.jpg",
    "id_image": "Cat_729654",
    "count_view": 0
  },
  {
    "link_thumb": "https://live.staticflickr.com/65535/50352554611_7cf90fec35_n.jpg",
    "id_album": "-462831703",
    "description": "Cat_471002",
    "title": "Cat_471002",
    "link_img": "https://live.staticflickr.com/65535/50352554611_397b48bac3_o.jpg",
    "id_image": "Cat_471002",
    "count_view": 0
  },
  {
    "link_thumb": "https://live.staticflickr.com/65535/50023692901_d1321a959e_n.jpg",
    "id_album": "1933547265",
    "description": "SnowyOwl_803337",
    "title": "SnowyOwl_803337",
    "link_img": "https://live.staticflickr.com/65535/50023692901_db6dee7df1_o.jpg",
    "id_image": "SnowyOwl_803337",
    "count_view": 0
  },
  {
    "link_thumb": "https://live.staticflickr.com/65535/50019708438_23f6aa87da_n.jpg",
    "id_album": "-149330232",
    "description": "Dog_323407",
    "title": "Dog_323407",
    "link_img": "https://live.staticflickr.com/65535/50019708438_48d9043536_o.jpg",
    "id_image": "Dog_323407",
    "count_view": 0
  },
  {
    "link_thumb": "https://live.staticflickr.com/65535/50021091056_ce5ea39c34_n.jpg",
    "id_album": "-34696179",
    "description": "Gecko_351319",
    "title": "Gecko_351319",
    "link_img": "https://live.staticflickr.com/65535/50021091056_5b008f8322_o.jpg",
    "id_image": "Gecko_351319",
    "count_view": 0
  },
  {
    "link_thumb": "https://live.staticflickr.com/65535/50021705816_360b995b3b_n.jpg",
    "id_album": "1658866795",
    "description": "Insect_574391",
    "title": "Insect_574391",
    "link_img": "https://live.staticflickr.com/65535/50021705816_7f06b5173f_o.jpg",
    "id_image": "Insect_574391",
    "count_view": 0
  },
  {
    "link_thumb": "https://live.staticflickr.com/65535/50019216611_fa4db7df1b_n.jpg",
    "id_album": "-462831704",
    "description": "Cat_447906",
    "title": "Cat_447906",
    "link_img": "https://live.staticflickr.com/65535/50019216611_ac298a2742_o.jpg",
    "id_image": "Cat_447906",
    "count_view": 0
  },
  {
    "link_thumb": "https://live.staticflickr.com/65535/50024487002_44d55553d3_n.jpg",
    "id_album": "405170427",
    "description": "Tiger_872442",
    "title": "Tiger_872442",
    "link_img": "https://live.staticflickr.com/65535/50024487002_137e1f8b54_o.jpg",
    "id_image": "Tiger_872442",
    "count_view": 0
  },
  {
    "link_thumb": "https://live.staticflickr.com/65535/50020874523_68274a03f8_n.jpg",
    "id_album": "109779448",
    "description": "Hare_871241",
    "title": "Hare_871241",
    "link_img": "https://live.staticflickr.com/65535/50020874523_e382189295_o.jpg",
    "id_image": "Hare_871241",
    "count_view": 0
  },
  {
    "link_thumb": "https://live.staticflickr.com/65535/50019481532_85039a1394_n.jpg",
    "id_album": "-462831704",
    "description": "Cat_454175",
    "title": "Cat_454175",
    "link_img": "https://live.staticflickr.com/65535/50019481532_21f34bea3d_o.jpg",
    "id_image": "Cat_454175",
    "count_view": 0
  },
  {
    "link_thumb": "https://live.staticflickr.com/65535/50023765397_db464711ed_n.jpg",
    "id_album": "-800019164",
    "description": "Snail_228833",
    "title": "Snail_228833",
    "link_img": "https://live.staticflickr.com/65535/50023765397_e565173c3a_o.jpg",
    "id_image": "Snail_228833",
    "count_view": 0
  },
  {
    "link_thumb": "https://live.staticflickr.com/65535/50018649958_ae154a306c_n.jpg",
    "id_album": "-462831702",
    "description": "Cat_428358",
    "title": "Cat_428358",
    "link_img": "https://live.staticflickr.com/65535/50018649958_27776b9144_o.jpg",
    "id_image": "Cat_428358",
    "count_view": 0
  },
  {
    "link_thumb": "https://live.staticflickr.com/65535/50017533951_594bd3a754_n.jpg",
    "id_album": "-401151552",
    "description": "Butterfly_121061",
    "title": "Butterfly_121061",
    "link_img": "https://live.staticflickr.com/65535/50017533951_78fa8c73eb_o.jpg",
    "id_image": "Butterfly_121061",
    "count_view": 0
  },
  {
    "link_thumb": "https://live.staticflickr.com/65535/50017376762_e95079d590_n.jpg",
    "id_album": "1699594607",
    "description": "Bee_110558",
    "title": "Bee_110558",
    "link_img": "https://live.staticflickr.com/65535/50017376762_6fa634f2ed_o.jpg",
    "id_image": "Bee_110558",
    "count_view": 0
  },
  {
    "link_thumb": "https://live.staticflickr.com/65535/50019760746_b8dcbb21d3_n.jpg",
    "id_album": "791455625",
    "description": "Chipmunk_458656",
    "title": "Chipmunk_458656",
    "link_img": "https://live.staticflickr.com/65535/50019760746_c277279848_o.jpg",
    "id_image": "Chipmunk_458656",
    "count_view": 0
  },
  {
    "link_thumb": "https://live.staticflickr.com/65535/50023012667_80a6407f71_n.jpg",
    "id_album": "407660898",
    "description": "Pigeon_359308",
    "title": "Pigeon_359308",
    "link_img": "https://live.staticflickr.com/65535/50023012667_055b3fdda7_o.jpg",
    "id_image": "Pigeon_359308",
    "count_view": 0
  },
  {
    "link_thumb": "https://live.staticflickr.com/65535/50019706683_e323d1db08_n.jpg",
    "id_album": "-149330232",
    "description": "Dog_323391",
    "title": "Dog_323391",
    "link_img": "https://live.staticflickr.com/65535/50019706683_8225b3d78b_o.jpg",
    "id_image": "Dog_323391",
    "count_view": 0
  },
  {
    "link_thumb": "https://live.staticflickr.com/65535/50016932666_bfebb1fcee_n.jpg",
    "id_album": "390697200",
    "description": "AustralianShepherd_650993",
    "title": "AustralianShepherd_650993",
    "link_img": "https://live.staticflickr.com/65535/50016932666_904fdd5317_o.jpg",
    "id_image": "AustralianShepherd_650993",
    "count_view": 0
  },
  {
    "link_thumb": "https://live.staticflickr.com/65535/50022163422_735ee6870c_n.jpg",
    "id_album": "1392348450",
    "description": "Leopard_365011",
    "title": "Leopard_365011",
    "link_img": "https://live.staticflickr.com/65535/50022163422_b8893bceb5_o.jpg",
    "id_image": "Leopard_365011",
    "count_view": 0
  },
  {
    "link_thumb": "https://live.staticflickr.com/65535/50017451571_45a16eb5c7_n.jpg",
    "id_album": "-1561645279",
    "description": "BlackPanther_388811",
    "title": "BlackPanther_388811",
    "link_img": "https://live.staticflickr.com/65535/50017451571_a1f69c76b6_o.jpg",
    "id_image": "BlackPanther_388811",
    "count_view": 0
  },
  {
    "link_thumb": "https://live.staticflickr.com/65535/50021427491_8476129913_n.jpg",
    "id_album": "1469520430",
    "description": "Hedgehog_210840",
    "title": "Hedgehog_210840",
    "link_img": "https://live.staticflickr.com/65535/50021427491_bc5e680d32_o.jpg",
    "id_image": "Hedgehog_210840",
    "count_view": 0
  },
  {
    "link_thumb": "https://live.staticflickr.com/65535/50021250206_1a91293f04_n.jpg",
    "id_album": "-462831703",
    "description": "Cat_790250",
    "title": "Cat_790250",
    "link_img": "https://live.staticflickr.com/65535/50021250206_a920a4d65f_o.jpg",
    "id_image": "Cat_790250",
    "count_view": 0
  },
  {
    "link_thumb": "https://live.staticflickr.com/65535/50020382163_cfa47e7579_n.jpg",
    "id_album": "-1694105481",
    "description": "Fly_592433",
    "title": "Fly_592433",
    "link_img": "https://live.staticflickr.com/65535/50020382163_722bd7ed6d_o.jpg",
    "id_image": "Fly_592433",
    "count_view": 0
  },
  {
    "link_thumb": "https://live.staticflickr.com/65535/50023526128_ffc670fc49_n.jpg",
    "id_album": "405170427",
    "description": "Tiger_347754",
    "title": "Tiger_347754",
    "link_img": "https://live.staticflickr.com/65535/50023526128_c9dd7b5dfe_o.jpg",
    "id_image": "Tiger_347754",
    "count_view": 0
  },
  {
    "link_thumb": "https://live.staticflickr.com/65535/50019840982_aaae4e18c5_n.jpg",
    "id_album": "-1930903528",
    "description": "CatDog_698012",
    "title": "CatDog_698012",
    "link_img": "https://live.staticflickr.com/65535/50019840982_6289b5a760_o.jpg",
    "id_image": "CatDog_698012",
    "count_view": 0
  },
  {
    "link_thumb": "https://live.staticflickr.com/65535/50024289281_f24df6e1c5_n.jpg",
    "id_album": "-1103743486",
    "description": "Toucan_985098",
    "title": "Toucan_985098",
    "link_img": "https://live.staticflickr.com/65535/50024289281_2e79fbc40b_o.jpg",
    "id_image": "Toucan_985098",
    "count_view": 0
  },
  {
    "link_thumb": "https://live.staticflickr.com/65535/50017907762_c050177394_n.jpg",
    "id_album": "-401151552",
    "description": "Butterfly_702006",
    "title": "Butterfly_702006",
    "link_img": "https://live.staticflickr.com/65535/50017907762_44723cd76e_o.jpg",
    "id_image": "Butterfly_702006",
    "count_view": 0
  },
  {
    "link_thumb": "https://live.staticflickr.com/65535/50022283691_e9bb0985d1_n.jpg",
    "id_album": "1957967135",
    "description": "Mouse_192971",
    "title": "Mouse_192971",
    "link_img": "https://live.staticflickr.com/65535/50022283691_9c48eed406_o.jpg",
    "id_image": "Mouse_192971",
    "count_view": 0
  },
  {
    "link_thumb": "https://live.staticflickr.com/65535/50019829722_563cd6429a_n.jpg",
    "id_album": "-462831703",
    "description": "Cat_996991",
    "title": "Cat_996991",
    "link_img": "https://live.staticflickr.com/65535/50019829722_ba773a4943_o.jpg",
    "id_image": "Cat_996991",
    "count_view": 0
  },
  {
    "link_thumb": "https://live.staticflickr.com/65535/50020558542_4df13eb018_n.jpg",
    "id_album": "-149330232",
    "description": "Dog_351467",
    "title": "Dog_351467",
    "link_img": "https://live.staticflickr.com/65535/50020558542_96d0b44235_o.jpg",
    "id_image": "Dog_351467",
    "count_view": 0
  },
  {
    "link_thumb": "https://live.staticflickr.com/65535/50022410388_738065ef46_n.jpg",
    "id_album": "-1431524681",
    "description": "Pug_595663",
    "title": "Pug_595663",
    "link_img": "https://live.staticflickr.com/65535/50022410388_f3dc06351a_o.jpg",
    "id_image": "Pug_595663",
    "count_view": 0
  },
  {
    "link_thumb": "https://live.staticflickr.com/65535/50020949786_4482a66bfe_n.jpg",
    "id_album": "-128218148",
    "description": "Fox_343689",
    "title": "Fox_343689",
    "link_img": "https://live.staticflickr.com/65535/50020949786_b2299ccf15_o.jpg",
    "id_image": "Fox_343689",
    "count_view": 0
  },
  {
    "link_thumb": "https://live.staticflickr.com/65535/50017471018_7a3d6737b0_n.jpg",
    "id_album": "-462831702",
    "description": "Cat_334975",
    "title": "Cat_334975",
    "link_img": "https://live.staticflickr.com/65535/50017471018_d48f630dc2_o.jpg",
    "id_image": "Cat_334975",
    "count_view": 0
  },
  {
    "link_thumb": "https://live.staticflickr.com/65535/50019347816_d3c3b4b101_n.jpg",
    "id_album": "-462831705",
    "description": "Cat_86698",
    "title": "Cat_86698",
    "link_img": "https://live.staticflickr.com/65535/50019347816_c7cdd9c166_o.jpg",
    "id_image": "Cat_86698",
    "count_view": 0
  },
  {
    "link_thumb": "https://live.staticflickr.com/65535/50017201038_57f1f60cf5_n.jpg",
    "id_album": "-1131161368",
    "description": "Camel_885051",
    "title": "Camel_885051",
    "link_img": "https://live.staticflickr.com/65535/50017201038_2ef19a8431_o.jpg",
    "id_image": "Camel_885051",
    "count_view": 0
  },
  {
    "link_thumb": "https://live.staticflickr.com/65535/50020357887_705e590a9d_n.jpg",
    "id_album": "297232732",
    "description": "Dinosaur_639411",
    "title": "Dinosaur_639411",
    "link_img": "https://live.staticflickr.com/65535/50020357887_938a6888fa_o.jpg",
    "id_image": "Dinosaur_639411",
    "count_view": 0
  },
  {
    "link_thumb": "https://live.staticflickr.com/65535/50020966301_33264cdbd2_n.jpg",
    "id_album": "-128218148",
    "description": "Fox_433157",
    "title": "Fox_433157",
    "link_img": "https://live.staticflickr.com/65535/50020966301_b67252ef08_o.jpg",
    "id_image": "Fox_433157",
    "count_view": 0
  },
  {
    "link_thumb": "https://live.staticflickr.com/65535/50020710427_3a05f549dd_n.jpg",
    "id_album": "-149330231",
    "description": "Dog_534607",
    "title": "Dog_534607",
    "link_img": "https://live.staticflickr.com/65535/50020710427_0673ee3abc_o.jpg",
    "id_image": "Dog_534607",
    "count_view": 0
  },
  {
    "link_thumb": "https://live.staticflickr.com/65535/50018939438_dc5e3532f4_n.jpg",
    "id_album": "-462831703",
    "description": "Cat_920788",
    "title": "Cat_920788",
    "link_img": "https://live.staticflickr.com/65535/50018939438_3c39360495_o.jpg",
    "id_image": "Cat_920788",
    "count_view": 0
  },
  {
    "link_thumb": "https://live.staticflickr.com/65535/50016857533_c23d7a176f_n.jpg",
    "id_album": "-1846011410",
    "description": "Bird_596685",
    "title": "Bird_596685",
    "link_img": "https://live.staticflickr.com/65535/50016857533_0c7c38213b_o.jpg",
    "id_image": "Bird_596685",
    "count_view": 0
  },
  {
    "link_thumb": "https://live.staticflickr.com/65535/50022000338_3ba10aec14_n.jpg",
    "id_album": "-358592519",
    "description": "Panda_593496",
    "title": "Panda_593496",
    "link_img": "https://live.staticflickr.com/65535/50022000338_bc4d969128_o.jpg",
    "id_image": "Panda_593496",
    "count_view": 0
  },
  {
    "link_thumb": "https://live.staticflickr.com/65535/50020864327_24154c222b_n.jpg",
    "id_album": "-405058657",
    "description": "Dragonfly_311884",
    "title": "Dragonfly_311884",
    "link_img": "https://live.staticflickr.com/65535/50020864327_a89bbb032a_o.jpg",
    "id_image": "Dragonfly_311884",
    "count_view": 0
  },
  {
    "link_thumb": "https://live.staticflickr.com/65535/50017487358_1d6c562637_n.jpg",
    "id_album": "-462831702",
    "description": "Cat_342718",
    "title": "Cat_342718",
    "link_img": "https://live.staticflickr.com/65535/50017487358_6d8f2e44f9_o.jpg",
    "id_image": "Cat_342718",
    "count_view": 0
  },
  {
    "link_thumb": "https://live.staticflickr.com/65535/50020512911_861f40ce3f_n.jpg",
    "id_album": "-149330231",
    "description": "Dog_780064",
    "title": "Dog_780064",
    "link_img": "https://live.staticflickr.com/65535/50020512911_127de246e7_o.jpg",
    "id_image": "Dog_780064",
    "count_view": 0
  },
  {
    "link_thumb": "https://live.staticflickr.com/65535/50017196857_5acd35718d_n.jpg",
    "id_album": "390697200",
    "description": "AustralianShepherd_777584",
    "title": "AustralianShepherd_777584",
    "link_img": "https://live.staticflickr.com/65535/50017196857_c94d35dcf7_o.jpg",
    "id_image": "AustralianShepherd_777584",
    "count_view": 0
  },
  {
    "link_thumb": "https://live.staticflickr.com/65535/50020020521_c8bbd5b020_n.jpg",
    "id_album": "1903411565",
    "description": "Deer_530003",
    "title": "Deer_530003",
    "link_img": "https://live.staticflickr.com/65535/50020020521_9b37b282fb_o.jpg",
    "id_image": "Deer_530003",
    "count_view": 0
  },
  {
    "link_thumb": "https://live.staticflickr.com/65535/50022343396_68fe8385f5_n.jpg",
    "id_album": "1015034486",
    "description": "Muteswan_939162",
    "title": "Muteswan_939162",
    "link_img": "https://live.staticflickr.com/65535/50022343396_59654ff9e2_o.jpg",
    "id_image": "Muteswan_939162",
    "count_view": 0
  },
  {
    "link_thumb": "https://live.staticflickr.com/65535/50021345608_184ef5b054_n.jpg",
    "id_album": "1392348450",
    "description": "Leopard_209939",
    "title": "Leopard_209939",
    "link_img": "https://live.staticflickr.com/65535/50021345608_cb9162b64f_o.jpg",
    "id_image": "Leopard_209939",
    "count_view": 0
  },
  {
    "link_thumb": "https://live.staticflickr.com/65535/50020638721_b86e0cf901_n.jpg",
    "id_album": "-405058657",
    "description": "Dragonfly_744563",
    "title": "Dragonfly_744563",
    "link_img": "https://live.staticflickr.com/65535/50020638721_60e8d2eaa7_o.jpg",
    "id_image": "Dragonfly_744563",
    "count_view": 0
  },
  {
    "link_thumb": "https://live.staticflickr.com/65535/50019669227_0d1526aff9_n.jpg",
    "id_album": "-462831703",
    "description": "Cat_899611",
    "title": "Cat_899611",
    "link_img": "https://live.staticflickr.com/65535/50019669227_bd70ee35a2_o.jpg",
    "id_image": "Cat_899611",
    "count_view": 0
  },
  {
    "link_thumb": "https://live.staticflickr.com/65535/50352673116_e47b3c95ee_n.jpg",
    "id_album": "-462831703",
    "description": "Cat_968609",
    "title": "Cat_968609",
    "link_img": "https://live.staticflickr.com/65535/50352673116_dd413819c5_o.jpg",
    "id_image": "Cat_968609",
    "count_view": 0
  },
  {
    "link_thumb": "https://live.staticflickr.com/65535/50020688058_f94b30736e_n.jpg",
    "id_album": "-462831703",
    "description": "Cat_758089",
    "title": "Cat_758089",
    "link_img": "https://live.staticflickr.com/65535/50020688058_1ed97da032_o.jpg",
    "id_image": "Cat_758089",
    "count_view": 0
  },
  {
    "link_thumb": "https://live.staticflickr.com/65535/50023439153_dc5bff734d_n.jpg",
    "id_album": "702283289",
    "description": "Squirrel_983083",
    "title": "Squirrel_983083",
    "link_img": "https://live.staticflickr.com/65535/50023439153_b262f6ae31_o.jpg",
    "id_image": "Squirrel_983083",
    "count_view": 0
  },
  {
    "link_thumb": "https://live.staticflickr.com/65535/50017898611_fa449bbfa1_n.jpg",
    "id_album": "-462831705",
    "description": "Cat_243082",
    "title": "Cat_243082",
    "link_img": "https://live.staticflickr.com/65535/50017898611_2bc8a0c24b_o.jpg",
    "id_image": "Cat_243082",
    "count_view": 0
  },
  {
    "link_thumb": "https://live.staticflickr.com/65535/50017584333_3be939ac5f_n.jpg",
    "id_album": "-462831702",
    "description": "Cat_383957",
    "title": "Cat_383957",
    "link_img": "https://live.staticflickr.com/65535/50017584333_c2d34b8041_o.jpg",
    "id_image": "Cat_383957",
    "count_view": 0
  },
  {
    "link_thumb": "https://live.staticflickr.com/65535/50017578861_15438e3bc3_n.jpg",
    "id_album": "-401151552",
    "description": "Butterfly_385071",
    "title": "Butterfly_385071",
    "link_img": "https://live.staticflickr.com/65535/50017578861_737ef0efd6_o.jpg",
    "id_image": "Butterfly_385071",
    "count_view": 0
  },
  {
    "link_thumb": "https://live.staticflickr.com/65535/50017233248_b8221d74bf_n.jpg",
    "id_album": "-462831705",
    "description": "Cat_114735",
    "title": "Cat_114735",
    "link_img": "https://live.staticflickr.com/65535/50017233248_5d6474947b_o.jpg",
    "id_image": "Cat_114735",
    "count_view": 0
  },
  {
    "link_thumb": "https://live.staticflickr.com/65535/50023535833_bd4c332bc8_n.jpg",
    "id_album": "405170427",
    "description": "Tiger_360769",
    "title": "Tiger_360769",
    "link_img": "https://live.staticflickr.com/65535/50023535833_bda1533157_o.jpg",
    "id_image": "Tiger_360769",
    "count_view": 0
  },
  {
    "link_thumb": "https://live.staticflickr.com/65535/50352447766_82fa4a5e71_n.jpg",
    "id_album": "-462831703",
    "description": "Cat_266561",
    "title": "Cat_266561",
    "link_img": "https://live.staticflickr.com/65535/50352447766_8921b224f3_o.jpg",
    "id_image": "Cat_266561",
    "count_view": 0
  },
  {
    "link_thumb": "https://live.staticflickr.com/65535/50023844721_da8cba24e1_n.jpg",
    "id_album": "702283289",
    "description": "Squirrel_361586",
    "title": "Squirrel_361586",
    "link_img": "https://live.staticflickr.com/65535/50023844721_770caaa1f1_o.jpg",
    "id_image": "Squirrel_361586",
    "count_view": 0
  },
  {
    "link_thumb": "https://live.staticflickr.com/65535/50022126141_1b778d9185_n.jpg",
    "id_album": "-656526748",
    "description": "Lizard_784417",
    "title": "Lizard_784417",
    "link_img": "https://live.staticflickr.com/65535/50022126141_ef7b580ab0_o.jpg",
    "id_image": "Lizard_784417",
    "count_view": 0
  },
  {
    "link_thumb": "https://live.staticflickr.com/65535/50023663653_6914c686ba_n.jpg",
    "id_album": "405170427",
    "description": "Tiger_758093",
    "title": "Tiger_758093",
    "link_img": "https://live.staticflickr.com/65535/50023663653_7edfa799f7_o.jpg",
    "id_image": "Tiger_758093",
    "count_view": 0
  },
  {
    "link_thumb": "https://live.staticflickr.com/65535/50020697423_75f2961b28_n.jpg",
    "id_album": "-462831703",
    "description": "Cat_777962",
    "title": "Cat_777962",
    "link_img": "https://live.staticflickr.com/65535/50020697423_728e78d186_o.jpg",
    "id_image": "Cat_777962",
    "count_view": 0
  },
  {
    "link_thumb": "https://live.staticflickr.com/65535/50021376511_22593bf4ce_n.jpg",
    "id_album": "-975314166",
    "description": "Goldfish_344115",
    "title": "Goldfish_344115",
    "link_img": "https://live.staticflickr.com/65535/50021376511_5b39595ee7_o.jpg",
    "id_image": "Goldfish_344115",
    "count_view": 0
  },
  {
    "link_thumb": "https://live.staticflickr.com/65535/50021957176_df3624fc3d_n.jpg",
    "id_album": "1392348450",
    "description": "Leopard_915353",
    "title": "Leopard_915353",
    "link_img": "https://live.staticflickr.com/65535/50021957176_4b0bbdc27d_o.jpg",
    "id_image": "Leopard_915353",
    "count_view": 0
  },
  {
    "link_thumb": "https://live.staticflickr.com/65535/50021080196_3a289bc2d9_n.jpg",
    "id_album": "844170697",
    "description": "Frog_858400",
    "title": "Frog_858400",
    "link_img": "https://live.staticflickr.com/65535/50021080196_5f5a496020_o.jpg",
    "id_image": "Frog_858400",
    "count_view": 0
  },
  {
    "link_thumb": "https://live.staticflickr.com/65535/50021628526_d9493b7468_n.jpg",
    "id_album": "-712553376",
    "description": "Husky_323269",
    "title": "Husky_323269",
    "link_img": "https://live.staticflickr.com/65535/50021628526_2751516b9f_o.jpg",
    "id_image": "Husky_323269",
    "count_view": 0
  },
  {
    "link_thumb": "https://live.staticflickr.com/65535/50020085222_1b80e339f9_n.jpg",
    "id_album": "-1868680171",
    "description": "Cougar_730428",
    "title": "Cougar_730428",
    "link_img": "https://live.staticflickr.com/65535/50020085222_0948460e72_o.jpg",
    "id_image": "Cougar_730428",
    "count_view": 0
  },
  {
    "link_thumb": "https://live.staticflickr.com/65535/50021752606_d0a95d18de_n.jpg",
    "id_album": "665694624",
    "description": "JapaneseMacaque_668973",
    "title": "JapaneseMacaque_668973",
    "link_img": "https://live.staticflickr.com/65535/50021752606_8f16021819_o.jpg",
    "id_image": "JapaneseMacaque_668973",
    "count_view": 0
  },
  {
    "link_thumb": "https://live.staticflickr.com/65535/50019976592_6ff86f316c_n.jpg",
    "id_album": "-1481843714",
    "description": "Cheetah_676393",
    "title": "Cheetah_676393",
    "link_img": "https://live.staticflickr.com/65535/50019976592_375a3e0146_o.jpg",
    "id_image": "Cheetah_676393",
    "count_view": 0
  },
  {
    "link_thumb": "https://live.staticflickr.com/65535/50020340192_6b1a55deb6_n.jpg",
    "id_album": "297232732",
    "description": "Dinosaur_275869",
    "title": "Dinosaur_275869",
    "link_img": "https://live.staticflickr.com/65535/50020340192_c7744fe23e_o.jpg",
    "id_image": "Dinosaur_275869",
    "count_view": 0
  },
  {
    "link_thumb": "https://live.staticflickr.com/65535/50351699218_0d6a9e7745_n.jpg",
    "id_album": "-462831703",
    "description": "Cat_110339",
    "title": "Cat_110339",
    "link_img": "https://live.staticflickr.com/65535/50351699218_cf755241a8_o.jpg",
    "id_image": "Cat_110339",
    "count_view": 0
  },
  {
    "link_thumb": "https://live.staticflickr.com/65535/50016962353_214ae6a331_n.jpg",
    "id_album": "782930701",
    "description": "BorderCollie_728680",
    "title": "BorderCollie_728680",
    "link_img": "https://live.staticflickr.com/65535/50016962353_1888e6dcc9_o.jpg",
    "id_image": "BorderCollie_728680",
    "count_view": 0
  },
  {
    "link_thumb": "https://live.staticflickr.com/65535/50017757997_46b8fba7a3_n.jpg",
    "id_album": "782930701",
    "description": "BorderCollie_833415",
    "title": "BorderCollie_833415",
    "link_img": "https://live.staticflickr.com/65535/50017757997_438237d9af_o.jpg",
    "id_image": "BorderCollie_833415",
    "count_view": 0
  },
  {
    "link_thumb": "https://live.staticflickr.com/65535/50023755798_46f81222b6_n.jpg",
    "id_album": "46520366",
    "description": "Turtle_222132",
    "title": "Turtle_222132",
    "link_img": "https://live.staticflickr.com/65535/50023755798_1ee38a42d5_o.jpg",
    "id_image": "Turtle_222132",
    "count_view": 0
  },
  {
    "link_thumb": "https://live.staticflickr.com/65535/50020656518_75875b6332_n.jpg",
    "id_album": "-462831704",
    "description": "Cat_716550",
    "title": "Cat_716550",
    "link_img": "https://live.staticflickr.com/65535/50020656518_c2dde5f79e_o.jpg",
    "id_image": "Cat_716550",
    "count_view": 0
  },
  {
    "link_thumb": "https://live.staticflickr.com/65535/50019441237_af3903c70f_n.jpg",
    "id_album": "-462831702",
    "description": "Cat_430947",
    "title": "Cat_430947",
    "link_img": "https://live.staticflickr.com/65535/50019441237_4fa4c1bcbc_o.jpg",
    "id_image": "Cat_430947",
    "count_view": 0
  },
  {
    "link_thumb": "https://live.staticflickr.com/65535/50021700351_8e5fc1ec31_n.jpg",
    "id_album": "1658866795",
    "description": "Insect_432087",
    "title": "Insect_432087",
    "link_img": "https://live.staticflickr.com/65535/50021700351_c21a0c214c_o.jpg",
    "id_image": "Insect_432087",
    "count_view": 0
  },
  {
    "link_thumb": "https://live.staticflickr.com/65535/50351878328_99c1bca0e5_n.jpg",
    "id_album": "-462831703",
    "description": "Cat_506042",
    "title": "Cat_506042",
    "link_img": "https://live.staticflickr.com/65535/50351878328_418fba820e_o.jpg",
    "id_image": "Cat_506042",
    "count_view": 0
  },
  {
    "link_thumb": "https://live.staticflickr.com/65535/50022938471_c224002849_n.jpg",
    "id_album": "-356780855",
    "description": "Puffin_945834",
    "title": "Puffin_945834",
    "link_img": "https://live.staticflickr.com/65535/50022938471_7014ba7c5a_o.jpg",
    "id_image": "Puffin_945834",
    "count_view": 0
  },
  {
    "link_thumb": "https://live.staticflickr.com/65535/50024218426_a0c47e6d33_n.jpg",
    "id_album": "405170427",
    "description": "Tiger_819578",
    "title": "Tiger_819578",
    "link_img": "https://live.staticflickr.com/65535/50024218426_d6e64a9d1c_o.jpg",
    "id_image": "Tiger_819578",
    "count_view": 0
  },
  {
    "link_thumb": "https://live.staticflickr.com/65535/50020045842_d72a99c31a_n.jpg",
    "id_album": "643379324",
    "description": "Clownfish_866208",
    "title": "Clownfish_866208",
    "link_img": "https://live.staticflickr.com/65535/50020045842_8fd283e41a_o.jpg",
    "id_image": "Clownfish_866208",
    "count_view": 0
  },
  {
    "link_thumb": "https://live.staticflickr.com/65535/50018240492_eb0221457e_n.jpg",
    "id_album": "-462831702",
    "description": "Cat_327206",
    "title": "Cat_327206",
    "link_img": "https://live.staticflickr.com/65535/50018240492_0d4f6a93b7_o.jpg",
    "id_image": "Cat_327206",
    "count_view": 0
  },
  {
    "link_thumb": "https://live.staticflickr.com/65535/50016973523_9ce81cff3d_n.jpg",
    "id_album": "782930701",
    "description": "BorderCollie_858150",
    "title": "BorderCollie_858150",
    "link_img": "https://live.staticflickr.com/65535/50016973523_26309a36ff_o.jpg",
    "id_image": "BorderCollie_858150",
    "count_view": 0
  },
  {
    "link_thumb": "https://live.staticflickr.com/65535/50019732882_477d0e83ca_n.jpg",
    "id_album": "-462831703",
    "description": "Cat_924973",
    "title": "Cat_924973",
    "link_img": "https://live.staticflickr.com/65535/50019732882_784061093a_o.jpg",
    "id_image": "Cat_924973",
    "count_view": 0
  },
  {
    "link_thumb": "https://live.staticflickr.com/65535/50017955212_ef7d8e5549_n.jpg",
    "id_album": "-401151552",
    "description": "Butterfly_925010",
    "title": "Butterfly_925010",
    "link_img": "https://live.staticflickr.com/65535/50017955212_6d397cef70_o.jpg",
    "id_image": "Butterfly_925010",
    "count_view": 0
  },
  {
    "link_thumb": "https://live.staticflickr.com/65535/50016985871_a295774c29_n.jpg",
    "id_album": "809937717",
    "description": "Beagle_399597",
    "title": "Beagle_399597",
    "link_img": "https://live.staticflickr.com/65535/50016985871_83790c2041_o.jpg",
    "id_image": "Beagle_399597",
    "count_view": 0
  },
  {
    "link_thumb": "https://live.staticflickr.com/65535/50021087673_5e049cff4c_n.jpg",
    "id_album": "-712553376",
    "description": "Husky_365127",
    "title": "Husky_365127",
    "link_img": "https://live.staticflickr.com/65535/50021087673_6032dfd578_o.jpg",
    "id_image": "Husky_365127",
    "count_view": 0
  },
  {
    "link_thumb": "https://live.staticflickr.com/65535/50016678713_eb00b1f86c_n.jpg",
    "id_album": "-1846011410",
    "description": "Bird_175698",
    "title": "Bird_175698",
    "link_img": "https://live.staticflickr.com/65535/50016678713_921b8a0c8a_o.jpg",
    "id_image": "Bird_175698",
    "count_view": 0
  },
  {
    "link_thumb": "https://live.staticflickr.com/65535/50016890591_0d0f45ab3b_n.jpg",
    "id_album": "523598895",
    "description": "Artistic_277057",
    "title": "Artistic_277057",
    "link_img": "https://live.staticflickr.com/65535/50016890591_48b23276a1_o.jpg",
    "id_image": "Artistic_277057",
    "count_view": 0
  },
  {
    "link_thumb": "https://live.staticflickr.com/65535/50019424267_d3bd80f68d_n.jpg",
    "id_album": "-462831702",
    "description": "Cat_425054",
    "title": "Cat_425054",
    "link_img": "https://live.staticflickr.com/65535/50019424267_cc1c24ed76_o.jpg",
    "id_image": "Cat_425054",
    "count_view": 0
  },
  {
    "link_thumb": "https://live.staticflickr.com/65535/50019238723_a8944cdd41_n.jpg",
    "id_album": "791455625",
    "description": "Chipmunk_721250",
    "title": "Chipmunk_721250",
    "link_img": "https://live.staticflickr.com/65535/50019238723_2b741b7fe8_o.jpg",
    "id_image": "Chipmunk_721250",
    "count_view": 0
  },
  {
    "link_thumb": "https://live.staticflickr.com/65535/50017913077_19452a5f09_n.jpg",
    "id_album": "-401151552",
    "description": "Butterfly_712218",
    "title": "Butterfly_712218",
    "link_img": "https://live.staticflickr.com/65535/50017913077_6644b2244b_o.jpg",
    "id_image": "Butterfly_712218",
    "count_view": 0
  },
  {
    "link_thumb": "https://live.staticflickr.com/65535/50023017821_b521ef72ec_n.jpg",
    "id_album": "-353898617",
    "description": "Puppy_548552",
    "title": "Puppy_548552",
    "link_img": "https://live.staticflickr.com/65535/50023017821_a220712fb6_o.jpg",
    "id_image": "Puppy_548552",
    "count_view": 0
  },
  {
    "link_thumb": "https://live.staticflickr.com/65535/50018148611_21fa58c694_n.jpg",
    "id_album": "-462831702",
    "description": "Cat_407021",
    "title": "Cat_407021",
    "link_img": "https://live.staticflickr.com/65535/50018148611_cfbdbcf9ae_o.jpg",
    "id_image": "Cat_407021",
    "count_view": 0
  },
  {
    "link_thumb": "https://live.staticflickr.com/65535/50021481272_e99881a267_n.jpg",
    "id_album": "-462831703",
    "description": "Cat_749847",
    "title": "Cat_749847",
    "link_img": "https://live.staticflickr.com/65535/50021481272_1dfdc47f44_o.jpg",
    "id_image": "Cat_749847",
    "count_view": 0
  },
  {
    "link_thumb": "https://live.staticflickr.com/65535/50018153101_74ddb0fd29_n.jpg",
    "id_album": "-462831702",
    "description": "Cat_407927",
    "title": "Cat_407927",
    "link_img": "https://live.staticflickr.com/65535/50018153101_b94e774661_o.jpg",
    "id_image": "Cat_407927",
    "count_view": 0
  },
  {
    "link_thumb": "https://live.staticflickr.com/65535/50021751707_6893915737_n.jpg",
    "id_album": "-1933715543",
    "description": "Horse_352650",
    "title": "Horse_352650",
    "link_img": "https://live.staticflickr.com/65535/50021751707_e84fd13abb_o.jpg",
    "id_image": "Horse_352650",
    "count_view": 0
  },
  {
    "link_thumb": "https://live.staticflickr.com/65535/50023246111_8c8b8d65fa_n.jpg",
    "id_album": "-2087362619",
    "description": "RedandgreenMacaw_449417",
    "title": "RedandgreenMacaw_449417",
    "link_img": "https://live.staticflickr.com/65535/50023246111_c2e1c62c33_o.jpg",
    "id_image": "RedandgreenMacaw_449417",
    "count_view": 0
  },
  {
    "link_thumb": "https://live.staticflickr.com/65535/50017056711_ae5276dac8_n.jpg",
    "id_album": "-422187261",
    "description": "Bear_546791",
    "title": "Bear_546791",
    "link_img": "https://live.staticflickr.com/65535/50017056711_e83fce3e0b_o.jpg",
    "id_image": "Bear_546791",
    "count_view": 0
  },
  {
    "link_thumb": "https://live.staticflickr.com/65535/50021313456_799ebb8ac4_n.jpg",
    "id_album": "-405626519",
    "description": "GermanShepherd_970144",
    "title": "GermanShepherd_970144",
    "link_img": "https://live.staticflickr.com/65535/50021313456_a96ddd733c_o.jpg",
    "id_image": "GermanShepherd_970144",
    "count_view": 0
  },
  {
    "link_thumb": "https://live.staticflickr.com/65535/50021450366_ab14d7efdd_n.jpg",
    "id_album": "-362549635",
    "description": "Hippo_247728",
    "title": "Hippo_247728",
    "link_img": "https://live.staticflickr.com/65535/50021450366_eb8aa50fd7_o.jpg",
    "id_image": "Hippo_247728",
    "count_view": 0
  },
  {
    "link_thumb": "https://live.staticflickr.com/65535/50017575251_54bcb2867f_n.jpg",
    "id_album": "-401151552",
    "description": "Butterfly_376766",
    "title": "Butterfly_376766",
    "link_img": "https://live.staticflickr.com/65535/50017575251_00b623aa24_o.jpg",
    "id_image": "Butterfly_376766",
    "count_view": 0
  },
  {
    "link_thumb": "https://live.staticflickr.com/65535/50018307142_7bda8042e8_n.jpg",
    "id_album": "-462831702",
    "description": "Cat_357946",
    "title": "Cat_357946",
    "link_img": "https://live.staticflickr.com/65535/50018307142_c46d2b3bdb_o.jpg",
    "id_image": "Cat_357946",
    "count_view": 0
  },
  {
    "link_thumb": "https://live.staticflickr.com/65535/50019989968_c776223293_n.jpg",
    "id_album": "-149330231",
    "description": "Dog_848280",
    "title": "Dog_848280",
    "link_img": "https://live.staticflickr.com/65535/50019989968_3b24f9633e_o.jpg",
    "id_image": "Dog_848280",
    "count_view": 0
  },
  {
    "link_thumb": "https://live.staticflickr.com/65535/50018612808_5520635d19_n.jpg",
    "id_album": "-462831702",
    "description": "Cat_412560",
    "title": "Cat_412560",
    "link_img": "https://live.staticflickr.com/65535/50018612808_82587a9d14_o.jpg",
    "id_image": "Cat_412560",
    "count_view": 0
  },
  {
    "link_thumb": "https://live.staticflickr.com/65535/50023425757_c1e051d315_n.jpg",
    "id_album": "248289288",
    "description": "Raccoon_988130",
    "title": "Raccoon_988130",
    "link_img": "https://live.staticflickr.com/65535/50023425757_c1c1551103_o.jpg",
    "id_image": "Raccoon_988130",
    "count_view": 0
  },
  {
    "link_thumb": "https://live.staticflickr.com/65535/50017225113_f0c5bb538c_n.jpg",
    "id_album": "-462831705",
    "description": "Cat_111079",
    "title": "Cat_111079",
    "link_img": "https://live.staticflickr.com/65535/50017225113_595b4da80a_o.jpg",
    "id_image": "Cat_111079",
    "count_view": 0
  },
  {
    "link_thumb": "https://live.staticflickr.com/65535/50023432342_76a6418532_n.jpg",
    "id_album": "-434874555",
    "description": "RainbowLorikeet_546360",
    "title": "RainbowLorikeet_546360",
    "link_img": "https://live.staticflickr.com/65535/50023432342_fd1b13d2bc_o.jpg",
    "id_image": "RainbowLorikeet_546360",
    "count_view": 0
  },
  {
    "link_thumb": "https://live.staticflickr.com/65535/50021874552_4967c94458_n.jpg",
    "id_album": "2144294979",
    "description": "Hummingbird_861497",
    "title": "Hummingbird_861497",
    "link_img": "https://live.staticflickr.com/65535/50021874552_f52d781373_o.jpg",
    "id_image": "Hummingbird_861497",
    "count_view": 0
  },
  {
    "link_thumb": "https://live.staticflickr.com/65535/50020388827_03f65b560c_n.jpg",
    "id_album": "-149330232",
    "description": "Dog_175057",
    "title": "Dog_175057",
    "link_img": "https://live.staticflickr.com/65535/50020388827_0d5b1a04f9_o.jpg",
    "id_image": "Dog_175057",
    "count_view": 0
  },
  {
    "link_thumb": "https://live.staticflickr.com/65535/50018613993_313c00efa5_n.jpg",
    "id_album": "-462831702",
    "description": "Cat_413695",
    "title": "Cat_413695",
    "link_img": "https://live.staticflickr.com/65535/50018613993_39e59de6d3_o.jpg",
    "id_image": "Cat_413695",
    "count_view": 0
  },
  {
    "link_thumb": "https://live.staticflickr.com/65535/50023849848_3a116c7bea_n.jpg",
    "id_album": "786934945",
    "description": "Whale_213783",
    "title": "Whale_213783",
    "link_img": "https://live.staticflickr.com/65535/50023849848_65e98a4c2d_o.jpg",
    "id_image": "Whale_213783",
    "count_view": 0
  },
  {
    "link_thumb": "https://live.staticflickr.com/65535/50016832051_0d22bf7d3d_n.jpg",
    "id_album": "-1741290715",
    "description": "Ant_379664",
    "title": "Ant_379664",
    "link_img": "https://live.staticflickr.com/65535/50016832051_685932de99_o.jpg",
    "id_image": "Ant_379664",
    "count_view": 0
  },
  {
    "link_thumb": "https://live.staticflickr.com/65535/50017966462_7c20150c7e_n.jpg",
    "id_album": "-401151552",
    "description": "Butterfly_926928",
    "title": "Butterfly_926928",
    "link_img": "https://live.staticflickr.com/65535/50017966462_3567236e19_o.jpg",
    "id_image": "Butterfly_926928",
    "count_view": 0
  },
  {
    "link_thumb": "https://live.staticflickr.com/65535/50020934962_d382cd81c4_n.jpg",
    "id_album": "1168627767",
    "description": "Duck_948451",
    "title": "Duck_948451",
    "link_img": "https://live.staticflickr.com/65535/50020934962_54bb265b09_o.jpg",
    "id_image": "Duck_948451",
    "count_view": 0
  },
  {
    "link_thumb": "https://live.staticflickr.com/65535/50024466417_0ef40e3498_n.jpg",
    "id_album": "405170427",
    "description": "Tiger_750224",
    "title": "Tiger_750224",
    "link_img": "https://live.staticflickr.com/65535/50024466417_10b8cd5722_o.jpg",
    "id_image": "Tiger_750224",
    "count_view": 0
  },
  {
    "link_thumb": "https://live.staticflickr.com/65535/50022330688_a4236388fa_n.jpg",
    "id_album": "1008910300",
    "description": "PolarBear_960660",
    "title": "PolarBear_960660",
    "link_img": "https://live.staticflickr.com/65535/50022330688_245b95cd32_o.jpg",
    "id_image": "PolarBear_960660",
    "count_view": 0
  },
  {
    "link_thumb": "https://live.staticflickr.com/65535/50020157988_a2c2b393e7_n.jpg",
    "id_album": "-39098563",
    "description": "Eagle_335680",
    "title": "Eagle_335680",
    "link_img": "https://live.staticflickr.com/65535/50020157988_469b406bbc_o.jpg",
    "id_image": "Eagle_335680",
    "count_view": 0
  },
  {
    "link_thumb": "https://live.staticflickr.com/65535/50017122888_0222569fa4_n.jpg",
    "id_album": "-401151552",
    "description": "Butterfly_705387",
    "title": "Butterfly_705387",
    "link_img": "https://live.staticflickr.com/65535/50017122888_efa9f07f13_o.jpg",
    "id_image": "Butterfly_705387",
    "count_view": 0
  },
  {
    "link_thumb": "https://live.staticflickr.com/65535/50017641717_60458504f3_n.jpg",
    "id_album": "-1846011410",
    "description": "Bird_593431",
    "title": "Bird_593431",
    "link_img": "https://live.staticflickr.com/65535/50017641717_f566976bbd_o.jpg",
    "id_image": "Bird_593431",
    "count_view": 0
  },
  {
    "link_thumb": "https://live.staticflickr.com/65535/50022062927_f111342af8_n.jpg",
    "id_album": "770105808",
    "description": "Kingfisher_707902",
    "title": "Kingfisher_707902",
    "link_img": "https://live.staticflickr.com/65535/50022062927_2100b45f67_o.jpg",
    "id_image": "Kingfisher_707902",
    "count_view": 0
  },
  {
    "link_thumb": "https://live.staticflickr.com/65535/50352689002_fa35850e1d_n.jpg",
    "id_album": "-462831703",
    "description": "Cat_448122",
    "title": "Cat_448122",
    "link_img": "https://live.staticflickr.com/65535/50352689002_c5bb587df5_o.jpg",
    "id_image": "Cat_448122",
    "count_view": 0
  }
]