[
  {
    "link_thumb": "https://live.staticflickr.com/65535/50020934596_58ac824658_n.jpg",
    "id_album": "-128218148",
    "description": "Fox_176275",
    "title": "Fox_176275",
    "link_img": "https://live.staticflickr.com/65535/50020934596_0872c2faf6_o.jpg",
    "id_image": "Fox_176275",
    "count_view": 0
  },
  {
    "link_thumb": "https://live.staticflickr.com/65535/50017022321_afce0c75a8_n.jpg",
    "id_album": "-422187261",
    "description": "Bear_337891",
    "title": "Bear_337891",
    "link_img": "https://live.staticflickr.com/65535/50017022321_cb700f6715_o.jpg",
    "id_image": "Bear_337891",
    "count_view": 0
  },
  {
    "link_thumb": "https://live.staticflickr.com/65535/50017905911_4d448ac69b_n.jpg",
    "id_album": "-462831705",
    "description": "Cat_251841",
    "title": "Cat_251841",
    "link_img": "https://live.staticflickr.com/65535/50017905911_33ae93b2e1_o.jpg",
    "id_image": "Cat_251841",
    "count_view": 0
  },
  {
    "link_thumb": "https://live.staticflickr.com/65535/50023192496_efaed5465e_n.jpg",
    "id_album": "-1862965835",
    "description": "RedEyedTreeFrog_671553",
    "title": "RedEyedTreeFrog_671553",
    "link_img": "https://live.staticflickr.com/65535/50023192496_a7dc3f94c7_o.jpg",
    "id_image": "RedEyedTreeFrog_671553",
    "count_view": 0
  },
  {
    "link_thumb": "https://live.staticflickr.com/65535/50019372026_d87e987316_n.jpg",
    "id_album": "-462831703",
    "description": "Cat_875864",
    "title": "Cat_875864",
    "link_img": "https://live.staticflickr.com/65535/50019372026_36c15873dc_o.jpg",
    "id_image": "Cat_875864",
    "count_view": 0
  },
  {
    "link_thumb": "https://live.staticflickr.com/65535/50021662932_dd3ba35b48_n.jpg",
    "id_album": "82558972",
    "description": "GuineaPig_738379",
    "title": "GuineaPig_738379",
    "link_img": "https://live.staticflickr.com/65535/50021662932_dc57f4e066_o.jpg",
    "id_image": "GuineaPig_738379",
    "count_view": 0
  },
  {
    "link_thumb": "https://live.staticflickr.com/65535/50019467427_ce6747a69c_n.jpg",
    "id_album": "-462831704",
    "description": "Cat_441936",
    "title": "Cat_441936",
    "link_img": "https://live.staticflickr.com/65535/50019467427_a5371b6174_o.jpg",
    "id_image": "Cat_441936",
    "count_view": 0
  },
  {
    "link_thumb": "https://live.staticflickr.com/65535/50021433001_5b8a3ed837_n.jpg",
    "id_album": "1469520430",
    "description": "Hedgehog_520280",
    "title": "Hedgehog_520280",
    "link_img": "https://live.staticflickr.com/65535/50021433001_e0e645c06c_o.jpg",
    "id_image": "Hedgehog_520280",
    "count_view": 0
  },
  {
    "link_thumb": "https://live.staticflickr.com/65535/50019675088_031fb15412_n.jpg",
    "id_album": "-149330232",
    "description": "Dog_275571",
    "title": "Dog_275571",
    "link_img": "https://live.staticflickr.com/65535/50019675088_1fd3cff9e2_o.jpg",
    "id_image": "Dog_275571",
    "count_view": 0
  },
  {
    "link_thumb": "https://live.staticflickr.com/65535/50021720702_e5a149d045_n.jpg",
    "id_album": "-1933715543",
    "description": "Horse_211866",
    "title": "Horse_211866",
    "link_img": "https://live.staticflickr.com/65535/50021720702_1e6f0d8074_o.jpg",
    "id_image": "Horse_211866",
    "count_view": 0
  },
  {
    "link_thumb": "https://live.staticflickr.com/65535/50021791276_f37f8871bd_n.jpg",
    "id_album": "-649286029",
    "description": "Kangaroo_333486",
    "title": "Kangaroo_333486",
    "link_img": "https://live.staticflickr.com/65535/50021791276_00a79b30a5_o.jpg",
    "id_image": "Kangaroo_333486",
    "count_view": 0
  },
  {
    "link_thumb": "https://live.staticflickr.com/65535/50023291861_e29917453f_n.jpg",
    "id_album": "48367914",
    "description": "Rhino_524510",
    "title": "Rhino_524510",
    "link_img": "https://live.staticflickr.com/65535/50023291861_c1f31b13bf_o.jpg",
    "id_image": "Rhino_524510",
    "count_view": 0
  },
  {
    "link_thumb": "https://live.staticflickr.com/65535/50019276956_cbb84d26d7_n.jpg",
    "id_album": "-462831704",
    "description": "Cat_516139",
    "title": "Cat_516139",
    "link_img": "https://live.staticflickr.com/65535/50019276956_ce1d44c8b5_o.jpg",
    "id_image": "Cat_516139",
    "count_view": 0
  },
  {
    "link_thumb": "https://live.staticflickr.com/65535/50022127856_046223d2b4_n.jpg",
    "id_album": "1894617400",
    "description": "Lynx_1001707",
    "title": "Lynx_1001707",
    "link_img": "https://live.staticflickr.com/65535/50022127856_7ea85cf6a0_o.jpg",
    "id_image": "Lynx_1001707",
    "count_view": 0
  },
  {
    "link_thumb": "https://live.staticflickr.com/65535/50017826956_f4221b43ea_n.jpg",
    "id_album": "-462831705",
    "description": "Cat_184198",
    "title": "Cat_184198",
    "link_img": "https://live.staticflickr.com/65535/50017826956_31e5481936_o.jpg",
    "id_image": "Cat_184198",
    "count_view": 0
  },
  {
    "link_thumb": "https://live.staticflickr.com/65535/50021247432_5747186f4d_n.jpg",
    "id_album": "-128218148",
    "description": "Fox_716612",
    "title": "Fox_716612",
    "link_img": "https://live.staticflickr.com/65535/50021247432_371cfbea6b_o.jpg",
    "id_image": "Fox_716612",
    "count_view": 0
  },
  {
    "link_thumb": "https://live.staticflickr.com/65535/50019819101_93870608e1_n.jpg",
    "id_album": "-1868680171",
    "description": "Cougar_453881",
    "title": "Cougar_453881",
    "link_img": "https://live.staticflickr.com/65535/50019819101_e03342544a_o.jpg",
    "id_image": "Cougar_453881",
    "count_view": 0
  },
  {
    "link_thumb": "https://live.staticflickr.com/65535/50019503446_04fb29690f_n.jpg",
    "id_album": "-462831703",
    "description": "Cat_942827",
    "title": "Cat_942827",
    "link_img": "https://live.staticflickr.com/65535/50019503446_6b488e86a1_o.jpg",
    "id_image": "Cat_942827",
    "count_view": 0
  },
  {
    "link_thumb": "https://live.staticflickr.com/65535/50024283851_25c1c7797c_n.jpg",
    "id_album": "-1103743486",
    "description": "Toucan_692276",
    "title": "Toucan_692276",
    "link_img": "https://live.staticflickr.com/65535/50024283851_261c0fb68b_o.jpg",
    "id_image": "Toucan_692276",
    "count_view": 0
  },
  {
    "link_thumb": "https://live.staticflickr.com/65535/50022305773_77a4bfc1d9_n.jpg",
    "id_album": "1008910300",
    "description": "PolarBear_676843",
    "title": "PolarBear_676843",
    "link_img": "https://live.staticflickr.com/65535/50022305773_e107db50c1_o.jpg",
    "id_image": "PolarBear_676843",
    "count_view": 0
  },
  {
    "link_thumb": "https://live.staticflickr.com/65535/50020452881_5f8be43792_n.jpg",
    "id_album": "-149330231",
    "description": "Dog_531479",
    "title": "Dog_531479",
    "link_img": "https://live.staticflickr.com/65535/50020452881_ff28e2c718_o.jpg",
    "id_image": "Dog_531479",
    "count_view": 0
  },
  {
    "link_thumb": "https://live.staticflickr.com/65535/50019917648_34c467fdf4_n.jpg",
    "id_album": "-149330231",
    "description": "Dog_524332",
    "title": "Dog_524332",
    "link_img": "https://live.staticflickr.com/65535/50019917648_d13c5eba5b_o.jpg",
    "id_image": "Dog_524332",
    "count_view": 0
  },
  {
    "link_thumb": "https://live.staticflickr.com/65535/50017531793_528caaa99c_n.jpg",
    "id_album": "-462831702",
    "description": "Cat_362453",
    "title": "Cat_362453",
    "link_img": "https://live.staticflickr.com/65535/50017531793_0dbbd548bc_o.jpg",
    "id_image": "Cat_362453",
    "count_view": 0
  },
  {
    "link_thumb": "https://live.staticflickr.com/65535/50020712801_f7020152e6_n.jpg",
    "id_album": "-39098563",
    "description": "Eagle_515815",
    "title": "Eagle_515815",
    "link_img": "https://live.staticflickr.com/65535/50020712801_b7d97039c7_o.jpg",
    "id_image": "Eagle_515815",
    "count_view": 0
  },
  {
    "link_thumb": "https://live.staticflickr.com/65535/50017415067_df864ee5d4_n.jpg",
    "id_album": "1699594607",
    "description": "Bee_68585",
    "title": "Bee_68585",
    "link_img": "https://live.staticflickr.com/65535/50017415067_e87fe32860_o.jpg",
    "id_image": "Bee_68585",
    "count_view": 0
  },
  {
    "link_thumb": "https://live.staticflickr.com/65535/50020104623_1904017793_n.jpg",
    "id_album": "-405058657",
    "description": "Dragonfly_725281",
    "title": "Dragonfly_725281",
    "link_img": "https://live.staticflickr.com/65535/50020104623_c8ef168589_o.jpg",
    "id_image": "Dragonfly_725281",
    "count_view": 0
  },
  {
    "link_thumb": "https://live.staticflickr.com/65535/50019660522_a1d3afd6ab_n.jpg",
    "id_album": "-462831703",
    "description": "Cat_893494",
    "title": "Cat_893494",
    "link_img": "https://live.staticflickr.com/65535/50019660522_f20246be0d_o.jpg",
    "id_image": "Cat_893494",
    "count_view": 0
  },
  {
    "link_thumb": "https://live.staticflickr.com/65535/50017634401_ee3acdc7d9_n.jpg",
    "id_album": "-401151552",
    "description": "Butterfly_574427",
    "title": "Butterfly_574427",
    "link_img": "https://live.staticflickr.com/65535/50017634401_dfb1a43330_o.jpg",
    "id_image": "Butterfly_574427",
    "count_view": 0
  },
  {
    "link_thumb": "https://live.staticflickr.com/65535/50020928902_01c6093093_n.jpg",
    "id_album": "1168627767",
    "description": "Duck_754044",
    "title": "Duck_754044",
    "link_img": "https://live.staticflickr.com/65535/50020928902_2e47374741_o.jpg",
    "id_image": "Duck_754044",
    "count_view": 0
  },
  {
    "link_thumb": "https://live.staticflickr.com/65535/50022160766_b8e6efe34a_n.jpg",
    "id_album": "1894617400",
    "description": "Lynx_779307",
    "title": "Lynx_779307",
    "link_img": "https://live.staticflickr.com/65535/50022160766_8823edc24c_o.jpg",
    "id_image": "Lynx_779307",
    "count_view": 0
  },
  {
    "link_thumb": "https://live.staticflickr.com/65535/50019621013_5b05a2d23d_n.jpg",
    "id_album": "-149330232",
    "description": "Dog_210677",
    "title": "Dog_210677",
    "link_img": "https://live.staticflickr.com/65535/50019621013_e2b5df7cc5_o.jpg",
    "id_image": "Dog_210677",
    "count_view": 0
  },
  {
    "link_thumb": "https://live.staticflickr.com/65535/50016599733_5690280920_n.jpg",
    "id_album": "1699594607",
    "description": "Bee_344795",
    "title": "Bee_344795",
    "link_img": "https://live.staticflickr.com/65535/50016599733_1b99981a72_o.jpg",
    "id_image": "Bee_344795",
    "count_view": 0
  },
  {
    "link_thumb": "https://live.staticflickr.com/65535/50021600852_81aa20ceda_n.jpg",
    "id_album": "2060159334",
    "description": "GoldenRetriever_364173",
    "title": "GoldenRetriever_364173",
    "link_img": "https://live.staticflickr.com/65535/50021600852_0ae79c4fbb_o.jpg",
    "id_image": "GoldenRetriever_364173",
    "count_view": 0
  },
  {
    "link_thumb": "https://live.staticflickr.com/65535/50020223506_b19c06e8cc_n.jpg",
    "id_album": "-149330232",
    "description": "Dog_286477",
    "title": "Dog_286477",
    "link_img": "https://live.staticflickr.com/65535/50020223506_50060548c7_o.jpg",
    "id_image": "Dog_286477",
    "count_view": 0
  },
  {
    "link_thumb": "https://live.staticflickr.com/65535/50351897603_9ffbcc051c_n.jpg",
    "id_album": "-462831703",
    "description": "Cat_536190",
    "title": "Cat_536190",
    "link_img": "https://live.staticflickr.com/65535/50351897603_560b7ed67b_o.jpg",
    "id_image": "Cat_536190",
    "count_view": 0
  },
  {
    "link_thumb": "https://live.staticflickr.com/65535/50021729456_c5c43d4d5c_n.jpg",
    "id_album": "-843028318",
    "description": "Jaguar_456574",
    "title": "Jaguar_456574",
    "link_img": "https://live.staticflickr.com/65535/50021729456_71d7d9a09c_o.jpg",
    "id_image": "Jaguar_456574",
    "count_view": 0
  },
  {
    "link_thumb": "https://live.staticflickr.com/65535/50022016943_ee1eb9e579_n.jpg",
    "id_album": "405592235",
    "description": "Parrot_241125",
    "title": "Parrot_241125",
    "link_img": "https://live.staticflickr.com/65535/50022016943_c564c34a57_o.jpg",
    "id_image": "Parrot_241125",
    "count_view": 0
  },
  {
    "link_thumb": "https://live.staticflickr.com/65535/50021207896_6ef929c522_n.jpg",
    "id_album": "-462831704",
    "description": "Cat_725343",
    "title": "Cat_725343",
    "link_img": "https://live.staticflickr.com/65535/50021207896_296f8ddd41_o.jpg",
    "id_image": "Cat_725343",
    "count_view": 0
  },
  {
    "link_thumb": "https://live.staticflickr.com/65535/50021814061_00438921da_n.jpg",
    "id_album": "770105808",
    "description": "Kingfisher_941496",
    "title": "Kingfisher_941496",
    "link_img": "https://live.staticflickr.com/65535/50021814061_90af4f3ca3_o.jpg",
    "id_image": "Kingfisher_941496",
    "count_view": 0
  },
  {
    "link_thumb": "https://live.staticflickr.com/65535/50017780202_1cc9f40cc8_n.jpg",
    "id_album": "1696155652",
    "description": "Boxer_525491",
    "title": "Boxer_525491",
    "link_img": "https://live.staticflickr.com/65535/50017780202_864de13cbb_o.jpg",
    "id_image": "Boxer_525491",
    "count_view": 0
  },
  {
    "link_thumb": "https://live.staticflickr.com/65535/50020016473_bb7b577b38_n.jpg",
    "id_album": "-149330231",
    "description": "Dog_944530",
    "title": "Dog_944530",
    "link_img": "https://live.staticflickr.com/65535/50020016473_eaac7018e7_o.jpg",
    "id_image": "Dog_944530",
    "count_view": 0
  },
  {
    "link_thumb": "https://live.staticflickr.com/65535/50017886797_6c6be975b9_n.jpg",
    "id_album": "-401151552",
    "description": "Butterfly_553659",
    "title": "Butterfly_553659",
    "link_img": "https://live.staticflickr.com/65535/50017886797_bb4535c0ac_o.jpg",
    "id_image": "Butterfly_553659",
    "count_view": 0
  },
  {
    "link_thumb": "https://live.staticflickr.com/65535/50017626102_bab87dd109_n.jpg",
    "id_album": "-1846011410",
    "description": "Bird_554531",
    "title": "Bird_554531",
    "link_img": "https://live.staticflickr.com/65535/50017626102_d9b5794930_o.jpg",
    "id_image": "Bird_554531",
    "count_view": 0
  },
  {
    "link_thumb": "https://live.staticflickr.com/65535/50021398397_f54810061a_n.jpg",
    "id_album": "-462831704",
    "description": "Cat_617255",
    "title": "Cat_617255",
    "link_img": "https://live.staticflickr.com/65535/50021398397_5575a3af28_o.jpg",
    "id_image": "Cat_617255",
    "count_view": 0
  },
  {
    "link_thumb": "https://live.staticflickr.com/65535/50019435951_d831ffaa11_n.jpg",
    "id_album": "-462831703",
    "description": "Cat_910279",
    "title": "Cat_910279",
    "link_img": "https://live.staticflickr.com/65535/50019435951_b20be47dab_o.jpg",
    "id_image": "Cat_910279",
    "count_view": 0
  },
  {
    "link_thumb": "https://live.staticflickr.com/65535/50016873588_0ff0667f96_n.jpg",
    "id_album": "-1846011410",
    "description": "Bird_666390",
    "title": "Bird_666390",
    "link_img": "https://live.staticflickr.com/65535/50016873588_7576fbe094_o.jpg",
    "id_image": "Bird_666390",
    "count_view": 0
  },
  {
    "link_thumb": "https://live.staticflickr.com/65535/50016949636_1975d02cbf_n.jpg",
    "id_album": "390697200",
    "description": "AustralianShepherd_959341",
    "title": "AustralianShepherd_959341",
    "link_img": "https://live.staticflickr.com/65535/50016949636_01c1d4bf4e_o.jpg",
    "id_image": "AustralianShepherd_959341",
    "count_view": 0
  },
  {
    "link_thumb": "https://live.staticflickr.com/65535/50024153926_28201e394f_n.jpg",
    "id_album": "405170427",
    "description": "Tiger_536226",
    "title": "Tiger_536226",
    "link_img": "https://live.staticflickr.com/65535/50024153926_f3d75ab1fa_o.jpg",
    "id_image": "Tiger_536226",
    "count_view": 0
  },
  {
    "link_thumb": "https://live.staticflickr.com/65535/50019331146_11894e1e0c_n.jpg",
    "id_album": "-462831703",
    "description": "Cat_859737",
    "title": "Cat_859737",
    "link_img": "https://live.staticflickr.com/65535/50019331146_4262299c9b_o.jpg",
    "id_image": "Cat_859737",
    "count_view": 0
  },
  {
    "link_thumb": "https://live.staticflickr.com/65535/50022170513_42b3299358_n.jpg",
    "id_album": "392248205",
    "description": "Penguin_673619",
    "title": "Penguin_673619",
    "link_img": "https://live.staticflickr.com/65535/50022170513_ca250fc44d_o.jpg",
    "id_image": "Penguin_673619",
    "count_view": 0
  },
  {
    "link_thumb": "https://live.staticflickr.com/65535/50020041612_9310ef1618_n.jpg",
    "id_album": "643379324",
    "description": "Clownfish_508411",
    "title": "Clownfish_508411",
    "link_img": "https://live.staticflickr.com/65535/50020041612_0eb4506fb8_o.jpg",
    "id_image": "Clownfish_508411",
    "count_view": 0
  },
  {
    "link_thumb": "https://live.staticflickr.com/65535/50016721298_e47016052e_n.jpg",
    "id_album": "-1846011410",
    "description": "Bird_337485",
    "title": "Bird_337485",
    "link_img": "https://live.staticflickr.com/65535/50016721298_1208f88bf4_o.jpg",
    "id_image": "Bird_337485",
    "count_view": 0
  },
  {
    "link_thumb": "https://live.staticflickr.com/65535/50019761898_be511600c2_n.jpg",
    "id_album": "-149330232",
    "description": "Dog_347891",
    "title": "Dog_347891",
    "link_img": "https://live.staticflickr.com/65535/50019761898_c3e8ee7d73_o.jpg",
    "id_image": "Dog_347891",
    "count_view": 0
  },
  {
    "link_thumb": "https://live.staticflickr.com/65535/50021561902_7730007283_n.jpg",
    "id_album": "-405626519",
    "description": "GermanShepherd_881307",
    "title": "GermanShepherd_881307",
    "link_img": "https://live.staticflickr.com/65535/50021561902_6d7220b859_o.jpg",
    "id_image": "GermanShepherd_881307",
    "count_view": 0
  },
  {
    "link_thumb": "https://live.staticflickr.com/65535/50018934523_a54040279c_n.jpg",
    "id_album": "-462831703",
    "description": "Cat_917159",
    "title": "Cat_917159",
    "link_img": "https://live.staticflickr.com/65535/50018934523_23857b70a8_o.jpg",
    "id_image": "Cat_917159",
    "count_view": 0
  },
  {
    "link_thumb": "https://live.staticflickr.com/65535/50018388072_8d2275b3c4_n.jpg",
    "id_album": "-462831702",
    "description": "Cat_393941",
    "title": "Cat_393941",
    "link_img": "https://live.staticflickr.com/65535/50018388072_eda8b32ffd_o.jpg",
    "id_image": "Cat_393941",
    "count_view": 0
  },
  {
    "link_thumb": "https://live.staticflickr.com/65535/50016679443_7a8a172a9d_n.jpg",
    "id_album": "-1846011410",
    "description": "Bird_178297",
    "title": "Bird_178297",
    "link_img": "https://live.staticflickr.com/65535/50016679443_4aa1bc307c_o.jpg",
    "id_image": "Bird_178297",
    "count_view": 0
  },
  {
    "link_thumb": "https://live.staticflickr.com/65535/50020440722_072ab77ceb_n.jpg",
    "id_album": "-149330232",
    "description": "Dog_254120",
    "title": "Dog_254120",
    "link_img": "https://live.staticflickr.com/65535/50020440722_27f76b1f26_o.jpg",
    "id_image": "Dog_254120",
    "count_view": 0
  },
  {
    "link_thumb": "https://live.staticflickr.com/65535/50024318247_7310fb64c5_n.jpg",
    "id_album": "405170427",
    "description": "Tiger_310020",
    "title": "Tiger_310020",
    "link_img": "https://live.staticflickr.com/65535/50024318247_344e3d868d_o.jpg",
    "id_image": "Tiger_310020",
    "count_view": 0
  },
  {
    "link_thumb": "https://live.staticflickr.com/65535/50020000956_5c232cdbea_n.jpg",
    "id_album": "1903411565",
    "description": "Deer_383318",
    "title": "Deer_383318",
    "link_img": "https://live.staticflickr.com/65535/50020000956_e2b7fdc1bc_o.jpg",
    "id_image": "Deer_383318",
    "count_view": 0
  },
  {
    "link_thumb": "https://live.staticflickr.com/65535/50018111522_f8a7c2700b_n.jpg",
    "id_album": "-462831705",
    "description": "Cat_207599",
    "title": "Cat_207599",
    "link_img": "https://live.staticflickr.com/65535/50018111522_db7f7d8a81_o.jpg",
    "id_image": "Cat_207599",
    "count_view": 0
  },
  {
    "link_thumb": "https://live.staticflickr.com/65535/50021486752_8d9d769538_n.jpg",
    "id_album": "-462831703",
    "description": "Cat_766731",
    "title": "Cat_766731",
    "link_img": "https://live.staticflickr.com/65535/50021486752_f5cf319417_o.jpg",
    "id_image": "Cat_766731",
    "count_view": 0
  },
  {
    "link_thumb": "https://live.staticflickr.com/65535/50017099518_7f479e9157_n.jpg",
    "id_album": "-401151552",
    "description": "Butterfly_553021",
    "title": "Butterfly_553021",
    "link_img": "https://live.staticflickr.com/65535/50017099518_98967aaba3_o.jpg",
    "id_image": "Butterfly_553021",
    "count_view": 0
  },
  {
    "link_thumb": "https://live.staticflickr.com/65535/50020332213_99b17a9aa1_n.jpg",
    "id_album": "-1118073211",
    "description": "Fish_607730",
    "title": "Fish_607730",
    "link_img": "https://live.staticflickr.com/65535/50020332213_a05582a560_o.jpg",
    "id_image": "Fish_607730",
    "count_view": 0
  },
  {
    "link_thumb": "https://live.staticflickr.com/65535/50019346268_9f4a977c5d_n.jpg",
    "id_album": "815329026",
    "description": "Crab_351315",
    "title": "Crab_351315",
    "link_img": "https://live.staticflickr.com/65535/50019346268_0f8ae9c9fb_o.jpg",
    "id_image": "Crab_351315",
    "count_view": 0
  },
  {
    "link_thumb": "https://live.staticflickr.com/65535/50021674717_efd98c46fb_n.jpg",
    "id_album": "-1513987841",
    "description": "Hawk_438093",
    "title": "Hawk_438093",
    "link_img": "https://live.staticflickr.com/65535/50021674717_93d3ab4b0e_o.jpg",
    "id_image": "Hawk_438093",
    "count_view": 0
  },
  {
    "link_thumb": "https://live.staticflickr.com/65535/50021094506_0de17c0c41_n.jpg",
    "id_album": "-34696179",
    "description": "Gecko_598371",
    "title": "Gecko_598371",
    "link_img": "https://live.staticflickr.com/65535/50021094506_3439dbebe2_o.jpg",
    "id_image": "Gecko_598371",
    "count_view": 0
  },
  {
    "link_thumb": "https://live.staticflickr.com/65535/50023886413_47f2ba402e_n.jpg",
    "id_album": "766572659",
    "description": "WhiteTiger_300666",
    "title": "WhiteTiger_300666",
    "link_img": "https://live.staticflickr.com/65535/50023886413_17fd7a256f_o.jpg",
    "id_image": "WhiteTiger_300666",
    "count_view": 0
  },
  {
    "link_thumb": "https://live.staticflickr.com/65535/50017431042_3441b4f648_n.jpg",
    "id_album": "1699594607",
    "description": "Bee_946076",
    "title": "Bee_946076",
    "link_img": "https://live.staticflickr.com/65535/50017431042_1d2b58b499_o.jpg",
    "id_image": "Bee_946076",
    "count_view": 0
  },
  {
    "link_thumb": "https://live.staticflickr.com/65535/50020875118_8a22296157_n.jpg",
    "id_album": "-1513987841",
    "description": "Hawk_175593",
    "title": "Hawk_175593",
    "link_img": "https://live.staticflickr.com/65535/50020875118_e130dd6797_o.jpg",
    "id_image": "Hawk_175593",
    "count_view": 0
  },
  {
    "link_thumb": "https://live.staticflickr.com/65535/50017085861_ab208c89d4_n.jpg",
    "id_album": "-422187261",
    "description": "Bear_820853",
    "title": "Bear_820853",
    "link_img": "https://live.staticflickr.com/65535/50017085861_e6804ac7f8_o.jpg",
    "id_image": "Bear_820853",
    "count_view": 0
  },
  {
    "link_thumb": "https://live.staticflickr.com/65535/50020953467_e751e2c23b_n.jpg",
    "id_album": "-39098563",
    "description": "Eagle_356419",
    "title": "Eagle_356419",
    "link_img": "https://live.staticflickr.com/65535/50020953467_eb8255c5ed_o.jpg",
    "id_image": "Eagle_356419",
    "count_view": 0
  },
  {
    "link_thumb": "https://live.staticflickr.com/65535/50017737576_4dc7df8b37_n.jpg",
    "id_album": "189994021",
    "description": "Cardinal_777661",
    "title": "Cardinal_777661",
    "link_img": "https://live.staticflickr.com/65535/50017737576_f1946cb24c_o.jpg",
    "id_image": "Cardinal_777661",
    "count_view": 0
  },
  {
    "link_thumb": "https://live.staticflickr.com/65535/50017816587_33c162e8f2_n.jpg",
    "id_album": "-401151552",
    "description": "Butterfly_271308",
    "title": "Butterfly_271308",
    "link_img": "https://live.staticflickr.com/65535/50017816587_6c069cac3e_o.jpg",
    "id_image": "Butterfly_271308",
    "count_view": 0
  },
  {
    "link_thumb": "https://live.staticflickr.com/65535/50023204072_f8151b5bc0_n.jpg",
    "id_album": "-1431524681",
    "description": "Pug_359122",
    "title": "Pug_359122",
    "link_img": "https://live.staticflickr.com/65535/50023204072_46f7dcc3db_o.jpg",
    "id_image": "Pug_359122",
    "count_view": 0
  },
  {
    "link_thumb": "https://live.staticflickr.com/65535/50020185116_66b8541f27_n.jpg",
    "id_album": "-149330232",
    "description": "Dog_255912",
    "title": "Dog_255912",
    "link_img": "https://live.staticflickr.com/65535/50020185116_b36be690fb_o.jpg",
    "id_image": "Dog_255912",
    "count_view": 0
  },
  {
    "link_thumb": "https://live.staticflickr.com/65535/50017560381_664695feed_n.jpg",
    "id_album": "-401151552",
    "description": "Butterfly_322575",
    "title": "Butterfly_322575",
    "link_img": "https://live.staticflickr.com/65535/50017560381_bba8b6a5cc_o.jpg",
    "id_image": "Butterfly_322575",
    "count_view": 0
  },
  {
    "link_thumb": "https://live.staticflickr.com/65535/50021247152_28a9c16232_n.jpg",
    "id_album": "-128218148",
    "description": "Fox_714544",
    "title": "Fox_714544",
    "link_img": "https://live.staticflickr.com/65535/50021247152_25eb5e1355_o.jpg",
    "id_image": "Fox_714544",
    "count_view": 0
  },
  {
    "link_thumb": "https://live.staticflickr.com/65535/50021179008_5ff6feab3c_n.jpg",
    "id_album": "-843028318",
    "description": "Jaguar_381502",
    "title": "Jaguar_381502",
    "link_img": "https://live.staticflickr.com/65535/50021179008_e2fcd968d8_o.jpg",
    "id_image": "Jaguar_381502",
    "count_view": 0
  },
  {
    "link_thumb": "https://live.staticflickr.com/65535/50017716132_0488268468_n.jpg",
    "id_album": "-1561645279",
    "description": "BlackPanther_456703",
    "title": "BlackPanther_456703",
    "link_img": "https://live.staticflickr.com/65535/50017716132_542894968a_o.jpg",
    "id_image": "BlackPanther_456703",
    "count_view": 0
  },
  {
    "link_thumb": "https://live.staticflickr.com/65535/50016617998_95b4fb066a_n.jpg",
    "id_album": "1699594607",
    "description": "Bee_548419",
    "title": "Bee_548419",
    "link_img": "https://live.staticflickr.com/65535/50016617998_b667dd0ac0_o.jpg",
    "id_image": "Bee_548419",
    "count_view": 0
  },
  {
    "link_thumb": "https://live.staticflickr.com/65535/50021277966_9b44eae537_n.jpg",
    "id_album": "-1758557371",
    "description": "Flamingo_453728",
    "title": "Flamingo_453728",
    "link_img": "https://live.staticflickr.com/65535/50021277966_c969d639ce_o.jpg",
    "id_image": "Flamingo_453728",
    "count_view": 0
  },
  {
    "link_thumb": "https://live.staticflickr.com/65535/50022446277_2fbabbf52e_n.jpg",
    "id_album": "-1720012921",
    "description": "Meerkat_529773",
    "title": "Meerkat_529773",
    "link_img": "https://live.staticflickr.com/65535/50022446277_1709a951c2_o.jpg",
    "id_image": "Meerkat_529773",
    "count_view": 0
  },
  {
    "link_thumb": "https://live.staticflickr.com/65535/50021698487_85ac82ce51_n.jpg",
    "id_album": "54253492",
    "description": "Heron_591297",
    "title": "Heron_591297",
    "link_img": "https://live.staticflickr.com/65535/50021698487_d7ceafcfa6_o.jpg",
    "id_image": "Heron_591297",
    "count_view": 0
  },
  {
    "link_thumb": "https://live.staticflickr.com/65535/50020560098_a7f72670fd_n.jpg",
    "id_album": "-462831704",
    "description": "Cat_544062",
    "title": "Cat_544062",
    "link_img": "https://live.staticflickr.com/65535/50020560098_6837bb6c66_o.jpg",
    "id_image": "Cat_544062",
    "count_view": 0
  },
  {
    "link_thumb": "https://live.staticflickr.com/65535/50019679018_6f611db369_n.jpg",
    "id_album": "-149330232",
    "description": "Dog_275597",
    "title": "Dog_275597",
    "link_img": "https://live.staticflickr.com/65535/50019679018_e19f46b9ec_o.jpg",
    "id_image": "Dog_275597",
    "count_view": 0
  },
  {
    "link_thumb": "https://live.staticflickr.com/65535/50017237956_92afa37198_n.jpg",
    "id_album": "-1846011410",
    "description": "Bird_324879",
    "title": "Bird_324879",
    "link_img": "https://live.staticflickr.com/65535/50017237956_6e32c886a6_o.jpg",
    "id_image": "Bird_324879",
    "count_view": 0
  },
  {
    "link_thumb": "https://live.staticflickr.com/65535/50018275577_9ff99853be_n.jpg",
    "id_album": "-462831702",
    "description": "Cat_342894",
    "title": "Cat_342894",
    "link_img": "https://live.staticflickr.com/65535/50018275577_c75f3016c4_o.jpg",
    "id_image": "Cat_342894",
    "count_view": 0
  },
  {
    "link_thumb": "https://live.staticflickr.com/65535/50017462786_69061d4b53_n.jpg",
    "id_album": "-530283314",
    "description": "BlueandyellowMacaw_357509",
    "title": "BlueandyellowMacaw_357509",
    "link_img": "https://live.staticflickr.com/65535/50017462786_81f737c044_o.jpg",
    "id_image": "BlueandyellowMacaw_357509",
    "count_view": 0
  },
  {
    "link_thumb": "https://live.staticflickr.com/65535/50017741452_e8172f04a7_n.jpg",
    "id_album": "782930701",
    "description": "BorderCollie_402505",
    "title": "BorderCollie_402505",
    "link_img": "https://live.staticflickr.com/65535/50017741452_c2669f5ea1_o.jpg",
    "id_image": "BorderCollie_402505",
    "count_view": 0
  },
  {
    "link_thumb": "https://live.staticflickr.com/65535/50020021098_f0816b8dab_n.jpg",
    "id_album": "-149330231",
    "description": "Dog_978405",
    "title": "Dog_978405",
    "link_img": "https://live.staticflickr.com/65535/50020021098_befc8ce1fa_o.jpg",
    "id_image": "Dog_978405",
    "count_view": 0
  },
  {
    "link_thumb": "https://live.staticflickr.com/65535/50019577566_e9d19dbbfa_n.jpg",
    "id_album": "-462831703",
    "description": "Cat_999944",
    "title": "Cat_999944",
    "link_img": "https://live.staticflickr.com/65535/50019577566_5419560dd3_o.jpg",
    "id_image": "Cat_999944",
    "count_view": 0
  },
  {
    "link_thumb": "https://live.staticflickr.com/65535/50017820537_202d6629d5_n.jpg",
    "id_album": "-401151552",
    "description": "Butterfly_301974",
    "title": "Butterfly_301974",
    "link_img": "https://live.staticflickr.com/65535/50017820537_899da574ed_o.jpg",
    "id_image": "Butterfly_301974",
    "count_view": 0
  },
  {
    "link_thumb": "https://live.staticflickr.com/65535/50352512531_24ed6aef26_n.jpg",
    "id_album": "-462831703",
    "description": "Cat_426920",
    "title": "Cat_426920",
    "link_img": "https://live.staticflickr.com/65535/50352512531_7feb4e04c5_o.jpg",
    "id_image": "Cat_426920",
    "count_view": 0
  },
  {
    "link_thumb": "https://live.staticflickr.com/65535/50016803138_09542219d9_n.jpg",
    "id_album": "-1846011410",
    "description": "Bird_430419",
    "title": "Bird_430419",
    "link_img": "https://live.staticflickr.com/65535/50016803138_e598683463_o.jpg",
    "id_image": "Bird_430419",
    "count_view": 0
  },
  {
    "link_thumb": "https://live.staticflickr.com/65535/50019454137_5526988710_n.jpg",
    "id_album": "-462831704",
    "description": "Cat_436016",
    "title": "Cat_436016",
    "link_img": "https://live.staticflickr.com/65535/50019454137_8ccb1bdea3_o.jpg",
    "id_image": "Cat_436016",
    "count_view": 0
  },
  {
    "link_thumb": "https://live.staticflickr.com/65535/50019154588_b2345f7c6f_n.jpg",
    "id_album": "-1481843714",
    "description": "Cheetah_246386",
    "title": "Cheetah_246386",
    "link_img": "https://live.staticflickr.com/65535/50019154588_da0d827208_o.jpg",
    "id_image": "Cheetah_246386",
    "count_view": 0
  },
  {
    "link_thumb": "https://live.staticflickr.com/65535/50020139796_a58b4934fb_n.jpg",
    "id_album": "-149330232",
    "description": "Dog_190983",
    "title": "Dog_190983",
    "link_img": "https://live.staticflickr.com/65535/50020139796_0068e88391_o.jpg",
    "id_image": "Dog_190983",
    "count_view": 0
  },
  {
    "link_thumb": "https://live.staticflickr.com/65535/50017232542_b16ee3859a_n.jpg",
    "id_album": "231236068",
    "description": "BaldEagle_88926",
    "title": "BaldEagle_88926",
    "link_img": "https://live.staticflickr.com/65535/50017232542_9ea2ae5b98_o.jpg",
    "id_image": "BaldEagle_88926",
    "count_view": 0
  },
  {
    "link_thumb": "https://live.staticflickr.com/65535/50017278176_ee8ee0695f_n.jpg",
    "id_album": "-1846011410",
    "description": "Bird_367262",
    "title": "Bird_367262",
    "link_img": "https://live.staticflickr.com/65535/50017278176_6b6a2881cb_o.jpg",
    "id_image": "Bird_367262",
    "count_view": 0
  },
  {
    "link_thumb": "https://live.staticflickr.com/65535/50024417841_5242f10af8_n.jpg",
    "id_album": "545627045",
    "description": "Whitestork_454866",
    "title": "Whitestork_454866",
    "link_img": "https://live.staticflickr.com/65535/50024417841_99ea5bdee2_o.jpg",
    "id_image": "Whitestork_454866",
    "count_view": 0
  },
  {
    "link_thumb": "https://live.staticflickr.com/65535/50020043157_da013c2c12_n.jpg",
    "id_album": "643379324",
    "description": "Clownfish_732053",
    "title": "Clownfish_732053",
    "link_img": "https://live.staticflickr.com/65535/50020043157_0d7216ef03_o.jpg",
    "id_image": "Clownfish_732053",
    "count_view": 0
  },
  {
    "link_thumb": "https://live.staticflickr.com/65535/50024483182_807652004d_n.jpg",
    "id_album": "405170427",
    "description": "Tiger_855113",
    "title": "Tiger_855113",
    "link_img": "https://live.staticflickr.com/65535/50024483182_47655a20e9_o.jpg",
    "id_image": "Tiger_855113",
    "count_view": 0
  },
  {
    "link_thumb": "https://live.staticflickr.com/65535/50024115396_8ede2d4c80_n.jpg",
    "id_album": "405170427",
    "description": "Tiger_398502",
    "title": "Tiger_398502",
    "link_img": "https://live.staticflickr.com/65535/50024115396_9d0c4df43a_o.jpg",
    "id_image": "Tiger_398502",
    "count_view": 0
  },
  {
    "link_thumb": "https://live.staticflickr.com/65535/50023312192_15fbc5be78_n.jpg",
    "id_album": "-353898617",
    "description": "Puppy_724733",
    "title": "Puppy_724733",
    "link_img": "https://live.staticflickr.com/65535/50023312192_0736a0ae07_o.jpg",
    "id_image": "Puppy_724733",
    "count_view": 0
  },
  {
    "link_thumb": "https://live.staticflickr.com/65535/50018129816_b70c5fec92_n.jpg",
    "id_album": "-462831702",
    "description": "Cat_395139",
    "title": "Cat_395139",
    "link_img": "https://live.staticflickr.com/65535/50018129816_603098d587_o.jpg",
    "id_image": "Cat_395139",
    "count_view": 0
  },
  {
    "link_thumb": "https://live.staticflickr.com/65535/50017195023_42f8295076_n.jpg",
    "id_album": "-401151552",
    "description": "Butterfly_998686",
    "title": "Butterfly_998686",
    "link_img": "https://live.staticflickr.com/65535/50017195023_bd4590c057_o.jpg",
    "id_image": "Butterfly_998686",
    "count_view": 0
  },
  {
    "link_thumb": "https://live.staticflickr.com/65535/50016781613_de9dafc9ff_n.jpg",
    "id_album": "-1846011410",
    "description": "Bird_402696",
    "title": "Bird_402696",
    "link_img": "https://live.staticflickr.com/65535/50016781613_248da47194_o.jpg",
    "id_image": "Bird_402696",
    "count_view": 0
  },
  {
    "link_thumb": "https://live.staticflickr.com/65535/50021516892_e239db0b7c_n.jpg",
    "id_album": "-462831703",
    "description": "Cat_817280",
    "title": "Cat_817280",
    "link_img": "https://live.staticflickr.com/65535/50021516892_edf0dc9ebe_o.jpg",
    "id_image": "Cat_817280",
    "count_view": 0
  },
  {
    "link_thumb": "https://live.staticflickr.com/65535/50022541522_178aace6ce_n.jpg",
    "id_album": "1610416937",
    "description": "Moth_646637",
    "title": "Moth_646637",
    "link_img": "https://live.staticflickr.com/65535/50022541522_ba490ebabe_o.jpg",
    "id_image": "Moth_646637",
    "count_view": 0
  },
  {
    "link_thumb": "https://live.staticflickr.com/65535/50017864802_818b32413f_n.jpg",
    "id_album": "-401151552",
    "description": "Butterfly_457327",
    "title": "Butterfly_457327",
    "link_img": "https://live.staticflickr.com/65535/50017864802_1ee3e7ab40_o.jpg",
    "id_image": "Butterfly_457327",
    "count_view": 0
  },
  {
    "link_thumb": "https://live.staticflickr.com/65535/50019687671_ec9912a26a_n.jpg",
    "id_album": "-1481843714",
    "description": "Cheetah_311141",
    "title": "Cheetah_311141",
    "link_img": "https://live.staticflickr.com/65535/50019687671_92160ccd1b_o.jpg",
    "id_image": "Cheetah_311141",
    "count_view": 0
  },
  {
    "link_thumb": "https://live.staticflickr.com/65535/50017244433_b7b9b8a265_n.jpg",
    "id_album": "-462831705",
    "description": "Cat_117547",
    "title": "Cat_117547",
    "link_img": "https://live.staticflickr.com/65535/50017244433_05fffa2e9a_o.jpg",
    "id_image": "Cat_117547",
    "count_view": 0
  },
  {
    "link_thumb": "https://live.staticflickr.com/65535/50017246893_b96b1625ba_n.jpg",
    "id_album": "-462831705",
    "description": "Cat_117692",
    "title": "Cat_117692",
    "link_img": "https://live.staticflickr.com/65535/50017246893_f86710d652_o.jpg",
    "id_image": "Cat_117692",
    "count_view": 0
  },
  {
    "link_thumb": "https://live.staticflickr.com/65535/50017368327_e3f5d0274c_n.jpg",
    "id_album": "-422187261",
    "description": "Bear_945821",
    "title": "Bear_945821",
    "link_img": "https://live.staticflickr.com/65535/50017368327_1036748a12_o.jpg",
    "id_image": "Bear_945821",
    "count_view": 0
  },
  {
    "link_thumb": "https://live.staticflickr.com/65535/50023849373_7299b05cca_n.jpg",
    "id_album": "786934945",
    "description": "Whale_178482",
    "title": "Whale_178482",
    "link_img": "https://live.staticflickr.com/65535/50023849373_980eed6e50_o.jpg",
    "id_image": "Whale_178482",
    "count_view": 0
  },
  {
    "link_thumb": "https://live.staticflickr.com/65535/50021343501_7bb099743d_n.jpg",
    "id_album": "-804131074",
    "description": "Goat_672122",
    "title": "Goat_672122",
    "link_img": "https://live.staticflickr.com/65535/50021343501_5aec1ede62_o.jpg",
    "id_image": "Goat_672122",
    "count_view": 0
  },
  {
    "link_thumb": "https://live.staticflickr.com/65535/50020299547_da8a74ef9e_n.jpg",
    "id_album": "1903411565",
    "description": "Deer_705325",
    "title": "Deer_705325",
    "link_img": "https://live.staticflickr.com/65535/50020299547_ab338a61ce_o.jpg",
    "id_image": "Deer_705325",
    "count_view": 0
  },
  {
    "link_thumb": "https://live.staticflickr.com/65535/50019199588_f3dbbcd104_n.jpg",
    "id_album": "-1481843714",
    "description": "Cheetah_774168",
    "title": "Cheetah_774168",
    "link_img": "https://live.staticflickr.com/65535/50019199588_7bededda0d_o.jpg",
    "id_image": "Cheetah_774168",
    "count_view": 0
  },
  {
    "link_thumb": "https://live.staticflickr.com/65535/50020881882_14aea4fd05_n.jpg",
    "id_album": "-405058657",
    "description": "Dragonfly_453169",
    "title": "Dragonfly_453169",
    "link_img": "https://live.staticflickr.com/65535/50020881882_dd42015165_o.jpg",
    "id_image": "Dragonfly_453169",
    "count_view": 0
  },
  {
    "link_thumb": "https://live.staticflickr.com/65535/50020898288_e567dc2ef3_n.jpg",
    "id_album": "1469520430",
    "description": "Hedgehog_949130",
    "title": "Hedgehog_949130",
    "link_img": "https://live.staticflickr.com/65535/50020898288_f415f613d5_o.jpg",
    "id_image": "Hedgehog_949130",
    "count_view": 0
  },
  {
    "link_thumb": "https://live.staticflickr.com/65535/50020835833_0aa7d93cb2_n.jpg",
    "id_album": "-975314166",
    "description": "Goldfish_390371",
    "title": "Goldfish_390371",
    "link_img": "https://live.staticflickr.com/65535/50020835833_2fdf3b1b6d_o.jpg",
    "id_image": "Goldfish_390371",
    "count_view": 0
  },
  {
    "link_thumb": "https://live.staticflickr.com/65535/50351876003_1622ce944f_n.jpg",
    "id_album": "-462831703",
    "description": "Cat_503107",
    "title": "Cat_503107",
    "link_img": "https://live.staticflickr.com/65535/50351876003_7996424795_o.jpg",
    "id_image": "Cat_503107",
    "count_view": 0
  },
  {
    "link_thumb": "https://live.staticflickr.com/65535/50020005206_19b844cfd7_n.jpg",
    "id_album": "1903411565",
    "description": "Deer_401721",
    "title": "Deer_401721",
    "link_img": "https://live.staticflickr.com/65535/50020005206_7054d9ec08_o.jpg",
    "id_image": "Deer_401721",
    "count_view": 0
  },
  {
    "link_thumb": "https://live.staticflickr.com/65535/50021098027_b5ef39845a_n.jpg",
    "id_album": "-1118073211",
    "description": "Fish_355252",
    "title": "Fish_355252",
    "link_img": "https://live.staticflickr.com/65535/50021098027_5bfc3673ea_o.jpg",
    "id_image": "Fish_355252",
    "count_view": 0
  },
  {
    "link_thumb": "https://live.staticflickr.com/65535/50022609088_977fb5fd13_n.jpg",
    "id_album": "248289288",
    "description": "Raccoon_556336",
    "title": "Raccoon_556336",
    "link_img": "https://live.staticflickr.com/65535/50022609088_ef97df4011_o.jpg",
    "id_image": "Raccoon_556336",
    "count_view": 0
  },
  {
    "link_thumb": "https://live.staticflickr.com/65535/50020938578_13097be5ca_n.jpg",
    "id_album": "-1933715543",
    "description": "Horse_279318",
    "title": "Horse_279318",
    "link_img": "https://live.staticflickr.com/65535/50020938578_f1a6735349_o.jpg",
    "id_image": "Horse_279318",
    "count_view": 0
  },
  {
    "link_thumb": "https://live.staticflickr.com/65535/50022082398_0de45d6d9b_n.jpg",
    "id_album": "1146438617",
    "description": "Pelican_407967",
    "title": "Pelican_407967",
    "link_img": "https://live.staticflickr.com/65535/50022082398_23511d04ae_o.jpg",
    "id_image": "Pelican_407967",
    "count_view": 0
  },
  {
    "link_thumb": "https://live.staticflickr.com/65535/50020404943_39854b90fb_n.jpg",
    "id_album": "-128218148",
    "description": "Fox_336578",
    "title": "Fox_336578",
    "link_img": "https://live.staticflickr.com/65535/50020404943_532cfeb011_o.jpg",
    "id_image": "Fox_336578",
    "count_view": 0
  },
  {
    "link_thumb": "https://live.staticflickr.com/65535/50018005636_07bd6efbf5_n.jpg",
    "id_album": "-462831702",
    "description": "Cat_337376",
    "title": "Cat_337376",
    "link_img": "https://live.staticflickr.com/65535/50018005636_99bccc3b86_o.jpg",
    "id_image": "Cat_337376",
    "count_view": 0
  },
  {
    "link_thumb": "https://live.staticflickr.com/65535/50022149451_b1a12973ce_n.jpg",
    "id_album": "1894617400",
    "description": "Lynx_523041",
    "title": "Lynx_523041",
    "link_img": "https://live.staticflickr.com/65535/50022149451_56ff66d6aa_o.jpg",
    "id_image": "Lynx_523041",
    "count_view": 0
  },
  {
    "link_thumb": "https://live.staticflickr.com/65535/50017319296_d82e49daaf_n.jpg",
    "id_album": "-1846011410",
    "description": "Bird_413359",
    "title": "Bird_413359",
    "link_img": "https://live.staticflickr.com/65535/50017319296_7debc585f2_o.jpg",
    "id_image": "Bird_413359",
    "count_view": 0
  },
  {
    "link_thumb": "https://live.staticflickr.com/65535/50019668943_21e052c8a1_n.jpg",
    "id_album": "-149330232",
    "description": "Dog_268828",
    "title": "Dog_268828",
    "link_img": "https://live.staticflickr.com/65535/50019668943_e198b46af5_o.jpg",
    "id_image": "Dog_268828",
    "count_view": 0
  },
  {
    "link_thumb": "https://live.staticflickr.com/65535/50020227662_608e281c8f_n.jpg",
    "id_album": "-1783645069",
    "description": "Dalmatian_826114",
    "title": "Dalmatian_826114",
    "link_img": "https://live.staticflickr.com/65535/50020227662_ef9efaa8b7_o.jpg",
    "id_image": "Dalmatian_826114",
    "count_view": 0
  },
  {
    "link_thumb": "https://live.staticflickr.com/65535/50021478803_ec6dbe820c_n.jpg",
    "id_album": "416744915",
    "description": "Lion_435542",
    "title": "Lion_435542",
    "link_img": "https://live.staticflickr.com/65535/50021478803_ab1899e7e7_o.jpg",
    "id_image": "Lion_435542",
    "count_view": 0
  },
  {
    "link_thumb": "https://live.staticflickr.com/65535/50021760231_54134d8c3a_n.jpg",
    "id_album": "1562047127",
    "description": "Jellyfish_20403",
    "title": "Jellyfish_20403",
    "link_img": "https://live.staticflickr.com/65535/50021760231_85b91dd5ff_o.jpg",
    "id_image": "Jellyfish_20403",
    "count_view": 0
  },
  {
    "link_thumb": "https://live.staticflickr.com/65535/50017764932_604d82066f_n.jpg",
    "id_album": "782930701",
    "description": "BorderCollie_870378",
    "title": "BorderCollie_870378",
    "link_img": "https://live.staticflickr.com/65535/50017764932_46ea18d86b_o.jpg",
    "id_image": "BorderCollie_870378",
    "count_view": 0
  },
  {
    "link_thumb": "https://live.staticflickr.com/65535/50021641583_8aa350c97c_n.jpg",
    "id_album": "-1720012921",
    "description": "Meerkat_347398",
    "title": "Meerkat_347398",
    "link_img": "https://live.staticflickr.com/65535/50021641583_741bd56f36_o.jpg",
    "id_image": "Meerkat_347398",
    "count_view": 0
  },
  {
    "link_thumb": "https://live.staticflickr.com/65535/50017534122_97edf970fc_n.jpg",
    "id_album": "-1846011410",
    "description": "Bird_362564",
    "title": "Bird_362564",
    "link_img": "https://live.staticflickr.com/65535/50017534122_46ec4912cc_o.jpg",
    "id_image": "Bird_362564",
    "count_view": 0
  },
  {
    "link_thumb": "https://live.staticflickr.com/65535/50017376532_dd0e0bc460_n.jpg",
    "id_album": "1699594607",
    "description": "Bee_110519",
    "title": "Bee_110519",
    "link_img": "https://live.staticflickr.com/65535/50017376532_58bbe13651_o.jpg",
    "id_image": "Bee_110519",
    "count_view": 0
  },
  {
    "link_thumb": "https://live.staticflickr.com/65535/50021314961_a1b96d2c1c_n.jpg",
    "id_album": "-405626519",
    "description": "GermanShepherd_996483",
    "title": "GermanShepherd_996483",
    "link_img": "https://live.staticflickr.com/65535/50021314961_ee4b70681b_o.jpg",
    "id_image": "GermanShepherd_996483",
    "count_view": 0
  },
  {
    "link_thumb": "https://live.staticflickr.com/65535/50020903038_26c4d012ab_n.jpg",
    "id_album": "54253492",
    "description": "Heron_529833",
    "title": "Heron_529833",
    "link_img": "https://live.staticflickr.com/65535/50020903038_c71809e3af_o.jpg",
    "id_image": "Heron_529833",
    "count_view": 0
  },
  {
    "link_thumb": "https://live.staticflickr.com/65535/50019899047_7de4859825_n.jpg",
    "id_album": "-766919393",
    "description": "Chameleon_341392",
    "title": "Chameleon_341392",
    "link_img": "https://live.staticflickr.com/65535/50019899047_7887b0ff50_o.jpg",
    "id_image": "Chameleon_341392",
    "count_view": 0
  },
  {
    "link_thumb": "https://live.staticflickr.com/65535/50016853286_844fcc47b2_n.jpg",
    "id_album": "-834314226",
    "description": "ArcticFox_837818",
    "title": "ArcticFox_837818",
    "link_img": "https://live.staticflickr.com/65535/50016853286_a580579b62_o.jpg",
    "id_image": "ArcticFox_837818",
    "count_view": 0
  },
  {
    "link_thumb": "https://live.staticflickr.com/65535/50023508511_13db9134b1_n.jpg",
    "id_album": "-800019164",
    "description": "Snail_255521",
    "title": "Snail_255521",
    "link_img": "https://live.staticflickr.com/65535/50023508511_6e8703f73a_o.jpg",
    "id_image": "Snail_255521",
    "count_view": 0
  },
  {
    "link_thumb": "https://live.staticflickr.com/65535/50019507336_d7d047a386_n.jpg",
    "id_album": "-462831703",
    "description": "Cat_945067",
    "title": "Cat_945067",
    "link_img": "https://live.staticflickr.com/65535/50019507336_d8c2a10dea_o.jpg",
    "id_image": "Cat_945067",
    "count_view": 0
  },
  {
    "link_thumb": "https://live.staticflickr.com/65535/50021833691_2f06f15b10_n.jpg",
    "id_album": "1307335982",
    "description": "LabradorRetriever_838602",
    "title": "LabradorRetriever_838602",
    "link_img": "https://live.staticflickr.com/65535/50021833691_5300930509_o.jpg",
    "id_image": "LabradorRetriever_838602",
    "count_view": 0
  },
  {
    "link_thumb": "https://live.staticflickr.com/65535/50021526892_c9f188eedd_n.jpg",
    "id_album": "-462831703",
    "description": "Cat_838630",
    "title": "Cat_838630",
    "link_img": "https://live.staticflickr.com/65535/50021526892_d439a8dfe6_o.jpg",
    "id_image": "Cat_838630",
    "count_view": 0
  },
  {
    "link_thumb": "https://live.staticflickr.com/65535/50017600051_a7ec533ce9_n.jpg",
    "id_album": "-401151552",
    "description": "Butterfly_443729",
    "title": "Butterfly_443729",
    "link_img": "https://live.staticflickr.com/65535/50017600051_f200065cf0_o.jpg",
    "id_image": "Butterfly_443729",
    "count_view": 0
  },
  {
    "link_thumb": "https://live.staticflickr.com/65535/50016662828_3b490c8d0f_n.jpg",
    "id_album": "325287329",
    "description": "Beetle_690454",
    "title": "Beetle_690454",
    "link_img": "https://live.staticflickr.com/65535/50016662828_4c0b4d4e8c_o.jpg",
    "id_image": "Beetle_690454",
    "count_view": 0
  },
  {
    "link_thumb": "https://live.staticflickr.com/65535/50351736483_4967ff1dfc_n.jpg",
    "id_album": "-462831703",
    "description": "Cat_234238",
    "title": "Cat_234238",
    "link_img": "https://live.staticflickr.com/65535/50351736483_1dc1d331a9_o.jpg",
    "id_image": "Cat_234238",
    "count_view": 0
  },
  {
    "link_thumb": "https://live.staticflickr.com/65535/50017459561_5623b97f8e_n.jpg",
    "id_album": "-530283314",
    "description": "BlueandyellowMacaw_161651",
    "title": "BlueandyellowMacaw_161651",
    "link_img": "https://live.staticflickr.com/65535/50017459561_624bc92c72_o.jpg",
    "id_image": "BlueandyellowMacaw_161651",
    "count_view": 0
  },
  {
    "link_thumb": "https://live.staticflickr.com/65535/50019789656_83b9c1a15e_n.jpg",
    "id_album": "-1462118852",
    "description": "Corgi_22714",
    "title": "Corgi_22714",
    "link_img": "https://live.staticflickr.com/65535/50019789656_eb7be8dd9c_o.jpg",
    "id_image": "Corgi_22714",
    "count_view": 0
  },
  {
    "link_thumb": "https://live.staticflickr.com/65535/50352649582_1cace757a1_n.jpg",
    "id_album": "-462831703",
    "description": "Cat_393607",
    "title": "Cat_393607",
    "link_img": "https://live.staticflickr.com/65535/50352649582_681cc8cd76_o.jpg",
    "id_image": "Cat_393607",
    "count_view": 0
  },
  {
    "link_thumb": "https://live.staticflickr.com/65535/50021346547_5299e8090b_n.jpg",
    "id_album": "-34696179",
    "description": "Gecko_463053",
    "title": "Gecko_463053",
    "link_img": "https://live.staticflickr.com/65535/50021346547_f04b57c6e9_o.jpg",
    "id_image": "Gecko_463053",
    "count_view": 0
  },
  {
    "link_thumb": "https://live.staticflickr.com/65535/50017138831_1ed98b064c_n.jpg",
    "id_album": "1699594607",
    "description": "Bee_446932",
    "title": "Bee_446932",
    "link_img": "https://live.staticflickr.com/65535/50017138831_6a407b4765_o.jpg",
    "id_image": "Bee_446932",
    "count_view": 0
  },
  {
    "link_thumb": "https://live.staticflickr.com/65535/50017571051_d7a0bcabc1_n.jpg",
    "id_album": "-401151552",
    "description": "Butterfly_366100",
    "title": "Butterfly_366100",
    "link_img": "https://live.staticflickr.com/65535/50017571051_8182bb4b10_o.jpg",
    "id_image": "Butterfly_366100",
    "count_view": 0
  },
  {
    "link_thumb": "https://live.staticflickr.com/65535/50023744622_974093ac3a_n.jpg",
    "id_album": "-755466332",
    "description": "Sheep_699970",
    "title": "Sheep_699970",
    "link_img": "https://live.staticflickr.com/65535/50023744622_6dc7bc6fa1_o.jpg",
    "id_image": "Sheep_699970",
    "count_view": 0
  },
  {
    "link_thumb": "https://live.staticflickr.com/65535/50021242462_7d90c05d54_n.jpg",
    "id_album": "-128218148",
    "description": "Fox_686252",
    "title": "Fox_686252",
    "link_img": "https://live.staticflickr.com/65535/50021242462_1e10c6a729_o.jpg",
    "id_image": "Fox_686252",
    "count_view": 0
  },
  {
    "link_thumb": "https://live.staticflickr.com/65535/50016875658_051ff0abc0_n.jpg",
    "id_album": "-1846011410",
    "description": "Bird_685127",
    "title": "Bird_685127",
    "link_img": "https://live.staticflickr.com/65535/50016875658_265be7a528_o.jpg",
    "id_image": "Bird_685127",
    "count_view": 0
  },
  {
    "link_thumb": "https://live.staticflickr.com/65535/50020602432_1639e3acf2_n.jpg",
    "id_album": "-149330232",
    "description": "Dog_370757",
    "title": "Dog_370757",
    "link_img": "https://live.staticflickr.com/65535/50020602432_f335f38ae5_o.jpg",
    "id_image": "Dog_370757",
    "count_view": 0
  },
  {
    "link_thumb": "https://live.staticflickr.com/65535/50021637881_07f138b088_n.jpg",
    "id_album": "-712553376",
    "description": "Husky_590635",
    "title": "Husky_590635",
    "link_img": "https://live.staticflickr.com/65535/50021637881_aab2054081_o.jpg",
    "id_image": "Husky_590635",
    "count_view": 0
  },
  {
    "link_thumb": "https://live.staticflickr.com/65535/50020270908_35dc563481_n.jpg",
    "id_album": "822895535",
    "description": "Falcon_233520",
    "title": "Falcon_233520",
    "link_img": "https://live.staticflickr.com/65535/50020270908_1126a273ab_o.jpg",
    "id_image": "Falcon_233520",
    "count_view": 0
  },
  {
    "link_thumb": "https://live.staticflickr.com/65535/50017816051_2592913dcc_n.jpg",
    "id_album": "-462831705",
    "description": "Cat_178470",
    "title": "Cat_178470",
    "link_img": "https://live.staticflickr.com/65535/50017816051_55d23d1e48_o.jpg",
    "id_image": "Cat_178470",
    "count_view": 0
  },
  {
    "link_thumb": "https://live.staticflickr.com/65535/50020423533_26a3877d5e_n.jpg",
    "id_album": "-128218148",
    "description": "Fox_437095",
    "title": "Fox_437095",
    "link_img": "https://live.staticflickr.com/65535/50020423533_a7a55ba3c9_o.jpg",
    "id_image": "Fox_437095",
    "count_view": 0
  },
  {
    "link_thumb": "https://live.staticflickr.com/65535/50018301107_097db4727e_n.jpg",
    "id_album": "-462831702",
    "description": "Cat_355034",
    "title": "Cat_355034",
    "link_img": "https://live.staticflickr.com/65535/50018301107_dc0ba0176f_o.jpg",
    "id_image": "Cat_355034",
    "count_view": 0
  },
  {
    "link_thumb": "https://live.staticflickr.com/65535/50024701572_60021998a4_n.jpg",
    "id_album": "766572659",
    "description": "WhiteTiger_465249",
    "title": "WhiteTiger_465249",
    "link_img": "https://live.staticflickr.com/65535/50024701572_0264dcc6c4_o.jpg",
    "id_image": "WhiteTiger_465249",
    "count_view": 0
  },
  {
    "link_thumb": "https://live.staticflickr.com/65535/50020563167_754766faa2_n.jpg",
    "id_album": "-149330232",
    "description": "Dog_354421",
    "title": "Dog_354421",
    "link_img": "https://live.staticflickr.com/65535/50020563167_78268a9dea_o.jpg",
    "id_image": "Dog_354421",
    "count_view": 0
  },
  {
    "link_thumb": "https://live.staticflickr.com/65535/50022127697_9c4521bcba_n.jpg",
    "id_album": "1918884325",
    "description": "Lemur_336588",
    "title": "Lemur_336588",
    "link_img": "https://live.staticflickr.com/65535/50022127697_28a60a0794_o.jpg",
    "id_image": "Lemur_336588",
    "count_view": 0
  },
  {
    "link_thumb": "https://live.staticflickr.com/65535/50016423363_b974f55898_n.jpg",
    "id_album": "390697200",
    "description": "AustralianShepherd_957122",
    "title": "AustralianShepherd_957122",
    "link_img": "https://live.staticflickr.com/65535/50016423363_873284b846_o.jpg",
    "id_image": "AustralianShepherd_957122",
    "count_view": 0
  },
  {
    "link_thumb": "https://live.staticflickr.com/65535/50020681236_38a0844073_n.jpg",
    "id_album": "-39098563",
    "description": "Eagle_145176",
    "title": "Eagle_145176",
    "link_img": "https://live.staticflickr.com/65535/50020681236_0bae538d32_o.jpg",
    "id_image": "Eagle_145176",
    "count_view": 0
  },
  {
    "link_thumb": "https://live.staticflickr.com/65535/50020447233_def3e5c00f_n.jpg",
    "id_album": "-128218148",
    "description": "Fox_692271",
    "title": "Fox_692271",
    "link_img": "https://live.staticflickr.com/65535/50020447233_0df58ec841_o.jpg",
    "id_image": "Fox_692271",
    "count_view": 0
  },
  {
    "link_thumb": "https://live.staticflickr.com/65535/50018821138_faa0b7b060_n.jpg",
    "id_album": "-462831703",
    "description": "Cat_867784",
    "title": "Cat_867784",
    "link_img": "https://live.staticflickr.com/65535/50018821138_557f55f735_o.jpg",
    "id_image": "Cat_867784",
    "count_view": 0
  },
  {
    "link_thumb": "https://live.staticflickr.com/65535/50017492537_755ba23b7a_n.jpg",
    "id_album": "-1846011410",
    "description": "Bird_292786",
    "title": "Bird_292786",
    "link_img": "https://live.staticflickr.com/65535/50017492537_31a2189565_o.jpg",
    "id_image": "Bird_292786",
    "count_view": 0
  },
  {
    "link_thumb": "https://live.staticflickr.com/65535/50020339368_0d5c4e19ee_n.jpg",
    "id_album": "-1118073211",
    "description": "Fish_811496",
    "title": "Fish_811496",
    "link_img": "https://live.staticflickr.com/65535/50020339368_57933c661d_o.jpg",
    "id_image": "Fish_811496",
    "count_view": 0
  },
  {
    "link_thumb": "https://live.staticflickr.com/65535/50020251198_714e498d08_n.jpg",
    "id_album": "1270947998",
    "description": "Elephant_746984",
    "title": "Elephant_746984",
    "link_img": "https://live.staticflickr.com/65535/50020251198_1f1c973456_o.jpg",
    "id_image": "Elephant_746984",
    "count_view": 0
  },
  {
    "link_thumb": "https://live.staticflickr.com/65535/50020149173_fba5b21e9b_n.jpg",
    "id_album": "-39098563",
    "description": "Eagle_176197",
    "title": "Eagle_176197",
    "link_img": "https://live.staticflickr.com/65535/50020149173_17a636baae_o.jpg",
    "id_image": "Eagle_176197",
    "count_view": 0
  },
  {
    "link_thumb": "https://live.staticflickr.com/65535/50018845613_67ca59a78b_n.jpg",
    "id_album": "-462831703",
    "description": "Cat_876806",
    "title": "Cat_876806",
    "link_img": "https://live.staticflickr.com/65535/50018845613_648be0e60c_o.jpg",
    "id_image": "Cat_876806",
    "count_view": 0
  },
  {
    "link_thumb": "https://live.staticflickr.com/65535/50019326046_a718a570f0_n.jpg",
    "id_album": "-462831703",
    "description": "Cat_856268",
    "title": "Cat_856268",
    "link_img": "https://live.staticflickr.com/65535/50019326046_22b541f89c_o.jpg",
    "id_image": "Cat_856268",
    "count_view": 0
  },
  {
    "link_thumb": "https://live.staticflickr.com/65535/50023440042_6897ecf98e_n.jpg",
    "id_album": "-434874555",
    "description": "RainbowLorikeet_900651",
    "title": "RainbowLorikeet_900651",
    "link_img": "https://live.staticflickr.com/65535/50023440042_e6b2602313_o.jpg",
    "id_image": "RainbowLorikeet_900651",
    "count_view": 0
  },
  {
    "link_thumb": "https://live.staticflickr.com/65535/50016901998_b175771408_n.jpg",
    "id_album": "-1846011410",
    "description": "Bird_811193",
    "title": "Bird_811193",
    "link_img": "https://live.staticflickr.com/65535/50016901998_d72d0d438c_o.jpg",
    "id_image": "Bird_811193",
    "count_view": 0
  },
  {
    "link_thumb": "https://live.staticflickr.com/65535/50022621393_323d84f6d1_n.jpg",
    "id_album": "248289288",
    "description": "Raccoon_805237",
    "title": "Raccoon_805237",
    "link_img": "https://live.staticflickr.com/65535/50022621393_7b2536b0dc_o.jpg",
    "id_image": "Raccoon_805237",
    "count_view": 0
  },
  {
    "link_thumb": "https://live.staticflickr.com/65535/50017464453_1929a263a2_n.jpg",
    "id_album": "-462831702",
    "description": "Cat_332429",
    "title": "Cat_332429",
    "link_img": "https://live.staticflickr.com/65535/50017464453_3efa3dda53_o.jpg",
    "id_image": "Cat_332429",
    "count_view": 0
  },
  {
    "link_thumb": "https://live.staticflickr.com/65535/50017757997_46b8fba7a3_n.jpg",
    "id_album": "782930701",
    "description": "BorderCollie_833415",
    "title": "BorderCollie_833415",
    "link_img": "https://live.staticflickr.com/65535/50017757997_438237d9af_o.jpg",
    "id_image": "BorderCollie_833415",
    "count_view": 0
  },
  {
    "link_thumb": "https://live.staticflickr.com/65535/50022977063_c3154efa28_n.jpg",
    "id_album": "-800019164",
    "description": "Snail_397851",
    "title": "Snail_397851",
    "link_img": "https://live.staticflickr.com/65535/50022977063_961bc17918_o.jpg",
    "id_image": "Snail_397851",
    "count_view": 0
  },
  {
    "link_thumb": "https://live.staticflickr.com/65535/50018119442_fcdc179a58_n.jpg",
    "id_album": "-462831705",
    "description": "Cat_211400",
    "title": "Cat_211400",
    "link_img": "https://live.staticflickr.com/65535/50018119442_5e20d1721c_o.jpg",
    "id_image": "Cat_211400",
    "count_view": 0
  },
  {
    "link_thumb": "https://live.staticflickr.com/65535/50352706097_51199be588_n.jpg",
    "id_album": "-462831703",
    "description": "Cat_463941",
    "title": "Cat_463941",
    "link_img": "https://live.staticflickr.com/65535/50352706097_8b36b4fffe_o.jpg",
    "id_image": "Cat_463941",
    "count_view": 0
  },
  {
    "link_thumb": "https://live.staticflickr.com/65535/50020657163_da3a913f85_n.jpg",
    "id_album": "-462831704",
    "description": "Cat_716864",
    "title": "Cat_716864",
    "link_img": "https://live.staticflickr.com/65535/50020657163_21057a254d_o.jpg",
    "id_image": "Cat_716864",
    "count_view": 0
  },
  {
    "link_thumb": "https://live.staticflickr.com/65535/50017185712_0d3f527b17_n.jpg",
    "id_album": "523598895",
    "description": "Artistic_924671",
    "title": "Artistic_924671",
    "link_img": "https://live.staticflickr.com/65535/50017185712_981a4c8d65_o.jpg",
    "id_image": "Artistic_924671",
    "count_view": 0
  },
  {
    "link_thumb": "https://live.staticflickr.com/65535/50018965488_77ecc35e9e_n.jpg",
    "id_album": "-462831703",
    "description": "Cat_938164",
    "title": "Cat_938164",
    "link_img": "https://live.staticflickr.com/65535/50018965488_6bf45985c7_o.jpg",
    "id_image": "Cat_938164",
    "count_view": 0
  },
  {
    "link_thumb": "https://live.staticflickr.com/65535/50020526093_66f9e1c00e_n.jpg",
    "id_album": "844170697",
    "description": "Frog_556330",
    "title": "Frog_556330",
    "link_img": "https://live.staticflickr.com/65535/50020526093_9e548121a0_o.jpg",
    "id_image": "Frog_556330",
    "count_view": 0
  },
  {
    "link_thumb": "https://live.staticflickr.com/65535/50017648691_61654ce6f2_n.jpg",
    "id_album": "-401151552",
    "description": "Butterfly_704859",
    "title": "Butterfly_704859",
    "link_img": "https://live.staticflickr.com/65535/50017648691_21bf287f8c_o.jpg",
    "id_image": "Butterfly_704859",
    "count_view": 0
  },
  {
    "link_thumb": "https://live.staticflickr.com/65535/50021067601_5ed5c1cc09_n.jpg",
    "id_album": "844170697",
    "description": "Frog_530461",
    "title": "Frog_530461",
    "link_img": "https://live.staticflickr.com/65535/50021067601_7c1ea75eff_o.jpg",
    "id_image": "Frog_530461",
    "count_view": 0
  },
  {
    "link_thumb": "https://live.staticflickr.com/65535/50023257248_9512e71a41_n.jpg",
    "id_album": "-1082521515",
    "description": "Spider_898063",
    "title": "Spider_898063",
    "link_img": "https://live.staticflickr.com/65535/50023257248_4894403419_o.jpg",
    "id_image": "Spider_898063",
    "count_view": 0
  },
  {
    "link_thumb": "https://live.staticflickr.com/65535/50019879071_94bebe8a1d_n.jpg",
    "id_album": "815329026",
    "description": "Crab_445326",
    "title": "Crab_445326",
    "link_img": "https://live.staticflickr.com/65535/50019879071_6b4a01379f_o.jpg",
    "id_image": "Crab_445326",
    "count_view": 0
  },
  {
    "link_thumb": "https://live.staticflickr.com/65535/50024729442_cc34de1ca8_n.jpg",
    "id_album": "-709711865",
    "description": "Wolf_279080",
    "title": "Wolf_279080",
    "link_img": "https://live.staticflickr.com/65535/50024729442_fb8fdf1c17_o.jpg",
    "id_image": "Wolf_279080",
    "count_view": 0
  },
  {
    "link_thumb": "https://live.staticflickr.com/65535/50021066947_34a8d4cc24_n.jpg",
    "id_album": "822895535",
    "description": "Falcon_396352",
    "title": "Falcon_396352",
    "link_img": "https://live.staticflickr.com/65535/50021066947_6a2db526a5_o.jpg",
    "id_image": "Falcon_396352",
    "count_view": 0
  },
  {
    "link_thumb": "https://live.staticflickr.com/65535/50022529933_6535846f5d_n.jpg",
    "id_album": "-353898617",
    "description": "Puppy_923387",
    "title": "Puppy_923387",
    "link_img": "https://live.staticflickr.com/65535/50022529933_ebf539576f_o.jpg",
    "id_image": "Puppy_923387",
    "count_view": 0
  },
  {
    "link_thumb": "https://live.staticflickr.com/65535/50018367757_dce42cbbee_n.jpg",
    "id_album": "-462831702",
    "description": "Cat_379800",
    "title": "Cat_379800",
    "link_img": "https://live.staticflickr.com/65535/50018367757_0a211620d8_o.jpg",
    "id_image": "Cat_379800",
    "count_view": 0
  },
  {
    "link_thumb": "https://live.staticflickr.com/65535/50020991451_7704db1c7d_n.jpg",
    "id_album": "-128218148",
    "description": "Fox_699155",
    "title": "Fox_699155",
    "link_img": "https://live.staticflickr.com/65535/50020991451_51c8828ba7_o.jpg",
    "id_image": "Fox_699155",
    "count_view": 0
  },
  {
    "link_thumb": "https://live.staticflickr.com/65535/50021428523_65c2a1cfd7_n.jpg",
    "id_album": "416744915",
    "description": "Lion_188132",
    "title": "Lion_188132",
    "link_img": "https://live.staticflickr.com/65535/50021428523_901c2962c1_o.jpg",
    "id_image": "Lion_188132",
    "count_view": 0
  },
  {
    "link_thumb": "https://live.staticflickr.com/65535/50020122853_48c8e9d7d1_n.jpg",
    "id_album": "1168627767",
    "description": "Duck_408057",
    "title": "Duck_408057",
    "link_img": "https://live.staticflickr.com/65535/50020122853_e6c34cd4c8_o.jpg",
    "id_image": "Duck_408057",
    "count_view": 0
  },
  {
    "link_thumb": "https://live.staticflickr.com/65535/50017556263_5b7985d61b_n.jpg",
    "id_album": "-1846011410",
    "description": "Bird_389012",
    "title": "Bird_389012",
    "link_img": "https://live.staticflickr.com/65535/50017556263_ccb1730250_o.jpg",
    "id_image": "Bird_389012",
    "count_view": 0
  },
  {
    "link_thumb": "https://live.staticflickr.com/65535/50020575936_60b1e8ce2c_n.jpg",
    "id_album": "-54509188",
    "description": "Dolphin_451290",
    "title": "Dolphin_451290",
    "link_img": "https://live.staticflickr.com/65535/50020575936_2fdc8f96d5_o.jpg",
    "id_image": "Dolphin_451290",
    "count_view": 0
  },
  {
    "link_thumb": "https://live.staticflickr.com/65535/50022910826_76ef0f96fe_n.jpg",
    "id_album": "-356780855",
    "description": "Puffin_338084",
    "title": "Puffin_338084",
    "link_img": "https://live.staticflickr.com/65535/50022910826_808b21c0f8_o.jpg",
    "id_image": "Puffin_338084",
    "count_view": 0
  },
  {
    "link_thumb": "https://live.staticflickr.com/65535/50019288523_7a50e8fc92_n.jpg",
    "id_album": "-1868680171",
    "description": "Cougar_437082",
    "title": "Cougar_437082",
    "link_img": "https://live.staticflickr.com/65535/50019288523_2a72cb2889_o.jpg",
    "id_image": "Cougar_437082",
    "count_view": 0
  },
  {
    "link_thumb": "https://live.staticflickr.com/65535/50017222062_241de40f3b_n.jpg",
    "id_album": "231236068",
    "description": "BaldEagle_556349",
    "title": "BaldEagle_556349",
    "link_img": "https://live.staticflickr.com/65535/50017222062_48a801a5b6_o.jpg",
    "id_image": "BaldEagle_556349",
    "count_view": 0
  },
  {
    "link_thumb": "https://live.staticflickr.com/65535/50016921353_25f3255e7f_n.jpg",
    "id_album": "-1561645279",
    "description": "BlackPanther_276076",
    "title": "BlackPanther_276076",
    "link_img": "https://live.staticflickr.com/65535/50016921353_b3a0ac6f80_o.jpg",
    "id_image": "BlackPanther_276076",
    "count_view": 0
  },
  {
    "link_thumb": "https://live.staticflickr.com/65535/50017169948_5638d987d7_n.jpg",
    "id_album": "-401151552",
    "description": "Butterfly_926365",
    "title": "Butterfly_926365",
    "link_img": "https://live.staticflickr.com/65535/50017169948_6c5200310a_o.jpg",
    "id_image": "Butterfly_926365",
    "count_view": 0
  },
  {
    "link_thumb": "https://live.staticflickr.com/65535/50352576621_9a52792ae1_n.jpg",
    "id_album": "-462831703",
    "description": "Cat_506946",
    "title": "Cat_506946",
    "link_img": "https://live.staticflickr.com/65535/50352576621_d42e7370eb_o.jpg",
    "id_image": "Cat_506946",
    "count_view": 0
  },
  {
    "link_thumb": "https://live.staticflickr.com/65535/50018118716_fb90d08f07_n.jpg",
    "id_album": "-462831702",
    "description": "Cat_387458",
    "title": "Cat_387458",
    "link_img": "https://live.staticflickr.com/65535/50018118716_232048b53e_o.jpg",
    "id_image": "Cat_387458",
    "count_view": 0
  },
  {
    "link_thumb": "https://live.staticflickr.com/65535/50018239817_4af0fa93c7_n.jpg",
    "id_album": "-462831702",
    "description": "Cat_327107",
    "title": "Cat_327107",
    "link_img": "https://live.staticflickr.com/65535/50018239817_5ce750f89d_o.jpg",
    "id_image": "Cat_327107",
    "count_view": 0
  },
  {
    "link_thumb": "https://live.staticflickr.com/65535/50020596398_6b2a3c7885_n.jpg",
    "id_album": "-462831704",
    "description": "Cat_596632",
    "title": "Cat_596632",
    "link_img": "https://live.staticflickr.com/65535/50020596398_2d1d494cfe_o.jpg",
    "id_image": "Cat_596632",
    "count_view": 0
  },
  {
    "link_thumb": "https://live.staticflickr.com/65535/50022141777_f705ed4945_n.jpg",
    "id_album": "1392348450",
    "description": "Leopard_198379",
    "title": "Leopard_198379",
    "link_img": "https://live.staticflickr.com/65535/50022141777_2a8ec1ceb4_o.jpg",
    "id_image": "Leopard_198379",
    "count_view": 0
  },
  {
    "link_thumb": "https://live.staticflickr.com/65535/50017430237_afed80a7a8_n.jpg",
    "id_album": "1699594607",
    "description": "Bee_926271",
    "title": "Bee_926271",
    "link_img": "https://live.staticflickr.com/65535/50017430237_d16612c27b_o.jpg",
    "id_image": "Bee_926271",
    "count_view": 0
  },
  {
    "link_thumb": "https://live.staticflickr.com/65535/50018141542_3c7a600da7_n.jpg",
    "id_album": "-462831705",
    "description": "Cat_235721",
    "title": "Cat_235721",
    "link_img": "https://live.staticflickr.com/65535/50018141542_8867664ba9_o.jpg",
    "id_image": "Cat_235721",
    "count_view": 0
  },
  {
    "link_thumb": "https://live.staticflickr.com/65535/50023253127_c1a6c758c0_n.jpg",
    "id_album": "-353898617",
    "description": "Puppy_432800",
    "title": "Puppy_432800",
    "link_img": "https://live.staticflickr.com/65535/50023253127_b675ff5bf8_o.jpg",
    "id_image": "Puppy_432800",
    "count_view": 0
  },
  {
    "link_thumb": "https://live.staticflickr.com/65535/50018048446_7f9a3f98f4_n.jpg",
    "id_album": "-462831702",
    "description": "Cat_358561",
    "title": "Cat_358561",
    "link_img": "https://live.staticflickr.com/65535/50018048446_951289a90a_o.jpg",
    "id_image": "Cat_358561",
    "count_view": 0
  },
  {
    "link_thumb": "https://live.staticflickr.com/65535/50017900946_aa08709787_n.jpg",
    "id_album": "-462831705",
    "description": "Cat_245534",
    "title": "Cat_245534",
    "link_img": "https://live.staticflickr.com/65535/50017900946_939ca77291_o.jpg",
    "id_image": "Cat_245534",
    "count_view": 0
  },
  {
    "link_thumb": "https://live.staticflickr.com/65535/50021686577_53dfe89c16_n.jpg",
    "id_album": "1469520430",
    "description": "Hedgehog_541748",
    "title": "Hedgehog_541748",
    "link_img": "https://live.staticflickr.com/65535/50021686577_72a154e76d_o.jpg",
    "id_image": "Hedgehog_541748",
    "count_view": 0
  },
  {
    "link_thumb": "https://live.staticflickr.com/65535/50019475867_b25a2d5780_n.jpg",
    "id_album": "-462831704",
    "description": "Cat_449140",
    "title": "Cat_449140",
    "link_img": "https://live.staticflickr.com/65535/50019475867_893dec6735_o.jpg",
    "id_image": "Cat_449140",
    "count_view": 0
  },
  {
    "link_thumb": "https://live.staticflickr.com/65535/50019906382_b70ecddf1e_n.jpg",
    "id_album": "-766919393",
    "description": "Chameleon_418470",
    "title": "Chameleon_418470",
    "link_img": "https://live.staticflickr.com/65535/50019906382_c44c8e9d02_o.jpg",
    "id_image": "Chameleon_418470",
    "count_view": 0
  },
  {
    "link_thumb": "https://live.staticflickr.com/65535/50023418932_a205001a2a_n.jpg",
    "id_album": "248289288",
    "description": "Raccoon_775114",
    "title": "Raccoon_775114",
    "link_img": "https://live.staticflickr.com/65535/50023418932_1dedca2768_o.jpg",
    "id_image": "Raccoon_775114",
    "count_view": 0
  },
  {
    "link_thumb": "https://live.staticflickr.com/65535/50016982431_9c37a82f1a_n.jpg",
    "id_album": "-80092825",
    "description": "Barnowl_998136",
    "title": "Barnowl_998136",
    "link_img": "https://live.staticflickr.com/65535/50016982431_e53f51c92b_o.jpg",
    "id_image": "Barnowl_998136",
    "count_view": 0
  },
  {
    "link_thumb": "https://live.staticflickr.com/65535/50021304738_174268f2a8_n.jpg",
    "id_album": "-1882491687",
    "description": "Ladybug_386159",
    "title": "Ladybug_386159",
    "link_img": "https://live.staticflickr.com/65535/50021304738_11c11fea09_o.jpg",
    "id_image": "Ladybug_386159",
    "count_view": 0
  },
  {
    "link_thumb": "https://live.staticflickr.com/65535/50016995158_c7aa581038_n.jpg",
    "id_album": "1696155652",
    "description": "Boxer_929026",
    "title": "Boxer_929026",
    "link_img": "https://live.staticflickr.com/65535/50016995158_7b139d216e_o.jpg",
    "id_image": "Boxer_929026",
    "count_view": 0
  },
  {
    "link_thumb": "https://live.staticflickr.com/65535/50018411087_cf46cf42f9_n.jpg",
    "id_album": "-462831702",
    "description": "Cat_407134",
    "title": "Cat_407134",
    "link_img": "https://live.staticflickr.com/65535/50018411087_bd544a3250_o.jpg",
    "id_image": "Cat_407134",
    "count_view": 0
  },
  {
    "link_thumb": "https://live.staticflickr.com/65535/50351718063_d00a9013fc_n.jpg",
    "id_album": "-462831703",
    "description": "Cat_190694",
    "title": "Cat_190694",
    "link_img": "https://live.staticflickr.com/65535/50351718063_b4752c0d94_o.jpg",
    "id_image": "Cat_190694",
    "count_view": 0
  },
  {
    "link_thumb": "https://live.staticflickr.com/65535/50019851632_2916d663e1_n.jpg",
    "id_album": "-1930903528",
    "description": "CatDog_863219",
    "title": "CatDog_863219",
    "link_img": "https://live.staticflickr.com/65535/50019851632_51cba9a865_o.jpg",
    "id_image": "CatDog_863219",
    "count_view": 0
  },
  {
    "link_thumb": "https://live.staticflickr.com/65535/50024020362_e8996da602_n.jpg",
    "id_album": "-1082521515",
    "description": "Spider_430780",
    "title": "Spider_430780",
    "link_img": "https://live.staticflickr.com/65535/50024020362_5ea3047726_o.jpg",
    "id_image": "Spider_430780",
    "count_view": 0
  },
  {
    "link_thumb": "https://live.staticflickr.com/65535/50021263808_261ffe2a08_n.jpg",
    "id_album": "770105808",
    "description": "Kingfisher_644816",
    "title": "Kingfisher_644816",
    "link_img": "https://live.staticflickr.com/65535/50021263808_6aaf9ba0e5_o.jpg",
    "id_image": "Kingfisher_644816",
    "count_view": 0
  },
  {
    "link_thumb": "https://live.staticflickr.com/65535/50017159891_78069d163e_n.jpg",
    "id_album": "1699594607",
    "description": "Bee_77166",
    "title": "Bee_77166",
    "link_img": "https://live.staticflickr.com/65535/50017159891_bb92c08096_o.jpg",
    "id_image": "Bee_77166",
    "count_view": 0
  },
  {
    "link_thumb": "https://live.staticflickr.com/65535/50019828997_b93766af3d_n.jpg",
    "id_album": "-462831703",
    "description": "Cat_996567",
    "title": "Cat_996567",
    "link_img": "https://live.staticflickr.com/65535/50019828997_7b3f242bff_o.jpg",
    "id_image": "Cat_996567",
    "count_view": 0
  },
  {
    "link_thumb": "https://live.staticflickr.com/65535/50020541343_0d3e030078_n.jpg",
    "id_album": "844170697",
    "description": "Frog_911133",
    "title": "Frog_911133",
    "link_img": "https://live.staticflickr.com/65535/50020541343_94f20592ec_o.jpg",
    "id_image": "Frog_911133",
    "count_view": 0
  },
  {
    "link_thumb": "https://live.staticflickr.com/65535/50016547483_95b757b845_n.jpg",
    "id_album": "-422187261",
    "description": "Bear_727150",
    "title": "Bear_727150",
    "link_img": "https://live.staticflickr.com/65535/50016547483_db146a307a_o.jpg",
    "id_image": "Bear_727150",
    "count_view": 0
  },
  {
    "link_thumb": "https://live.staticflickr.com/65535/50017915677_f26f9e7ae0_n.jpg",
    "id_album": "-401151552",
    "description": "Butterfly_721350",
    "title": "Butterfly_721350",
    "link_img": "https://live.staticflickr.com/65535/50017915677_9b6624a0e6_o.jpg",
    "id_image": "Butterfly_721350",
    "count_view": 0
  },
  {
    "link_thumb": "https://live.staticflickr.com/65535/50020737681_a9d53795e2_n.jpg",
    "id_album": "1270947998",
    "description": "Elephant_272299",
    "title": "Elephant_272299",
    "link_img": "https://live.staticflickr.com/65535/50020737681_b111664e0f_o.jpg",
    "id_image": "Elephant_272299",
    "count_view": 0
  },
  {
    "link_thumb": "https://live.staticflickr.com/65535/50020914343_f331c151c0_n.jpg",
    "id_album": "-362549635",
    "description": "Hippo_817960",
    "title": "Hippo_817960",
    "link_img": "https://live.staticflickr.com/65535/50020914343_18ba32819a_o.jpg",
    "id_image": "Hippo_817960",
    "count_view": 0
  },
  {
    "link_thumb": "https://live.staticflickr.com/65535/50023643053_c8428e80e1_n.jpg",
    "id_album": "405170427",
    "description": "Tiger_658565",
    "title": "Tiger_658565",
    "link_img": "https://live.staticflickr.com/65535/50023643053_930b46bbaa_o.jpg",
    "id_image": "Tiger_658565",
    "count_view": 0
  },
  {
    "link_thumb": "https://live.staticflickr.com/65535/50020668208_eff5e4803d_n.jpg",
    "id_album": "-462831704",
    "description": "Cat_730878",
    "title": "Cat_730878",
    "link_img": "https://live.staticflickr.com/65535/50020668208_ebcc519294_o.jpg",
    "id_image": "Cat_730878",
    "count_view": 0
  },
  {
    "link_thumb": "https://live.staticflickr.com/65535/50019655852_ba08657040_n.jpg",
    "id_album": "-462831703",
    "description": "Cat_888426",
    "title": "Cat_888426",
    "link_img": "https://live.staticflickr.com/65535/50019655852_49af1ee379_o.jpg",
    "id_image": "Cat_888426",
    "count_view": 0
  },
  {
    "link_thumb": "https://live.staticflickr.com/65535/50022130647_ab5783aa28_n.jpg",
    "id_album": "1918884325",
    "description": "Lemur_429619",
    "title": "Lemur_429619",
    "link_img": "https://live.staticflickr.com/65535/50022130647_f83b8a6e5c_o.jpg",
    "id_image": "Lemur_429619",
    "count_view": 0
  },
  {
    "link_thumb": "https://live.staticflickr.com/65535/50021710927_06322d06b0_n.jpg",
    "id_album": "-1933715543",
    "description": "Horse_103281",
    "title": "Horse_103281",
    "link_img": "https://live.staticflickr.com/65535/50021710927_0914ed57b0_o.jpg",
    "id_image": "Horse_103281",
    "count_view": 0
  },
  {
    "link_thumb": "https://live.staticflickr.com/65535/50017613933_b9df4bec2d_n.jpg",
    "id_album": "-462831702",
    "description": "Cat_402854",
    "title": "Cat_402854",
    "link_img": "https://live.staticflickr.com/65535/50017613933_d9ed3ff4df_o.jpg",
    "id_image": "Cat_402854",
    "count_view": 0
  },
  {
    "link_thumb": "https://live.staticflickr.com/65535/50017505503_f2e866d3c9_n.jpg",
    "id_album": "-462831702",
    "description": "Cat_350923",
    "title": "Cat_350923",
    "link_img": "https://live.staticflickr.com/65535/50017505503_29532aae50_o.jpg",
    "id_image": "Cat_350923",
    "count_view": 0
  },
  {
    "link_thumb": "https://live.staticflickr.com/65535/50018647408_15418f5b71_n.jpg",
    "id_album": "-462831702",
    "description": "Cat_427473",
    "title": "Cat_427473",
    "link_img": "https://live.staticflickr.com/65535/50018647408_79f387c259_o.jpg",
    "id_image": "Cat_427473",
    "count_view": 0
  },
  {
    "link_thumb": "https://live.staticflickr.com/65535/50017238898_aa636dd22c_n.jpg",
    "id_album": "-462831705",
    "description": "Cat_117113",
    "title": "Cat_117113",
    "link_img": "https://live.staticflickr.com/65535/50017238898_8f8a18e2bc_o.jpg",
    "id_image": "Cat_117113",
    "count_view": 0
  },
  {
    "link_thumb": "https://live.staticflickr.com/65535/50020767088_54294182c7_n.jpg",
    "id_album": "-405626519",
    "description": "GermanShepherd_900159",
    "title": "GermanShepherd_900159",
    "link_img": "https://live.staticflickr.com/65535/50020767088_8151a7a5b8_o.jpg",
    "id_image": "GermanShepherd_900159",
    "count_view": 0
  },
  {
    "link_thumb": "https://live.staticflickr.com/65535/50020021393_53881fe378_n.jpg",
    "id_album": "-149330231",
    "description": "Dog_982763",
    "title": "Dog_982763",
    "link_img": "https://live.staticflickr.com/65535/50020021393_8e7f7e6067_o.jpg",
    "id_image": "Dog_982763",
    "count_view": 0
  },
  {
    "link_thumb": "https://live.staticflickr.com/65535/50020873458_bb448333af_n.jpg",
    "id_album": "109779448",
    "description": "Hare_541253",
    "title": "Hare_541253",
    "link_img": "https://live.staticflickr.com/65535/50020873458_0bf3f402e0_o.jpg",
    "id_image": "Hare_541253",
    "count_view": 0
  }
]