[
  {
    "link_thumb": "https://live.staticflickr.com/65535/50023366867_a86cdc2b2b_n.jpg",
    "id_album": "-1940643173",
    "description": "Rabbit_431593",
    "title": "Rabbit_431593",
    "link_img": "https://live.staticflickr.com/65535/50023366867_fc38cc4812_o.jpg",
    "id_image": "Rabbit_431593",
    "count_view": 0
  },
  {
    "link_thumb": "https://live.staticflickr.com/65535/50019948807_0236d20ffd_n.jpg",
    "id_album": "-1481843714",
    "description": "Cheetah_344032",
    "title": "Cheetah_344032",
    "link_img": "https://live.staticflickr.com/65535/50019948807_ae0e827e3e_o.jpg",
    "id_image": "Cheetah_344032",
    "count_view": 0
  },
  {
    "link_thumb": "https://live.staticflickr.com/65535/50019299356_bd5f3f6cc4_n.jpg",
    "id_album": "-462831704",
    "description": "Cat_532998",
    "title": "Cat_532998",
    "link_img": "https://live.staticflickr.com/65535/50019299356_f002b54e3d_o.jpg",
    "id_image": "Cat_532998",
    "count_view": 0
  },
  {
    "link_thumb": "https://live.staticflickr.com/65535/50019927076_90704a73e1_n.jpg",
    "id_album": "1273365283",
    "description": "Cute_277728",
    "title": "Cute_277728",
    "link_img": "https://live.staticflickr.com/65535/50019927076_3573f700d4_o.jpg",
    "id_image": "Cute_277728",
    "count_view": 0
  },
  {
    "link_thumb": "https://live.staticflickr.com/65535/50020141367_709f05a786_n.jpg",
    "id_album": "815329026",
    "description": "Crab_794230",
    "title": "Crab_794230",
    "link_img": "https://live.staticflickr.com/65535/50020141367_ce559bf796_o.jpg",
    "id_image": "Crab_794230",
    "count_view": 0
  },
  {
    "link_thumb": "https://live.staticflickr.com/65535/50017340336_dee28e9420_n.jpg",
    "id_album": "-1846011410",
    "description": "Bird_444032",
    "title": "Bird_444032",
    "link_img": "https://live.staticflickr.com/65535/50017340336_d29dddfea0_o.jpg",
    "id_image": "Bird_444032",
    "count_view": 0
  },
  {
    "link_thumb": "https://live.staticflickr.com/65535/50019550777_242cfd0a52_n.jpg",
    "id_album": "-462831704",
    "description": "Cat_528341",
    "title": "Cat_528341",
    "link_img": "https://live.staticflickr.com/65535/50019550777_ea6d794243_o.jpg",
    "id_image": "Cat_528341",
    "count_view": 0
  },
  {
    "link_thumb": "https://live.staticflickr.com/65535/50351746543_af7374f88e_n.jpg",
    "id_album": "-462831703",
    "description": "Cat_250324",
    "title": "Cat_250324",
    "link_img": "https://live.staticflickr.com/65535/50351746543_361c430d7e_o.jpg",
    "id_image": "Cat_250324",
    "count_view": 0
  },
  {
    "link_thumb": "https://live.staticflickr.com/65535/50017249412_6c68a49593_n.jpg",
    "id_album": "809937717",
    "description": "Beagle_518793",
    "title": "Beagle_518793",
    "link_img": "https://live.staticflickr.com/65535/50017249412_358a102b7a_o.jpg",
    "id_image": "Beagle_518793",
    "count_view": 0
  },
  {
    "link_thumb": "https://live.staticflickr.com/65535/50023401822_25a47fb75b_n.jpg",
    "id_album": "248289288",
    "description": "Raccoon_397423",
    "title": "Raccoon_397423",
    "link_img": "https://live.staticflickr.com/65535/50023401822_3a51d5b9ea_o.jpg",
    "id_image": "Raccoon_397423",
    "count_view": 0
  },
  {
    "link_thumb": "https://live.staticflickr.com/65535/50017587948_9928af5047_n.jpg",
    "id_album": "-462831702",
    "description": "Cat_386652",
    "title": "Cat_386652",
    "link_img": "https://live.staticflickr.com/65535/50017587948_ea9531cb42_o.jpg",
    "id_image": "Cat_386652",
    "count_view": 0
  },
  {
    "link_thumb": "https://live.staticflickr.com/65535/50017427431_90c168d247_n.jpg",
    "id_album": "-1846011410",
    "description": "Bird_808240",
    "title": "Bird_808240",
    "link_img": "https://live.staticflickr.com/65535/50017427431_14047cd062_o.jpg",
    "id_image": "Bird_808240",
    "count_view": 0
  },
  {
    "link_thumb": "https://live.staticflickr.com/65535/50017517731_c817604737_n.jpg",
    "id_album": "1696155652",
    "description": "Boxer_369840",
    "title": "Boxer_369840",
    "link_img": "https://live.staticflickr.com/65535/50017517731_bae9f4f3e9_o.jpg",
    "id_image": "Boxer_369840",
    "count_view": 0
  },
  {
    "link_thumb": "https://live.staticflickr.com/65535/50021392202_40ea8a550f_n.jpg",
    "id_album": "-462831704",
    "description": "Cat_596663",
    "title": "Cat_596663",
    "link_img": "https://live.staticflickr.com/65535/50021392202_616215470d_o.jpg",
    "id_image": "Cat_596663",
    "count_view": 0
  },
  {
    "link_thumb": "https://live.staticflickr.com/65535/50021467106_bf381017e9_n.jpg",
    "id_album": "-1933715543",
    "description": "Horse_190508",
    "title": "Horse_190508",
    "link_img": "https://live.staticflickr.com/65535/50021467106_996e1a6f9c_o.jpg",
    "id_image": "Horse_190508",
    "count_view": 0
  },
  {
    "link_thumb": "https://live.staticflickr.com/65535/50021201276_090275374d_n.jpg",
    "id_album": "-462831704",
    "description": "Cat_718977",
    "title": "Cat_718977",
    "link_img": "https://live.staticflickr.com/65535/50021201276_0814f20d25_o.jpg",
    "id_image": "Cat_718977",
    "count_view": 0
  },
  {
    "link_thumb": "https://live.staticflickr.com/65535/50017039251_5ee576306b_n.jpg",
    "id_album": "-422187261",
    "description": "Bear_400109",
    "title": "Bear_400109",
    "link_img": "https://live.staticflickr.com/65535/50017039251_31c131e0a3_o.jpg",
    "id_image": "Bear_400109",
    "count_view": 0
  },
  {
    "link_thumb": "https://live.staticflickr.com/65535/50017107117_e2d0fcb143_n.jpg",
    "id_album": "-834314226",
    "description": "ArcticFox_528248",
    "title": "ArcticFox_528248",
    "link_img": "https://live.staticflickr.com/65535/50017107117_4a3d8ef943_o.jpg",
    "id_image": "ArcticFox_528248",
    "count_view": 0
  },
  {
    "link_thumb": "https://live.staticflickr.com/65535/50021113536_6ab76010aa_n.jpg",
    "id_album": "-462831704",
    "description": "Cat_555855",
    "title": "Cat_555855",
    "link_img": "https://live.staticflickr.com/65535/50021113536_6f8e18c003_o.jpg",
    "id_image": "Cat_555855",
    "count_view": 0
  },
  {
    "link_thumb": "https://live.staticflickr.com/65535/50018901608_967cc00db4_n.jpg",
    "id_album": "-462831703",
    "description": "Cat_907625",
    "title": "Cat_907625",
    "link_img": "https://live.staticflickr.com/65535/50018901608_f47882d831_o.jpg",
    "id_image": "Cat_907625",
    "count_view": 0
  },
  {
    "link_thumb": "https://live.staticflickr.com/65535/50017650971_0f89fe2928_n.jpg",
    "id_album": "-401151552",
    "description": "Butterfly_708179",
    "title": "Butterfly_708179",
    "link_img": "https://live.staticflickr.com/65535/50017650971_9136f3fcf4_o.jpg",
    "id_image": "Butterfly_708179",
    "count_view": 0
  },
  {
    "link_thumb": "https://live.staticflickr.com/65535/50022169162_28c3fd9da5_n.jpg",
    "id_album": "1392348450",
    "description": "Leopard_374236",
    "title": "Leopard_374236",
    "link_img": "https://live.staticflickr.com/65535/50022169162_b086b31b5d_o.jpg",
    "id_image": "Leopard_374236",
    "count_view": 0
  },
  {
    "link_thumb": "https://live.staticflickr.com/65535/50018091137_7510fe071a_n.jpg",
    "id_album": "-462831705",
    "description": "Cat_185410",
    "title": "Cat_185410",
    "link_img": "https://live.staticflickr.com/65535/50018091137_71e795b549_o.jpg",
    "id_image": "Cat_185410",
    "count_view": 0
  },
  {
    "link_thumb": "https://live.staticflickr.com/65535/50021900151_399f528a09_n.jpg",
    "id_album": "1392348450",
    "description": "Leopard_345334",
    "title": "Leopard_345334",
    "link_img": "https://live.staticflickr.com/65535/50021900151_e74a51e657_o.jpg",
    "id_image": "Leopard_345334",
    "count_view": 0
  },
  {
    "link_thumb": "https://live.staticflickr.com/65535/50021456196_b75eb82f7c_n.jpg",
    "id_album": "-362549635",
    "description": "Hippo_815950",
    "title": "Hippo_815950",
    "link_img": "https://live.staticflickr.com/65535/50021456196_17dfd90ba1_o.jpg",
    "id_image": "Hippo_815950",
    "count_view": 0
  },
  {
    "link_thumb": "https://live.staticflickr.com/65535/50016542683_acfd26c0e8_n.jpg",
    "id_album": "-422187261",
    "description": "Bear_705885",
    "title": "Bear_705885",
    "link_img": "https://live.staticflickr.com/65535/50016542683_326a81a5d4_o.jpg",
    "id_image": "Bear_705885",
    "count_view": 0
  },
  {
    "link_thumb": "https://live.staticflickr.com/65535/50352783972_de3452cd91_n.jpg",
    "id_album": "-462831703",
    "description": "Cat_601434",
    "title": "Cat_601434",
    "link_img": "https://live.staticflickr.com/65535/50352783972_ba830c4660_o.jpg",
    "id_image": "Cat_601434",
    "count_view": 0
  },
  {
    "link_thumb": "https://live.staticflickr.com/65535/50023849848_3a116c7bea_n.jpg",
    "id_album": "786934945",
    "description": "Whale_213783",
    "title": "Whale_213783",
    "link_img": "https://live.staticflickr.com/65535/50023849848_65e98a4c2d_o.jpg",
    "id_image": "Whale_213783",
    "count_view": 0
  },
  {
    "link_thumb": "https://live.staticflickr.com/65535/50021741748_55cf84043d_n.jpg",
    "id_album": "1610416937",
    "description": "Moth_926285",
    "title": "Moth_926285",
    "link_img": "https://live.staticflickr.com/65535/50021741748_bbd9c70d02_o.jpg",
    "id_image": "Moth_926285",
    "count_view": 0
  },
  {
    "link_thumb": "https://live.staticflickr.com/65535/50021153758_1925a8aea9_n.jpg",
    "id_album": "1658866795",
    "description": "Insect_405565",
    "title": "Insect_405565",
    "link_img": "https://live.staticflickr.com/65535/50021153758_508b81a067_o.jpg",
    "id_image": "Insect_405565",
    "count_view": 0
  },
  {
    "link_thumb": "https://live.staticflickr.com/65535/50352686317_d5e567fd59_n.jpg",
    "id_album": "-462831703",
    "description": "Cat_442068",
    "title": "Cat_442068",
    "link_img": "https://live.staticflickr.com/65535/50352686317_3b67f1e320_o.jpg",
    "id_image": "Cat_442068",
    "count_view": 0
  },
  {
    "link_thumb": "https://live.staticflickr.com/65535/50019795886_283dc8ea33_n.jpg",
    "id_album": "-1462118852",
    "description": "Corgi_866472",
    "title": "Corgi_866472",
    "link_img": "https://live.staticflickr.com/65535/50019795886_8ea575503f_o.jpg",
    "id_image": "Corgi_866472",
    "count_view": 0
  },
  {
    "link_thumb": "https://live.staticflickr.com/65535/50021390603_e29857aa58_n.jpg",
    "id_album": "1392348450",
    "description": "Leopard_529991",
    "title": "Leopard_529991",
    "link_img": "https://live.staticflickr.com/65535/50021390603_6bde150c87_o.jpg",
    "id_image": "Leopard_529991",
    "count_view": 0
  },
  {
    "link_thumb": "https://live.staticflickr.com/65535/50017531793_528caaa99c_n.jpg",
    "id_album": "-462831702",
    "description": "Cat_362453",
    "title": "Cat_362453",
    "link_img": "https://live.staticflickr.com/65535/50017531793_0dbbd548bc_o.jpg",
    "id_image": "Cat_362453",
    "count_view": 0
  },
  {
    "link_thumb": "https://live.staticflickr.com/65535/50017487911_44c445a7dc_n.jpg",
    "id_album": "782930701",
    "description": "BorderCollie_719151",
    "title": "BorderCollie_719151",
    "link_img": "https://live.staticflickr.com/65535/50017487911_c8f5fc0665_o.jpg",
    "id_image": "BorderCollie_719151",
    "count_view": 0
  },
  {
    "link_thumb": "https://live.staticflickr.com/65535/50021736458_edd0fb0c01_n.jpg",
    "id_album": "1610416937",
    "description": "Moth_526827",
    "title": "Moth_526827",
    "link_img": "https://live.staticflickr.com/65535/50021736458_5133ff5fcc_o.jpg",
    "id_image": "Moth_526827",
    "count_view": 0
  },
  {
    "link_thumb": "https://live.staticflickr.com/65535/50020467807_f9ea2b3589_n.jpg",
    "id_album": "-149330232",
    "description": "Dog_275589",
    "title": "Dog_275589",
    "link_img": "https://live.staticflickr.com/65535/50020467807_650a14df2a_o.jpg",
    "id_image": "Dog_275589",
    "count_view": 0
  },
  {
    "link_thumb": "https://live.staticflickr.com/65535/50022517178_4d0ea84466_n.jpg",
    "id_album": "-353898617",
    "description": "Puppy_757130",
    "title": "Puppy_757130",
    "link_img": "https://live.staticflickr.com/65535/50022517178_44485c14ec_o.jpg",
    "id_image": "Puppy_757130",
    "count_view": 0
  },
  {
    "link_thumb": "https://live.staticflickr.com/65535/50021818513_68363a9469_n.jpg",
    "id_album": "588679857",
    "description": "Orangutan_903475",
    "title": "Orangutan_903475",
    "link_img": "https://live.staticflickr.com/65535/50021818513_48f397cea1_o.jpg",
    "id_image": "Orangutan_903475",
    "count_view": 0
  },
  {
    "link_thumb": "https://live.staticflickr.com/65535/50024283297_d96e9d8fc4_n.jpg",
    "id_album": "405170427",
    "description": "Tiger_105986",
    "title": "Tiger_105986",
    "link_img": "https://live.staticflickr.com/65535/50024283297_e99c60e2b8_o.jpg",
    "id_image": "Tiger_105986",
    "count_view": 0
  },
  {
    "link_thumb": "https://live.staticflickr.com/65535/50020599772_e6006cd57e_n.jpg",
    "id_album": "-149330232",
    "description": "Dog_370185",
    "title": "Dog_370185",
    "link_img": "https://live.staticflickr.com/65535/50020599772_ac69e2a276_o.jpg",
    "id_image": "Dog_370185",
    "count_view": 0
  },
  {
    "link_thumb": "https://live.staticflickr.com/65535/50024485402_9a15611700_n.jpg",
    "id_album": "405170427",
    "description": "Tiger_864893",
    "title": "Tiger_864893",
    "link_img": "https://live.staticflickr.com/65535/50024485402_ca7edccb33_o.jpg",
    "id_image": "Tiger_864893",
    "count_view": 0
  },
  {
    "link_thumb": "https://live.staticflickr.com/65535/50020563353_57655c6c61_n.jpg",
    "id_album": "-462831704",
    "description": "Cat_548841",
    "title": "Cat_548841",
    "link_img": "https://live.staticflickr.com/65535/50020563353_85321e7aae_o.jpg",
    "id_image": "Cat_548841",
    "count_view": 0
  },
  {
    "link_thumb": "https://live.staticflickr.com/65535/50022399603_0f836fb908_n.jpg",
    "id_album": "-1431524681",
    "description": "Pug_314508",
    "title": "Pug_314508",
    "link_img": "https://live.staticflickr.com/65535/50022399603_366d7a860a_o.jpg",
    "id_image": "Pug_314508",
    "count_view": 0
  },
  {
    "link_thumb": "https://live.staticflickr.com/65535/50020814543_dc2d94f592_n.jpg",
    "id_album": "2060159334",
    "description": "GoldenRetriever_737271",
    "title": "GoldenRetriever_737271",
    "link_img": "https://live.staticflickr.com/65535/50020814543_e7fd2c08bf_o.jpg",
    "id_image": "GoldenRetriever_737271",
    "count_view": 0
  },
  {
    "link_thumb": "https://live.staticflickr.com/65535/50017997002_92f6466f00_n.jpg",
    "id_album": "189994021",
    "description": "Cardinal_713027",
    "title": "Cardinal_713027",
    "link_img": "https://live.staticflickr.com/65535/50017997002_e6f94c669a_o.jpg",
    "id_image": "Cardinal_713027",
    "count_view": 0
  },
  {
    "link_thumb": "https://live.staticflickr.com/65535/50017263721_4771bf9ff7_n.jpg",
    "id_album": "-1846011410",
    "description": "Bird_351251",
    "title": "Bird_351251",
    "link_img": "https://live.staticflickr.com/65535/50017263721_74f51e2ba1_o.jpg",
    "id_image": "Bird_351251",
    "count_view": 0
  },
  {
    "link_thumb": "https://live.staticflickr.com/65535/50022946362_3bacb4ab06_n.jpg",
    "id_album": "392248205",
    "description": "Penguin_346856",
    "title": "Penguin_346856",
    "link_img": "https://live.staticflickr.com/65535/50022946362_351c508041_o.jpg",
    "id_image": "Penguin_346856",
    "count_view": 0
  },
  {
    "link_thumb": "https://live.staticflickr.com/65535/50019563322_0f744b40cb_n.jpg",
    "id_album": "-462831704",
    "description": "Cat_535212",
    "title": "Cat_535212",
    "link_img": "https://live.staticflickr.com/65535/50019563322_0c3fb767c0_o.jpg",
    "id_image": "Cat_535212",
    "count_view": 0
  },
  {
    "link_thumb": "https://live.staticflickr.com/65535/50351921598_eb93c2f160_n.jpg",
    "id_album": "-462831703",
    "description": "Cat_593694",
    "title": "Cat_593694",
    "link_img": "https://live.staticflickr.com/65535/50351921598_01075109cc_o.jpg",
    "id_image": "Cat_593694",
    "count_view": 0
  },
  {
    "link_thumb": "https://live.staticflickr.com/65535/50016986588_40d816bfb6_n.jpg",
    "id_album": "782930701",
    "description": "BorderCollie_959342",
    "title": "BorderCollie_959342",
    "link_img": "https://live.staticflickr.com/65535/50016986588_0aa6d2b6bc_o.jpg",
    "id_image": "BorderCollie_959342",
    "count_view": 0
  },
  {
    "link_thumb": "https://live.staticflickr.com/65535/50020542732_69c58ed691_n.jpg",
    "id_album": "-149330232",
    "description": "Dog_343081",
    "title": "Dog_343081",
    "link_img": "https://live.staticflickr.com/65535/50020542732_94c5ddaf9b_o.jpg",
    "id_image": "Dog_343081",
    "count_view": 0
  },
  {
    "link_thumb": "https://live.staticflickr.com/65535/50020170353_4fcf36149d_n.jpg",
    "id_album": "-39098563",
    "description": "Eagle_401130",
    "title": "Eagle_401130",
    "link_img": "https://live.staticflickr.com/65535/50020170353_140c767d64_o.jpg",
    "id_image": "Eagle_401130",
    "count_view": 0
  },
  {
    "link_thumb": "https://live.staticflickr.com/65535/50019865437_7eba3d32ee_n.jpg",
    "id_album": "-420782796",
    "description": "Caterpillar_447301",
    "title": "Caterpillar_447301",
    "link_img": "https://live.staticflickr.com/65535/50019865437_be9bb24536_o.jpg",
    "id_image": "Caterpillar_447301",
    "count_view": 0
  },
  {
    "link_thumb": "https://live.staticflickr.com/65535/50021638493_4af03c5d49_n.jpg",
    "id_album": "-1173056085",
    "description": "Macaw_839619",
    "title": "Macaw_839619",
    "link_img": "https://live.staticflickr.com/65535/50021638493_d5e253ddf8_o.jpg",
    "id_image": "Macaw_839619",
    "count_view": 0
  },
  {
    "link_thumb": "https://live.staticflickr.com/65535/50352578101_de1d76eb56_n.jpg",
    "id_album": "-462831703",
    "description": "Cat_511415",
    "title": "Cat_511415",
    "link_img": "https://live.staticflickr.com/65535/50352578101_c33eb7f80e_o.jpg",
    "id_image": "Cat_511415",
    "count_view": 0
  },
  {
    "link_thumb": "https://live.staticflickr.com/65535/50022005717_4238d664ea_n.jpg",
    "id_album": "665694624",
    "description": "JapaneseMacaque_663816",
    "title": "JapaneseMacaque_663816",
    "link_img": "https://live.staticflickr.com/65535/50022005717_ac0c185ce4_o.jpg",
    "id_image": "JapaneseMacaque_663816",
    "count_view": 0
  },
  {
    "link_thumb": "https://live.staticflickr.com/65535/50023463207_10c4654979_n.jpg",
    "id_album": "332874268",
    "description": "RedPanda_358911",
    "title": "RedPanda_358911",
    "link_img": "https://live.staticflickr.com/65535/50023463207_e1d06a655c_o.jpg",
    "id_image": "RedPanda_358911",
    "count_view": 0
  },
  {
    "link_thumb": "https://live.staticflickr.com/65535/50024047537_f9737355f7_n.jpg",
    "id_album": "-1082521515",
    "description": "Spider_704922",
    "title": "Spider_704922",
    "link_img": "https://live.staticflickr.com/65535/50024047537_dc6e51d0c8_o.jpg",
    "id_image": "Spider_704922",
    "count_view": 0
  },
  {
    "link_thumb": "https://live.staticflickr.com/65535/50021767448_733b80ea00_n.jpg",
    "id_album": "1015034486",
    "description": "Muteswan_325479",
    "title": "Muteswan_325479",
    "link_img": "https://live.staticflickr.com/65535/50021767448_dcf07300a1_o.jpg",
    "id_image": "Muteswan_325479",
    "count_view": 0
  },
  {
    "link_thumb": "https://live.staticflickr.com/65535/50019400752_4f48c791d2_n.jpg",
    "id_album": "-462831702",
    "description": "Cat_412288",
    "title": "Cat_412288",
    "link_img": "https://live.staticflickr.com/65535/50019400752_f70d1ee49f_o.jpg",
    "id_image": "Cat_412288",
    "count_view": 0
  },
  {
    "link_thumb": "https://live.staticflickr.com/65535/50017963301_ed84c9e637_n.jpg",
    "id_album": "-462831702",
    "description": "Cat_321586",
    "title": "Cat_321586",
    "link_img": "https://live.staticflickr.com/65535/50017963301_55cab9881f_o.jpg",
    "id_image": "Cat_321586",
    "count_view": 0
  },
  {
    "link_thumb": "https://live.staticflickr.com/65535/50020191827_4cbf7738ac_n.jpg",
    "id_album": "1273365283",
    "description": "Cute_343023",
    "title": "Cute_343023",
    "link_img": "https://live.staticflickr.com/65535/50020191827_7032982c9a_o.jpg",
    "id_image": "Cute_343023",
    "count_view": 0
  },
  {
    "link_thumb": "https://live.staticflickr.com/65535/50016987663_4ccd12a222_n.jpg",
    "id_album": "782930701",
    "description": "BorderCollie_978402",
    "title": "BorderCollie_978402",
    "link_img": "https://live.staticflickr.com/65535/50016987663_94d4918316_o.jpg",
    "id_image": "BorderCollie_978402",
    "count_view": 0
  },
  {
    "link_thumb": "https://live.staticflickr.com/65535/50018957308_5db8d93dca_n.jpg",
    "id_album": "-462831703",
    "description": "Cat_932934",
    "title": "Cat_932934",
    "link_img": "https://live.staticflickr.com/65535/50018957308_506aa53cc5_o.jpg",
    "id_image": "Cat_932934",
    "count_view": 0
  },
  {
    "link_thumb": "https://live.staticflickr.com/65535/50019808926_3110e05ffc_n.jpg",
    "id_album": "-1868680171",
    "description": "Cougar_369597",
    "title": "Cougar_369597",
    "link_img": "https://live.staticflickr.com/65535/50019808926_8de04a443b_o.jpg",
    "id_image": "Cougar_369597",
    "count_view": 0
  },
  {
    "link_thumb": "https://live.staticflickr.com/65535/50017107453_dccfec3826_n.jpg",
    "id_album": "-401151552",
    "description": "Butterfly_574417",
    "title": "Butterfly_574417",
    "link_img": "https://live.staticflickr.com/65535/50017107453_4aa0c84119_o.jpg",
    "id_image": "Butterfly_574417",
    "count_view": 0
  },
  {
    "link_thumb": "https://live.staticflickr.com/65535/50017164192_37de9bd211_n.jpg",
    "id_album": "523598895",
    "description": "Artistic_421346",
    "title": "Artistic_421346",
    "link_img": "https://live.staticflickr.com/65535/50017164192_44806e7fdc_o.jpg",
    "id_image": "Artistic_421346",
    "count_view": 0
  },
  {
    "link_thumb": "https://live.staticflickr.com/65535/50020920892_47f0e40110_n.jpg",
    "id_album": "1168627767",
    "description": "Duck_571369",
    "title": "Duck_571369",
    "link_img": "https://live.staticflickr.com/65535/50020920892_7e2999a970_o.jpg",
    "id_image": "Duck_571369",
    "count_view": 0
  },
  {
    "link_thumb": "https://live.staticflickr.com/65535/50018024672_c869e36319_n.jpg",
    "id_album": "-462831705",
    "description": "Cat_116775",
    "title": "Cat_116775",
    "link_img": "https://live.staticflickr.com/65535/50018024672_a8893d69de_o.jpg",
    "id_image": "Cat_116775",
    "count_view": 0
  },
  {
    "link_thumb": "https://live.staticflickr.com/65535/50018668513_32801b97f6_n.jpg",
    "id_album": "-462831704",
    "description": "Cat_436938",
    "title": "Cat_436938",
    "link_img": "https://live.staticflickr.com/65535/50018668513_14b205afcc_o.jpg",
    "id_image": "Cat_436938",
    "count_view": 0
  },
  {
    "link_thumb": "https://live.staticflickr.com/65535/50024429851_678ae38ccd_n.jpg",
    "id_album": "766572659",
    "description": "WhiteTiger_276119",
    "title": "WhiteTiger_276119",
    "link_img": "https://live.staticflickr.com/65535/50024429851_a784e7fd93_o.jpg",
    "id_image": "WhiteTiger_276119",
    "count_view": 0
  },
  {
    "link_thumb": "https://live.staticflickr.com/65535/50020567981_b02d96ce46_n.jpg",
    "id_album": "-54509188",
    "description": "Dolphin_343733",
    "title": "Dolphin_343733",
    "link_img": "https://live.staticflickr.com/65535/50020567981_0a45b9d4a1_o.jpg",
    "id_image": "Dolphin_343733",
    "count_view": 0
  },
  {
    "link_thumb": "https://live.staticflickr.com/65535/50016510568_bae0a7a950_n.jpg",
    "id_album": "-422187261",
    "description": "Bear_381517",
    "title": "Bear_381517",
    "link_img": "https://live.staticflickr.com/65535/50016510568_4440f35966_o.jpg",
    "id_image": "Bear_381517",
    "count_view": 0
  },
  {
    "link_thumb": "https://live.staticflickr.com/65535/50023961623_66a6027056_n.jpg",
    "id_album": "-709711865",
    "description": "Wolf_464255",
    "title": "Wolf_464255",
    "link_img": "https://live.staticflickr.com/65535/50023961623_433c0d4f83_o.jpg",
    "id_image": "Wolf_464255",
    "count_view": 0
  },
  {
    "link_thumb": "https://live.staticflickr.com/65535/50021089846_f24bfd37b6_n.jpg",
    "id_album": "844170697",
    "description": "Frog_987662",
    "title": "Frog_987662",
    "link_img": "https://live.staticflickr.com/65535/50021089846_309a789436_o.jpg",
    "id_image": "Frog_987662",
    "count_view": 0
  },
  {
    "link_thumb": "https://live.staticflickr.com/65535/50021055641_5f86ea9c38_n.jpg",
    "id_album": "844170697",
    "description": "Frog_331211",
    "title": "Frog_331211",
    "link_img": "https://live.staticflickr.com/65535/50021055641_b77fb277d6_o.jpg",
    "id_image": "Frog_331211",
    "count_view": 0
  },
  {
    "link_thumb": "https://live.staticflickr.com/65535/50352015438_8bf8b63633_n.jpg",
    "id_album": "-462831702",
    "description": "Cat_99298",
    "title": "Cat_99298",
    "link_img": "https://live.staticflickr.com/65535/50352015438_c67803ba9a_o.jpg",
    "id_image": "Cat_99298",
    "count_view": 0
  },
  {
    "link_thumb": "https://live.staticflickr.com/65535/50021252386_5178e34537_n.jpg",
    "id_album": "-462831703",
    "description": "Cat_792709",
    "title": "Cat_792709",
    "link_img": "https://live.staticflickr.com/65535/50021252386_f36fdb7c8f_o.jpg",
    "id_image": "Cat_792709",
    "count_view": 0
  },
  {
    "link_thumb": "https://live.staticflickr.com/65535/50024510221_515eaca4da_n.jpg",
    "id_album": "-709711865",
    "description": "Wolf_517561",
    "title": "Wolf_517561",
    "link_img": "https://live.staticflickr.com/65535/50024510221_3a07e6a148_o.jpg",
    "id_image": "Wolf_517561",
    "count_view": 0
  },
  {
    "link_thumb": "https://live.staticflickr.com/65535/50024464786_b2a57493ce_n.jpg",
    "id_album": "-709711865",
    "description": "Wolf_237667",
    "title": "Wolf_237667",
    "link_img": "https://live.staticflickr.com/65535/50024464786_09475b381d_o.jpg",
    "id_image": "Wolf_237667",
    "count_view": 0
  },
  {
    "link_thumb": "https://live.staticflickr.com/65535/50020463448_5962bd2f9a_n.jpg",
    "id_album": "-128218148",
    "description": "Fox_793097",
    "title": "Fox_793097",
    "link_img": "https://live.staticflickr.com/65535/50020463448_871714566b_o.jpg",
    "id_image": "Fox_793097",
    "count_view": 0
  },
  {
    "link_thumb": "https://live.staticflickr.com/65535/50020099253_7d889829a3_n.jpg",
    "id_album": "-405058657",
    "description": "Dragonfly_588148",
    "title": "Dragonfly_588148",
    "link_img": "https://live.staticflickr.com/65535/50020099253_12395ff401_o.jpg",
    "id_image": "Dragonfly_588148",
    "count_view": 0
  },
  {
    "link_thumb": "https://live.staticflickr.com/65535/50019719847_d62500cfd7_n.jpg",
    "id_album": "-462831703",
    "description": "Cat_916307",
    "title": "Cat_916307",
    "link_img": "https://live.staticflickr.com/65535/50019719847_92970b53c6_o.jpg",
    "id_image": "Cat_916307",
    "count_view": 0
  },
  {
    "link_thumb": "https://live.staticflickr.com/65535/50023693818_41ba5006d1_n.jpg",
    "id_album": "405170427",
    "description": "Tiger_913471",
    "title": "Tiger_913471",
    "link_img": "https://live.staticflickr.com/65535/50023693818_6cbf3a95ff_o.jpg",
    "id_image": "Tiger_913471",
    "count_view": 0
  },
  {
    "link_thumb": "https://live.staticflickr.com/65535/50017800517_c1d6a039ff_n.jpg",
    "id_album": "-401151552",
    "description": "Butterfly_166582",
    "title": "Butterfly_166582",
    "link_img": "https://live.staticflickr.com/65535/50017800517_2e935f2f0e_o.jpg",
    "id_image": "Butterfly_166582",
    "count_view": 0
  },
  {
    "link_thumb": "https://live.staticflickr.com/65535/50020284661_cc7e6d7d89_n.jpg",
    "id_album": "-149330232",
    "description": "Dog_342784",
    "title": "Dog_342784",
    "link_img": "https://live.staticflickr.com/65535/50020284661_c345a533af_o.jpg",
    "id_image": "Dog_342784",
    "count_view": 0
  },
  {
    "link_thumb": "https://live.staticflickr.com/65535/50016989018_8e32e45496_n.jpg",
    "id_album": "782930701",
    "description": "BorderCollie_991820",
    "title": "BorderCollie_991820",
    "link_img": "https://live.staticflickr.com/65535/50016989018_05c33bf559_o.jpg",
    "id_image": "BorderCollie_991820",
    "count_view": 0
  },
  {
    "link_thumb": "https://live.staticflickr.com/65535/50020475378_2d3b056b6a_n.jpg",
    "id_album": "-128218148",
    "description": "Fox_897898",
    "title": "Fox_897898",
    "link_img": "https://live.staticflickr.com/65535/50020475378_195b35d6a5_o.jpg",
    "id_image": "Fox_897898",
    "count_view": 0
  },
  {
    "link_thumb": "https://live.staticflickr.com/65535/50020886393_2c4c80ca03_n.jpg",
    "id_album": "1469520430",
    "description": "Hedgehog_279325",
    "title": "Hedgehog_279325",
    "link_img": "https://live.staticflickr.com/65535/50020886393_3a0161790b_o.jpg",
    "id_image": "Hedgehog_279325",
    "count_view": 0
  },
  {
    "link_thumb": "https://live.staticflickr.com/65535/50017787491_f46c2b2f76_n.jpg",
    "id_album": "-462831705",
    "description": "Cat_154834",
    "title": "Cat_154834",
    "link_img": "https://live.staticflickr.com/65535/50017787491_3cb221827c_o.jpg",
    "id_image": "Cat_154834",
    "count_view": 0
  },
  {
    "link_thumb": "https://live.staticflickr.com/65535/50020249887_0becd8ce55_n.jpg",
    "id_album": "1903411565",
    "description": "Deer_330789",
    "title": "Deer_330789",
    "link_img": "https://live.staticflickr.com/65535/50020249887_44427d3e44_o.jpg",
    "id_image": "Deer_330789",
    "count_view": 0
  },
  {
    "link_thumb": "https://live.staticflickr.com/65535/50021228257_ebbd60cb86_n.jpg",
    "id_album": "-128218148",
    "description": "Fox_543480",
    "title": "Fox_543480",
    "link_img": "https://live.staticflickr.com/65535/50021228257_c4d99e7be0_o.jpg",
    "id_image": "Fox_543480",
    "count_view": 0
  },
  {
    "link_thumb": "https://live.staticflickr.com/65535/50017400973_a18585ebbe_n.jpg",
    "id_album": "-462831705",
    "description": "Cat_275309",
    "title": "Cat_275309",
    "link_img": "https://live.staticflickr.com/65535/50017400973_c96839f5c0_o.jpg",
    "id_image": "Cat_275309",
    "count_view": 0
  },
  {
    "link_thumb": "https://live.staticflickr.com/65535/50023386016_70817e4b03_n.jpg",
    "id_album": "1656131695",
    "description": "Seagull_683694",
    "title": "Seagull_683694",
    "link_img": "https://live.staticflickr.com/65535/50023386016_4ddabef0f9_o.jpg",
    "id_image": "Seagull_683694",
    "count_view": 0
  },
  {
    "link_thumb": "https://live.staticflickr.com/65535/50020064921_2536db5a1d_n.jpg",
    "id_album": "1903411565",
    "description": "Deer_948262",
    "title": "Deer_948262",
    "link_img": "https://live.staticflickr.com/65535/50020064921_cf620aebcd_o.jpg",
    "id_image": "Deer_948262",
    "count_view": 0
  },
  {
    "link_thumb": "https://live.staticflickr.com/65535/50020123328_ed66713c2e_n.jpg",
    "id_album": "1168627767",
    "description": "Duck_411911",
    "title": "Duck_411911",
    "link_img": "https://live.staticflickr.com/65535/50020123328_6b5d3441ee_o.jpg",
    "id_image": "Duck_411911",
    "count_view": 0
  },
  {
    "link_thumb": "https://live.staticflickr.com/65535/50020943652_8966a52fcc_n.jpg",
    "id_album": "-39098563",
    "description": "Eagle_274782",
    "title": "Eagle_274782",
    "link_img": "https://live.staticflickr.com/65535/50020943652_eee975b9ca_o.jpg",
    "id_image": "Eagle_274782",
    "count_view": 0
  },
  {
    "link_thumb": "https://live.staticflickr.com/65535/50018018501_19492e6d06_n.jpg",
    "id_album": "-462831702",
    "description": "Cat_343848",
    "title": "Cat_343848",
    "link_img": "https://live.staticflickr.com/65535/50018018501_9146b2a270_o.jpg",
    "id_image": "Cat_343848",
    "count_view": 0
  },
  {
    "link_thumb": "https://live.staticflickr.com/65535/50023749398_96e7d9d7a1_n.jpg",
    "id_album": "901523298",
    "description": "TreeFrog_592522",
    "title": "TreeFrog_592522",
    "link_img": "https://live.staticflickr.com/65535/50023749398_57d9b9bb66_o.jpg",
    "id_image": "TreeFrog_592522",
    "count_view": 0
  },
  {
    "link_thumb": "https://live.staticflickr.com/65535/50019720158_e5fb40fcfe_n.jpg",
    "id_album": "-149330232",
    "description": "Dog_331126",
    "title": "Dog_331126",
    "link_img": "https://live.staticflickr.com/65535/50019720158_841839eb07_o.jpg",
    "id_image": "Dog_331126",
    "count_view": 0
  },
  {
    "link_thumb": "https://live.staticflickr.com/65535/50020203621_b14d74b713_n.jpg",
    "id_album": "-149330232",
    "description": "Dog_273251",
    "title": "Dog_273251",
    "link_img": "https://live.staticflickr.com/65535/50020203621_93baf3064b_o.jpg",
    "id_image": "Dog_273251",
    "count_view": 0
  },
  {
    "link_thumb": "https://live.staticflickr.com/65535/50017095352_a0590ca9e9_n.jpg",
    "id_album": "-1741290715",
    "description": "Ant_431242",
    "title": "Ant_431242",
    "link_img": "https://live.staticflickr.com/65535/50017095352_152b76b215_o.jpg",
    "id_image": "Ant_431242",
    "count_view": 0
  },
  {
    "link_thumb": "https://live.staticflickr.com/65535/50024228106_e86f73eb47_n.jpg",
    "id_album": "405170427",
    "description": "Tiger_873360",
    "title": "Tiger_873360",
    "link_img": "https://live.staticflickr.com/65535/50024228106_23ebd7f39c_o.jpg",
    "id_image": "Tiger_873360",
    "count_view": 0
  },
  {
    "link_thumb": "https://live.staticflickr.com/65535/50017273727_1854e7e15e_n.jpg",
    "id_album": "-422187261",
    "description": "Bear_254126",
    "title": "Bear_254126",
    "link_img": "https://live.staticflickr.com/65535/50017273727_f3bdc68f4b_o.jpg",
    "id_image": "Bear_254126",
    "count_view": 0
  },
  {
    "link_thumb": "https://live.staticflickr.com/65535/50021554842_5706eeb0db_n.jpg",
    "id_album": "-405626519",
    "description": "GermanShepherd_778379",
    "title": "GermanShepherd_778379",
    "link_img": "https://live.staticflickr.com/65535/50021554842_1fe3ae1a17_o.jpg",
    "id_image": "GermanShepherd_778379",
    "count_view": 0
  },
  {
    "link_thumb": "https://live.staticflickr.com/65535/50020084213_52daccbae6_n.jpg",
    "id_album": "-405058657",
    "description": "Dragonfly_391781",
    "title": "Dragonfly_391781",
    "link_img": "https://live.staticflickr.com/65535/50020084213_ce2f05738c_o.jpg",
    "id_image": "Dragonfly_391781",
    "count_view": 0
  },
  {
    "link_thumb": "https://live.staticflickr.com/65535/50016753918_56b464ceba_n.jpg",
    "id_album": "-1846011410",
    "description": "Bird_367319",
    "title": "Bird_367319",
    "link_img": "https://live.staticflickr.com/65535/50016753918_b85e1a5a22_o.jpg",
    "id_image": "Bird_367319",
    "count_view": 0
  },
  {
    "link_thumb": "https://live.staticflickr.com/65535/50023569731_2ba1fae14e_n.jpg",
    "id_album": "-1182356179",
    "description": "Snake_340532",
    "title": "Snake_340532",
    "link_img": "https://live.staticflickr.com/65535/50023569731_887ca37571_o.jpg",
    "id_image": "Snake_340532",
    "count_view": 0
  },
  {
    "link_thumb": "https://live.staticflickr.com/65535/50020039352_2c664cbc3f_n.jpg",
    "id_album": "643379324",
    "description": "Clownfish_407509",
    "title": "Clownfish_407509",
    "link_img": "https://live.staticflickr.com/65535/50020039352_22ff88a44b_o.jpg",
    "id_image": "Clownfish_407509",
    "count_view": 0
  },
  {
    "link_thumb": "https://live.staticflickr.com/65535/50016344558_f8768cceb3_n.jpg",
    "id_album": "523598895",
    "description": "Artistic_159975",
    "title": "Artistic_159975",
    "link_img": "https://live.staticflickr.com/65535/50016344558_0ecffedf8b_o.jpg",
    "id_image": "Artistic_159975",
    "count_view": 0
  },
  {
    "link_thumb": "https://live.staticflickr.com/65535/50022025022_4b9fde6875_n.jpg",
    "id_album": "1562047127",
    "description": "Jellyfish_667243",
    "title": "Jellyfish_667243",
    "link_img": "https://live.staticflickr.com/65535/50022025022_723b6b4f9e_o.jpg",
    "id_image": "Jellyfish_667243",
    "count_view": 0
  },
  {
    "link_thumb": "https://live.staticflickr.com/65535/50021310237_17fffd7613_n.jpg",
    "id_album": "844170697",
    "description": "Frog_348151",
    "title": "Frog_348151",
    "link_img": "https://live.staticflickr.com/65535/50021310237_869363bc4a_o.jpg",
    "id_image": "Frog_348151",
    "count_view": 0
  },
  {
    "link_thumb": "https://live.staticflickr.com/65535/50022300291_d1c2b849fa_n.jpg",
    "id_album": "1957967135",
    "description": "Mouse_941103",
    "title": "Mouse_941103",
    "link_img": "https://live.staticflickr.com/65535/50022300291_5ab081659a_o.jpg",
    "id_image": "Mouse_941103",
    "count_view": 0
  },
  {
    "link_thumb": "https://live.staticflickr.com/65535/50022205907_df47401e70_n.jpg",
    "id_album": "1392348450",
    "description": "Leopard_739806",
    "title": "Leopard_739806",
    "link_img": "https://live.staticflickr.com/65535/50022205907_1acfb83316_o.jpg",
    "id_image": "Leopard_739806",
    "count_view": 0
  },
  {
    "link_thumb": "https://live.staticflickr.com/65535/50020645577_c5038c4fcf_n.jpg",
    "id_album": "-149330231",
    "description": "Dog_409152",
    "title": "Dog_409152",
    "link_img": "https://live.staticflickr.com/65535/50020645577_e5cb1e0801_o.jpg",
    "id_image": "Dog_409152",
    "count_view": 0
  },
  {
    "link_thumb": "https://live.staticflickr.com/65535/50017355928_e475ea0a35_n.jpg",
    "id_album": "-462831705",
    "description": "Cat_236345",
    "title": "Cat_236345",
    "link_img": "https://live.staticflickr.com/65535/50017355928_694cb57b6e_o.jpg",
    "id_image": "Cat_236345",
    "count_view": 0
  },
  {
    "link_thumb": "https://live.staticflickr.com/65535/50020897002_e1ddea7da7_n.jpg",
    "id_album": "-405058657",
    "description": "Dragonfly_936294",
    "title": "Dragonfly_936294",
    "link_img": "https://live.staticflickr.com/65535/50020897002_aa9f0f7bb8_o.jpg",
    "id_image": "Dragonfly_936294",
    "count_view": 0
  },
  {
    "link_thumb": "https://live.staticflickr.com/65535/50018006286_e48654d022_n.jpg",
    "id_album": "-462831702",
    "description": "Cat_337734",
    "title": "Cat_337734",
    "link_img": "https://live.staticflickr.com/65535/50018006286_7b4ed935eb_o.jpg",
    "id_image": "Cat_337734",
    "count_view": 0
  },
  {
    "link_thumb": "https://live.staticflickr.com/65535/50022015512_46226b5cb3_n.jpg",
    "id_album": "1562047127",
    "description": "Jellyfish_236435",
    "title": "Jellyfish_236435",
    "link_img": "https://live.staticflickr.com/65535/50022015512_ba8db9312c_o.jpg",
    "id_image": "Jellyfish_236435",
    "count_view": 0
  },
  {
    "link_thumb": "https://live.staticflickr.com/65535/50021378586_98601f93b4_n.jpg",
    "id_album": "-975314166",
    "description": "Goldfish_439099",
    "title": "Goldfish_439099",
    "link_img": "https://live.staticflickr.com/65535/50021378586_77ef86776c_o.jpg",
    "id_image": "Goldfish_439099",
    "count_view": 0
  },
  {
    "link_thumb": "https://live.staticflickr.com/65535/50021990303_93b6ce2cc2_n.jpg",
    "id_album": "-358592519",
    "description": "Panda_3893",
    "title": "Panda_3893",
    "link_img": "https://live.staticflickr.com/65535/50021990303_c05d2c9505_o.jpg",
    "id_image": "Panda_3893",
    "count_view": 0
  },
  {
    "link_thumb": "https://live.staticflickr.com/65535/50017632601_1ca5cb830c_n.jpg",
    "id_album": "-401151552",
    "description": "Butterfly_574043",
    "title": "Butterfly_574043",
    "link_img": "https://live.staticflickr.com/65535/50017632601_8b5483b814_o.jpg",
    "id_image": "Butterfly_574043",
    "count_view": 0
  },
  {
    "link_thumb": "https://live.staticflickr.com/65535/50023524248_e47786b442_n.jpg",
    "id_album": "405170427",
    "description": "Tiger_343909",
    "title": "Tiger_343909",
    "link_img": "https://live.staticflickr.com/65535/50023524248_7d42199a23_o.jpg",
    "id_image": "Tiger_343909",
    "count_view": 0
  },
  {
    "link_thumb": "https://live.staticflickr.com/65535/50021367761_192fc4ba3a_n.jpg",
    "id_album": "2060159334",
    "description": "GoldenRetriever_909793",
    "title": "GoldenRetriever_909793",
    "link_img": "https://live.staticflickr.com/65535/50021367761_5b8b714c29_o.jpg",
    "id_image": "GoldenRetriever_909793",
    "count_view": 0
  },
  {
    "link_thumb": "https://live.staticflickr.com/65535/50352724122_fdb184ee2d_n.jpg",
    "id_album": "-462831703",
    "description": "Cat_494059",
    "title": "Cat_494059",
    "link_img": "https://live.staticflickr.com/65535/50352724122_ef8ba70027_o.jpg",
    "id_image": "Cat_494059",
    "count_view": 0
  },
  {
    "link_thumb": "https://live.staticflickr.com/65535/50018848338_df242137a2_n.jpg",
    "id_album": "-462831703",
    "description": "Cat_877674",
    "title": "Cat_877674",
    "link_img": "https://live.staticflickr.com/65535/50018848338_79b18f2996_o.jpg",
    "id_image": "Cat_877674",
    "count_view": 0
  },
  {
    "link_thumb": "https://live.staticflickr.com/65535/50019606083_1843094ce5_n.jpg",
    "id_album": "-149330232",
    "description": "Dog_185062",
    "title": "Dog_185062",
    "link_img": "https://live.staticflickr.com/65535/50019606083_db47043ded_o.jpg",
    "id_image": "Dog_185062",
    "count_view": 0
  },
  {
    "link_thumb": "https://live.staticflickr.com/65535/50016438378_c3c9a985f4_n.jpg",
    "id_album": "231236068",
    "description": "BaldEagle_677483",
    "title": "BaldEagle_677483",
    "link_img": "https://live.staticflickr.com/65535/50016438378_fe647dd92f_o.jpg",
    "id_image": "BaldEagle_677483",
    "count_view": 0
  },
  {
    "link_thumb": "https://live.staticflickr.com/65535/50021920912_d48a4a1936_n.jpg",
    "id_album": "1658866795",
    "description": "Insect_389665",
    "title": "Insect_389665",
    "link_img": "https://live.staticflickr.com/65535/50021920912_0d11ea54cd_o.jpg",
    "id_image": "Insect_389665",
    "count_view": 0
  },
  {
    "link_thumb": "https://live.staticflickr.com/65535/50018788868_cd7c8089e9_n.jpg",
    "id_album": "-462831705",
    "description": "Cat_84959",
    "title": "Cat_84959",
    "link_img": "https://live.staticflickr.com/65535/50018788868_1f3bc1a78d_o.jpg",
    "id_image": "Cat_84959",
    "count_view": 0
  },
  {
    "link_thumb": "https://live.staticflickr.com/65535/50023746832_bcf6a42d7b_n.jpg",
    "id_album": "-755466332",
    "description": "Sheep_742809",
    "title": "Sheep_742809",
    "link_img": "https://live.staticflickr.com/65535/50023746832_d490c21632_o.jpg",
    "id_image": "Sheep_742809",
    "count_view": 0
  },
  {
    "link_thumb": "https://live.staticflickr.com/65535/50019529006_4a61428d99_n.jpg",
    "id_album": "-462831703",
    "description": "Cat_963195",
    "title": "Cat_963195",
    "link_img": "https://live.staticflickr.com/65535/50019529006_a098a611fe_o.jpg",
    "id_image": "Cat_963195",
    "count_view": 0
  },
  {
    "link_thumb": "https://live.staticflickr.com/65535/50020533286_64e37bf961_n.jpg",
    "id_album": "-149330231",
    "description": "Dog_883806",
    "title": "Dog_883806",
    "link_img": "https://live.staticflickr.com/65535/50020533286_17c580f52c_o.jpg",
    "id_image": "Dog_883806",
    "count_view": 0
  },
  {
    "link_thumb": "https://live.staticflickr.com/65535/50021623278_668f6389d2_n.jpg",
    "id_album": "1894617400",
    "description": "Lynx_876619",
    "title": "Lynx_876619",
    "link_img": "https://live.staticflickr.com/65535/50021623278_0b8bb5eb9a_o.jpg",
    "id_image": "Lynx_876619",
    "count_view": 0
  },
  {
    "link_thumb": "https://live.staticflickr.com/65535/50022991426_f8757d95dd_n.jpg",
    "id_album": "-353898617",
    "description": "Puppy_419584",
    "title": "Puppy_419584",
    "link_img": "https://live.staticflickr.com/65535/50022991426_fcdb8012f3_o.jpg",
    "id_image": "Puppy_419584",
    "count_view": 0
  },
  {
    "link_thumb": "https://live.staticflickr.com/65535/50020181688_2d27d1a916_n.jpg",
    "id_album": "-39098563",
    "description": "Eagle_565237",
    "title": "Eagle_565237",
    "link_img": "https://live.staticflickr.com/65535/50020181688_b9db0c13e7_o.jpg",
    "id_image": "Eagle_565237",
    "count_view": 0
  },
  {
    "link_thumb": "https://live.staticflickr.com/65535/50023065721_4d685c8280_n.jpg",
    "id_album": "-353898617",
    "description": "Puppy_857147",
    "title": "Puppy_857147",
    "link_img": "https://live.staticflickr.com/65535/50023065721_061205870a_o.jpg",
    "id_image": "Puppy_857147",
    "count_view": 0
  },
  {
    "link_thumb": "https://live.staticflickr.com/65535/50017063348_47ca2aedf5_n.jpg",
    "id_album": "-401151552",
    "description": "Butterfly_416639",
    "title": "Butterfly_416639",
    "link_img": "https://live.staticflickr.com/65535/50017063348_bbb402c078_o.jpg",
    "id_image": "Butterfly_416639",
    "count_view": 0
  },
  {
    "link_thumb": "https://live.staticflickr.com/65535/50019997958_5e28cf5026_n.jpg",
    "id_album": "-149330231",
    "description": "Dog_875739",
    "title": "Dog_875739",
    "link_img": "https://live.staticflickr.com/65535/50019997958_5e2ed663d4_o.jpg",
    "id_image": "Dog_875739",
    "count_view": 0
  },
  {
    "link_thumb": "https://live.staticflickr.com/65535/50020649833_645d37832d_n.jpg",
    "id_album": "-462831704",
    "description": "Cat_709352",
    "title": "Cat_709352",
    "link_img": "https://live.staticflickr.com/65535/50020649833_f0fa5daf93_o.jpg",
    "id_image": "Cat_709352",
    "count_view": 0
  },
  {
    "link_thumb": "https://live.staticflickr.com/65535/50016752643_b3e202daa8_n.jpg",
    "id_album": "-1846011410",
    "description": "Bird_367263",
    "title": "Bird_367263",
    "link_img": "https://live.staticflickr.com/65535/50016752643_fdd399333a_o.jpg",
    "id_image": "Bird_367263",
    "count_view": 0
  },
  {
    "link_thumb": "https://live.staticflickr.com/65535/50019831423_9c5d35fcdc_n.jpg",
    "id_album": "-149330231",
    "description": "Dog_385794",
    "title": "Dog_385794",
    "link_img": "https://live.staticflickr.com/65535/50019831423_bc89c90b84_o.jpg",
    "id_image": "Dog_385794",
    "count_view": 0
  },
  {
    "link_thumb": "https://live.staticflickr.com/65535/50016976398_f83cc096e7_n.jpg",
    "id_album": "782930701",
    "description": "BorderCollie_868903",
    "title": "BorderCollie_868903",
    "link_img": "https://live.staticflickr.com/65535/50016976398_f255c8ba74_o.jpg",
    "id_image": "BorderCollie_868903",
    "count_view": 0
  },
  {
    "link_thumb": "https://live.staticflickr.com/65535/50022317626_d879849b73_n.jpg",
    "id_album": "1015034486",
    "description": "Muteswan_416120",
    "title": "Muteswan_416120",
    "link_img": "https://live.staticflickr.com/65535/50022317626_9f1e4db2ab_o.jpg",
    "id_image": "Muteswan_416120",
    "count_view": 0
  },
  {
    "link_thumb": "https://live.staticflickr.com/65535/50023272128_02fef4025a_n.jpg",
    "id_album": "702283289",
    "description": "Squirrel_224681",
    "title": "Squirrel_224681",
    "link_img": "https://live.staticflickr.com/65535/50023272128_a986e6e519_o.jpg",
    "id_image": "Squirrel_224681",
    "count_view": 0
  },
  {
    "link_thumb": "https://live.staticflickr.com/65535/50017745447_89a6d2f0b8_n.jpg",
    "id_album": "782930701",
    "description": "BorderCollie_668921",
    "title": "BorderCollie_668921",
    "link_img": "https://live.staticflickr.com/65535/50017745447_9e782b5baa_o.jpg",
    "id_image": "BorderCollie_668921",
    "count_view": 0
  },
  {
    "link_thumb": "https://live.staticflickr.com/65535/50017048163_529f34b7f1_n.jpg",
    "id_album": "-401151552",
    "description": "Butterfly_369880",
    "title": "Butterfly_369880",
    "link_img": "https://live.staticflickr.com/65535/50017048163_2240edf76e_o.jpg",
    "id_image": "Butterfly_369880",
    "count_view": 0
  },
  {
    "link_thumb": "https://live.staticflickr.com/65535/50020794687_6f8a97c8db_n.jpg",
    "id_album": "-149330231",
    "description": "Dog_897308",
    "title": "Dog_897308",
    "link_img": "https://live.staticflickr.com/65535/50020794687_06dc375e47_o.jpg",
    "id_image": "Dog_897308",
    "count_view": 0
  },
  {
    "link_thumb": "https://live.staticflickr.com/65535/50022653108_9419aa09f6_n.jpg",
    "id_album": "-1862965835",
    "description": "RedEyedTreeFrog_827726",
    "title": "RedEyedTreeFrog_827726",
    "link_img": "https://live.staticflickr.com/65535/50022653108_8ff306e0bb_o.jpg",
    "id_image": "RedEyedTreeFrog_827726",
    "count_view": 0
  },
  {
    "link_thumb": "https://live.staticflickr.com/65535/50017955047_17077b37c8_n.jpg",
    "id_album": "-401151552",
    "description": "Butterfly_924041",
    "title": "Butterfly_924041",
    "link_img": "https://live.staticflickr.com/65535/50017955047_5eaf4f7403_o.jpg",
    "id_image": "Butterfly_924041",
    "count_view": 0
  },
  {
    "link_thumb": "https://live.staticflickr.com/65535/50018809658_0b7225f1d9_n.jpg",
    "id_album": "-462831703",
    "description": "Cat_864613",
    "title": "Cat_864613",
    "link_img": "https://live.staticflickr.com/65535/50018809658_d0f05415b2_o.jpg",
    "id_image": "Cat_864613",
    "count_view": 0
  },
  {
    "link_thumb": "https://live.staticflickr.com/65535/50024506202_a893c6493c_n.jpg",
    "id_album": "405170427",
    "description": "Tiger_934823",
    "title": "Tiger_934823",
    "link_img": "https://live.staticflickr.com/65535/50024506202_9fae5e382c_o.jpg",
    "id_image": "Tiger_934823",
    "count_view": 0
  },
  {
    "link_thumb": "https://live.staticflickr.com/65535/50017488892_4715c29fce_n.jpg",
    "id_album": "-1846011410",
    "description": "Bird_275261",
    "title": "Bird_275261",
    "link_img": "https://live.staticflickr.com/65535/50017488892_4bea7e2642_o.jpg",
    "id_image": "Bird_275261",
    "count_view": 0
  },
  {
    "link_thumb": "https://live.staticflickr.com/65535/50016445848_cf66a9e4cb_n.jpg",
    "id_album": "231236068",
    "description": "BaldEagle_932076",
    "title": "BaldEagle_932076",
    "link_img": "https://live.staticflickr.com/65535/50016445848_60f6359bfd_o.jpg",
    "id_image": "BaldEagle_932076",
    "count_view": 0
  },
  {
    "link_thumb": "https://live.staticflickr.com/65535/50017947847_2c3035b459_n.jpg",
    "id_album": "-401151552",
    "description": "Butterfly_878964",
    "title": "Butterfly_878964",
    "link_img": "https://live.staticflickr.com/65535/50017947847_f50a0f6bc8_o.jpg",
    "id_image": "Butterfly_878964",
    "count_view": 0
  },
  {
    "link_thumb": "https://live.staticflickr.com/65535/50018247537_3ab570e06e_n.jpg",
    "id_album": "-462831702",
    "description": "Cat_329697",
    "title": "Cat_329697",
    "link_img": "https://live.staticflickr.com/65535/50018247537_10b1ef25a7_o.jpg",
    "id_image": "Cat_329697",
    "count_view": 0
  },
  {
    "link_thumb": "https://live.staticflickr.com/65535/50024788147_d2c1eff0a1_n.jpg",
    "id_album": "-709711865",
    "description": "Wolf_675122",
    "title": "Wolf_675122",
    "link_img": "https://live.staticflickr.com/65535/50024788147_c328a11efe_o.jpg",
    "id_image": "Wolf_675122",
    "count_view": 0
  },
  {
    "link_thumb": "https://live.staticflickr.com/65535/50021963737_48ea66573b_n.jpg",
    "id_album": "1658866795",
    "description": "Insect_612629",
    "title": "Insect_612629",
    "link_img": "https://live.staticflickr.com/65535/50021963737_d7e41e21d2_o.jpg",
    "id_image": "Insect_612629",
    "count_view": 0
  },
  {
    "link_thumb": "https://live.staticflickr.com/65535/50019909222_02129b6643_n.jpg",
    "id_album": "-766919393",
    "description": "Chameleon_462044",
    "title": "Chameleon_462044",
    "link_img": "https://live.staticflickr.com/65535/50019909222_32aa8a50eb_o.jpg",
    "id_image": "Chameleon_462044",
    "count_view": 0
  },
  {
    "link_thumb": "https://live.staticflickr.com/65535/50020878228_f922274bb5_n.jpg",
    "id_album": "-1513987841",
    "description": "Hawk_369791",
    "title": "Hawk_369791",
    "link_img": "https://live.staticflickr.com/65535/50020878228_f49cb1f5d7_o.jpg",
    "id_image": "Hawk_369791",
    "count_view": 0
  },
  {
    "link_thumb": "https://live.staticflickr.com/65535/50016310688_3ba1e7115d_n.jpg",
    "id_album": "-1741290715",
    "description": "Ant_610077",
    "title": "Ant_610077",
    "link_img": "https://live.staticflickr.com/65535/50016310688_76ab0d5ddf_o.jpg",
    "id_image": "Ant_610077",
    "count_view": 0
  },
  {
    "link_thumb": "https://live.staticflickr.com/65535/50351701058_791aabe3d7_n.jpg",
    "id_album": "-462831703",
    "description": "Cat_114664",
    "title": "Cat_114664",
    "link_img": "https://live.staticflickr.com/65535/50351701058_d43df49888_o.jpg",
    "id_image": "Cat_114664",
    "count_view": 0
  },
  {
    "link_thumb": "https://live.staticflickr.com/65535/50016896776_5d3843b95d_n.jpg",
    "id_album": "523598895",
    "description": "Artistic_330810",
    "title": "Artistic_330810",
    "link_img": "https://live.staticflickr.com/65535/50016896776_53c9196218_o.jpg",
    "id_image": "Artistic_330810",
    "count_view": 0
  },
  {
    "link_thumb": "https://live.staticflickr.com/65535/50023350252_520ac4d9b5_n.jpg",
    "id_album": "-1940643173",
    "description": "Rabbit_275690",
    "title": "Rabbit_275690",
    "link_img": "https://live.staticflickr.com/65535/50023350252_9e22541b4a_o.jpg",
    "id_image": "Rabbit_275690",
    "count_view": 0
  },
  {
    "link_thumb": "https://live.staticflickr.com/65535/50022335352_42b279a60c_n.jpg",
    "id_album": "416744915",
    "description": "Lion_902942",
    "title": "Lion_902942",
    "link_img": "https://live.staticflickr.com/65535/50022335352_b9c1361cf6_o.jpg",
    "id_image": "Lion_902942",
    "count_view": 0
  },
  {
    "link_thumb": "https://live.staticflickr.com/65535/50021193727_a85ef4a293_n.jpg",
    "id_album": "-128218148",
    "description": "Fox_266521",
    "title": "Fox_266521",
    "link_img": "https://live.staticflickr.com/65535/50021193727_b0678d388f_o.jpg",
    "id_image": "Fox_266521",
    "count_view": 0
  },
  {
    "link_thumb": "https://live.staticflickr.com/65535/50021311592_4f47ff5db3_n.jpg",
    "id_album": "844170697",
    "description": "Frog_375303",
    "title": "Frog_375303",
    "link_img": "https://live.staticflickr.com/65535/50021311592_4d6618acd4_o.jpg",
    "id_image": "Frog_375303",
    "count_view": 0
  },
  {
    "link_thumb": "https://live.staticflickr.com/65535/50023476721_b826c772f6_n.jpg",
    "id_album": "-755466332",
    "description": "Sheep_344058",
    "title": "Sheep_344058",
    "link_img": "https://live.staticflickr.com/65535/50023476721_eb222771fe_o.jpg",
    "id_image": "Sheep_344058",
    "count_view": 0
  },
  {
    "link_thumb": "https://live.staticflickr.com/65535/50021948621_8f6da257f1_n.jpg",
    "id_album": "1392348450",
    "description": "Leopard_739811",
    "title": "Leopard_739811",
    "link_img": "https://live.staticflickr.com/65535/50021948621_a68bea6a58_o.jpg",
    "id_image": "Leopard_739811",
    "count_view": 0
  },
  {
    "link_thumb": "https://live.staticflickr.com/65535/50020572186_83ae13c757_n.jpg",
    "id_album": "-54509188",
    "description": "Dolphin_409367",
    "title": "Dolphin_409367",
    "link_img": "https://live.staticflickr.com/65535/50020572186_e137be1b25_o.jpg",
    "id_image": "Dolphin_409367",
    "count_view": 0
  },
  {
    "link_thumb": "https://live.staticflickr.com/65535/50022119257_7a11d37bde_n.jpg",
    "id_album": "-1882491687",
    "description": "Ladybug_761642",
    "title": "Ladybug_761642",
    "link_img": "https://live.staticflickr.com/65535/50022119257_6d001e3148_o.jpg",
    "id_image": "Ladybug_761642",
    "count_view": 0
  },
  {
    "link_thumb": "https://live.staticflickr.com/65535/50017202767_f541599731_n.jpg",
    "id_album": "390697200",
    "description": "AustralianShepherd_868302",
    "title": "AustralianShepherd_868302",
    "link_img": "https://live.staticflickr.com/65535/50017202767_86887b8125_o.jpg",
    "id_image": "AustralianShepherd_868302",
    "count_view": 0
  },
  {
    "link_thumb": "https://live.staticflickr.com/65535/50020444461_83c1f4e5a9_n.jpg",
    "id_album": "-149330231",
    "description": "Dog_510591",
    "title": "Dog_510591",
    "link_img": "https://live.staticflickr.com/65535/50020444461_19d43a679a_o.jpg",
    "id_image": "Dog_510591",
    "count_view": 0
  },
  {
    "link_thumb": "https://live.staticflickr.com/65535/50019520883_573c79fa3e_n.jpg",
    "id_album": "1903411565",
    "description": "Deer_758242",
    "title": "Deer_758242",
    "link_img": "https://live.staticflickr.com/65535/50019520883_cefe82dc45_o.jpg",
    "id_image": "Deer_758242",
    "count_view": 0
  },
  {
    "link_thumb": "https://live.staticflickr.com/65535/50016872206_81515bfbb4_n.jpg",
    "id_album": "523598895",
    "description": "Artistic_159747",
    "title": "Artistic_159747",
    "link_img": "https://live.staticflickr.com/65535/50016872206_6439a94915_o.jpg",
    "id_image": "Artistic_159747",
    "count_view": 0
  },
  {
    "link_thumb": "https://live.staticflickr.com/65535/50017906686_e389aba1d4_n.jpg",
    "id_album": "-462831705",
    "description": "Cat_252723",
    "title": "Cat_252723",
    "link_img": "https://live.staticflickr.com/65535/50017906686_2a921e2201_o.jpg",
    "id_image": "Cat_252723",
    "count_view": 0
  },
  {
    "link_thumb": "https://live.staticflickr.com/65535/50017807851_b21590b0c9_n.jpg",
    "id_album": "-462831705",
    "description": "Cat_170110",
    "title": "Cat_170110",
    "link_img": "https://live.staticflickr.com/65535/50017807851_eb7b675392_o.jpg",
    "id_image": "Cat_170110",
    "count_view": 0
  },
  {
    "link_thumb": "https://live.staticflickr.com/65535/50019516716_bb3b6fcee0_n.jpg",
    "id_album": "-462831703",
    "description": "Cat_955099",
    "title": "Cat_955099",
    "link_img": "https://live.staticflickr.com/65535/50019516716_e539a51552_o.jpg",
    "id_image": "Cat_955099",
    "count_view": 0
  },
  {
    "link_thumb": "https://live.staticflickr.com/65535/50016422578_f92ef835f0_n.jpg",
    "id_album": "390697200",
    "description": "AustralianShepherd_941357",
    "title": "AustralianShepherd_941357",
    "link_img": "https://live.staticflickr.com/65535/50016422578_8c64ffef73_o.jpg",
    "id_image": "AustralianShepherd_941357",
    "count_view": 0
  },
  {
    "link_thumb": "https://live.staticflickr.com/65535/50021413536_5bf3fc904d_n.jpg",
    "id_album": "109779448",
    "description": "Hare_386645",
    "title": "Hare_386645",
    "link_img": "https://live.staticflickr.com/65535/50021413536_64f609c237_o.jpg",
    "id_image": "Hare_386645",
    "count_view": 0
  },
  {
    "link_thumb": "https://live.staticflickr.com/65535/50352776017_1dc5c9bf3d_n.jpg",
    "id_album": "-462831703",
    "description": "Cat_592535",
    "title": "Cat_592535",
    "link_img": "https://live.staticflickr.com/65535/50352776017_032a229380_o.jpg",
    "id_image": "Cat_592535",
    "count_view": 0
  },
  {
    "link_thumb": "https://live.staticflickr.com/65535/50023117736_4b2373a9ef_n.jpg",
    "id_album": "-1940643173",
    "description": "Rabbit_590329",
    "title": "Rabbit_590329",
    "link_img": "https://live.staticflickr.com/65535/50023117736_2fd0fdfcc9_o.jpg",
    "id_image": "Rabbit_590329",
    "count_view": 0
  },
  {
    "link_thumb": "https://live.staticflickr.com/65535/50023944448_c32cd69c4d_n.jpg",
    "id_album": "-709711865",
    "description": "Wolf_370144",
    "title": "Wolf_370144",
    "link_img": "https://live.staticflickr.com/65535/50023944448_d0c159300e_o.jpg",
    "id_image": "Wolf_370144",
    "count_view": 0
  },
  {
    "link_thumb": "https://live.staticflickr.com/65535/50021756441_dc0aea2889_n.jpg",
    "id_album": "665694624",
    "description": "JapaneseMacaque_737243",
    "title": "JapaneseMacaque_737243",
    "link_img": "https://live.staticflickr.com/65535/50021756441_331c7be246_o.jpg",
    "id_image": "JapaneseMacaque_737243",
    "count_view": 0
  },
  {
    "link_thumb": "https://live.staticflickr.com/65535/50024057546_fec153d602_n.jpg",
    "id_album": "405170427",
    "description": "Tiger_300181",
    "title": "Tiger_300181",
    "link_img": "https://live.staticflickr.com/65535/50024057546_7f35d4a944_o.jpg",
    "id_image": "Tiger_300181",
    "count_view": 0
  },
  {
    "link_thumb": "https://live.staticflickr.com/65535/50022941438_e30ecc55f7_n.jpg",
    "id_album": "-755466332",
    "description": "Sheep_672030",
    "title": "Sheep_672030",
    "link_img": "https://live.staticflickr.com/65535/50022941438_88e487f65a_o.jpg",
    "id_image": "Sheep_672030",
    "count_view": 0
  },
  {
    "link_thumb": "https://live.staticflickr.com/65535/50352509661_a6a101ba8b_n.jpg",
    "id_album": "-462831703",
    "description": "Cat_423643",
    "title": "Cat_423643",
    "link_img": "https://live.staticflickr.com/65535/50352509661_aed9432c5b_o.jpg",
    "id_image": "Cat_423643",
    "count_view": 0
  },
  {
    "link_thumb": "https://live.staticflickr.com/65535/50017373787_506fde9437_n.jpg",
    "id_album": "-422187261",
    "description": "Bear_982316",
    "title": "Bear_982316",
    "link_img": "https://live.staticflickr.com/65535/50017373787_69342fb97b_o.jpg",
    "id_image": "Bear_982316",
    "count_view": 0
  },
  {
    "link_thumb": "https://live.staticflickr.com/65535/50351712053_d594916b8d_n.jpg",
    "id_album": "-462831703",
    "description": "Cat_174869",
    "title": "Cat_174869",
    "link_img": "https://live.staticflickr.com/65535/50351712053_8c222030d3_o.jpg",
    "id_image": "Cat_174869",
    "count_view": 0
  },
  {
    "link_thumb": "https://live.staticflickr.com/65535/50022956508_a15eee98ce_n.jpg",
    "id_album": "692487763",
    "description": "SiberianHusky_498799",
    "title": "SiberianHusky_498799",
    "link_img": "https://live.staticflickr.com/65535/50022956508_f2314cb356_o.jpg",
    "id_image": "SiberianHusky_498799",
    "count_view": 0
  },
  {
    "link_thumb": "https://live.staticflickr.com/65535/50018158466_dd74545b56_n.jpg",
    "id_album": "-462831702",
    "description": "Cat_409528",
    "title": "Cat_409528",
    "link_img": "https://live.staticflickr.com/65535/50018158466_68ba90f2ed_o.jpg",
    "id_image": "Cat_409528",
    "count_view": 0
  },
  {
    "link_thumb": "https://live.staticflickr.com/65535/50022989391_634cd68c2f_n.jpg",
    "id_album": "-353898617",
    "description": "Puppy_414980",
    "title": "Puppy_414980",
    "link_img": "https://live.staticflickr.com/65535/50022989391_01585b6ecc_o.jpg",
    "id_image": "Puppy_414980",
    "count_view": 0
  },
  {
    "link_thumb": "https://live.staticflickr.com/65535/50019946277_055c77b8f7_n.jpg",
    "id_album": "-1481843714",
    "description": "Cheetah_322870",
    "title": "Cheetah_322870",
    "link_img": "https://live.staticflickr.com/65535/50019946277_2978c0d32e_o.jpg",
    "id_image": "Cheetah_322870",
    "count_view": 0
  },
  {
    "link_thumb": "https://live.staticflickr.com/65535/50024063146_54eb0013f7_n.jpg",
    "id_album": "405170427",
    "description": "Tiger_327434",
    "title": "Tiger_327434",
    "link_img": "https://live.staticflickr.com/65535/50024063146_a76dea0725_o.jpg",
    "id_image": "Tiger_327434",
    "count_view": 0
  },
  {
    "link_thumb": "https://live.staticflickr.com/65535/50017848456_0b66fac8ce_n.jpg",
    "id_album": "-462831705",
    "description": "Cat_20673",
    "title": "Cat_20673",
    "link_img": "https://live.staticflickr.com/65535/50017848456_985cebfe76_o.jpg",
    "id_image": "Cat_20673",
    "count_view": 0
  },
  {
    "link_thumb": "https://live.staticflickr.com/65535/50352709856_f611863fe2_n.jpg",
    "id_album": "-462831702",
    "description": "Cat_91447",
    "title": "Cat_91447",
    "link_img": "https://live.staticflickr.com/65535/50352709856_d78a46f182_o.jpg",
    "id_image": "Cat_91447",
    "count_view": 0
  },
  {
    "link_thumb": "https://live.staticflickr.com/65535/50016902866_92aa612496_n.jpg",
    "id_album": "523598895",
    "description": "Artistic_400433",
    "title": "Artistic_400433",
    "link_img": "https://live.staticflickr.com/65535/50016902866_0a8f50bee1_o.jpg",
    "id_image": "Artistic_400433",
    "count_view": 0
  },
  {
    "link_thumb": "https://live.staticflickr.com/65535/50021457318_af7fa9667e_n.jpg",
    "id_album": "416744915",
    "description": "Lion_358266",
    "title": "Lion_358266",
    "link_img": "https://live.staticflickr.com/65535/50021457318_20fbecc9bc_o.jpg",
    "id_image": "Lion_358266",
    "count_view": 0
  },
  {
    "link_thumb": "https://live.staticflickr.com/65535/50020682571_48ee5b3b17_n.jpg",
    "id_album": "-39098563",
    "description": "Eagle_173881",
    "title": "Eagle_173881",
    "link_img": "https://live.staticflickr.com/65535/50020682571_326e282b9b_o.jpg",
    "id_image": "Eagle_173881",
    "count_view": 0
  },
  {
    "link_thumb": "https://live.staticflickr.com/65535/50019000898_94d722f9e1_n.jpg",
    "id_album": "-462831703",
    "description": "Cat_966543",
    "title": "Cat_966543",
    "link_img": "https://live.staticflickr.com/65535/50019000898_6c01372036_o.jpg",
    "id_image": "Cat_966543",
    "count_view": 0
  },
  {
    "link_thumb": "https://live.staticflickr.com/65535/50016343453_1cd237cb4a_n.jpg",
    "id_album": "523598895",
    "description": "Artistic_156611",
    "title": "Artistic_156611",
    "link_img": "https://live.staticflickr.com/65535/50016343453_8113da7ab3_o.jpg",
    "id_image": "Artistic_156611",
    "count_view": 0
  },
  {
    "link_thumb": "https://live.staticflickr.com/65535/50023925137_f74910055f_n.jpg",
    "id_album": "-1131363127",
    "description": "SnowLeopard_694148",
    "title": "SnowLeopard_694148",
    "link_img": "https://live.staticflickr.com/65535/50023925137_c7b47387ca_o.jpg",
    "id_image": "SnowLeopard_694148",
    "count_view": 0
  },
  {
    "link_thumb": "https://live.staticflickr.com/65535/50018099147_09a4105373_n.jpg",
    "id_album": "-462831705",
    "description": "Cat_197728",
    "title": "Cat_197728",
    "link_img": "https://live.staticflickr.com/65535/50018099147_ea40d5d087_o.jpg",
    "id_image": "Cat_197728",
    "count_view": 0
  },
  {
    "link_thumb": "https://live.staticflickr.com/65535/50022595488_15ee8a366d_n.jpg",
    "id_album": "248289288",
    "description": "Raccoon_190816",
    "title": "Raccoon_190816",
    "link_img": "https://live.staticflickr.com/65535/50022595488_db49b62768_o.jpg",
    "id_image": "Raccoon_190816",
    "count_view": 0
  },
  {
    "link_thumb": "https://live.staticflickr.com/65535/50019554916_ee87cb5496_n.jpg",
    "id_album": "-462831703",
    "description": "Cat_984006",
    "title": "Cat_984006",
    "link_img": "https://live.staticflickr.com/65535/50019554916_32c82a2851_o.jpg",
    "id_image": "Cat_984006",
    "count_view": 0
  },
  {
    "link_thumb": "https://live.staticflickr.com/65535/50021427491_8476129913_n.jpg",
    "id_album": "1469520430",
    "description": "Hedgehog_210840",
    "title": "Hedgehog_210840",
    "link_img": "https://live.staticflickr.com/65535/50021427491_bc5e680d32_o.jpg",
    "id_image": "Hedgehog_210840",
    "count_view": 0
  },
  {
    "link_thumb": "https://live.staticflickr.com/65535/50352566647_db49270593_n.jpg",
    "id_album": "-462831703",
    "description": "Cat_173021",
    "title": "Cat_173021",
    "link_img": "https://live.staticflickr.com/65535/50352566647_e6753ce3cc_o.jpg",
    "id_image": "Cat_173021",
    "count_view": 0
  },
  {
    "link_thumb": "https://live.staticflickr.com/65535/50019581558_3ab1e00740_n.jpg",
    "id_album": "-149330232",
    "description": "Dog_101933",
    "title": "Dog_101933",
    "link_img": "https://live.staticflickr.com/65535/50019581558_944387d773_o.jpg",
    "id_image": "Dog_101933",
    "count_view": 0
  },
  {
    "link_thumb": "https://live.staticflickr.com/65535/50020046396_974f8368c6_n.jpg",
    "id_album": "1903411565",
    "description": "Deer_734177",
    "title": "Deer_734177",
    "link_img": "https://live.staticflickr.com/65535/50020046396_aa32938596_o.jpg",
    "id_image": "Deer_734177",
    "count_view": 0
  },
  {
    "link_thumb": "https://live.staticflickr.com/65535/50020947396_4c6c9d93dd_n.jpg",
    "id_album": "-128218148",
    "description": "Fox_333395",
    "title": "Fox_333395",
    "link_img": "https://live.staticflickr.com/65535/50020947396_1bcd02cd02_o.jpg",
    "id_image": "Fox_333395",
    "count_view": 0
  },
  {
    "link_thumb": "https://live.staticflickr.com/65535/50021053326_782ee0afe1_n.jpg",
    "id_album": "844170697",
    "description": "Frog_278128",
    "title": "Frog_278128",
    "link_img": "https://live.staticflickr.com/65535/50021053326_fd3c3c3ed8_o.jpg",
    "id_image": "Frog_278128",
    "count_view": 0
  },
  {
    "link_thumb": "https://live.staticflickr.com/65535/50020940276_0c2777742d_n.jpg",
    "id_album": "-128218148",
    "description": "Fox_268534",
    "title": "Fox_268534",
    "link_img": "https://live.staticflickr.com/65535/50020940276_9eae432c21_o.jpg",
    "id_image": "Fox_268534",
    "count_view": 0
  },
  {
    "link_thumb": "https://live.staticflickr.com/65535/50020830546_5cbb96002b_n.jpg",
    "id_album": "-1118073211",
    "description": "Fish_276790",
    "title": "Fish_276790",
    "link_img": "https://live.staticflickr.com/65535/50020830546_b8ff3ab58f_o.jpg",
    "id_image": "Fish_276790",
    "count_view": 0
  },
  {
    "link_thumb": "https://live.staticflickr.com/65535/50022864088_13aac3e44e_n.jpg",
    "id_album": "1961094930",
    "description": "Seal_365080",
    "title": "Seal_365080",
    "link_img": "https://live.staticflickr.com/65535/50022864088_2db7145255_o.jpg",
    "id_image": "Seal_365080",
    "count_view": 0
  },
  {
    "link_thumb": "https://live.staticflickr.com/65535/50016672863_e8f39d0841_n.jpg",
    "id_album": "-1846011410",
    "description": "Bird_151358",
    "title": "Bird_151358",
    "link_img": "https://live.staticflickr.com/65535/50016672863_3023bebf56_o.jpg",
    "id_image": "Bird_151358",
    "count_view": 0
  },
  {
    "link_thumb": "https://live.staticflickr.com/65535/50021896221_2bd32ec70f_n.jpg",
    "id_album": "1392348450",
    "description": "Leopard_322166",
    "title": "Leopard_322166",
    "link_img": "https://live.staticflickr.com/65535/50021896221_96f492cd0a_o.jpg",
    "id_image": "Leopard_322166",
    "count_view": 0
  },
  {
    "link_thumb": "https://live.staticflickr.com/65535/50021330421_a16ffd25c9_n.jpg",
    "id_album": "713572662",
    "description": "Giraffe_714937",
    "title": "Giraffe_714937",
    "link_img": "https://live.staticflickr.com/65535/50021330421_1cfe45b0ec_o.jpg",
    "id_image": "Giraffe_714937",
    "count_view": 0
  },
  {
    "link_thumb": "https://live.staticflickr.com/65535/50020944242_4014402513_n.jpg",
    "id_album": "-39098563",
    "description": "Eagle_275191",
    "title": "Eagle_275191",
    "link_img": "https://live.staticflickr.com/65535/50020944242_2a06b49ddc_o.jpg",
    "id_image": "Eagle_275191",
    "count_view": 0
  },
  {
    "link_thumb": "https://live.staticflickr.com/65535/50024369422_d5d28a56de_n.jpg",
    "id_album": "405170427",
    "description": "Tiger_388797",
    "title": "Tiger_388797",
    "link_img": "https://live.staticflickr.com/65535/50024369422_19b4bfec78_o.jpg",
    "id_image": "Tiger_388797",
    "count_view": 0
  },
  {
    "link_thumb": "https://live.staticflickr.com/65535/50020108643_87399e8960_n.jpg",
    "id_album": "-405058657",
    "description": "Dragonfly_985876",
    "title": "Dragonfly_985876",
    "link_img": "https://live.staticflickr.com/65535/50020108643_fe28aee38b_o.jpg",
    "id_image": "Dragonfly_985876",
    "count_view": 0
  },
  {
    "link_thumb": "https://live.staticflickr.com/65535/50023878432_831518d045_n.jpg",
    "id_album": "-1131363127",
    "description": "SnowLeopard_209916",
    "title": "SnowLeopard_209916",
    "link_img": "https://live.staticflickr.com/65535/50023878432_ec779c2d64_o.jpg",
    "id_image": "SnowLeopard_209916",
    "count_view": 0
  },
  {
    "link_thumb": "https://live.staticflickr.com/65535/50020238286_d2044f188a_n.jpg",
    "id_album": "-149330232",
    "description": "Dog_323389",
    "title": "Dog_323389",
    "link_img": "https://live.staticflickr.com/65535/50020238286_eaf0d1973c_o.jpg",
    "id_image": "Dog_323389",
    "count_view": 0
  },
  {
    "link_thumb": "https://live.staticflickr.com/65535/50024533842_4598a38d1a_n.jpg",
    "id_album": "432140049",
    "description": "Toad_737281",
    "title": "Toad_737281",
    "link_img": "https://live.staticflickr.com/65535/50024533842_34fe084829_o.jpg",
    "id_image": "Toad_737281",
    "count_view": 0
  },
  {
    "link_thumb": "https://live.staticflickr.com/65535/50020452097_476aa84227_n.jpg",
    "id_album": "-149330232",
    "description": "Dog_264019",
    "title": "Dog_264019",
    "link_img": "https://live.staticflickr.com/65535/50020452097_00d562154f_o.jpg",
    "id_image": "Dog_264019",
    "count_view": 0
  },
  {
    "link_thumb": "https://live.staticflickr.com/65535/50024226021_8588fb200a_n.jpg",
    "id_album": "405170427",
    "description": "Tiger_864392",
    "title": "Tiger_864392",
    "link_img": "https://live.staticflickr.com/65535/50024226021_37d38bc492_o.jpg",
    "id_image": "Tiger_864392",
    "count_view": 0
  },
  {
    "link_thumb": "https://live.staticflickr.com/65535/50021864953_590c59fb65_n.jpg",
    "id_album": "-1384601601",
    "description": "Owl_388943",
    "title": "Owl_388943",
    "link_img": "https://live.staticflickr.com/65535/50021864953_07a6719e27_o.jpg",
    "id_image": "Owl_388943",
    "count_view": 0
  },
  {
    "link_thumb": "https://live.staticflickr.com/65535/50022579576_b70fb28cd3_n.jpg",
    "id_album": "405592235",
    "description": "Parrot_869639",
    "title": "Parrot_869639",
    "link_img": "https://live.staticflickr.com/65535/50022579576_6a41affc58_o.jpg",
    "id_image": "Parrot_869639",
    "count_view": 0
  },
  {
    "link_thumb": "https://live.staticflickr.com/65535/50020090507_ff015092be_n.jpg",
    "id_album": "-2144640780",
    "description": "Cow_113988",
    "title": "Cow_113988",
    "link_img": "https://live.staticflickr.com/65535/50020090507_29b7dd789c_o.jpg",
    "id_image": "Cow_113988",
    "count_view": 0
  },
  {
    "link_thumb": "https://live.staticflickr.com/65535/50017079277_ec9bd8ea60_n.jpg",
    "id_album": "-1473450542",
    "description": "Alpaca_548411",
    "title": "Alpaca_548411",
    "link_img": "https://live.staticflickr.com/65535/50017079277_b67b995121_o.jpg",
    "id_image": "Alpaca_548411",
    "count_view": 0
  },
  {
    "link_thumb": "https://live.staticflickr.com/65535/50016727128_8dc094ca7c_n.jpg",
    "id_album": "-1846011410",
    "description": "Bird_342819",
    "title": "Bird_342819",
    "link_img": "https://live.staticflickr.com/65535/50016727128_1d4a569ae1_o.jpg",
    "id_image": "Bird_342819",
    "count_view": 0
  },
  {
    "link_thumb": "https://live.staticflickr.com/65535/50019457571_2a31d77560_n.jpg",
    "id_album": "-462831705",
    "description": "Cat_91457",
    "title": "Cat_91457",
    "link_img": "https://live.staticflickr.com/65535/50019457571_a37f1faafa_o.jpg",
    "id_image": "Cat_91457",
    "count_view": 0
  },
  {
    "link_thumb": "https://live.staticflickr.com/65535/50021301953_36c677334e_n.jpg",
    "id_album": "-1882491687",
    "description": "Ladybug_347427",
    "title": "Ladybug_347427",
    "link_img": "https://live.staticflickr.com/65535/50021301953_d557875bd2_o.jpg",
    "id_image": "Ladybug_347427",
    "count_view": 0
  },
  {
    "link_thumb": "https://live.staticflickr.com/65535/50020183623_14be81fc90_n.jpg",
    "id_album": "-39098563",
    "description": "Eagle_588540",
    "title": "Eagle_588540",
    "link_img": "https://live.staticflickr.com/65535/50020183623_475d9b3754_o.jpg",
    "id_image": "Eagle_588540",
    "count_view": 0
  },
  {
    "link_thumb": "https://live.staticflickr.com/65535/50017374648_55fa2631d9_n.jpg",
    "id_album": "-462831705",
    "description": "Cat_247942",
    "title": "Cat_247942",
    "link_img": "https://live.staticflickr.com/65535/50017374648_f16f431426_o.jpg",
    "id_image": "Cat_247942",
    "count_view": 0
  },
  {
    "link_thumb": "https://live.staticflickr.com/65535/50020608791_d48ac9fcf0_n.jpg",
    "id_album": "-405058657",
    "description": "Dragonfly_327475",
    "title": "Dragonfly_327475",
    "link_img": "https://live.staticflickr.com/65535/50020608791_477c4c2dfd_o.jpg",
    "id_image": "Dragonfly_327475",
    "count_view": 0
  },
  {
    "link_thumb": "https://live.staticflickr.com/65535/50017051768_14b41ca15f_n.jpg",
    "id_album": "-401151552",
    "description": "Butterfly_381509",
    "title": "Butterfly_381509",
    "link_img": "https://live.staticflickr.com/65535/50017051768_6c59ae721c_o.jpg",
    "id_image": "Butterfly_381509",
    "count_view": 0
  },
  {
    "link_thumb": "https://live.staticflickr.com/65535/50020412272_20244b6266_n.jpg",
    "id_album": "-149330232",
    "description": "Dog_213815",
    "title": "Dog_213815",
    "link_img": "https://live.staticflickr.com/65535/50020412272_2ea2259227_o.jpg",
    "id_image": "Dog_213815",
    "count_view": 0
  },
  {
    "link_thumb": "https://live.staticflickr.com/65535/50016916523_a05eb27bdf_n.jpg",
    "id_album": "-1846011410",
    "description": "Bird_942858",
    "title": "Bird_942858",
    "link_img": "https://live.staticflickr.com/65535/50016916523_0eae33c55d_o.jpg",
    "id_image": "Bird_942858",
    "count_view": 0
  },
  {
    "link_thumb": "https://live.staticflickr.com/65535/50020893842_e4553808ef_n.jpg",
    "id_album": "-405058657",
    "description": "Dragonfly_706329",
    "title": "Dragonfly_706329",
    "link_img": "https://live.staticflickr.com/65535/50020893842_57f036de21_o.jpg",
    "id_image": "Dragonfly_706329",
    "count_view": 0
  },
  {
    "link_thumb": "https://live.staticflickr.com/65535/50019842621_dcbedc63a5_n.jpg",
    "id_album": "-2144640780",
    "description": "Cow_409932",
    "title": "Cow_409932",
    "link_img": "https://live.staticflickr.com/65535/50019842621_d3cf301b65_o.jpg",
    "id_image": "Cow_409932",
    "count_view": 0
  },
  {
    "link_thumb": "https://live.staticflickr.com/65535/50018363342_beef9db957_n.jpg",
    "id_album": "-462831702",
    "description": "Cat_376932",
    "title": "Cat_376932",
    "link_img": "https://live.staticflickr.com/65535/50018363342_788827ffe7_o.jpg",
    "id_image": "Cat_376932",
    "count_view": 0
  },
  {
    "link_thumb": "https://live.staticflickr.com/65535/50023870402_8788a8dcd9_n.jpg",
    "id_album": "-1182356179",
    "description": "Snake_874926",
    "title": "Snake_874926",
    "link_img": "https://live.staticflickr.com/65535/50023870402_21c729ba03_o.jpg",
    "id_image": "Snake_874926",
    "count_view": 0
  },
  {
    "link_thumb": "https://live.staticflickr.com/65535/50017393366_6e0f1a611b_n.jpg",
    "id_album": "-1846011410",
    "description": "Bird_616830",
    "title": "Bird_616830",
    "link_img": "https://live.staticflickr.com/65535/50017393366_12f28db45d_o.jpg",
    "id_image": "Bird_616830",
    "count_view": 0
  },
  {
    "link_thumb": "https://live.staticflickr.com/65535/50019666028_159201d023_n.jpg",
    "id_album": "-149330232",
    "description": "Dog_266530",
    "title": "Dog_266530",
    "link_img": "https://live.staticflickr.com/65535/50019666028_0053f36972_o.jpg",
    "id_image": "Dog_266530",
    "count_view": 0
  },
  {
    "link_thumb": "https://live.staticflickr.com/65535/50020934962_d382cd81c4_n.jpg",
    "id_album": "1168627767",
    "description": "Duck_948451",
    "title": "Duck_948451",
    "link_img": "https://live.staticflickr.com/65535/50020934962_54bb265b09_o.jpg",
    "id_image": "Duck_948451",
    "count_view": 0
  },
  {
    "link_thumb": "https://live.staticflickr.com/65535/50017800461_24b7f90300_n.jpg",
    "id_album": "-462831705",
    "description": "Cat_167148",
    "title": "Cat_167148",
    "link_img": "https://live.staticflickr.com/65535/50017800461_e6d5252e9b_o.jpg",
    "id_image": "Cat_167148",
    "count_view": 0
  },
  {
    "link_thumb": "https://live.staticflickr.com/65535/50021674241_6c9ff477e5_n.jpg",
    "id_album": "1658866795",
    "description": "Insect_397265",
    "title": "Insect_397265",
    "link_img": "https://live.staticflickr.com/65535/50021674241_e84052b26d_o.jpg",
    "id_image": "Insect_397265",
    "count_view": 0
  },
  {
    "link_thumb": "https://live.staticflickr.com/65535/50021261793_2c41e8013e_n.jpg",
    "id_album": "770105808",
    "description": "Kingfisher_591425",
    "title": "Kingfisher_591425",
    "link_img": "https://live.staticflickr.com/65535/50021261793_291dd11529_o.jpg",
    "id_image": "Kingfisher_591425",
    "count_view": 0
  },
  {
    "link_thumb": "https://live.staticflickr.com/65535/50020958596_2a33643a65_n.jpg",
    "id_album": "-128218148",
    "description": "Fox_385126",
    "title": "Fox_385126",
    "link_img": "https://live.staticflickr.com/65535/50020958596_07dfe57452_o.jpg",
    "id_image": "Fox_385126",
    "count_view": 0
  }
]