[
  {
    "link_thumb": "https://live.staticflickr.com/65535/50017552671_6ab2e733a8_n.jpg",
    "id_album": "-401151552",
    "description": "Butterfly_249164",
    "title": "Butterfly_249164",
    "link_img": "https://live.staticflickr.com/65535/50017552671_58ae5fc568_o.jpg",
    "id_image": "Butterfly_249164",
    "count_view": 0
  },
  {
    "link_thumb": "https://live.staticflickr.com/65535/50021667011_6e9b3d8e97_n.jpg",
    "id_album": "1658866795",
    "description": "Insect_389660",
    "title": "Insect_389660",
    "link_img": "https://live.staticflickr.com/65535/50021667011_625a486b32_o.jpg",
    "id_image": "Insect_389660",
    "count_view": 0
  },
  {
    "link_thumb": "https://live.staticflickr.com/65535/50019705987_e2e9820d55_n.jpg",
    "id_album": "-462831705",
    "description": "Cat_91389",
    "title": "Cat_91389",
    "link_img": "https://live.staticflickr.com/65535/50019705987_8ef2462dda_o.jpg",
    "id_image": "Cat_91389",
    "count_view": 0
  },
  {
    "link_thumb": "https://live.staticflickr.com/65535/50019642517_9cc7b4e3f2_n.jpg",
    "id_album": "-462831703",
    "description": "Cat_879332",
    "title": "Cat_879332",
    "link_img": "https://live.staticflickr.com/65535/50019642517_82aaa49f2b_o.jpg",
    "id_image": "Cat_879332",
    "count_view": 0
  },
  {
    "link_thumb": "https://live.staticflickr.com/65535/50018877598_8bd7aea70c_n.jpg",
    "id_album": "-462831703",
    "description": "Cat_897592",
    "title": "Cat_897592",
    "link_img": "https://live.staticflickr.com/65535/50018877598_7b7c86f965_o.jpg",
    "id_image": "Cat_897592",
    "count_view": 0
  },
  {
    "link_thumb": "https://live.staticflickr.com/65535/50019002558_64699006c3_n.jpg",
    "id_album": "-462831703",
    "description": "Cat_967922",
    "title": "Cat_967922",
    "link_img": "https://live.staticflickr.com/65535/50019002558_8737d20498_o.jpg",
    "id_image": "Cat_967922",
    "count_view": 0
  },
  {
    "link_thumb": "https://live.staticflickr.com/65535/50021393366_5b3e1b511b_n.jpg",
    "id_album": "1950225324",
    "description": "Gorilla_462221",
    "title": "Gorilla_462221",
    "link_img": "https://live.staticflickr.com/65535/50021393366_3d2c0e422d_o.jpg",
    "id_image": "Gorilla_462221",
    "count_view": 0
  },
  {
    "link_thumb": "https://live.staticflickr.com/65535/50020318846_f4eab24eaa_n.jpg",
    "id_album": "-149330232",
    "description": "Dog_360439",
    "title": "Dog_360439",
    "link_img": "https://live.staticflickr.com/65535/50020318846_c6f00d45aa_o.jpg",
    "id_image": "Dog_360439",
    "count_view": 0
  },
  {
    "link_thumb": "https://live.staticflickr.com/65535/50016764208_6f5ce624c1_n.jpg",
    "id_album": "-1846011410",
    "description": "Bird_384312",
    "title": "Bird_384312",
    "link_img": "https://live.staticflickr.com/65535/50016764208_89aa753f45_o.jpg",
    "id_image": "Bird_384312",
    "count_view": 0
  },
  {
    "link_thumb": "https://live.staticflickr.com/65535/50017045301_b923eaf2d1_n.jpg",
    "id_album": "-422187261",
    "description": "Bear_433071",
    "title": "Bear_433071",
    "link_img": "https://live.staticflickr.com/65535/50017045301_2d8a8be985_o.jpg",
    "id_image": "Bear_433071",
    "count_view": 0
  },
  {
    "link_thumb": "https://live.staticflickr.com/65535/50021579271_cf8e6fd8be_n.jpg",
    "id_album": "-1933715543",
    "description": "Horse_876688",
    "title": "Horse_876688",
    "link_img": "https://live.staticflickr.com/65535/50021579271_1e2eb57840_o.jpg",
    "id_image": "Horse_876688",
    "count_view": 0
  },
  {
    "link_thumb": "https://live.staticflickr.com/65535/50023533283_2d0da7f032_n.jpg",
    "id_album": "405170427",
    "description": "Tiger_355765",
    "title": "Tiger_355765",
    "link_img": "https://live.staticflickr.com/65535/50023533283_8dd98473e7_o.jpg",
    "id_image": "Tiger_355765",
    "count_view": 0
  },
  {
    "link_thumb": "https://live.staticflickr.com/65535/50017945826_4f67e8fa21_n.jpg",
    "id_album": "-462831702",
    "description": "Cat_294060",
    "title": "Cat_294060",
    "link_img": "https://live.staticflickr.com/65535/50017945826_37dc549e99_o.jpg",
    "id_image": "Cat_294060",
    "count_view": 0
  },
  {
    "link_thumb": "https://live.staticflickr.com/65535/50019830013_e2de28d27b_n.jpg",
    "id_album": "-149330231",
    "description": "Dog_385032",
    "title": "Dog_385032",
    "link_img": "https://live.staticflickr.com/65535/50019830013_c7d7e432cb_o.jpg",
    "id_image": "Dog_385032",
    "count_view": 0
  },
  {
    "link_thumb": "https://live.staticflickr.com/65535/50021458256_e1747a756c_n.jpg",
    "id_album": "-1933715543",
    "description": "Horse_103280",
    "title": "Horse_103280",
    "link_img": "https://live.staticflickr.com/65535/50021458256_7dc1ee5969_o.jpg",
    "id_image": "Horse_103280",
    "count_view": 0
  },
  {
    "link_thumb": "https://live.staticflickr.com/65535/50022219187_fe04cf7e4b_n.jpg",
    "id_album": "1392348450",
    "description": "Leopard_947066",
    "title": "Leopard_947066",
    "link_img": "https://live.staticflickr.com/65535/50022219187_07ed7ab601_o.jpg",
    "id_image": "Leopard_947066",
    "count_view": 0
  },
  {
    "link_thumb": "https://live.staticflickr.com/65535/50017900737_7a9b2be25b_n.jpg",
    "id_album": "-401151552",
    "description": "Butterfly_673241",
    "title": "Butterfly_673241",
    "link_img": "https://live.staticflickr.com/65535/50017900737_703e9790d3_o.jpg",
    "id_image": "Butterfly_673241",
    "count_view": 0
  },
  {
    "link_thumb": "https://live.staticflickr.com/65535/50023576038_3985dde768_n.jpg",
    "id_album": "405170427",
    "description": "Tiger_409613",
    "title": "Tiger_409613",
    "link_img": "https://live.staticflickr.com/65535/50023576038_4629df8d80_o.jpg",
    "id_image": "Tiger_409613",
    "count_view": 0
  },
  {
    "link_thumb": "https://live.staticflickr.com/65535/50019423663_8efc5cb3ba_n.jpg",
    "id_album": "1831085598",
    "description": "Dachshund_737264",
    "title": "Dachshund_737264",
    "link_img": "https://live.staticflickr.com/65535/50019423663_e64f2ae30d_o.jpg",
    "id_image": "Dachshund_737264",
    "count_view": 0
  },
  {
    "link_thumb": "https://live.staticflickr.com/65535/50019217798_99a6f730f3_n.jpg",
    "id_album": "1949822052",
    "description": "Chimpanzee_597369",
    "title": "Chimpanzee_597369",
    "link_img": "https://live.staticflickr.com/65535/50019217798_900562f885_o.jpg",
    "id_image": "Chimpanzee_597369",
    "count_view": 0
  },
  {
    "link_thumb": "https://live.staticflickr.com/65535/50017629942_11ffb26124_n.jpg",
    "id_album": "-1846011410",
    "description": "Bird_565206",
    "title": "Bird_565206",
    "link_img": "https://live.staticflickr.com/65535/50017629942_5c517188b6_o.jpg",
    "id_image": "Bird_565206",
    "count_view": 0
  },
  {
    "link_thumb": "https://live.staticflickr.com/65535/50019554207_3ed1a13181_n.jpg",
    "id_album": "-462831704",
    "description": "Cat_529984",
    "title": "Cat_529984",
    "link_img": "https://live.staticflickr.com/65535/50019554207_141f16d936_o.jpg",
    "id_image": "Cat_529984",
    "count_view": 0
  },
  {
    "link_thumb": "https://live.staticflickr.com/65535/50352533546_42feeb4dcf_n.jpg",
    "id_album": "-462831703",
    "description": "Cat_454185",
    "title": "Cat_454185",
    "link_img": "https://live.staticflickr.com/65535/50352533546_ce4c481429_o.jpg",
    "id_image": "Cat_454185",
    "count_view": 0
  },
  {
    "link_thumb": "https://live.staticflickr.com/65535/50019384171_9940a84bb2_n.jpg",
    "id_album": "-462831703",
    "description": "Cat_878952",
    "title": "Cat_878952",
    "link_img": "https://live.staticflickr.com/65535/50019384171_c27ca80400_o.jpg",
    "id_image": "Cat_878952",
    "count_view": 0
  },
  {
    "link_thumb": "https://live.staticflickr.com/65535/50021079172_f9ecd86cf5_n.jpg",
    "id_album": "-1118073211",
    "description": "Fish_168990",
    "title": "Fish_168990",
    "link_img": "https://live.staticflickr.com/65535/50021079172_76c3cb0fe5_o.jpg",
    "id_image": "Fish_168990",
    "count_view": 0
  },
  {
    "link_thumb": "https://live.staticflickr.com/65535/50023096883_5fd5fc0163_n.jpg",
    "id_album": "-1131363127",
    "description": "SnowLeopard_381511",
    "title": "SnowLeopard_381511",
    "link_img": "https://live.staticflickr.com/65535/50023096883_e559c6bdd3_o.jpg",
    "id_image": "SnowLeopard_381511",
    "count_view": 0
  },
  {
    "link_thumb": "https://live.staticflickr.com/65535/50016835636_e3a864bcd0_n.jpg",
    "id_album": "-1741290715",
    "description": "Ant_449484",
    "title": "Ant_449484",
    "link_img": "https://live.staticflickr.com/65535/50016835636_4f754feb6c_o.jpg",
    "id_image": "Ant_449484",
    "count_view": 0
  },
  {
    "link_thumb": "https://live.staticflickr.com/65535/50019248103_7dd38705cc_n.jpg",
    "id_album": "643379324",
    "description": "Clownfish_106817",
    "title": "Clownfish_106817",
    "link_img": "https://live.staticflickr.com/65535/50019248103_c33a98f065_o.jpg",
    "id_image": "Clownfish_106817",
    "count_view": 0
  },
  {
    "link_thumb": "https://live.staticflickr.com/65535/50022680796_4ec2747799_n.jpg",
    "id_album": "392248205",
    "description": "Penguin_207714",
    "title": "Penguin_207714",
    "link_img": "https://live.staticflickr.com/65535/50022680796_293c79c473_o.jpg",
    "id_image": "Penguin_207714",
    "count_view": 0
  },
  {
    "link_thumb": "https://live.staticflickr.com/65535/50018152611_c14a4f3c62_n.jpg",
    "id_album": "-462831702",
    "description": "Cat_407664",
    "title": "Cat_407664",
    "link_img": "https://live.staticflickr.com/65535/50018152611_e0fe2c60fd_o.jpg",
    "id_image": "Cat_407664",
    "count_view": 0
  },
  {
    "link_thumb": "https://live.staticflickr.com/65535/50021608022_1c8c60fec6_n.jpg",
    "id_album": "2060159334",
    "description": "GoldenRetriever_651277",
    "title": "GoldenRetriever_651277",
    "link_img": "https://live.staticflickr.com/65535/50021608022_cb09ffddcf_o.jpg",
    "id_image": "GoldenRetriever_651277",
    "count_view": 0
  },
  {
    "link_thumb": "https://live.staticflickr.com/65535/50021162696_c9b6238abd_n.jpg",
    "id_album": "-462831704",
    "description": "Cat_678044",
    "title": "Cat_678044",
    "link_img": "https://live.staticflickr.com/65535/50021162696_1f29c90447_o.jpg",
    "id_image": "Cat_678044",
    "count_view": 0
  },
  {
    "link_thumb": "https://live.staticflickr.com/65535/50017431042_3441b4f648_n.jpg",
    "id_album": "1699594607",
    "description": "Bee_946076",
    "title": "Bee_946076",
    "link_img": "https://live.staticflickr.com/65535/50017431042_1d2b58b499_o.jpg",
    "id_image": "Bee_946076",
    "count_view": 0
  },
  {
    "link_thumb": "https://live.staticflickr.com/65535/50019781293_2e6cdc1854_n.jpg",
    "id_album": "-149330232",
    "description": "Dog_357690",
    "title": "Dog_357690",
    "link_img": "https://live.staticflickr.com/65535/50019781293_37b0dc4a17_o.jpg",
    "id_image": "Dog_357690",
    "count_view": 0
  },
  {
    "link_thumb": "https://live.staticflickr.com/65535/50352605746_fe09ef0a26_n.jpg",
    "id_album": "-462831703",
    "description": "Cat_555850",
    "title": "Cat_555850",
    "link_img": "https://live.staticflickr.com/65535/50352605746_488f9d2e2a_o.jpg",
    "id_image": "Cat_555850",
    "count_view": 0
  },
  {
    "link_thumb": "https://live.staticflickr.com/65535/50018161607_fc364bf029_n.jpg",
    "id_album": "-462831705",
    "description": "Cat_246489",
    "title": "Cat_246489",
    "link_img": "https://live.staticflickr.com/65535/50018161607_9e2b14e84d_o.jpg",
    "id_image": "Cat_246489",
    "count_view": 0
  },
  {
    "link_thumb": "https://live.staticflickr.com/65535/50352467281_a06a75c56f_n.jpg",
    "id_album": "-462831703",
    "description": "Cat_365136",
    "title": "Cat_365136",
    "link_img": "https://live.staticflickr.com/65535/50352467281_b3200dd176_o.jpg",
    "id_image": "Cat_365136",
    "count_view": 0
  },
  {
    "link_thumb": "https://live.staticflickr.com/65535/50019478663_be688f3f1a_n.jpg",
    "id_album": "1903411565",
    "description": "Deer_431552",
    "title": "Deer_431552",
    "link_img": "https://live.staticflickr.com/65535/50019478663_abf53fe62d_o.jpg",
    "id_image": "Deer_431552",
    "count_view": 0
  },
  {
    "link_thumb": "https://live.staticflickr.com/65535/50020117518_e280867598_n.jpg",
    "id_album": "1168627767",
    "description": "Duck_339637",
    "title": "Duck_339637",
    "link_img": "https://live.staticflickr.com/65535/50020117518_e4b9937dea_o.jpg",
    "id_image": "Duck_339637",
    "count_view": 0
  },
  {
    "link_thumb": "https://live.staticflickr.com/65535/50019358771_de0565fe8d_n.jpg",
    "id_album": "-462831703",
    "description": "Cat_871120",
    "title": "Cat_871120",
    "link_img": "https://live.staticflickr.com/65535/50019358771_fff21c5652_o.jpg",
    "id_image": "Cat_871120",
    "count_view": 0
  },
  {
    "link_thumb": "https://live.staticflickr.com/65535/50019439183_b68e88e5f5_n.jpg",
    "id_album": "-1783645069",
    "description": "Dalmatian_837354",
    "title": "Dalmatian_837354",
    "link_img": "https://live.staticflickr.com/65535/50019439183_516f8dc626_o.jpg",
    "id_image": "Dalmatian_837354",
    "count_view": 0
  },
  {
    "link_thumb": "https://live.staticflickr.com/65535/50018058606_76aa2715b7_n.jpg",
    "id_album": "-462831702",
    "description": "Cat_362033",
    "title": "Cat_362033",
    "link_img": "https://live.staticflickr.com/65535/50018058606_9596f8a8fc_o.jpg",
    "id_image": "Cat_362033",
    "count_view": 0
  },
  {
    "link_thumb": "https://live.staticflickr.com/65535/50019625966_438c73f25c_n.jpg",
    "id_album": "1889777354",
    "description": "CGI_335860",
    "title": "CGI_335860",
    "link_img": "https://live.staticflickr.com/65535/50019625966_f135874d90_o.jpg",
    "id_image": "CGI_335860",
    "count_view": 0
  },
  {
    "link_thumb": "https://live.staticflickr.com/65535/50023249312_4e821359a8_n.jpg",
    "id_album": "-353898617",
    "description": "Puppy_421543",
    "title": "Puppy_421543",
    "link_img": "https://live.staticflickr.com/65535/50023249312_959ff613dd_o.jpg",
    "id_image": "Puppy_421543",
    "count_view": 0
  },
  {
    "link_thumb": "https://live.staticflickr.com/65535/50017415623_cdfe841e4f_n.jpg",
    "id_album": "-462831702",
    "description": "Cat_292907",
    "title": "Cat_292907",
    "link_img": "https://live.staticflickr.com/65535/50017415623_9edf387851_o.jpg",
    "id_image": "Cat_292907",
    "count_view": 0
  },
  {
    "link_thumb": "https://live.staticflickr.com/65535/50020098281_78860b863f_n.jpg",
    "id_album": "297232732",
    "description": "Dinosaur_635715",
    "title": "Dinosaur_635715",
    "link_img": "https://live.staticflickr.com/65535/50020098281_ce29d9f434_o.jpg",
    "id_image": "Dinosaur_635715",
    "count_view": 0
  },
  {
    "link_thumb": "https://live.staticflickr.com/65535/50020616647_a0b9ff3774_n.jpg",
    "id_album": "-149330231",
    "description": "Dog_381632",
    "title": "Dog_381632",
    "link_img": "https://live.staticflickr.com/65535/50020616647_4fe42f3bf2_o.jpg",
    "id_image": "Dog_381632",
    "count_view": 0
  },
  {
    "link_thumb": "https://live.staticflickr.com/65535/50020168632_91320c7de1_n.jpg",
    "id_album": "-392100404",
    "description": "Crow_703208",
    "title": "Crow_703208",
    "link_img": "https://live.staticflickr.com/65535/50020168632_7a94864618_o.jpg",
    "id_image": "Crow_703208",
    "count_view": 0
  },
  {
    "link_thumb": "https://live.staticflickr.com/65535/50018018187_e1afaff3dd_n.jpg",
    "id_album": "-462831705",
    "description": "Cat_113348",
    "title": "Cat_113348",
    "link_img": "https://live.staticflickr.com/65535/50018018187_ca8694ed7e_o.jpg",
    "id_image": "Cat_113348",
    "count_view": 0
  },
  {
    "link_thumb": "https://live.staticflickr.com/65535/50022608078_0712d5c452_n.jpg",
    "id_album": "248289288",
    "description": "Raccoon_531477",
    "title": "Raccoon_531477",
    "link_img": "https://live.staticflickr.com/65535/50022608078_fa7d23b275_o.jpg",
    "id_image": "Raccoon_531477",
    "count_view": 0
  },
  {
    "link_thumb": "https://live.staticflickr.com/65535/50017560713_4a96c7ea4d_n.jpg",
    "id_album": "-462831702",
    "description": "Cat_369520",
    "title": "Cat_369520",
    "link_img": "https://live.staticflickr.com/65535/50017560713_9265490e91_o.jpg",
    "id_image": "Cat_369520",
    "count_view": 0
  },
  {
    "link_thumb": "https://live.staticflickr.com/65535/50018771348_68c73c0454_n.jpg",
    "id_album": "-462831704",
    "description": "Cat_533665",
    "title": "Cat_533665",
    "link_img": "https://live.staticflickr.com/65535/50018771348_f9db0a973e_o.jpg",
    "id_image": "Cat_533665",
    "count_view": 0
  },
  {
    "link_thumb": "https://live.staticflickr.com/65535/50021691192_d348d85f09_n.jpg",
    "id_album": "1469520430",
    "description": "Hedgehog_753920",
    "title": "Hedgehog_753920",
    "link_img": "https://live.staticflickr.com/65535/50021691192_d238ac54b0_o.jpg",
    "id_image": "Hedgehog_753920",
    "count_view": 0
  },
  {
    "link_thumb": "https://live.staticflickr.com/65535/50022401872_7dc00d33e0_n.jpg",
    "id_album": "1894617400",
    "description": "Lynx_398260",
    "title": "Lynx_398260",
    "link_img": "https://live.staticflickr.com/65535/50022401872_c7b0297366_o.jpg",
    "id_image": "Lynx_398260",
    "count_view": 0
  },
  {
    "link_thumb": "https://live.staticflickr.com/65535/50023641762_84602770c5_n.jpg",
    "id_album": "1656131695",
    "description": "Seagull_677303",
    "title": "Seagull_677303",
    "link_img": "https://live.staticflickr.com/65535/50023641762_ba17ff2967_o.jpg",
    "id_image": "Seagull_677303",
    "count_view": 0
  },
  {
    "link_thumb": "https://live.staticflickr.com/65535/50017534198_6b5394d2de_n.jpg",
    "id_album": "-462831702",
    "description": "Cat_363219",
    "title": "Cat_363219",
    "link_img": "https://live.staticflickr.com/65535/50017534198_8667a7c16f_o.jpg",
    "id_image": "Cat_363219",
    "count_view": 0
  },
  {
    "link_thumb": "https://live.staticflickr.com/65535/50021950507_90ae14e554_n.jpg",
    "id_album": "1658866795",
    "description": "Insect_405566",
    "title": "Insect_405566",
    "link_img": "https://live.staticflickr.com/65535/50021950507_9b5f4caffd_o.jpg",
    "id_image": "Insect_405566",
    "count_view": 0
  },
  {
    "link_thumb": "https://live.staticflickr.com/65535/50018231637_ecca61d3b3_n.jpg",
    "id_album": "-462831702",
    "description": "Cat_324870",
    "title": "Cat_324870",
    "link_img": "https://live.staticflickr.com/65535/50018231637_9bac4b6a6a_o.jpg",
    "id_image": "Cat_324870",
    "count_view": 0
  },
  {
    "link_thumb": "https://live.staticflickr.com/65535/50351957648_70a151e333_n.jpg",
    "id_album": "-462831703",
    "description": "Cat_704486",
    "title": "Cat_704486",
    "link_img": "https://live.staticflickr.com/65535/50351957648_77c03629ee_o.jpg",
    "id_image": "Cat_704486",
    "count_view": 0
  },
  {
    "link_thumb": "https://live.staticflickr.com/65535/50023524078_56a46e26d2_n.jpg",
    "id_album": "405170427",
    "description": "Tiger_343810",
    "title": "Tiger_343810",
    "link_img": "https://live.staticflickr.com/65535/50023524078_ecbec9aa95_o.jpg",
    "id_image": "Tiger_343810",
    "count_view": 0
  },
  {
    "link_thumb": "https://live.staticflickr.com/65535/50020878496_3223c2e8ac_n.jpg",
    "id_album": "-1118073211",
    "description": "Fish_863780",
    "title": "Fish_863780",
    "link_img": "https://live.staticflickr.com/65535/50020878496_892ed404e5_o.jpg",
    "id_image": "Fish_863780",
    "count_view": 0
  },
  {
    "link_thumb": "https://live.staticflickr.com/65535/50017241692_794c314b6a_n.jpg",
    "id_album": "-80092825",
    "description": "Barnowl_571734",
    "title": "Barnowl_571734",
    "link_img": "https://live.staticflickr.com/65535/50017241692_106b21d818_o.jpg",
    "id_image": "Barnowl_571734",
    "count_view": 0
  },
  {
    "link_thumb": "https://live.staticflickr.com/65535/50016903323_7588635f4c_n.jpg",
    "id_album": "-1846011410",
    "description": "Bird_824366",
    "title": "Bird_824366",
    "link_img": "https://live.staticflickr.com/65535/50016903323_0a50195cb3_o.jpg",
    "id_image": "Bird_824366",
    "count_view": 0
  },
  {
    "link_thumb": "https://live.staticflickr.com/65535/50017386077_fd23d5e772_n.jpg",
    "id_album": "1699594607",
    "description": "Bee_337810",
    "title": "Bee_337810",
    "link_img": "https://live.staticflickr.com/65535/50017386077_d937c5858d_o.jpg",
    "id_image": "Bee_337810",
    "count_view": 0
  },
  {
    "link_thumb": "https://live.staticflickr.com/65535/50017268772_78c2db3d19_n.jpg",
    "id_album": "-422187261",
    "description": "Bear_205589",
    "title": "Bear_205589",
    "link_img": "https://live.staticflickr.com/65535/50017268772_4ed3957e8e_o.jpg",
    "id_image": "Bear_205589",
    "count_view": 0
  },
  {
    "link_thumb": "https://live.staticflickr.com/65535/50020168503_83ab3ab5db_n.jpg",
    "id_album": "-39098563",
    "description": "Eagle_388516",
    "title": "Eagle_388516",
    "link_img": "https://live.staticflickr.com/65535/50020168503_e82f2feb79_o.jpg",
    "id_image": "Eagle_388516",
    "count_view": 0
  },
  {
    "link_thumb": "https://live.staticflickr.com/65535/50021571102_33a7b1ee27_n.jpg",
    "id_album": "713572662",
    "description": "Giraffe_193045",
    "title": "Giraffe_193045",
    "link_img": "https://live.staticflickr.com/65535/50021571102_4e9072b1dc_o.jpg",
    "id_image": "Giraffe_193045",
    "count_view": 0
  },
  {
    "link_thumb": "https://live.staticflickr.com/65535/50021873627_c4baa21e4a_n.jpg",
    "id_album": "2144294979",
    "description": "Hummingbird_792312",
    "title": "Hummingbird_792312",
    "link_img": "https://live.staticflickr.com/65535/50021873627_9b8106f1ba_o.jpg",
    "id_image": "Hummingbird_792312",
    "count_view": 0
  },
  {
    "link_thumb": "https://live.staticflickr.com/65535/50017769486_7ef69c790e_n.jpg",
    "id_album": "-462831705",
    "description": "Cat_117474",
    "title": "Cat_117474",
    "link_img": "https://live.staticflickr.com/65535/50017769486_4586575be4_o.jpg",
    "id_image": "Cat_117474",
    "count_view": 0
  },
  {
    "link_thumb": "https://live.staticflickr.com/65535/50023468637_936d06fd0f_n.jpg",
    "id_album": "332874268",
    "description": "RedPanda_420878",
    "title": "RedPanda_420878",
    "link_img": "https://live.staticflickr.com/65535/50023468637_c343288e3d_o.jpg",
    "id_image": "RedPanda_420878",
    "count_view": 0
  },
  {
    "link_thumb": "https://live.staticflickr.com/65535/50022044828_3fbddfb912_n.jpg",
    "id_album": "-801414987",
    "description": "Peacock_361701",
    "title": "Peacock_361701",
    "link_img": "https://live.staticflickr.com/65535/50022044828_9293a180c8_o.jpg",
    "id_image": "Peacock_361701",
    "count_view": 0
  },
  {
    "link_thumb": "https://live.staticflickr.com/65535/50352683012_88f6941627_n.jpg",
    "id_album": "-462831703",
    "description": "Cat_439362",
    "title": "Cat_439362",
    "link_img": "https://live.staticflickr.com/65535/50352683012_b0732f585b_o.jpg",
    "id_image": "Cat_439362",
    "count_view": 0
  },
  {
    "link_thumb": "https://live.staticflickr.com/65535/50017475472_bcc5f689de_n.jpg",
    "id_album": "-1846011410",
    "description": "Bird_222340",
    "title": "Bird_222340",
    "link_img": "https://live.staticflickr.com/65535/50017475472_c090d1ecc3_o.jpg",
    "id_image": "Bird_222340",
    "count_view": 0
  },
  {
    "link_thumb": "https://live.staticflickr.com/65535/50023243811_4f75dee943_n.jpg",
    "id_album": "-2087362619",
    "description": "RedandgreenMacaw_391830",
    "title": "RedandgreenMacaw_391830",
    "link_img": "https://live.staticflickr.com/65535/50023243811_a4430daf5d_o.jpg",
    "id_image": "RedandgreenMacaw_391830",
    "count_view": 0
  },
  {
    "link_thumb": "https://live.staticflickr.com/65535/50021241196_064902829e_n.jpg",
    "id_album": "-462831703",
    "description": "Cat_779282",
    "title": "Cat_779282",
    "link_img": "https://live.staticflickr.com/65535/50021241196_7b0f4cfd18_o.jpg",
    "id_image": "Cat_779282",
    "count_view": 0
  },
  {
    "link_thumb": "https://live.staticflickr.com/65535/50019916827_1fbc1ab89d_n.jpg",
    "id_album": "-766919393",
    "description": "Chameleon_686514",
    "title": "Chameleon_686514",
    "link_img": "https://live.staticflickr.com/65535/50019916827_b631576be2_o.jpg",
    "id_image": "Chameleon_686514",
    "count_view": 0
  },
  {
    "link_thumb": "https://live.staticflickr.com/65535/50019355136_2f911be9b0_n.jpg",
    "id_album": "-462831703",
    "description": "Cat_870022",
    "title": "Cat_870022",
    "link_img": "https://live.staticflickr.com/65535/50019355136_1faba43183_o.jpg",
    "id_image": "Cat_870022",
    "count_view": 0
  },
  {
    "link_thumb": "https://live.staticflickr.com/65535/50017283678_a339b468e0_n.jpg",
    "id_album": "-462831705",
    "description": "Cat_173618",
    "title": "Cat_173618",
    "link_img": "https://live.staticflickr.com/65535/50017283678_5d8bd35ee3_o.jpg",
    "id_image": "Cat_173618",
    "count_view": 0
  },
  {
    "link_thumb": "https://live.staticflickr.com/65535/50021072997_9226558b2d_n.jpg",
    "id_album": "822895535",
    "description": "Falcon_573385",
    "title": "Falcon_573385",
    "link_img": "https://live.staticflickr.com/65535/50021072997_fa27cc1ba7_o.jpg",
    "id_image": "Falcon_573385",
    "count_view": 0
  },
  {
    "link_thumb": "https://live.staticflickr.com/65535/50021309438_0db6b7a1ef_n.jpg",
    "id_album": "-1882491687",
    "description": "Ladybug_441497",
    "title": "Ladybug_441497",
    "link_img": "https://live.staticflickr.com/65535/50021309438_5d28ba5178_o.jpg",
    "id_image": "Ladybug_441497",
    "count_view": 0
  },
  {
    "link_thumb": "https://live.staticflickr.com/65535/50020158396_44333c31bc_n.jpg",
    "id_album": "-149330232",
    "description": "Dog_217434",
    "title": "Dog_217434",
    "link_img": "https://live.staticflickr.com/65535/50020158396_9563b16b7a_o.jpg",
    "id_image": "Dog_217434",
    "count_view": 0
  },
  {
    "link_thumb": "https://live.staticflickr.com/65535/50020969858_6bc9f6728b_n.jpg",
    "id_album": "-1933715543",
    "description": "Horse_404290",
    "title": "Horse_404290",
    "link_img": "https://live.staticflickr.com/65535/50020969858_2bde9348b6_o.jpg",
    "id_image": "Horse_404290",
    "count_view": 0
  },
  {
    "link_thumb": "https://live.staticflickr.com/65535/50019655367_69057390fc_n.jpg",
    "id_album": "-462831703",
    "description": "Cat_887815",
    "title": "Cat_887815",
    "link_img": "https://live.staticflickr.com/65535/50019655367_29371434c6_o.jpg",
    "id_image": "Cat_887815",
    "count_view": 0
  },
  {
    "link_thumb": "https://live.staticflickr.com/65535/50021064521_520cbc1556_n.jpg",
    "id_album": "844170697",
    "description": "Frog_454184",
    "title": "Frog_454184",
    "link_img": "https://live.staticflickr.com/65535/50021064521_497c15cb2d_o.jpg",
    "id_image": "Frog_454184",
    "count_view": 0
  },
  {
    "link_thumb": "https://live.staticflickr.com/65535/50019584758_0b675f1806_n.jpg",
    "id_album": "-149330232",
    "description": "Dog_110343",
    "title": "Dog_110343",
    "link_img": "https://live.staticflickr.com/65535/50019584758_d987dce747_o.jpg",
    "id_image": "Dog_110343",
    "count_view": 0
  },
  {
    "link_thumb": "https://live.staticflickr.com/65535/50017672566_37025a06a8_n.jpg",
    "id_album": "-401151552",
    "description": "Butterfly_806654",
    "title": "Butterfly_806654",
    "link_img": "https://live.staticflickr.com/65535/50017672566_540d5fc3a3_o.jpg",
    "id_image": "Butterfly_806654",
    "count_view": 0
  },
  {
    "link_thumb": "https://live.staticflickr.com/65535/50020930991_8153ebcf9e_n.jpg",
    "id_album": "-1694105481",
    "description": "Fly_926088",
    "title": "Fly_926088",
    "link_img": "https://live.staticflickr.com/65535/50020930991_c8ba0dc77a_o.jpg",
    "id_image": "Fly_926088",
    "count_view": 0
  },
  {
    "link_thumb": "https://live.staticflickr.com/65535/50020257246_c8db9862e3_n.jpg",
    "id_album": "-149330232",
    "description": "Dog_332076",
    "title": "Dog_332076",
    "link_img": "https://live.staticflickr.com/65535/50020257246_17630a6a1d_o.jpg",
    "id_image": "Dog_332076",
    "count_view": 0
  },
  {
    "link_thumb": "https://live.staticflickr.com/65535/50020671118_b8d1d91849_n.jpg",
    "id_album": "-462831703",
    "description": "Cat_734790",
    "title": "Cat_734790",
    "link_img": "https://live.staticflickr.com/65535/50020671118_a8c1355554_o.jpg",
    "id_image": "Cat_734790",
    "count_view": 0
  },
  {
    "link_thumb": "https://live.staticflickr.com/65535/50021214253_95213fa9ca_n.jpg",
    "id_album": "665694624",
    "description": "JapaneseMacaque_864635",
    "title": "JapaneseMacaque_864635",
    "link_img": "https://live.staticflickr.com/65535/50021214253_f76858353b_o.jpg",
    "id_image": "JapaneseMacaque_864635",
    "count_view": 0
  },
  {
    "link_thumb": "https://live.staticflickr.com/65535/50024084431_0776a463f1_n.jpg",
    "id_album": "405170427",
    "description": "Tiger_364907",
    "title": "Tiger_364907",
    "link_img": "https://live.staticflickr.com/65535/50024084431_17e5d504c9_o.jpg",
    "id_image": "Tiger_364907",
    "count_view": 0
  },
  {
    "link_thumb": "https://live.staticflickr.com/65535/50020567228_2bdabc3fab_n.jpg",
    "id_album": "-462831704",
    "description": "Cat_552062",
    "title": "Cat_552062",
    "link_img": "https://live.staticflickr.com/65535/50020567228_56cd5388f5_o.jpg",
    "id_image": "Cat_552062",
    "count_view": 0
  },
  {
    "link_thumb": "https://live.staticflickr.com/65535/50017156082_8360ca83a4_n.jpg",
    "id_album": "523598895",
    "description": "Artistic_324362",
    "title": "Artistic_324362",
    "link_img": "https://live.staticflickr.com/65535/50017156082_cd86f5ef3c_o.jpg",
    "id_image": "Artistic_324362",
    "count_view": 0
  },
  {
    "link_thumb": "https://live.staticflickr.com/65535/50020601897_16e8574336_n.jpg",
    "id_album": "-149330232",
    "description": "Dog_370685",
    "title": "Dog_370685",
    "link_img": "https://live.staticflickr.com/65535/50020601897_59b2fa1b77_o.jpg",
    "id_image": "Dog_370685",
    "count_view": 0
  },
  {
    "link_thumb": "https://live.staticflickr.com/65535/50017497761_b39edbfb6d_n.jpg",
    "id_album": "782930701",
    "description": "BorderCollie_840624",
    "title": "BorderCollie_840624",
    "link_img": "https://live.staticflickr.com/65535/50017497761_a86621d8bc_o.jpg",
    "id_image": "BorderCollie_840624",
    "count_view": 0
  },
  {
    "link_thumb": "https://live.staticflickr.com/65535/50020450131_1a241464d6_n.jpg",
    "id_album": "-149330231",
    "description": "Dog_524427",
    "title": "Dog_524427",
    "link_img": "https://live.staticflickr.com/65535/50020450131_d4a3281642_o.jpg",
    "id_image": "Dog_524427",
    "count_view": 0
  },
  {
    "link_thumb": "https://live.staticflickr.com/65535/50021045881_4714ff7958_n.jpg",
    "id_album": "704811092",
    "description": "FrenchBulldog_748137",
    "title": "FrenchBulldog_748137",
    "link_img": "https://live.staticflickr.com/65535/50021045881_296f8d76ca_o.jpg",
    "id_image": "FrenchBulldog_748137",
    "count_view": 0
  },
  {
    "link_thumb": "https://live.staticflickr.com/65535/50020225811_a6e3cb49f5_n.jpg",
    "id_album": "-149330232",
    "description": "Dog_290860",
    "title": "Dog_290860",
    "link_img": "https://live.staticflickr.com/65535/50020225811_dbdb3c2669_o.jpg",
    "id_image": "Dog_290860",
    "count_view": 0
  },
  {
    "link_thumb": "https://live.staticflickr.com/65535/50020914332_13863e9d4b_n.jpg",
    "id_album": "1168627767",
    "description": "Duck_412790",
    "title": "Duck_412790",
    "link_img": "https://live.staticflickr.com/65535/50020914332_341be8a6f2_o.jpg",
    "id_image": "Duck_412790",
    "count_view": 0
  },
  {
    "link_thumb": "https://live.staticflickr.com/65535/50018063207_90329010da_n.jpg",
    "id_album": "-462831705",
    "description": "Cat_167472",
    "title": "Cat_167472",
    "link_img": "https://live.staticflickr.com/65535/50018063207_990bcc07de_o.jpg",
    "id_image": "Cat_167472",
    "count_view": 0
  },
  {
    "link_thumb": "https://live.staticflickr.com/65535/50020509496_89e07b2efc_n.jpg",
    "id_album": "-149330231",
    "description": "Dog_757158",
    "title": "Dog_757158",
    "link_img": "https://live.staticflickr.com/65535/50020509496_ca725dcfd3_o.jpg",
    "id_image": "Dog_757158",
    "count_view": 0
  },
  {
    "link_thumb": "https://live.staticflickr.com/65535/50016421183_411ea45d68_n.jpg",
    "id_album": "390697200",
    "description": "AustralianShepherd_914551",
    "title": "AustralianShepherd_914551",
    "link_img": "https://live.staticflickr.com/65535/50016421183_482ec42184_o.jpg",
    "id_image": "AustralianShepherd_914551",
    "count_view": 0
  },
  {
    "link_thumb": "https://live.staticflickr.com/65535/50017858497_f865937336_n.jpg",
    "id_album": "-401151552",
    "description": "Butterfly_438142",
    "title": "Butterfly_438142",
    "link_img": "https://live.staticflickr.com/65535/50017858497_99979944d7_o.jpg",
    "id_image": "Butterfly_438142",
    "count_view": 0
  },
  {
    "link_thumb": "https://live.staticflickr.com/65535/50017510386_df42172a9d_n.jpg",
    "id_album": "782930701",
    "description": "BorderCollie_925008",
    "title": "BorderCollie_925008",
    "link_img": "https://live.staticflickr.com/65535/50017510386_e121af609a_o.jpg",
    "id_image": "BorderCollie_925008",
    "count_view": 0
  },
  {
    "link_thumb": "https://live.staticflickr.com/65535/50019913341_25fb73e653_n.jpg",
    "id_album": "1273365283",
    "description": "Cute_113734",
    "title": "Cute_113734",
    "link_img": "https://live.staticflickr.com/65535/50019913341_f92b3a4827_o.jpg",
    "id_image": "Cute_113734",
    "count_view": 0
  },
  {
    "link_thumb": "https://live.staticflickr.com/65535/50018135356_017dda26eb_n.jpg",
    "id_album": "-462831702",
    "description": "Cat_397873",
    "title": "Cat_397873",
    "link_img": "https://live.staticflickr.com/65535/50018135356_8bb1ec3fe2_o.jpg",
    "id_image": "Cat_397873",
    "count_view": 0
  },
  {
    "link_thumb": "https://live.staticflickr.com/65535/50021260227_b40f51553f_n.jpg",
    "id_album": "-128218148",
    "description": "Fox_797294",
    "title": "Fox_797294",
    "link_img": "https://live.staticflickr.com/65535/50021260227_d5bf48dee5_o.jpg",
    "id_image": "Fox_797294",
    "count_view": 0
  },
  {
    "link_thumb": "https://live.staticflickr.com/65535/50021980232_279b51843d_n.jpg",
    "id_album": "-843028318",
    "description": "Jaguar_432552",
    "title": "Jaguar_432552",
    "link_img": "https://live.staticflickr.com/65535/50021980232_a72d8c3ed4_o.jpg",
    "id_image": "Jaguar_432552",
    "count_view": 0
  },
  {
    "link_thumb": "https://live.staticflickr.com/65535/50016897756_ca53ef9e98_n.jpg",
    "id_album": "523598895",
    "description": "Artistic_342800",
    "title": "Artistic_342800",
    "link_img": "https://live.staticflickr.com/65535/50016897756_1f14d32917_o.jpg",
    "id_image": "Artistic_342800",
    "count_view": 0
  },
  {
    "link_thumb": "https://live.staticflickr.com/65535/50023699978_8b9c0c125d_n.jpg",
    "id_album": "405170427",
    "description": "Tiger_926486",
    "title": "Tiger_926486",
    "link_img": "https://live.staticflickr.com/65535/50023699978_5a6386ea4f_o.jpg",
    "id_image": "Tiger_926486",
    "count_view": 0
  },
  {
    "link_thumb": "https://live.staticflickr.com/65535/50352650461_4b7a60db4f_n.jpg",
    "id_album": "-462831703",
    "description": "Cat_697616",
    "title": "Cat_697616",
    "link_img": "https://live.staticflickr.com/65535/50352650461_6f5704017e_o.jpg",
    "id_image": "Cat_697616",
    "count_view": 0
  },
  {
    "link_thumb": "https://live.staticflickr.com/65535/50019653521_a2d9698269_n.jpg",
    "id_album": "-766919393",
    "description": "Chameleon_506740",
    "title": "Chameleon_506740",
    "link_img": "https://live.staticflickr.com/65535/50019653521_9dcb2dac45_o.jpg",
    "id_image": "Chameleon_506740",
    "count_view": 0
  },
  {
    "link_thumb": "https://live.staticflickr.com/65535/50021407951_bb99225e5a_n.jpg",
    "id_album": "82558972",
    "description": "GuineaPig_399835",
    "title": "GuineaPig_399835",
    "link_img": "https://live.staticflickr.com/65535/50021407951_5db37f3656_o.jpg",
    "id_image": "GuineaPig_399835",
    "count_view": 0
  },
  {
    "link_thumb": "https://live.staticflickr.com/65535/50021972436_861ee92d8e_n.jpg",
    "id_album": "416744915",
    "description": "Lion_212297",
    "title": "Lion_212297",
    "link_img": "https://live.staticflickr.com/65535/50021972436_b658b3b24d_o.jpg",
    "id_image": "Lion_212297",
    "count_view": 0
  },
  {
    "link_thumb": "https://live.staticflickr.com/65535/50352561916_ce900026d7_n.jpg",
    "id_album": "-462831703",
    "description": "Cat_490670",
    "title": "Cat_490670",
    "link_img": "https://live.staticflickr.com/65535/50352561916_ac7f0b9e9a_o.jpg",
    "id_image": "Cat_490670",
    "count_view": 0
  },
  {
    "link_thumb": "https://live.staticflickr.com/65535/50019570711_550d25594e_n.jpg",
    "id_album": "-462831703",
    "description": "Cat_995473",
    "title": "Cat_995473",
    "link_img": "https://live.staticflickr.com/65535/50019570711_51086a4f51_o.jpg",
    "id_image": "Cat_995473",
    "count_view": 0
  },
  {
    "link_thumb": "https://live.staticflickr.com/65535/50352526366_b66b8b0df6_n.jpg",
    "id_album": "-462831703",
    "description": "Cat_441556",
    "title": "Cat_441556",
    "link_img": "https://live.staticflickr.com/65535/50352526366_bbb3f7e3c0_o.jpg",
    "id_image": "Cat_441556",
    "count_view": 0
  },
  {
    "link_thumb": "https://live.staticflickr.com/65535/50021317658_8b96d0a5fc_n.jpg",
    "id_album": "-1882491687",
    "description": "Ladybug_688378",
    "title": "Ladybug_688378",
    "link_img": "https://live.staticflickr.com/65535/50021317658_d6f140794f_o.jpg",
    "id_image": "Ladybug_688378",
    "count_view": 0
  },
  {
    "link_thumb": "https://live.staticflickr.com/65535/50017393917_d9d8b785d6_n.jpg",
    "id_album": "1699594607",
    "description": "Bee_383178",
    "title": "Bee_383178",
    "link_img": "https://live.staticflickr.com/65535/50017393917_0f17310469_o.jpg",
    "id_image": "Bee_383178",
    "count_view": 0
  },
  {
    "link_thumb": "https://live.staticflickr.com/65535/50018114721_f604667da8_n.jpg",
    "id_album": "-462831702",
    "description": "Cat_385198",
    "title": "Cat_385198",
    "link_img": "https://live.staticflickr.com/65535/50018114721_ae84597b31_o.jpg",
    "id_image": "Cat_385198",
    "count_view": 0
  },
  {
    "link_thumb": "https://live.staticflickr.com/65535/50019178981_ccd1bcc680_n.jpg",
    "id_album": "-462831702",
    "description": "Cat_428164",
    "title": "Cat_428164",
    "link_img": "https://live.staticflickr.com/65535/50019178981_0748bb420c_o.jpg",
    "id_image": "Cat_428164",
    "count_view": 0
  },
  {
    "link_thumb": "https://live.staticflickr.com/65535/50021141651_1743a103d6_n.jpg",
    "id_album": "-462831704",
    "description": "Cat_599514",
    "title": "Cat_599514",
    "link_img": "https://live.staticflickr.com/65535/50021141651_e309afefa5_o.jpg",
    "id_image": "Cat_599514",
    "count_view": 0
  },
  {
    "link_thumb": "https://live.staticflickr.com/65535/50023629761_ee1527ec6d_n.jpg",
    "id_album": "-1131363127",
    "description": "SnowLeopard_334596",
    "title": "SnowLeopard_334596",
    "link_img": "https://live.staticflickr.com/65535/50023629761_eeda6478fe_o.jpg",
    "id_image": "SnowLeopard_334596",
    "count_view": 0
  },
  {
    "link_thumb": "https://live.staticflickr.com/65535/50022226167_0dc3f73e11_n.jpg",
    "id_album": "416744915",
    "description": "Lion_167161",
    "title": "Lion_167161",
    "link_img": "https://live.staticflickr.com/65535/50022226167_b6e6129b2b_o.jpg",
    "id_image": "Lion_167161",
    "count_view": 0
  },
  {
    "link_thumb": "https://live.staticflickr.com/65535/50018841643_e01948d32d_n.jpg",
    "id_album": "-462831703",
    "description": "Cat_875697",
    "title": "Cat_875697",
    "link_img": "https://live.staticflickr.com/65535/50018841643_a9a480fd9d_o.jpg",
    "id_image": "Cat_875697",
    "count_view": 0
  },
  {
    "link_thumb": "https://live.staticflickr.com/65535/50017487158_af1f4885a3_n.jpg",
    "id_album": "-462831702",
    "description": "Cat_342716",
    "title": "Cat_342716",
    "link_img": "https://live.staticflickr.com/65535/50017487158_b882f58efc_o.jpg",
    "id_image": "Cat_342716",
    "count_view": 0
  },
  {
    "link_thumb": "https://live.staticflickr.com/65535/50017751167_5737e89554_n.jpg",
    "id_album": "782930701",
    "description": "BorderCollie_732724",
    "title": "BorderCollie_732724",
    "link_img": "https://live.staticflickr.com/65535/50017751167_66c04c4e67_o.jpg",
    "id_image": "BorderCollie_732724",
    "count_view": 0
  },
  {
    "link_thumb": "https://live.staticflickr.com/65535/50020855172_a134af139c_n.jpg",
    "id_album": "-1859457960",
    "description": "Dove_485822",
    "title": "Dove_485822",
    "link_img": "https://live.staticflickr.com/65535/50020855172_4a2dc07816_o.jpg",
    "id_image": "Dove_485822",
    "count_view": 0
  },
  {
    "link_thumb": "https://live.staticflickr.com/65535/50021399606_cde91dabe1_n.jpg",
    "id_album": "-1168906494",
    "description": "Grasshopper_332445",
    "title": "Grasshopper_332445",
    "link_img": "https://live.staticflickr.com/65535/50021399606_957a22394b_o.jpg",
    "id_image": "Grasshopper_332445",
    "count_view": 0
  },
  {
    "link_thumb": "https://live.staticflickr.com/65535/50020346347_3991e1624c_n.jpg",
    "id_album": "297232732",
    "description": "Dinosaur_418774",
    "title": "Dinosaur_418774",
    "link_img": "https://live.staticflickr.com/65535/50020346347_b4f8803541_o.jpg",
    "id_image": "Dinosaur_418774",
    "count_view": 0
  },
  {
    "link_thumb": "https://live.staticflickr.com/65535/50023496837_8ea2f81c4b_n.jpg",
    "id_album": "332874268",
    "description": "RedPanda_925589",
    "title": "RedPanda_925589",
    "link_img": "https://live.staticflickr.com/65535/50023496837_2b6b31c13a_o.jpg",
    "id_image": "RedPanda_925589",
    "count_view": 0
  },
  {
    "link_thumb": "https://live.staticflickr.com/65535/50352786092_f9abbaf3e1_n.jpg",
    "id_album": "-462831703",
    "description": "Cat_613017",
    "title": "Cat_613017",
    "link_img": "https://live.staticflickr.com/65535/50352786092_82718a02eb_o.jpg",
    "id_image": "Cat_613017",
    "count_view": 0
  },
  {
    "link_thumb": "https://live.staticflickr.com/65535/50017327053_f6c7222034_n.jpg",
    "id_album": "-462831705",
    "description": "Cat_210233",
    "title": "Cat_210233",
    "link_img": "https://live.staticflickr.com/65535/50017327053_e60126e134_o.jpg",
    "id_image": "Cat_210233",
    "count_view": 0
  },
  {
    "link_thumb": "https://live.staticflickr.com/65535/50024469482_ce3038bff0_n.jpg",
    "id_album": "405170427",
    "description": "Tiger_774628",
    "title": "Tiger_774628",
    "link_img": "https://live.staticflickr.com/65535/50024469482_c7767ee738_o.jpg",
    "id_image": "Tiger_774628",
    "count_view": 0
  },
  {
    "link_thumb": "https://live.staticflickr.com/65535/50016320308_71dfbc013a_n.jpg",
    "id_album": "-834314226",
    "description": "ArcticFox_590913",
    "title": "ArcticFox_590913",
    "link_img": "https://live.staticflickr.com/65535/50016320308_a75dc555de_o.jpg",
    "id_image": "ArcticFox_590913",
    "count_view": 0
  },
  {
    "link_thumb": "https://live.staticflickr.com/65535/50017512846_1e58bf95da_n.jpg",
    "id_album": "782930701",
    "description": "BorderCollie_948874",
    "title": "BorderCollie_948874",
    "link_img": "https://live.staticflickr.com/65535/50017512846_c2e79026fb_o.jpg",
    "id_image": "BorderCollie_948874",
    "count_view": 0
  },
  {
    "link_thumb": "https://live.staticflickr.com/65535/50021921572_9f28044f30_n.jpg",
    "id_album": "1658866795",
    "description": "Insect_391701",
    "title": "Insect_391701",
    "link_img": "https://live.staticflickr.com/65535/50021921572_f0e61074f1_o.jpg",
    "id_image": "Insect_391701",
    "count_view": 0
  },
  {
    "link_thumb": "https://live.staticflickr.com/65535/50017914441_5899464cdc_n.jpg",
    "id_album": "-462831705",
    "description": "Cat_263037",
    "title": "Cat_263037",
    "link_img": "https://live.staticflickr.com/65535/50017914441_fed19e38cc_o.jpg",
    "id_image": "Cat_263037",
    "count_view": 0
  },
  {
    "link_thumb": "https://live.staticflickr.com/65535/50351777058_9689b64564_n.jpg",
    "id_album": "-462831703",
    "description": "Cat_366296",
    "title": "Cat_366296",
    "link_img": "https://live.staticflickr.com/65535/50351777058_ce18af4217_o.jpg",
    "id_image": "Cat_366296",
    "count_view": 0
  },
  {
    "link_thumb": "https://live.staticflickr.com/65535/50016949901_3b8a8285ef_n.jpg",
    "id_album": "390697200",
    "description": "AustralianShepherd_968517",
    "title": "AustralianShepherd_968517",
    "link_img": "https://live.staticflickr.com/65535/50016949901_8e236f2490_o.jpg",
    "id_image": "AustralianShepherd_968517",
    "count_view": 0
  },
  {
    "link_thumb": "https://live.staticflickr.com/65535/50021247348_5b17bdec29_n.jpg",
    "id_album": "-649286029",
    "description": "Kangaroo_249953",
    "title": "Kangaroo_249953",
    "link_img": "https://live.staticflickr.com/65535/50021247348_ab0a013499_o.jpg",
    "id_image": "Kangaroo_249953",
    "count_view": 0
  },
  {
    "link_thumb": "https://live.staticflickr.com/65535/50023418547_74aac4594e_n.jpg",
    "id_album": "248289288",
    "description": "Raccoon_764238",
    "title": "Raccoon_764238",
    "link_img": "https://live.staticflickr.com/65535/50023418547_0bb5dc24a7_o.jpg",
    "id_image": "Raccoon_764238",
    "count_view": 0
  },
  {
    "link_thumb": "https://live.staticflickr.com/65535/50019188603_c311ec131e_n.jpg",
    "id_album": "-1481843714",
    "description": "Cheetah_571373",
    "title": "Cheetah_571373",
    "link_img": "https://live.staticflickr.com/65535/50019188603_3104b5dfbf_o.jpg",
    "id_image": "Cheetah_571373",
    "count_view": 0
  },
  {
    "link_thumb": "https://live.staticflickr.com/65535/50021402562_738dcb347d_n.jpg",
    "id_album": "-462831704",
    "description": "Cat_650923",
    "title": "Cat_650923",
    "link_img": "https://live.staticflickr.com/65535/50021402562_9cee2da6f4_o.jpg",
    "id_image": "Cat_650923",
    "count_view": 0
  },
  {
    "link_thumb": "https://live.staticflickr.com/65535/50024061386_b76a4358b1_n.jpg",
    "id_album": "405170427",
    "description": "Tiger_324214",
    "title": "Tiger_324214",
    "link_img": "https://live.staticflickr.com/65535/50024061386_d82b8ec717_o.jpg",
    "id_image": "Tiger_324214",
    "count_view": 0
  },
  {
    "link_thumb": "https://live.staticflickr.com/65535/50017979891_62198213cf_n.jpg",
    "id_album": "-462831702",
    "description": "Cat_327096",
    "title": "Cat_327096",
    "link_img": "https://live.staticflickr.com/65535/50017979891_9a899fd1c2_o.jpg",
    "id_image": "Cat_327096",
    "count_view": 0
  },
  {
    "link_thumb": "https://live.staticflickr.com/65535/50017032948_2b2a35a387_n.jpg",
    "id_album": "-401151552",
    "description": "Butterfly_310081",
    "title": "Butterfly_310081",
    "link_img": "https://live.staticflickr.com/65535/50017032948_235efb6c8b_o.jpg",
    "id_image": "Butterfly_310081",
    "count_view": 0
  },
  {
    "link_thumb": "https://live.staticflickr.com/65535/50021199467_d119019240_n.jpg",
    "id_album": "-128218148",
    "description": "Fox_326289",
    "title": "Fox_326289",
    "link_img": "https://live.staticflickr.com/65535/50021199467_f9ac1d7593_o.jpg",
    "id_image": "Fox_326289",
    "count_view": 0
  },
  {
    "link_thumb": "https://live.staticflickr.com/65535/50021524372_2f28c1181e_n.jpg",
    "id_album": "-462831703",
    "description": "Cat_831692",
    "title": "Cat_831692",
    "link_img": "https://live.staticflickr.com/65535/50021524372_2e8801e84d_o.jpg",
    "id_image": "Cat_831692",
    "count_view": 0
  },
  {
    "link_thumb": "https://live.staticflickr.com/65535/50019654641_f0c0bfa631_n.jpg",
    "id_album": "-766919393",
    "description": "Chameleon_535251",
    "title": "Chameleon_535251",
    "link_img": "https://live.staticflickr.com/65535/50019654641_d6a41e1e7d_o.jpg",
    "id_image": "Chameleon_535251",
    "count_view": 0
  },
  {
    "link_thumb": "https://live.staticflickr.com/65535/50017358498_6b0f3aa006_n.jpg",
    "id_album": "-462831705",
    "description": "Cat_236408",
    "title": "Cat_236408",
    "link_img": "https://live.staticflickr.com/65535/50017358498_cf7f005071_o.jpg",
    "id_image": "Cat_236408",
    "count_view": 0
  },
  {
    "link_thumb": "https://live.staticflickr.com/65535/50022568912_a94ea63530_n.jpg",
    "id_album": "1015034486",
    "description": "Muteswan_326010",
    "title": "Muteswan_326010",
    "link_img": "https://live.staticflickr.com/65535/50022568912_fd201b154f_o.jpg",
    "id_image": "Muteswan_326010",
    "count_view": 0
  },
  {
    "link_thumb": "https://live.staticflickr.com/65535/50019457166_b535caa001_n.jpg",
    "id_album": "-462831703",
    "description": "Cat_914566",
    "title": "Cat_914566",
    "link_img": "https://live.staticflickr.com/65535/50019457166_ed7f162893_o.jpg",
    "id_image": "Cat_914566",
    "count_view": 0
  },
  {
    "link_thumb": "https://live.staticflickr.com/65535/50016781518_fc602cd90d_n.jpg",
    "id_album": "-1846011410",
    "description": "Bird_402468",
    "title": "Bird_402468",
    "link_img": "https://live.staticflickr.com/65535/50016781518_73c8f1d02d_o.jpg",
    "id_image": "Bird_402468",
    "count_view": 0
  },
  {
    "link_thumb": "https://live.staticflickr.com/65535/50018387472_17d3ffb276_n.jpg",
    "id_album": "-462831702",
    "description": "Cat_393883",
    "title": "Cat_393883",
    "link_img": "https://live.staticflickr.com/65535/50018387472_8653b4d04a_o.jpg",
    "id_image": "Cat_393883",
    "count_view": 0
  },
  {
    "link_thumb": "https://live.staticflickr.com/65535/50016988328_18718a3271_n.jpg",
    "id_album": "782930701",
    "description": "BorderCollie_984821",
    "title": "BorderCollie_984821",
    "link_img": "https://live.staticflickr.com/65535/50016988328_f6c8077269_o.jpg",
    "id_image": "BorderCollie_984821",
    "count_view": 0
  },
  {
    "link_thumb": "https://live.staticflickr.com/65535/50021954936_b9b9fc8cf7_n.jpg",
    "id_album": "1392348450",
    "description": "Leopard_882469",
    "title": "Leopard_882469",
    "link_img": "https://live.staticflickr.com/65535/50021954936_c0397c547b_o.jpg",
    "id_image": "Leopard_882469",
    "count_view": 0
  },
  {
    "link_thumb": "https://live.staticflickr.com/65535/50020348288_9e411f9cbe_n.jpg",
    "id_album": "-1758557371",
    "description": "Flamingo_280922",
    "title": "Flamingo_280922",
    "link_img": "https://live.staticflickr.com/65535/50020348288_6e67ca3dd1_o.jpg",
    "id_image": "Flamingo_280922",
    "count_view": 0
  },
  {
    "link_thumb": "https://live.staticflickr.com/65535/50019874482_76fdf9314c_n.jpg",
    "id_album": "1889777354",
    "description": "CGI_104961",
    "title": "CGI_104961",
    "link_img": "https://live.staticflickr.com/65535/50019874482_e9fc2e9ce1_o.jpg",
    "id_image": "CGI_104961",
    "count_view": 0
  },
  {
    "link_thumb": "https://live.staticflickr.com/65535/50021231001_5b59835afe_n.jpg",
    "id_album": "-462831703",
    "description": "Cat_758244",
    "title": "Cat_758244",
    "link_img": "https://live.staticflickr.com/65535/50021231001_49d128a46b_o.jpg",
    "id_image": "Cat_758244",
    "count_view": 0
  },
  {
    "link_thumb": "https://live.staticflickr.com/65535/50017816772_b0b8d0ef7a_n.jpg",
    "id_album": "-401151552",
    "description": "Butterfly_271809",
    "title": "Butterfly_271809",
    "link_img": "https://live.staticflickr.com/65535/50017816772_4573027043_o.jpg",
    "id_image": "Butterfly_271809",
    "count_view": 0
  },
  {
    "link_thumb": "https://live.staticflickr.com/65535/50021849832_f58afa8f3d_n.jpg",
    "id_album": "773713550",
    "description": "Hoverfly_450948",
    "title": "Hoverfly_450948",
    "link_img": "https://live.staticflickr.com/65535/50021849832_ec5edbd1ec_o.jpg",
    "id_image": "Hoverfly_450948",
    "count_view": 0
  },
  {
    "link_thumb": "https://live.staticflickr.com/65535/50021837936_5cb706564f_n.jpg",
    "id_album": "1307335982",
    "description": "LabradorRetriever_985926",
    "title": "LabradorRetriever_985926",
    "link_img": "https://live.staticflickr.com/65535/50021837936_1c7aa52858_o.jpg",
    "id_image": "LabradorRetriever_985926",
    "count_view": 0
  },
  {
    "link_thumb": "https://live.staticflickr.com/65535/50020250316_57f18b7987_n.jpg",
    "id_album": "-149330232",
    "description": "Dog_330434",
    "title": "Dog_330434",
    "link_img": "https://live.staticflickr.com/65535/50020250316_1ea7ecb886_o.jpg",
    "id_image": "Dog_330434",
    "count_view": 0
  },
  {
    "link_thumb": "https://live.staticflickr.com/65535/50020718133_a15d9b043d_n.jpg",
    "id_album": "-462831703",
    "description": "Cat_810245",
    "title": "Cat_810245",
    "link_img": "https://live.staticflickr.com/65535/50020718133_52c695bbce_o.jpg",
    "id_image": "Cat_810245",
    "count_view": 0
  },
  {
    "link_thumb": "https://live.staticflickr.com/65535/50020808968_db4520394d_n.jpg",
    "id_album": "2060159334",
    "description": "GoldenRetriever_650865",
    "title": "GoldenRetriever_650865",
    "link_img": "https://live.staticflickr.com/65535/50020808968_da403c0749_o.jpg",
    "id_image": "GoldenRetriever_650865",
    "count_view": 0
  },
  {
    "link_thumb": "https://live.staticflickr.com/65535/50024211561_a05e68a007_n.jpg",
    "id_album": "405170427",
    "description": "Tiger_777269",
    "title": "Tiger_777269",
    "link_img": "https://live.staticflickr.com/65535/50024211561_1775ba6d2d_o.jpg",
    "id_image": "Tiger_777269",
    "count_view": 0
  },
  {
    "link_thumb": "https://live.staticflickr.com/65535/50024772667_d54fb82f4d_n.jpg",
    "id_album": "-709711865",
    "description": "Wolf_530659",
    "title": "Wolf_530659",
    "link_img": "https://live.staticflickr.com/65535/50024772667_868352a060_o.jpg",
    "id_image": "Wolf_530659",
    "count_view": 0
  },
  {
    "link_thumb": "https://live.staticflickr.com/65535/50023400102_c40c9a8d6c_n.jpg",
    "id_album": "248289288",
    "description": "Raccoon_350492",
    "title": "Raccoon_350492",
    "link_img": "https://live.staticflickr.com/65535/50023400102_6cd02a9770_o.jpg",
    "id_image": "Raccoon_350492",
    "count_view": 0
  },
  {
    "link_thumb": "https://live.staticflickr.com/65535/50018014501_bf5de45401_n.jpg",
    "id_album": "-462831702",
    "description": "Cat_342266",
    "title": "Cat_342266",
    "link_img": "https://live.staticflickr.com/65535/50018014501_64a8e03824_o.jpg",
    "id_image": "Cat_342266",
    "count_view": 0
  },
  {
    "link_thumb": "https://live.staticflickr.com/65535/50016472978_94d326df00_n.jpg",
    "id_album": "809937717",
    "description": "Beagle_982284",
    "title": "Beagle_982284",
    "link_img": "https://live.staticflickr.com/65535/50016472978_3407342f2e_o.jpg",
    "id_image": "Beagle_982284",
    "count_view": 0
  },
  {
    "link_thumb": "https://live.staticflickr.com/65535/50016948266_307ef03f6d_n.jpg",
    "id_album": "390697200",
    "description": "AustralianShepherd_926175",
    "title": "AustralianShepherd_926175",
    "link_img": "https://live.staticflickr.com/65535/50016948266_3395a7a5d4_o.jpg",
    "id_image": "AustralianShepherd_926175",
    "count_view": 0
  },
  {
    "link_thumb": "https://live.staticflickr.com/65535/50352618191_7b8831b6ed_n.jpg",
    "id_album": "-462831703",
    "description": "Cat_593619",
    "title": "Cat_593619",
    "link_img": "https://live.staticflickr.com/65535/50352618191_e56a08f272_o.jpg",
    "id_image": "Cat_593619",
    "count_view": 0
  },
  {
    "link_thumb": "https://live.staticflickr.com/65535/50021339671_20bf86434b_n.jpg",
    "id_album": "-804131074",
    "description": "Goat_362921",
    "title": "Goat_362921",
    "link_img": "https://live.staticflickr.com/65535/50021339671_719b8ce5e7_o.jpg",
    "id_image": "Goat_362921",
    "count_view": 0
  },
  {
    "link_thumb": "https://live.staticflickr.com/65535/50020775228_77305fa7f1_n.jpg",
    "id_album": "713572662",
    "description": "Giraffe_206461",
    "title": "Giraffe_206461",
    "link_img": "https://live.staticflickr.com/65535/50020775228_37ecca14dd_o.jpg",
    "id_image": "Giraffe_206461",
    "count_view": 0
  },
  {
    "link_thumb": "https://live.staticflickr.com/65535/50021094506_0de17c0c41_n.jpg",
    "id_album": "-34696179",
    "description": "Gecko_598371",
    "title": "Gecko_598371",
    "link_img": "https://live.staticflickr.com/65535/50021094506_3439dbebe2_o.jpg",
    "id_image": "Gecko_598371",
    "count_view": 0
  },
  {
    "link_thumb": "https://live.staticflickr.com/65535/50017109932_0e364a8d1a_n.jpg",
    "id_album": "-834314226",
    "description": "ArcticFox_692511",
    "title": "ArcticFox_692511",
    "link_img": "https://live.staticflickr.com/65535/50017109932_2202091871_o.jpg",
    "id_image": "ArcticFox_692511",
    "count_view": 0
  },
  {
    "link_thumb": "https://live.staticflickr.com/65535/50023179173_401ffa406f_n.jpg",
    "id_album": "-1082521515",
    "description": "Spider_284701",
    "title": "Spider_284701",
    "link_img": "https://live.staticflickr.com/65535/50023179173_4609c5181d_o.jpg",
    "id_image": "Spider_284701",
    "count_view": 0
  },
  {
    "link_thumb": "https://live.staticflickr.com/65535/50022739456_a85e8e770b_n.jpg",
    "id_album": "-1431786825",
    "description": "Pig_570516",
    "title": "Pig_570516",
    "link_img": "https://live.staticflickr.com/65535/50022739456_f2e593e9f1_o.jpg",
    "id_image": "Pig_570516",
    "count_view": 0
  },
  {
    "link_thumb": "https://live.staticflickr.com/65535/50016520273_683524aef1_n.jpg",
    "id_album": "-422187261",
    "description": "Bear_439860",
    "title": "Bear_439860",
    "link_img": "https://live.staticflickr.com/65535/50016520273_5718ae4d76_o.jpg",
    "id_image": "Bear_439860",
    "count_view": 0
  },
  {
    "link_thumb": "https://live.staticflickr.com/65535/50021011256_eaa4598da8_n.jpg",
    "id_album": "-128218148",
    "description": "Fox_833797",
    "title": "Fox_833797",
    "link_img": "https://live.staticflickr.com/65535/50021011256_27572ae4e9_o.jpg",
    "id_image": "Fox_833797",
    "count_view": 0
  },
  {
    "link_thumb": "https://live.staticflickr.com/65535/50017230566_ab439dbb51_n.jpg",
    "id_album": "-1846011410",
    "description": "Bird_283550",
    "title": "Bird_283550",
    "link_img": "https://live.staticflickr.com/65535/50017230566_faebb3d45b_o.jpg",
    "id_image": "Bird_283550",
    "count_view": 0
  },
  {
    "link_thumb": "https://live.staticflickr.com/65535/50022054027_89d8e4abcd_n.jpg",
    "id_album": "770105808",
    "description": "Kingfisher_381015",
    "title": "Kingfisher_381015",
    "link_img": "https://live.staticflickr.com/65535/50022054027_ccae3001fa_o.jpg",
    "id_image": "Kingfisher_381015",
    "count_view": 0
  },
  {
    "link_thumb": "https://live.staticflickr.com/65535/50017659431_32ab22786e_n.jpg",
    "id_album": "-401151552",
    "description": "Butterfly_742094",
    "title": "Butterfly_742094",
    "link_img": "https://live.staticflickr.com/65535/50017659431_b604bec36c_o.jpg",
    "id_image": "Butterfly_742094",
    "count_view": 0
  },
  {
    "link_thumb": "https://live.staticflickr.com/65535/50018766558_5a8a98334e_n.jpg",
    "id_album": "-462831704",
    "description": "Cat_530677",
    "title": "Cat_530677",
    "link_img": "https://live.staticflickr.com/65535/50018766558_2eb6ccf6df_o.jpg",
    "id_image": "Cat_530677",
    "count_view": 0
  },
  {
    "link_thumb": "https://live.staticflickr.com/65535/50017171773_53d3a78d8c_n.jpg",
    "id_album": "-401151552",
    "description": "Butterfly_926514",
    "title": "Butterfly_926514",
    "link_img": "https://live.staticflickr.com/65535/50017171773_5ee87a4c3f_o.jpg",
    "id_image": "Butterfly_926514",
    "count_view": 0
  },
  {
    "link_thumb": "https://live.staticflickr.com/65535/50016445503_c1232eb1b0_n.jpg",
    "id_album": "231236068",
    "description": "BaldEagle_920524",
    "title": "BaldEagle_920524",
    "link_img": "https://live.staticflickr.com/65535/50016445503_3c1730b141_o.jpg",
    "id_image": "BaldEagle_920524",
    "count_view": 0
  },
  {
    "link_thumb": "https://live.staticflickr.com/65535/50020536303_2129d6c4c9_n.jpg",
    "id_album": "844170697",
    "description": "Frog_846816",
    "title": "Frog_846816",
    "link_img": "https://live.staticflickr.com/65535/50020536303_f0e6766262_o.jpg",
    "id_image": "Frog_846816",
    "count_view": 0
  },
  {
    "link_thumb": "https://live.staticflickr.com/65535/50016808593_bf167bab12_n.jpg",
    "id_album": "-1846011410",
    "description": "Bird_437820",
    "title": "Bird_437820",
    "link_img": "https://live.staticflickr.com/65535/50016808593_832cc39c6c_o.jpg",
    "id_image": "Bird_437820",
    "count_view": 0
  },
  {
    "link_thumb": "https://live.staticflickr.com/65535/50023087381_9efb39f2cd_n.jpg",
    "id_album": "-1940643173",
    "description": "Rabbit_170097",
    "title": "Rabbit_170097",
    "link_img": "https://live.staticflickr.com/65535/50023087381_662f566a3e_o.jpg",
    "id_image": "Rabbit_170097",
    "count_view": 0
  },
  {
    "link_thumb": "https://live.staticflickr.com/65535/50021987632_126cfb6821_n.jpg",
    "id_album": "-843028318",
    "description": "Jaguar_552440",
    "title": "Jaguar_552440",
    "link_img": "https://live.staticflickr.com/65535/50021987632_59b8f8a7e6_o.jpg",
    "id_image": "Jaguar_552440",
    "count_view": 0
  },
  {
    "link_thumb": "https://live.staticflickr.com/65535/50018124892_639d3b2e4d_n.jpg",
    "id_album": "-462831705",
    "description": "Cat_216378",
    "title": "Cat_216378",
    "link_img": "https://live.staticflickr.com/65535/50018124892_db7ff1b954_o.jpg",
    "id_image": "Cat_216378",
    "count_view": 0
  },
  {
    "link_thumb": "https://live.staticflickr.com/65535/50022172651_9f0e04fd6c_n.jpg",
    "id_album": "1894617400",
    "description": "Lynx_986123",
    "title": "Lynx_986123",
    "link_img": "https://live.staticflickr.com/65535/50022172651_657c3ecddc_o.jpg",
    "id_image": "Lynx_986123",
    "count_view": 0
  },
  {
    "link_thumb": "https://live.staticflickr.com/65535/50020012523_4f7dbccd1a_n.jpg",
    "id_album": "-149330231",
    "description": "Dog_925579",
    "title": "Dog_925579",
    "link_img": "https://live.staticflickr.com/65535/50020012523_e3e816c745_o.jpg",
    "id_image": "Dog_925579",
    "count_view": 0
  },
  {
    "link_thumb": "https://live.staticflickr.com/65535/50020277718_b363d2b739_n.jpg",
    "id_album": "822895535",
    "description": "Falcon_433042",
    "title": "Falcon_433042",
    "link_img": "https://live.staticflickr.com/65535/50020277718_228bf44a85_o.jpg",
    "id_image": "Falcon_433042",
    "count_view": 0
  },
  {
    "link_thumb": "https://live.staticflickr.com/65535/50351896578_e317d32c22_n.jpg",
    "id_album": "-462831703",
    "description": "Cat_535167",
    "title": "Cat_535167",
    "link_img": "https://live.staticflickr.com/65535/50351896578_1d2bac062e_o.jpg",
    "id_image": "Cat_535167",
    "count_view": 0
  },
  {
    "link_thumb": "https://live.staticflickr.com/65535/50018671828_e7650d8f32_n.jpg",
    "id_album": "-462831704",
    "description": "Cat_439076",
    "title": "Cat_439076",
    "link_img": "https://live.staticflickr.com/65535/50018671828_952530cbd4_o.jpg",
    "id_image": "Cat_439076",
    "count_view": 0
  },
  {
    "link_thumb": "https://live.staticflickr.com/65535/50017611518_24a5835655_n.jpg",
    "id_album": "-462831702",
    "description": "Cat_400089",
    "title": "Cat_400089",
    "link_img": "https://live.staticflickr.com/65535/50017611518_6450a2d8a5_o.jpg",
    "id_image": "Cat_400089",
    "count_view": 0
  },
  {
    "link_thumb": "https://live.staticflickr.com/65535/50017365082_7e335bb485_n.jpg",
    "id_album": "-422187261",
    "description": "Bear_928791",
    "title": "Bear_928791",
    "link_img": "https://live.staticflickr.com/65535/50017365082_8d90a608c2_o.jpg",
    "id_image": "Bear_928791",
    "count_view": 0
  },
  {
    "link_thumb": "https://live.staticflickr.com/65535/50022893968_3167269954_n.jpg",
    "id_album": "-1596347105",
    "description": "Shark_345582",
    "title": "Shark_345582",
    "link_img": "https://live.staticflickr.com/65535/50022893968_a8037f85c4_o.jpg",
    "id_image": "Shark_345582",
    "count_view": 0
  },
  {
    "link_thumb": "https://live.staticflickr.com/65535/50023743122_0faae49080_n.jpg",
    "id_album": "-755466332",
    "description": "Sheep_677310",
    "title": "Sheep_677310",
    "link_img": "https://live.staticflickr.com/65535/50023743122_550f7b15f2_o.jpg",
    "id_image": "Sheep_677310",
    "count_view": 0
  },
  {
    "link_thumb": "https://live.staticflickr.com/65535/50019784933_2abe4dbe50_n.jpg",
    "id_album": "-149330232",
    "description": "Dog_359690",
    "title": "Dog_359690",
    "link_img": "https://live.staticflickr.com/65535/50019784933_fc44fc0428_o.jpg",
    "id_image": "Dog_359690",
    "count_view": 0
  },
  {
    "link_thumb": "https://live.staticflickr.com/65535/50018785603_292dfd3f05_n.jpg",
    "id_album": "-462831703",
    "description": "Cat_846389",
    "title": "Cat_846389",
    "link_img": "https://live.staticflickr.com/65535/50018785603_063a4aa856_o.jpg",
    "id_image": "Cat_846389",
    "count_view": 0
  },
  {
    "link_thumb": "https://live.staticflickr.com/65535/50016521498_70064dd6f2_n.jpg",
    "id_album": "-422187261",
    "description": "Bear_445392",
    "title": "Bear_445392",
    "link_img": "https://live.staticflickr.com/65535/50016521498_6111f801bd_o.jpg",
    "id_image": "Bear_445392",
    "count_view": 0
  },
  {
    "link_thumb": "https://live.staticflickr.com/65535/50023812416_689021b306_n.jpg",
    "id_album": "702283289",
    "description": "Squirrel_209543",
    "title": "Squirrel_209543",
    "link_img": "https://live.staticflickr.com/65535/50023812416_96f77db2fc_o.jpg",
    "id_image": "Squirrel_209543",
    "count_view": 0
  },
  {
    "link_thumb": "https://live.staticflickr.com/65535/50021228407_3d83008720_n.jpg",
    "id_album": "-128218148",
    "description": "Fox_543905",
    "title": "Fox_543905",
    "link_img": "https://live.staticflickr.com/65535/50021228407_f8c42a7a87_o.jpg",
    "id_image": "Fox_543905",
    "count_view": 0
  },
  {
    "link_thumb": "https://live.staticflickr.com/65535/50017555226_60923a2aa6_n.jpg",
    "id_album": "-401151552",
    "description": "Butterfly_276055",
    "title": "Butterfly_276055",
    "link_img": "https://live.staticflickr.com/65535/50017555226_1a78257cdd_o.jpg",
    "id_image": "Butterfly_276055",
    "count_view": 0
  },
  {
    "link_thumb": "https://live.staticflickr.com/65535/50019425777_d790396b6a_n.jpg",
    "id_album": "-462831702",
    "description": "Cat_425363",
    "title": "Cat_425363",
    "link_img": "https://live.staticflickr.com/65535/50019425777_55cdb65dbd_o.jpg",
    "id_image": "Cat_425363",
    "count_view": 0
  },
  {
    "link_thumb": "https://live.staticflickr.com/65535/50018121116_3bb08ca76f_n.jpg",
    "id_album": "-462831702",
    "description": "Cat_390248",
    "title": "Cat_390248",
    "link_img": "https://live.staticflickr.com/65535/50018121116_7a31787e73_o.jpg",
    "id_image": "Cat_390248",
    "count_view": 0
  },
  {
    "link_thumb": "https://live.staticflickr.com/65535/50019910531_cc40773d93_n.jpg",
    "id_album": "-392100404",
    "description": "Crow_718109",
    "title": "Crow_718109",
    "link_img": "https://live.staticflickr.com/65535/50019910531_09a417d2e6_o.jpg",
    "id_image": "Crow_718109",
    "count_view": 0
  },
  {
    "link_thumb": "https://live.staticflickr.com/65535/50021388818_92db00ccde_n.jpg",
    "id_album": "1392348450",
    "description": "Leopard_523349",
    "title": "Leopard_523349",
    "link_img": "https://live.staticflickr.com/65535/50021388818_5f82b40299_o.jpg",
    "id_image": "Leopard_523349",
    "count_view": 0
  },
  {
    "link_thumb": "https://live.staticflickr.com/65535/50024087291_04d14345d7_n.jpg",
    "id_album": "405170427",
    "description": "Tiger_364973",
    "title": "Tiger_364973",
    "link_img": "https://live.staticflickr.com/65535/50024087291_104612677e_o.jpg",
    "id_image": "Tiger_364973",
    "count_view": 0
  },
  {
    "link_thumb": "https://live.staticflickr.com/65535/50022049596_b9e0bb37c6_n.jpg",
    "id_album": "416744915",
    "description": "Lion_731012",
    "title": "Lion_731012",
    "link_img": "https://live.staticflickr.com/65535/50022049596_f306b67aa3_o.jpg",
    "id_image": "Lion_731012",
    "count_view": 0
  },
  {
    "link_thumb": "https://live.staticflickr.com/65535/50017438181_1c7ab37c1a_n.jpg",
    "id_album": "-1846011410",
    "description": "Bird_884506",
    "title": "Bird_884506",
    "link_img": "https://live.staticflickr.com/65535/50017438181_94c785a278_o.jpg",
    "id_image": "Bird_884506",
    "count_view": 0
  },
  {
    "link_thumb": "https://live.staticflickr.com/65535/50017737686_a774a7422c_n.jpg",
    "id_album": "189994021",
    "description": "Cardinal_778011",
    "title": "Cardinal_778011",
    "link_img": "https://live.staticflickr.com/65535/50017737686_fb8b10006b_o.jpg",
    "id_image": "Cardinal_778011",
    "count_view": 0
  },
  {
    "link_thumb": "https://live.staticflickr.com/65535/50017625638_d94273655a_n.jpg",
    "id_album": "-462831702",
    "description": "Cat_408271",
    "title": "Cat_408271",
    "link_img": "https://live.staticflickr.com/65535/50017625638_84c8d58ed0_o.jpg",
    "id_image": "Cat_408271",
    "count_view": 0
  },
  {
    "link_thumb": "https://live.staticflickr.com/65535/50016692878_35cc00bf8a_n.jpg",
    "id_album": "-1846011410",
    "description": "Bird_239832",
    "title": "Bird_239832",
    "link_img": "https://live.staticflickr.com/65535/50016692878_fd2aaca1d7_o.jpg",
    "id_image": "Bird_239832",
    "count_view": 0
  },
  {
    "link_thumb": "https://live.staticflickr.com/65535/50021682352_b1b0fea0b9_n.jpg",
    "id_album": "1469520430",
    "description": "Hedgehog_337554",
    "title": "Hedgehog_337554",
    "link_img": "https://live.staticflickr.com/65535/50021682352_307ebb9719_o.jpg",
    "id_image": "Hedgehog_337554",
    "count_view": 0
  },
  {
    "link_thumb": "https://live.staticflickr.com/65535/50022069977_f65012f58e_n.jpg",
    "id_album": "770105808",
    "description": "Kingfisher_951298",
    "title": "Kingfisher_951298",
    "link_img": "https://live.staticflickr.com/65535/50022069977_9088e8b7a4_o.jpg",
    "id_image": "Kingfisher_951298",
    "count_view": 0
  },
  {
    "link_thumb": "https://live.staticflickr.com/65535/50020048591_0ff0826972_n.jpg",
    "id_album": "1903411565",
    "description": "Deer_742511",
    "title": "Deer_742511",
    "link_img": "https://live.staticflickr.com/65535/50020048591_af8f3ee7bc_o.jpg",
    "id_image": "Deer_742511",
    "count_view": 0
  },
  {
    "link_thumb": "https://live.staticflickr.com/65535/50020332571_2aa6ca25e8_n.jpg",
    "id_album": "-149330232",
    "description": "Dog_366705",
    "title": "Dog_366705",
    "link_img": "https://live.staticflickr.com/65535/50020332571_63b6737989_o.jpg",
    "id_image": "Dog_366705",
    "count_view": 0
  },
  {
    "link_thumb": "https://live.staticflickr.com/65535/50018219947_d4d4064818_n.jpg",
    "id_album": "-462831702",
    "description": "Cat_315706",
    "title": "Cat_315706",
    "link_img": "https://live.staticflickr.com/65535/50018219947_f111b6d2ef_o.jpg",
    "id_image": "Cat_315706",
    "count_view": 0
  },
  {
    "link_thumb": "https://live.staticflickr.com/65535/50020874523_68274a03f8_n.jpg",
    "id_album": "109779448",
    "description": "Hare_871241",
    "title": "Hare_871241",
    "link_img": "https://live.staticflickr.com/65535/50020874523_e382189295_o.jpg",
    "id_image": "Hare_871241",
    "count_view": 0
  },
  {
    "link_thumb": "https://live.staticflickr.com/65535/50021393547_0acd445abd_n.jpg",
    "id_album": "-462831704",
    "description": "Cat_598379",
    "title": "Cat_598379",
    "link_img": "https://live.staticflickr.com/65535/50021393547_3f5bdca523_o.jpg",
    "id_image": "Cat_598379",
    "count_view": 0
  },
  {
    "link_thumb": "https://live.staticflickr.com/65535/50021616862_8829cc9d8a_n.jpg",
    "id_album": "2060159334",
    "description": "GoldenRetriever_865305",
    "title": "GoldenRetriever_865305",
    "link_img": "https://live.staticflickr.com/65535/50021616862_b0944ae4ef_o.jpg",
    "id_image": "GoldenRetriever_865305",
    "count_view": 0
  },
  {
    "link_thumb": "https://live.staticflickr.com/65535/50021306736_f92b57cb06_n.jpg",
    "id_album": "-405626519",
    "description": "GermanShepherd_876956",
    "title": "GermanShepherd_876956",
    "link_img": "https://live.staticflickr.com/65535/50021306736_bf41e6d155_o.jpg",
    "id_image": "GermanShepherd_876956",
    "count_view": 0
  },
  {
    "link_thumb": "https://live.staticflickr.com/65535/50021840726_4218d21b4c_n.jpg",
    "id_album": "-1882491687",
    "description": "Ladybug_221408",
    "title": "Ladybug_221408",
    "link_img": "https://live.staticflickr.com/65535/50021840726_13bf07a951_o.jpg",
    "id_image": "Ladybug_221408",
    "count_view": 0
  },
  {
    "link_thumb": "https://live.staticflickr.com/65535/50019699547_0f42f44410_n.jpg",
    "id_album": "-462831705",
    "description": "Cat_91377",
    "title": "Cat_91377",
    "link_img": "https://live.staticflickr.com/65535/50019699547_9d4a049dca_o.jpg",
    "id_image": "Cat_91377",
    "count_view": 0
  },
  {
    "link_thumb": "https://live.staticflickr.com/65535/50019596106_676edc4351_n.jpg",
    "id_album": "-1930903528",
    "description": "CatDog_864887",
    "title": "CatDog_864887",
    "link_img": "https://live.staticflickr.com/65535/50019596106_95aafeb8bd_o.jpg",
    "id_image": "CatDog_864887",
    "count_view": 0
  },
  {
    "link_thumb": "https://live.staticflickr.com/65535/50017568241_b5b254d6e9_n.jpg",
    "id_album": "-401151552",
    "description": "Butterfly_355207",
    "title": "Butterfly_355207",
    "link_img": "https://live.staticflickr.com/65535/50017568241_de6a2891ca_o.jpg",
    "id_image": "Butterfly_355207",
    "count_view": 0
  },
  {
    "link_thumb": "https://live.staticflickr.com/65535/50020690018_2f6d2b78a1_n.jpg",
    "id_album": "-462831703",
    "description": "Cat_764576",
    "title": "Cat_764576",
    "link_img": "https://live.staticflickr.com/65535/50020690018_365735c59f_o.jpg",
    "id_image": "Cat_764576",
    "count_view": 0
  },
  {
    "link_thumb": "https://live.staticflickr.com/65535/50016418183_8690f5ebea_n.jpg",
    "id_album": "390697200",
    "description": "AustralianShepherd_879523",
    "title": "AustralianShepherd_879523",
    "link_img": "https://live.staticflickr.com/65535/50016418183_7ceb16fe2c_o.jpg",
    "id_image": "AustralianShepherd_879523",
    "count_view": 0
  },
  {
    "link_thumb": "https://live.staticflickr.com/65535/50020568863_774089ab72_n.jpg",
    "id_album": "-462831704",
    "description": "Cat_554586",
    "title": "Cat_554586",
    "link_img": "https://live.staticflickr.com/65535/50020568863_a39ed5ac04_o.jpg",
    "id_image": "Cat_554586",
    "count_view": 0
  },
  {
    "link_thumb": "https://live.staticflickr.com/65535/50022019833_46c4a04336_n.jpg",
    "id_album": "405592235",
    "description": "Parrot_346147",
    "title": "Parrot_346147",
    "link_img": "https://live.staticflickr.com/65535/50022019833_e813bf5aed_o.jpg",
    "id_image": "Parrot_346147",
    "count_view": 0
  },
  {
    "link_thumb": "https://live.staticflickr.com/65535/50018615953_bf24de97ee_n.jpg",
    "id_album": "-462831702",
    "description": "Cat_414804",
    "title": "Cat_414804",
    "link_img": "https://live.staticflickr.com/65535/50018615953_c11611287c_o.jpg",
    "id_image": "Cat_414804",
    "count_view": 0
  },
  {
    "link_thumb": "https://live.staticflickr.com/65535/50023080813_8fbd1f2182_n.jpg",
    "id_album": "-1131363127",
    "description": "SnowLeopard_250521",
    "title": "SnowLeopard_250521",
    "link_img": "https://live.staticflickr.com/65535/50023080813_37ec5c696e_o.jpg",
    "id_image": "SnowLeopard_250521",
    "count_view": 0
  },
  {
    "link_thumb": "https://live.staticflickr.com/65535/50018078511_5660e56f12_n.jpg",
    "id_album": "-462831702",
    "description": "Cat_367184",
    "title": "Cat_367184",
    "link_img": "https://live.staticflickr.com/65535/50018078511_2896cfa8ab_o.jpg",
    "id_image": "Cat_367184",
    "count_view": 0
  },
  {
    "link_thumb": "https://live.staticflickr.com/65535/50019885723_aaca2ba67d_n.jpg",
    "id_album": "-149330231",
    "description": "Dog_444014",
    "title": "Dog_444014",
    "link_img": "https://live.staticflickr.com/65535/50019885723_c96b25e964_o.jpg",
    "id_image": "Dog_444014",
    "count_view": 0
  },
  {
    "link_thumb": "https://live.staticflickr.com/65535/50017755502_23cd12d88a_n.jpg",
    "id_album": "782930701",
    "description": "BorderCollie_815542",
    "title": "BorderCollie_815542",
    "link_img": "https://live.staticflickr.com/65535/50017755502_9ba95022b9_o.jpg",
    "id_image": "BorderCollie_815542",
    "count_view": 0
  },
  {
    "link_thumb": "https://live.staticflickr.com/65535/50019259293_62089bd045_n.jpg",
    "id_album": "643379324",
    "description": "Clownfish_836892",
    "title": "Clownfish_836892",
    "link_img": "https://live.staticflickr.com/65535/50019259293_4dc7b9de6f_o.jpg",
    "id_image": "Clownfish_836892",
    "count_view": 0
  },
  {
    "link_thumb": "https://live.staticflickr.com/65535/50020737757_34ca9bf2bc_n.jpg",
    "id_album": "-149330231",
    "description": "Dog_686426",
    "title": "Dog_686426",
    "link_img": "https://live.staticflickr.com/65535/50020737757_e69bafa917_o.jpg",
    "id_image": "Dog_686426",
    "count_view": 0
  },
  {
    "link_thumb": "https://live.staticflickr.com/65535/50019003008_b56de98d2f_n.jpg",
    "id_album": "-462831703",
    "description": "Cat_968504",
    "title": "Cat_968504",
    "link_img": "https://live.staticflickr.com/65535/50019003008_0b0ed1fc59_o.jpg",
    "id_image": "Cat_968504",
    "count_view": 0
  },
  {
    "link_thumb": "https://live.staticflickr.com/65535/50017224467_d1733e733c_n.jpg",
    "id_album": "231236068",
    "description": "BaldEagle_597049",
    "title": "BaldEagle_597049",
    "link_img": "https://live.staticflickr.com/65535/50017224467_0e8ab15a94_o.jpg",
    "id_image": "BaldEagle_597049",
    "count_view": 0
  },
  {
    "link_thumb": "https://live.staticflickr.com/65535/50021308063_ed612accce_n.jpg",
    "id_album": "-1882491687",
    "description": "Ladybug_423306",
    "title": "Ladybug_423306",
    "link_img": "https://live.staticflickr.com/65535/50021308063_c7e83092f8_o.jpg",
    "id_image": "Ladybug_423306",
    "count_view": 0
  },
  {
    "link_thumb": "https://live.staticflickr.com/65535/50021749848_1402a42dd7_n.jpg",
    "id_album": "1957967135",
    "description": "Mouse_464563",
    "title": "Mouse_464563",
    "link_img": "https://live.staticflickr.com/65535/50021749848_dd83175346_o.jpg",
    "id_image": "Mouse_464563",
    "count_view": 0
  },
  {
    "link_thumb": "https://live.staticflickr.com/65535/50022070573_090311767b_n.jpg",
    "id_album": "-801414987",
    "description": "Peacock_965292",
    "title": "Peacock_965292",
    "link_img": "https://live.staticflickr.com/65535/50022070573_b65389b803_o.jpg",
    "id_image": "Peacock_965292",
    "count_view": 0
  },
  {
    "link_thumb": "https://live.staticflickr.com/65535/50016957986_c5f6974ff3_n.jpg",
    "id_album": "231236068",
    "description": "BaldEagle_436155",
    "title": "BaldEagle_436155",
    "link_img": "https://live.staticflickr.com/65535/50016957986_433f5fb7ac_o.jpg",
    "id_image": "BaldEagle_436155",
    "count_view": 0
  },
  {
    "link_thumb": "https://live.staticflickr.com/65535/50019036158_2425590579_n.jpg",
    "id_album": "-462831703",
    "description": "Cat_994104",
    "title": "Cat_994104",
    "link_img": "https://live.staticflickr.com/65535/50019036158_188c88dfae_o.jpg",
    "id_image": "Cat_994104",
    "count_view": 0
  },
  {
    "link_thumb": "https://live.staticflickr.com/65535/50017376272_2980e8a2fa_n.jpg",
    "id_album": "1699594607",
    "description": "Bee_105942",
    "title": "Bee_105942",
    "link_img": "https://live.staticflickr.com/65535/50017376272_76b59a8edc_o.jpg",
    "id_image": "Bee_105942",
    "count_view": 0
  },
  {
    "link_thumb": "https://live.staticflickr.com/65535/50017432128_8aeb102625_n.jpg",
    "id_album": "-462831702",
    "description": "Cat_316439",
    "title": "Cat_316439",
    "link_img": "https://live.staticflickr.com/65535/50017432128_87a6cb710a_o.jpg",
    "id_image": "Cat_316439",
    "count_view": 0
  }
]