[
  {
    "link_thumb": "https://live.staticflickr.com/65535/50016631493_6eaa8614ba_n.jpg",
    "id_album": "1699594607",
    "description": "Bee_724396",
    "title": "Bee_724396",
    "link_img": "https://live.staticflickr.com/65535/50016631493_4d9a00bedf_o.jpg",
    "id_image": "Bee_724396",
    "count_view": 0
  },
  {
    "link_thumb": "https://live.staticflickr.com/65535/50020860853_43c277c7a1_n.jpg",
    "id_album": "-1168906494",
    "description": "Grasshopper_669289",
    "title": "Grasshopper_669289",
    "link_img": "https://live.staticflickr.com/65535/50020860853_6e61b08349_o.jpg",
    "id_image": "Grasshopper_669289",
    "count_view": 0
  },
  {
    "link_thumb": "https://live.staticflickr.com/65535/50352773712_e12aaf7496_n.jpg",
    "id_album": "-462831703",
    "description": "Cat_585261",
    "title": "Cat_585261",
    "link_img": "https://live.staticflickr.com/65535/50352773712_319a87cbb7_o.jpg",
    "id_image": "Cat_585261",
    "count_view": 0
  },
  {
    "link_thumb": "https://live.staticflickr.com/65535/50022199001_6ed962ea5d_n.jpg",
    "id_album": "-784970094",
    "description": "Monkey_329705",
    "title": "Monkey_329705",
    "link_img": "https://live.staticflickr.com/65535/50022199001_77cbab3bc3_o.jpg",
    "id_image": "Monkey_329705",
    "count_view": 0
  },
  {
    "link_thumb": "https://live.staticflickr.com/65535/50021264192_2d9a3a080a_n.jpg",
    "id_album": "-128218148",
    "description": "Fox_831689",
    "title": "Fox_831689",
    "link_img": "https://live.staticflickr.com/65535/50021264192_9e9c0456a2_o.jpg",
    "id_image": "Fox_831689",
    "count_view": 0
  },
  {
    "link_thumb": "https://live.staticflickr.com/65535/50017108657_c1d356b059_n.jpg",
    "id_album": "-834314226",
    "description": "ArcticFox_587910",
    "title": "ArcticFox_587910",
    "link_img": "https://live.staticflickr.com/65535/50017108657_41f8c4e51b_o.jpg",
    "id_image": "ArcticFox_587910",
    "count_view": 0
  },
  {
    "link_thumb": "https://live.staticflickr.com/65535/50020922747_d3805485bb_n.jpg",
    "id_album": "1168627767",
    "description": "Duck_630824",
    "title": "Duck_630824",
    "link_img": "https://live.staticflickr.com/65535/50020922747_9ab5012c6c_o.jpg",
    "id_image": "Duck_630824",
    "count_view": 0
  },
  {
    "link_thumb": "https://live.staticflickr.com/65535/50020590702_48e2362b55_n.jpg",
    "id_album": "-149330232",
    "description": "Dog_366815",
    "title": "Dog_366815",
    "link_img": "https://live.staticflickr.com/65535/50020590702_4b7b6c5dce_o.jpg",
    "id_image": "Dog_366815",
    "count_view": 0
  },
  {
    "link_thumb": "https://live.staticflickr.com/65535/50024260472_57b88412a0_n.jpg",
    "id_album": "1244464375",
    "description": "Starfish_911648",
    "title": "Starfish_911648",
    "link_img": "https://live.staticflickr.com/65535/50024260472_47aa2a5c5c_o.jpg",
    "id_image": "Starfish_911648",
    "count_view": 0
  },
  {
    "link_thumb": "https://live.staticflickr.com/65535/50021475967_34079e02b3_n.jpg",
    "id_album": "-462831703",
    "description": "Cat_742837",
    "title": "Cat_742837",
    "link_img": "https://live.staticflickr.com/65535/50021475967_a7b7864b5b_o.jpg",
    "id_image": "Cat_742837",
    "count_view": 0
  },
  {
    "link_thumb": "https://live.staticflickr.com/65535/50017329362_8d0fd897b8_n.jpg",
    "id_album": "-422187261",
    "description": "Bear_690370",
    "title": "Bear_690370",
    "link_img": "https://live.staticflickr.com/65535/50017329362_1df73f3a6e_o.jpg",
    "id_image": "Bear_690370",
    "count_view": 0
  },
  {
    "link_thumb": "https://live.staticflickr.com/65535/50023746118_0fe6c9d5db_n.jpg",
    "id_album": "901523298",
    "description": "TreeFrog_391693",
    "title": "TreeFrog_391693",
    "link_img": "https://live.staticflickr.com/65535/50023746118_31e7a2999f_o.jpg",
    "id_image": "TreeFrog_391693",
    "count_view": 0
  },
  {
    "link_thumb": "https://live.staticflickr.com/65535/50021971837_d6be2427a9_n.jpg",
    "id_album": "-843028318",
    "description": "Jaguar_253203",
    "title": "Jaguar_253203",
    "link_img": "https://live.staticflickr.com/65535/50021971837_0107b228b9_o.jpg",
    "id_image": "Jaguar_253203",
    "count_view": 0
  },
  {
    "link_thumb": "https://live.staticflickr.com/65535/50021607083_1838876ce7_n.jpg",
    "id_album": "1894617400",
    "description": "Lynx_453332",
    "title": "Lynx_453332",
    "link_img": "https://live.staticflickr.com/65535/50021607083_7e4876df05_o.jpg",
    "id_image": "Lynx_453332",
    "count_view": 0
  },
  {
    "link_thumb": "https://live.staticflickr.com/65535/50018135981_b968b5e461_n.jpg",
    "id_album": "-462831702",
    "description": "Cat_398175",
    "title": "Cat_398175",
    "link_img": "https://live.staticflickr.com/65535/50018135981_cbbcb4f430_o.jpg",
    "id_image": "Cat_398175",
    "count_view": 0
  },
  {
    "link_thumb": "https://live.staticflickr.com/65535/50019668773_27a04a3fe6_n.jpg",
    "id_album": "-149330232",
    "description": "Dog_268760",
    "title": "Dog_268760",
    "link_img": "https://live.staticflickr.com/65535/50019668773_8ecece954d_o.jpg",
    "id_image": "Dog_268760",
    "count_view": 0
  },
  {
    "link_thumb": "https://live.staticflickr.com/65535/50351921723_1a0a131560_n.jpg",
    "id_album": "-462831703",
    "description": "Cat_593717",
    "title": "Cat_593717",
    "link_img": "https://live.staticflickr.com/65535/50351921723_6b330fc2ba_o.jpg",
    "id_image": "Cat_593717",
    "count_view": 0
  },
  {
    "link_thumb": "https://live.staticflickr.com/65535/50022327252_247ca424f4_n.jpg",
    "id_album": "416744915",
    "description": "Lion_861334",
    "title": "Lion_861334",
    "link_img": "https://live.staticflickr.com/65535/50022327252_7b6449364c_o.jpg",
    "id_image": "Lion_861334",
    "count_view": 0
  },
  {
    "link_thumb": "https://live.staticflickr.com/65535/50021115881_164e877634_n.jpg",
    "id_album": "-462831704",
    "description": "Cat_565112",
    "title": "Cat_565112",
    "link_img": "https://live.staticflickr.com/65535/50021115881_10b63d7e08_o.jpg",
    "id_image": "Cat_565112",
    "count_view": 0
  },
  {
    "link_thumb": "https://live.staticflickr.com/65535/50352585881_af2f6db3c0_n.jpg",
    "id_album": "-462831703",
    "description": "Cat_524439",
    "title": "Cat_524439",
    "link_img": "https://live.staticflickr.com/65535/50352585881_79de7d59a4_o.jpg",
    "id_image": "Cat_524439",
    "count_view": 0
  },
  {
    "link_thumb": "https://live.staticflickr.com/65535/50023473973_de4a2865ec_n.jpg",
    "id_album": "1579675410",
    "description": "Swan_942934",
    "title": "Swan_942934",
    "link_img": "https://live.staticflickr.com/65535/50023473973_904922befc_o.jpg",
    "id_image": "Swan_942934",
    "count_view": 0
  },
  {
    "link_thumb": "https://live.staticflickr.com/65535/50024240966_f27c626cdb_n.jpg",
    "id_album": "405170427",
    "description": "Tiger_918419",
    "title": "Tiger_918419",
    "link_img": "https://live.staticflickr.com/65535/50024240966_97c1129215_o.jpg",
    "id_image": "Tiger_918419",
    "count_view": 0
  },
  {
    "link_thumb": "https://live.staticflickr.com/65535/50021254017_a1920d8556_n.jpg",
    "id_album": "-128218148",
    "description": "Fox_754653",
    "title": "Fox_754653",
    "link_img": "https://live.staticflickr.com/65535/50021254017_94a2ce1143_o.jpg",
    "id_image": "Fox_754653",
    "count_view": 0
  },
  {
    "link_thumb": "https://live.staticflickr.com/65535/50021952831_f5e26c850c_n.jpg",
    "id_album": "1392348450",
    "description": "Leopard_857902",
    "title": "Leopard_857902",
    "link_img": "https://live.staticflickr.com/65535/50021952831_714a8f26b1_o.jpg",
    "id_image": "Leopard_857902",
    "count_view": 0
  },
  {
    "link_thumb": "https://live.staticflickr.com/65535/50019722616_91c9948c37_n.jpg",
    "id_album": "-1481843714",
    "description": "Cheetah_701432",
    "title": "Cheetah_701432",
    "link_img": "https://live.staticflickr.com/65535/50019722616_2c499bc039_o.jpg",
    "id_image": "Cheetah_701432",
    "count_view": 0
  },
  {
    "link_thumb": "https://live.staticflickr.com/65535/50023047046_c1635378bb_n.jpg",
    "id_album": "-353898617",
    "description": "Puppy_678242",
    "title": "Puppy_678242",
    "link_img": "https://live.staticflickr.com/65535/50023047046_9e056eaf0b_o.jpg",
    "id_image": "Puppy_678242",
    "count_view": 0
  },
  {
    "link_thumb": "https://live.staticflickr.com/65535/50019230688_20f330228c_n.jpg",
    "id_album": "791455625",
    "description": "Chipmunk_402717",
    "title": "Chipmunk_402717",
    "link_img": "https://live.staticflickr.com/65535/50019230688_42635e51c2_o.jpg",
    "id_image": "Chipmunk_402717",
    "count_view": 0
  },
  {
    "link_thumb": "https://live.staticflickr.com/65535/50021179656_1588dbcab3_n.jpg",
    "id_album": "-462831704",
    "description": "Cat_698330",
    "title": "Cat_698330",
    "link_img": "https://live.staticflickr.com/65535/50021179656_45ca55490d_o.jpg",
    "id_image": "Cat_698330",
    "count_view": 0
  },
  {
    "link_thumb": "https://live.staticflickr.com/65535/50016444288_19650002ff_n.jpg",
    "id_album": "231236068",
    "description": "BaldEagle_873778",
    "title": "BaldEagle_873778",
    "link_img": "https://live.staticflickr.com/65535/50016444288_5cd8d1e780_o.jpg",
    "id_image": "BaldEagle_873778",
    "count_view": 0
  },
  {
    "link_thumb": "https://live.staticflickr.com/65535/50017402771_2f9fcb5061_n.jpg",
    "id_album": "-1846011410",
    "description": "Bird_686740",
    "title": "Bird_686740",
    "link_img": "https://live.staticflickr.com/65535/50017402771_98440a6fd3_o.jpg",
    "id_image": "Bird_686740",
    "count_view": 0
  },
  {
    "link_thumb": "https://live.staticflickr.com/65535/50352440911_14026c83ce_n.jpg",
    "id_album": "-462831703",
    "description": "Cat_246387",
    "title": "Cat_246387",
    "link_img": "https://live.staticflickr.com/65535/50352440911_6b165efb76_o.jpg",
    "id_image": "Cat_246387",
    "count_view": 0
  },
  {
    "link_thumb": "https://live.staticflickr.com/65535/50020722281_779f981784_n.jpg",
    "id_album": "-39098563",
    "description": "Eagle_734787",
    "title": "Eagle_734787",
    "link_img": "https://live.staticflickr.com/65535/50020722281_2dbac0bcac_o.jpg",
    "id_image": "Eagle_734787",
    "count_view": 0
  },
  {
    "link_thumb": "https://live.staticflickr.com/65535/50351878998_4c06b4955c_n.jpg",
    "id_album": "-462831703",
    "description": "Cat_506134",
    "title": "Cat_506134",
    "link_img": "https://live.staticflickr.com/65535/50351878998_e874d359bf_o.jpg",
    "id_image": "Cat_506134",
    "count_view": 0
  },
  {
    "link_thumb": "https://live.staticflickr.com/65535/50021427796_940a252431_n.jpg",
    "id_album": "1469520430",
    "description": "Hedgehog_240873",
    "title": "Hedgehog_240873",
    "link_img": "https://live.staticflickr.com/65535/50021427796_a43c8bf7d3_o.jpg",
    "id_image": "Hedgehog_240873",
    "count_view": 0
  },
  {
    "link_thumb": "https://live.staticflickr.com/65535/50016476748_44ea6abb7c_n.jpg",
    "id_album": "-422187261",
    "description": "Bear_159468",
    "title": "Bear_159468",
    "link_img": "https://live.staticflickr.com/65535/50016476748_fbd4490b57_o.jpg",
    "id_image": "Bear_159468",
    "count_view": 0
  },
  {
    "link_thumb": "https://live.staticflickr.com/65535/50021157308_d636577412_n.jpg",
    "id_album": "1658866795",
    "description": "Insect_431258",
    "title": "Insect_431258",
    "link_img": "https://live.staticflickr.com/65535/50021157308_c5356e4798_o.jpg",
    "id_image": "Insect_431258",
    "count_view": 0
  },
  {
    "link_thumb": "https://live.staticflickr.com/65535/50020463268_e8450cace0_n.jpg",
    "id_album": "-128218148",
    "description": "Fox_792850",
    "title": "Fox_792850",
    "link_img": "https://live.staticflickr.com/65535/50020463268_e52b86ee4a_o.jpg",
    "id_image": "Fox_792850",
    "count_view": 0
  },
  {
    "link_thumb": "https://live.staticflickr.com/65535/50021069881_e41eb95495_n.jpg",
    "id_album": "844170697",
    "description": "Frog_591469",
    "title": "Frog_591469",
    "link_img": "https://live.staticflickr.com/65535/50021069881_22d9af1b68_o.jpg",
    "id_image": "Frog_591469",
    "count_view": 0
  },
  {
    "link_thumb": "https://live.staticflickr.com/65535/50352706512_3b3d4bcd58_n.jpg",
    "id_album": "-462831703",
    "description": "Cat_463943",
    "title": "Cat_463943",
    "link_img": "https://live.staticflickr.com/65535/50352706512_4684f724f2_o.jpg",
    "id_image": "Cat_463943",
    "count_view": 0
  },
  {
    "link_thumb": "https://live.staticflickr.com/65535/50018276972_a900db6bbe_n.jpg",
    "id_album": "-462831702",
    "description": "Cat_343434",
    "title": "Cat_343434",
    "link_img": "https://live.staticflickr.com/65535/50018276972_d1063d2ce6_o.jpg",
    "id_image": "Cat_343434",
    "count_view": 0
  },
  {
    "link_thumb": "https://live.staticflickr.com/65535/50017124472_a1b8245a4b_n.jpg",
    "id_album": "523598895",
    "description": "Artistic_115928",
    "title": "Artistic_115928",
    "link_img": "https://live.staticflickr.com/65535/50017124472_727c3eed35_o.jpg",
    "id_image": "Artistic_115928",
    "count_view": 0
  },
  {
    "link_thumb": "https://live.staticflickr.com/65535/50023025901_a3ee52015b_n.jpg",
    "id_album": "-353898617",
    "description": "Puppy_572138",
    "title": "Puppy_572138",
    "link_img": "https://live.staticflickr.com/65535/50023025901_52a3c4e217_o.jpg",
    "id_image": "Puppy_572138",
    "count_view": 0
  },
  {
    "link_thumb": "https://live.staticflickr.com/65535/50022307001_f33ccee8a5_n.jpg",
    "id_album": "1015034486",
    "description": "Muteswan_309157",
    "title": "Muteswan_309157",
    "link_img": "https://live.staticflickr.com/65535/50022307001_c04d1a3be3_o.jpg",
    "id_image": "Muteswan_309157",
    "count_view": 0
  },
  {
    "link_thumb": "https://live.staticflickr.com/65535/50020505227_d79a152ddb_n.jpg",
    "id_album": "-149330232",
    "description": "Dog_328957",
    "title": "Dog_328957",
    "link_img": "https://live.staticflickr.com/65535/50020505227_a57bd7d40c_o.jpg",
    "id_image": "Dog_328957",
    "count_view": 0
  },
  {
    "link_thumb": "https://live.staticflickr.com/65535/50018887773_c071345aa6_n.jpg",
    "id_album": "-462831703",
    "description": "Cat_901890",
    "title": "Cat_901890",
    "link_img": "https://live.staticflickr.com/65535/50018887773_59321a0155_o.jpg",
    "id_image": "Cat_901890",
    "count_view": 0
  },
  {
    "link_thumb": "https://live.staticflickr.com/65535/50017846176_8bbcfba3ef_n.jpg",
    "id_album": "-462831705",
    "description": "Cat_205407",
    "title": "Cat_205407",
    "link_img": "https://live.staticflickr.com/65535/50017846176_b092334fe2_o.jpg",
    "id_image": "Cat_205407",
    "count_view": 0
  },
  {
    "link_thumb": "https://live.staticflickr.com/65535/50018305197_2a699c8eda_n.jpg",
    "id_album": "-462831702",
    "description": "Cat_357051",
    "title": "Cat_357051",
    "link_img": "https://live.staticflickr.com/65535/50018305197_52e0ee77a7_o.jpg",
    "id_image": "Cat_357051",
    "count_view": 0
  },
  {
    "link_thumb": "https://live.staticflickr.com/65535/50019930573_2bc49390fd_n.jpg",
    "id_album": "-149330231",
    "description": "Dog_590343",
    "title": "Dog_590343",
    "link_img": "https://live.staticflickr.com/65535/50019930573_a2c32b6ac2_o.jpg",
    "id_image": "Dog_590343",
    "count_view": 0
  },
  {
    "link_thumb": "https://live.staticflickr.com/65535/50018017912_4f6513ee94_n.jpg",
    "id_album": "-462831705",
    "description": "Cat_113332",
    "title": "Cat_113332",
    "link_img": "https://live.staticflickr.com/65535/50018017912_be1352f65c_o.jpg",
    "id_image": "Cat_113332",
    "count_view": 0
  },
  {
    "link_thumb": "https://live.staticflickr.com/65535/50020102198_bcf717d3bf_n.jpg",
    "id_album": "-405058657",
    "description": "Dragonfly_701381",
    "title": "Dragonfly_701381",
    "link_img": "https://live.staticflickr.com/65535/50020102198_2cecffa6f0_o.jpg",
    "id_image": "Dragonfly_701381",
    "count_view": 0
  },
  {
    "link_thumb": "https://live.staticflickr.com/65535/50020548352_8b2fe7fe5e_n.jpg",
    "id_album": "-149330232",
    "description": "Dog_345927",
    "title": "Dog_345927",
    "link_img": "https://live.staticflickr.com/65535/50020548352_dd2977fc51_o.jpg",
    "id_image": "Dog_345927",
    "count_view": 0
  },
  {
    "link_thumb": "https://live.staticflickr.com/65535/50019590258_a190e8fc07_n.jpg",
    "id_album": "-149330232",
    "description": "Dog_115006",
    "title": "Dog_115006",
    "link_img": "https://live.staticflickr.com/65535/50019590258_aa0721af32_o.jpg",
    "id_image": "Dog_115006",
    "count_view": 0
  },
  {
    "link_thumb": "https://live.staticflickr.com/65535/50023458967_6cc15102f8_n.jpg",
    "id_album": "332874268",
    "description": "RedPanda_276145",
    "title": "RedPanda_276145",
    "link_img": "https://live.staticflickr.com/65535/50023458967_9bb620157f_o.jpg",
    "id_image": "RedPanda_276145",
    "count_view": 0
  },
  {
    "link_thumb": "https://live.staticflickr.com/65535/50020669548_79b0ae1109_n.jpg",
    "id_album": "-462831704",
    "description": "Cat_732044",
    "title": "Cat_732044",
    "link_img": "https://live.staticflickr.com/65535/50020669548_1eba2f0990_o.jpg",
    "id_image": "Cat_732044",
    "count_view": 0
  },
  {
    "link_thumb": "https://live.staticflickr.com/65535/50019635473_cf2e931c8d_n.jpg",
    "id_album": "-149330232",
    "description": "Dog_234127",
    "title": "Dog_234127",
    "link_img": "https://live.staticflickr.com/65535/50019635473_537705ccc1_o.jpg",
    "id_image": "Dog_234127",
    "count_view": 0
  },
  {
    "link_thumb": "https://live.staticflickr.com/65535/50020539317_c29c91c552_n.jpg",
    "id_album": "-149330232",
    "description": "Dog_341971",
    "title": "Dog_341971",
    "link_img": "https://live.staticflickr.com/65535/50020539317_12bc2f388c_o.jpg",
    "id_image": "Dog_341971",
    "count_view": 0
  },
  {
    "link_thumb": "https://live.staticflickr.com/65535/50019942646_bc732f4ea6_n.jpg",
    "id_album": "1273365283",
    "description": "Cute_437579",
    "title": "Cute_437579",
    "link_img": "https://live.staticflickr.com/65535/50019942646_e36d1ef0de_o.jpg",
    "id_image": "Cute_437579",
    "count_view": 0
  },
  {
    "link_thumb": "https://live.staticflickr.com/65535/50017234476_8977e055db_n.jpg",
    "id_album": "-1846011410",
    "description": "Bird_312964",
    "title": "Bird_312964",
    "link_img": "https://live.staticflickr.com/65535/50017234476_4c9dabfcd7_o.jpg",
    "id_image": "Bird_312964",
    "count_view": 0
  },
  {
    "link_thumb": "https://live.staticflickr.com/65535/50023265503_e4bfce385f_n.jpg",
    "id_album": "-1082521515",
    "description": "Spider_995021",
    "title": "Spider_995021",
    "link_img": "https://live.staticflickr.com/65535/50023265503_d513dab258_o.jpg",
    "id_image": "Spider_995021",
    "count_view": 0
  },
  {
    "link_thumb": "https://live.staticflickr.com/65535/50022793177_c6d61011be_n.jpg",
    "id_album": "-358592519",
    "description": "Panda_427493",
    "title": "Panda_427493",
    "link_img": "https://live.staticflickr.com/65535/50022793177_4d04fc7494_o.jpg",
    "id_image": "Panda_427493",
    "count_view": 0
  },
  {
    "link_thumb": "https://live.staticflickr.com/65535/50021748218_8f76186465_n.jpg",
    "id_album": "1957967135",
    "description": "Mouse_424608",
    "title": "Mouse_424608",
    "link_img": "https://live.staticflickr.com/65535/50021748218_f3b4208a7f_o.jpg",
    "id_image": "Mouse_424608",
    "count_view": 0
  },
  {
    "link_thumb": "https://live.staticflickr.com/65535/50022405177_5e7251b487_n.jpg",
    "id_album": "1894617400",
    "description": "Lynx_421400",
    "title": "Lynx_421400",
    "link_img": "https://live.staticflickr.com/65535/50022405177_c0ca82b0f2_o.jpg",
    "id_image": "Lynx_421400",
    "count_view": 0
  },
  {
    "link_thumb": "https://live.staticflickr.com/65535/50351996428_aa2aeafbd7_n.jpg",
    "id_album": "-462831702",
    "description": "Cat_158849",
    "title": "Cat_158849",
    "link_img": "https://live.staticflickr.com/65535/50351996428_930c86872b_o.jpg",
    "id_image": "Cat_158849",
    "count_view": 0
  },
  {
    "link_thumb": "https://live.staticflickr.com/65535/50017933967_b41d7081c4_n.jpg",
    "id_album": "-401151552",
    "description": "Butterfly_814124",
    "title": "Butterfly_814124",
    "link_img": "https://live.staticflickr.com/65535/50017933967_f6aecb19cb_o.jpg",
    "id_image": "Butterfly_814124",
    "count_view": 0
  },
  {
    "link_thumb": "https://live.staticflickr.com/65535/50020689161_6a977cd94d_n.jpg",
    "id_album": "-39098563",
    "description": "Eagle_308310",
    "title": "Eagle_308310",
    "link_img": "https://live.staticflickr.com/65535/50020689161_c78be78627_o.jpg",
    "id_image": "Eagle_308310",
    "count_view": 0
  },
  {
    "link_thumb": "https://live.staticflickr.com/65535/50020285726_1a0c8c8b26_n.jpg",
    "id_album": "-149330232",
    "description": "Dog_343143",
    "title": "Dog_343143",
    "link_img": "https://live.staticflickr.com/65535/50020285726_3e587228b1_o.jpg",
    "id_image": "Dog_343143",
    "count_view": 0
  },
  {
    "link_thumb": "https://live.staticflickr.com/65535/50352803772_090c83565f_n.jpg",
    "id_album": "-462831703",
    "description": "Cat_684585",
    "title": "Cat_684585",
    "link_img": "https://live.staticflickr.com/65535/50352803772_88897cd83f_o.jpg",
    "id_image": "Cat_684585",
    "count_view": 0
  },
  {
    "link_thumb": "https://live.staticflickr.com/65535/50021911976_f2dc29f97d_n.jpg",
    "id_album": "1392348450",
    "description": "Leopard_374209",
    "title": "Leopard_374209",
    "link_img": "https://live.staticflickr.com/65535/50021911976_e06edee478_o.jpg",
    "id_image": "Leopard_374209",
    "count_view": 0
  },
  {
    "link_thumb": "https://live.staticflickr.com/65535/50019720837_8d59854222_n.jpg",
    "id_album": "-462831703",
    "description": "Cat_916844",
    "title": "Cat_916844",
    "link_img": "https://live.staticflickr.com/65535/50019720837_07492f5bf8_o.jpg",
    "id_image": "Cat_916844",
    "count_view": 0
  },
  {
    "link_thumb": "https://live.staticflickr.com/65535/50017269593_761d3130f6_n.jpg",
    "id_album": "-462831705",
    "description": "Cat_166884",
    "title": "Cat_166884",
    "link_img": "https://live.staticflickr.com/65535/50017269593_103b9cd2f1_o.jpg",
    "id_image": "Cat_166884",
    "count_view": 0
  },
  {
    "link_thumb": "https://live.staticflickr.com/65535/50017538013_faa462bbcf_n.jpg",
    "id_album": "-462831702",
    "description": "Cat_364162",
    "title": "Cat_364162",
    "link_img": "https://live.staticflickr.com/65535/50017538013_8af3af7bd6_o.jpg",
    "id_image": "Cat_364162",
    "count_view": 0
  },
  {
    "link_thumb": "https://live.staticflickr.com/65535/50020004653_39c3ac2f5a_n.jpg",
    "id_album": "-149330231",
    "description": "Dog_891661",
    "title": "Dog_891661",
    "link_img": "https://live.staticflickr.com/65535/50020004653_82f755b176_o.jpg",
    "id_image": "Dog_891661",
    "count_view": 0
  },
  {
    "link_thumb": "https://live.staticflickr.com/65535/50022147827_1246b67d59_n.jpg",
    "id_album": "1392348450",
    "description": "Leopard_242105",
    "title": "Leopard_242105",
    "link_img": "https://live.staticflickr.com/65535/50022147827_9eab7c4800_o.jpg",
    "id_image": "Leopard_242105",
    "count_view": 0
  },
  {
    "link_thumb": "https://live.staticflickr.com/65535/50020802071_2266708461_n.jpg",
    "id_album": "1270947998",
    "description": "Elephant_913793",
    "title": "Elephant_913793",
    "link_img": "https://live.staticflickr.com/65535/50020802071_d15f2b4757_o.jpg",
    "id_image": "Elephant_913793",
    "count_view": 0
  },
  {
    "link_thumb": "https://live.staticflickr.com/65535/50020625548_a8c59ac454_n.jpg",
    "id_album": "-462831704",
    "description": "Cat_686262",
    "title": "Cat_686262",
    "link_img": "https://live.staticflickr.com/65535/50020625548_ec6b0600fb_o.jpg",
    "id_image": "Cat_686262",
    "count_view": 0
  },
  {
    "link_thumb": "https://live.staticflickr.com/65535/50018181932_448033b2a4_n.jpg",
    "id_album": "-462831705",
    "description": "Cat_270402",
    "title": "Cat_270402",
    "link_img": "https://live.staticflickr.com/65535/50018181932_1717f1817c_o.jpg",
    "id_image": "Cat_270402",
    "count_view": 0
  },
  {
    "link_thumb": "https://live.staticflickr.com/65535/50019229063_e4d5562cbc_n.jpg",
    "id_album": "791455625",
    "description": "Chipmunk_356238",
    "title": "Chipmunk_356238",
    "link_img": "https://live.staticflickr.com/65535/50019229063_0fdf806a92_o.jpg",
    "id_image": "Chipmunk_356238",
    "count_view": 0
  },
  {
    "link_thumb": "https://live.staticflickr.com/65535/50017139127_83f01329ae_n.jpg",
    "id_album": "523598895",
    "description": "Artistic_209035",
    "title": "Artistic_209035",
    "link_img": "https://live.staticflickr.com/65535/50017139127_ce3d07711f_o.jpg",
    "id_image": "Artistic_209035",
    "count_view": 0
  },
  {
    "link_thumb": "https://live.staticflickr.com/65535/50020490452_6619d64652_n.jpg",
    "id_album": "-149330232",
    "description": "Dog_306925",
    "title": "Dog_306925",
    "link_img": "https://live.staticflickr.com/65535/50020490452_a25a7f98bb_o.jpg",
    "id_image": "Dog_306925",
    "count_view": 0
  },
  {
    "link_thumb": "https://live.staticflickr.com/65535/50016740898_cb4c671e1e_n.jpg",
    "id_album": "-1846011410",
    "description": "Bird_354245",
    "title": "Bird_354245",
    "link_img": "https://live.staticflickr.com/65535/50016740898_d6c2d1560a_o.jpg",
    "id_image": "Bird_354245",
    "count_view": 0
  },
  {
    "link_thumb": "https://live.staticflickr.com/65535/50352527721_cec1c8ce9d_n.jpg",
    "id_album": "-462831703",
    "description": "Cat_442845",
    "title": "Cat_442845",
    "link_img": "https://live.staticflickr.com/65535/50352527721_ba425caf97_o.jpg",
    "id_image": "Cat_442845",
    "count_view": 0
  },
  {
    "link_thumb": "https://live.staticflickr.com/65535/50020669156_1129b5a576_n.jpg",
    "id_album": "1168627767",
    "description": "Duck_711366",
    "title": "Duck_711366",
    "link_img": "https://live.staticflickr.com/65535/50020669156_3108bb76ff_o.jpg",
    "id_image": "Duck_711366",
    "count_view": 0
  },
  {
    "link_thumb": "https://live.staticflickr.com/65535/50017723127_50c5e09d5a_n.jpg",
    "id_album": "-530283314",
    "description": "BlueandyellowMacaw_349386",
    "title": "BlueandyellowMacaw_349386",
    "link_img": "https://live.staticflickr.com/65535/50017723127_c6116c5cef_o.jpg",
    "id_image": "BlueandyellowMacaw_349386",
    "count_view": 0
  },
  {
    "link_thumb": "https://live.staticflickr.com/65535/50021301953_36c677334e_n.jpg",
    "id_album": "-1882491687",
    "description": "Ladybug_347427",
    "title": "Ladybug_347427",
    "link_img": "https://live.staticflickr.com/65535/50021301953_d557875bd2_o.jpg",
    "id_image": "Ladybug_347427",
    "count_view": 0
  },
  {
    "link_thumb": "https://live.staticflickr.com/65535/50020780517_c7779a6ed6_n.jpg",
    "id_album": "-149330231",
    "description": "Dog_853731",
    "title": "Dog_853731",
    "link_img": "https://live.staticflickr.com/65535/50020780517_b022798a5d_o.jpg",
    "id_image": "Dog_853731",
    "count_view": 0
  },
  {
    "link_thumb": "https://live.staticflickr.com/65535/50017432513_fd21fcbb85_n.jpg",
    "id_album": "-462831702",
    "description": "Cat_316461",
    "title": "Cat_316461",
    "link_img": "https://live.staticflickr.com/65535/50017432513_6a26cc398b_o.jpg",
    "id_image": "Cat_316461",
    "count_view": 0
  },
  {
    "link_thumb": "https://live.staticflickr.com/65535/50018420097_71e3326e3f_n.jpg",
    "id_album": "-462831702",
    "description": "Cat_409804",
    "title": "Cat_409804",
    "link_img": "https://live.staticflickr.com/65535/50018420097_c1b931b57c_o.jpg",
    "id_image": "Cat_409804",
    "count_view": 0
  },
  {
    "link_thumb": "https://live.staticflickr.com/65535/50020987896_5d3265db2a_n.jpg",
    "id_album": "-128218148",
    "description": "Fox_668951",
    "title": "Fox_668951",
    "link_img": "https://live.staticflickr.com/65535/50020987896_b630530e5d_o.jpg",
    "id_image": "Fox_668951",
    "count_view": 0
  },
  {
    "link_thumb": "https://live.staticflickr.com/65535/50019417008_7dde9455ce_n.jpg",
    "id_album": "1273365283",
    "description": "Cute_86889",
    "title": "Cute_86889",
    "link_img": "https://live.staticflickr.com/65535/50019417008_0aed929f25_o.jpg",
    "id_image": "Cute_86889",
    "count_view": 0
  },
  {
    "link_thumb": "https://live.staticflickr.com/65535/50019895518_9719694ac3_n.jpg",
    "id_album": "-149330231",
    "description": "Dog_462642",
    "title": "Dog_462642",
    "link_img": "https://live.staticflickr.com/65535/50019895518_bd08e7df03_o.jpg",
    "id_image": "Dog_462642",
    "count_view": 0
  },
  {
    "link_thumb": "https://live.staticflickr.com/65535/50016737228_464a0220ac_n.jpg",
    "id_album": "-1846011410",
    "description": "Bird_350724",
    "title": "Bird_350724",
    "link_img": "https://live.staticflickr.com/65535/50016737228_4ec04aeb88_o.jpg",
    "id_image": "Bird_350724",
    "count_view": 0
  },
  {
    "link_thumb": "https://live.staticflickr.com/65535/50020542157_daf586433c_n.jpg",
    "id_album": "-149330232",
    "description": "Dog_342824",
    "title": "Dog_342824",
    "link_img": "https://live.staticflickr.com/65535/50020542157_b945517d72_o.jpg",
    "id_image": "Dog_342824",
    "count_view": 0
  },
  {
    "link_thumb": "https://live.staticflickr.com/65535/50020491362_3994a2cb23_n.jpg",
    "id_album": "-149330232",
    "description": "Dog_309053",
    "title": "Dog_309053",
    "link_img": "https://live.staticflickr.com/65535/50020491362_2643a4acca_o.jpg",
    "id_image": "Dog_309053",
    "count_view": 0
  },
  {
    "link_thumb": "https://live.staticflickr.com/65535/50022686582_a9d1b6ff0e_n.jpg",
    "id_album": "-1384601601",
    "description": "Owl_436639",
    "title": "Owl_436639",
    "link_img": "https://live.staticflickr.com/65535/50022686582_20debbc28a_o.jpg",
    "id_image": "Owl_436639",
    "count_view": 0
  },
  {
    "link_thumb": "https://live.staticflickr.com/65535/50017971687_bddff7cd94_n.jpg",
    "id_album": "-401151552",
    "description": "Butterfly_927178",
    "title": "Butterfly_927178",
    "link_img": "https://live.staticflickr.com/65535/50017971687_362a01db99_o.jpg",
    "id_image": "Butterfly_927178",
    "count_view": 0
  },
  {
    "link_thumb": "https://live.staticflickr.com/65535/50017085991_365baf62db_n.jpg",
    "id_album": "-422187261",
    "description": "Bear_824847",
    "title": "Bear_824847",
    "link_img": "https://live.staticflickr.com/65535/50017085991_8a6d983ecd_o.jpg",
    "id_image": "Bear_824847",
    "count_view": 0
  },
  {
    "link_thumb": "https://live.staticflickr.com/65535/50023485012_fbdc367511_n.jpg",
    "id_album": "332874268",
    "description": "RedPanda_686485",
    "title": "RedPanda_686485",
    "link_img": "https://live.staticflickr.com/65535/50023485012_c17cdecbcb_o.jpg",
    "id_image": "RedPanda_686485",
    "count_view": 0
  },
  {
    "link_thumb": "https://live.staticflickr.com/65535/50021490367_f90b8a29c8_n.jpg",
    "id_album": "-462831703",
    "description": "Cat_774922",
    "title": "Cat_774922",
    "link_img": "https://live.staticflickr.com/65535/50021490367_c43e5ccd4a_o.jpg",
    "id_image": "Cat_774922",
    "count_view": 0
  },
  {
    "link_thumb": "https://live.staticflickr.com/65535/50021187898_3daf327122_n.jpg",
    "id_album": "-843028318",
    "description": "Jaguar_534728",
    "title": "Jaguar_534728",
    "link_img": "https://live.staticflickr.com/65535/50021187898_b55fff6235_o.jpg",
    "id_image": "Jaguar_534728",
    "count_view": 0
  },
  {
    "link_thumb": "https://live.staticflickr.com/65535/50019480662_491dc0876b_n.jpg",
    "id_album": "-462831704",
    "description": "Cat_453878",
    "title": "Cat_453878",
    "link_img": "https://live.staticflickr.com/65535/50019480662_000993f53c_o.jpg",
    "id_image": "Cat_453878",
    "count_view": 0
  },
  {
    "link_thumb": "https://live.staticflickr.com/65535/50021263617_bc45756100_n.jpg",
    "id_album": "-128218148",
    "description": "Fox_830373",
    "title": "Fox_830373",
    "link_img": "https://live.staticflickr.com/65535/50021263617_0043e6cee2_o.jpg",
    "id_image": "Fox_830373",
    "count_view": 0
  },
  {
    "link_thumb": "https://live.staticflickr.com/65535/50018800983_453e17bd94_n.jpg",
    "id_album": "-462831703",
    "description": "Cat_859450",
    "title": "Cat_859450",
    "link_img": "https://live.staticflickr.com/65535/50018800983_e53de136e5_o.jpg",
    "id_image": "Cat_859450",
    "count_view": 0
  },
  {
    "link_thumb": "https://live.staticflickr.com/65535/50020640768_363f52e464_n.jpg",
    "id_album": "-462831704",
    "description": "Cat_702176",
    "title": "Cat_702176",
    "link_img": "https://live.staticflickr.com/65535/50020640768_7cbed5691d_o.jpg",
    "id_image": "Cat_702176",
    "count_view": 0
  },
  {
    "link_thumb": "https://live.staticflickr.com/65535/50020715607_0a9d0704e1_n.jpg",
    "id_album": "-149330231",
    "description": "Dog_556344",
    "title": "Dog_556344",
    "link_img": "https://live.staticflickr.com/65535/50020715607_4f3c56eaae_o.jpg",
    "id_image": "Dog_556344",
    "count_view": 0
  },
  {
    "link_thumb": "https://live.staticflickr.com/65535/50017373652_80b9d5da3f_n.jpg",
    "id_album": "-422187261",
    "description": "Bear_982307",
    "title": "Bear_982307",
    "link_img": "https://live.staticflickr.com/65535/50017373652_c7481e76b3_o.jpg",
    "id_image": "Bear_982307",
    "count_view": 0
  },
  {
    "link_thumb": "https://live.staticflickr.com/65535/50017049903_58ab0f24c5_n.jpg",
    "id_album": "-401151552",
    "description": "Butterfly_378046",
    "title": "Butterfly_378046",
    "link_img": "https://live.staticflickr.com/65535/50017049903_34d130caf1_o.jpg",
    "id_image": "Butterfly_378046",
    "count_view": 0
  },
  {
    "link_thumb": "https://live.staticflickr.com/65535/50017491608_7798ffe045_n.jpg",
    "id_album": "-462831702",
    "description": "Cat_344790",
    "title": "Cat_344790",
    "link_img": "https://live.staticflickr.com/65535/50017491608_2ff2bf712e_o.jpg",
    "id_image": "Cat_344790",
    "count_view": 0
  },
  {
    "link_thumb": "https://live.staticflickr.com/65535/50021057251_d3e04fc389_n.jpg",
    "id_album": "844170697",
    "description": "Frog_354704",
    "title": "Frog_354704",
    "link_img": "https://live.staticflickr.com/65535/50021057251_cce5dfaac2_o.jpg",
    "id_image": "Frog_354704",
    "count_view": 0
  },
  {
    "link_thumb": "https://live.staticflickr.com/65535/50017360763_8414eedb72_n.jpg",
    "id_album": "-462831705",
    "description": "Cat_236501",
    "title": "Cat_236501",
    "link_img": "https://live.staticflickr.com/65535/50017360763_8110117a13_o.jpg",
    "id_image": "Cat_236501",
    "count_view": 0
  },
  {
    "link_thumb": "https://live.staticflickr.com/65535/50021178268_b482021aaf_n.jpg",
    "id_album": "-843028318",
    "description": "Jaguar_374233",
    "title": "Jaguar_374233",
    "link_img": "https://live.staticflickr.com/65535/50021178268_af9eabccf1_o.jpg",
    "id_image": "Jaguar_374233",
    "count_view": 0
  },
  {
    "link_thumb": "https://live.staticflickr.com/65535/50022529267_75da8220a9_n.jpg",
    "id_album": "-817970387",
    "description": "Moose_405064",
    "title": "Moose_405064",
    "link_img": "https://live.staticflickr.com/65535/50022529267_1e1b981528_o.jpg",
    "id_image": "Moose_405064",
    "count_view": 0
  },
  {
    "link_thumb": "https://live.staticflickr.com/65535/50016303928_34b5b97674_n.jpg",
    "id_album": "-1741290715",
    "description": "Ant_391176",
    "title": "Ant_391176",
    "link_img": "https://live.staticflickr.com/65535/50016303928_7deddd8266_o.jpg",
    "id_image": "Ant_391176",
    "count_view": 0
  },
  {
    "link_thumb": "https://live.staticflickr.com/65535/50022959438_2ceb628cfe_n.jpg",
    "id_album": "692487763",
    "description": "SiberianHusky_837084",
    "title": "SiberianHusky_837084",
    "link_img": "https://live.staticflickr.com/65535/50022959438_7989fa38b7_o.jpg",
    "id_image": "SiberianHusky_837084",
    "count_view": 0
  },
  {
    "link_thumb": "https://live.staticflickr.com/65535/50020352931_e05d5ff7b6_n.jpg",
    "id_album": "-149330232",
    "description": "Dog_377958",
    "title": "Dog_377958",
    "link_img": "https://live.staticflickr.com/65535/50020352931_4ae0b63a5e_o.jpg",
    "id_image": "Dog_377958",
    "count_view": 0
  },
  {
    "link_thumb": "https://live.staticflickr.com/65535/50021742806_223aa08733_n.jpg",
    "id_album": "-843028318",
    "description": "Jaguar_876788",
    "title": "Jaguar_876788",
    "link_img": "https://live.staticflickr.com/65535/50021742806_97c8845df3_o.jpg",
    "id_image": "Jaguar_876788",
    "count_view": 0
  },
  {
    "link_thumb": "https://live.staticflickr.com/65535/50020062058_2a92bb7a23_n.jpg",
    "id_album": "-1859457960",
    "description": "Dove_220395",
    "title": "Dove_220395",
    "link_img": "https://live.staticflickr.com/65535/50020062058_65c0b34ae0_o.jpg",
    "id_image": "Dove_220395",
    "count_view": 0
  },
  {
    "link_thumb": "https://live.staticflickr.com/65535/50017076877_12af5112d4_n.jpg",
    "id_album": "-1473450542",
    "description": "Alpaca_548377",
    "title": "Alpaca_548377",
    "link_img": "https://live.staticflickr.com/65535/50017076877_4485476d8f_o.jpg",
    "id_image": "Alpaca_548377",
    "count_view": 0
  },
  {
    "link_thumb": "https://live.staticflickr.com/65535/50017436776_68a235716c_n.jpg",
    "id_album": "-1846011410",
    "description": "Bird_878403",
    "title": "Bird_878403",
    "link_img": "https://live.staticflickr.com/65535/50017436776_1ba0c0eaff_o.jpg",
    "id_image": "Bird_878403",
    "count_view": 0
  },
  {
    "link_thumb": "https://live.staticflickr.com/65535/50020539306_8be62b9782_n.jpg",
    "id_album": "-149330231",
    "description": "Dog_900805",
    "title": "Dog_900805",
    "link_img": "https://live.staticflickr.com/65535/50020539306_92a757cbda_o.jpg",
    "id_image": "Dog_900805",
    "count_view": 0
  },
  {
    "link_thumb": "https://live.staticflickr.com/65535/50023325142_5dbaf011a9_n.jpg",
    "id_album": "-353898617",
    "description": "Puppy_883883",
    "title": "Puppy_883883",
    "link_img": "https://live.staticflickr.com/65535/50023325142_92da806346_o.jpg",
    "id_image": "Puppy_883883",
    "count_view": 0
  },
  {
    "link_thumb": "https://live.staticflickr.com/65535/50022360326_af21bb01e2_n.jpg",
    "id_album": "106807275",
    "description": "Otter_113653",
    "title": "Otter_113653",
    "link_img": "https://live.staticflickr.com/65535/50022360326_2f3ce05a6d_o.jpg",
    "id_image": "Otter_113653",
    "count_view": 0
  },
  {
    "link_thumb": "https://live.staticflickr.com/65535/50023147256_31e768577e_n.jpg",
    "id_album": "248289288",
    "description": "Raccoon_426469",
    "title": "Raccoon_426469",
    "link_img": "https://live.staticflickr.com/65535/50023147256_5f81e0f55c_o.jpg",
    "id_image": "Raccoon_426469",
    "count_view": 0
  },
  {
    "link_thumb": "https://live.staticflickr.com/65535/50024809307_f95d684a67_n.jpg",
    "id_album": "-709711865",
    "description": "Wolf_826234",
    "title": "Wolf_826234",
    "link_img": "https://live.staticflickr.com/65535/50024809307_f2e6778c00_o.jpg",
    "id_image": "Wolf_826234",
    "count_view": 0
  },
  {
    "link_thumb": "https://live.staticflickr.com/65535/50020708423_267d556122_n.jpg",
    "id_album": "-462831703",
    "description": "Cat_790272",
    "title": "Cat_790272",
    "link_img": "https://live.staticflickr.com/65535/50020708423_660f666bf2_o.jpg",
    "id_image": "Cat_790272",
    "count_view": 0
  },
  {
    "link_thumb": "https://live.staticflickr.com/65535/50017202491_398828e7d3_n.jpg",
    "id_album": "-1846011410",
    "description": "Bird_170092",
    "title": "Bird_170092",
    "link_img": "https://live.staticflickr.com/65535/50017202491_11d80438c8_o.jpg",
    "id_image": "Bird_170092",
    "count_view": 0
  },
  {
    "link_thumb": "https://live.staticflickr.com/65535/50016982121_18800b2eac_n.jpg",
    "id_album": "-80092825",
    "description": "Barnowl_986388",
    "title": "Barnowl_986388",
    "link_img": "https://live.staticflickr.com/65535/50016982121_0c8a077215_o.jpg",
    "id_image": "Barnowl_986388",
    "count_view": 0
  },
  {
    "link_thumb": "https://live.staticflickr.com/65535/50023388882_caf3ffc03f_n.jpg",
    "id_album": "-1940643173",
    "description": "Rabbit_879242",
    "title": "Rabbit_879242",
    "link_img": "https://live.staticflickr.com/65535/50023388882_82b2970839_o.jpg",
    "id_image": "Rabbit_879242",
    "count_view": 0
  },
  {
    "link_thumb": "https://live.staticflickr.com/65535/50017915996_6017ea1e4b_n.jpg",
    "id_album": "-462831705",
    "description": "Cat_263954",
    "title": "Cat_263954",
    "link_img": "https://live.staticflickr.com/65535/50017915996_f7b81e4560_o.jpg",
    "id_image": "Cat_263954",
    "count_view": 0
  },
  {
    "link_thumb": "https://live.staticflickr.com/65535/50023487997_753c278832_n.jpg",
    "id_album": "332874268",
    "description": "RedPanda_776083",
    "title": "RedPanda_776083",
    "link_img": "https://live.staticflickr.com/65535/50023487997_f397d0904c_o.jpg",
    "id_image": "RedPanda_776083",
    "count_view": 0
  },
  {
    "link_thumb": "https://live.staticflickr.com/65535/50018350297_28248f8117_n.jpg",
    "id_album": "-462831702",
    "description": "Cat_369502",
    "title": "Cat_369502",
    "link_img": "https://live.staticflickr.com/65535/50018350297_9c3d1ac674_o.jpg",
    "id_image": "Cat_369502",
    "count_view": 0
  },
  {
    "link_thumb": "https://live.staticflickr.com/65535/50020566531_60baa1708b_n.jpg",
    "id_album": "-54509188",
    "description": "Dolphin_331641",
    "title": "Dolphin_331641",
    "link_img": "https://live.staticflickr.com/65535/50020566531_549251ce9e_o.jpg",
    "id_image": "Dolphin_331641",
    "count_view": 0
  },
  {
    "link_thumb": "https://live.staticflickr.com/65535/50023479678_cb44717371_n.jpg",
    "id_album": "405170427",
    "description": "Tiger_114845",
    "title": "Tiger_114845",
    "link_img": "https://live.staticflickr.com/65535/50023479678_3a65b50d6f_o.jpg",
    "id_image": "Tiger_114845",
    "count_view": 0
  },
  {
    "link_thumb": "https://live.staticflickr.com/65535/50021085951_a4f7f91eb8_n.jpg",
    "id_album": "844170697",
    "description": "Frog_921302",
    "title": "Frog_921302",
    "link_img": "https://live.staticflickr.com/65535/50021085951_c5af5b46a0_o.jpg",
    "id_image": "Frog_921302",
    "count_view": 0
  },
  {
    "link_thumb": "https://live.staticflickr.com/65535/50021141136_d9ca2b77e0_n.jpg",
    "id_album": "-462831704",
    "description": "Cat_599509",
    "title": "Cat_599509",
    "link_img": "https://live.staticflickr.com/65535/50021141136_014429e81d_o.jpg",
    "id_image": "Cat_599509",
    "count_view": 0
  },
  {
    "link_thumb": "https://live.staticflickr.com/65535/50020276222_335afeda60_n.jpg",
    "id_album": "1903411565",
    "description": "Deer_520590",
    "title": "Deer_520590",
    "link_img": "https://live.staticflickr.com/65535/50020276222_2c61280173_o.jpg",
    "id_image": "Deer_520590",
    "count_view": 0
  },
  {
    "link_thumb": "https://live.staticflickr.com/65535/50020579948_922b3e5954_n.jpg",
    "id_album": "-462831704",
    "description": "Cat_572029",
    "title": "Cat_572029",
    "link_img": "https://live.staticflickr.com/65535/50020579948_730a0a5806_o.jpg",
    "id_image": "Cat_572029",
    "count_view": 0
  },
  {
    "link_thumb": "https://live.staticflickr.com/65535/50020495122_a221c2e033_n.jpg",
    "id_album": "-149330232",
    "description": "Dog_323376",
    "title": "Dog_323376",
    "link_img": "https://live.staticflickr.com/65535/50020495122_77510fddc1_o.jpg",
    "id_image": "Dog_323376",
    "count_view": 0
  },
  {
    "link_thumb": "https://live.staticflickr.com/65535/50352464531_83ba6199cd_n.jpg",
    "id_album": "-462831703",
    "description": "Cat_362961",
    "title": "Cat_362961",
    "link_img": "https://live.staticflickr.com/65535/50352464531_343fc26a58_o.jpg",
    "id_image": "Cat_362961",
    "count_view": 0
  },
  {
    "link_thumb": "https://live.staticflickr.com/65535/50022206108_aab6286b04_n.jpg",
    "id_album": "407660898",
    "description": "Pigeon_206242",
    "title": "Pigeon_206242",
    "link_img": "https://live.staticflickr.com/65535/50022206108_ab72ccc91d_o.jpg",
    "id_image": "Pigeon_206242",
    "count_view": 0
  },
  {
    "link_thumb": "https://live.staticflickr.com/65535/50019927076_90704a73e1_n.jpg",
    "id_album": "1273365283",
    "description": "Cute_277728",
    "title": "Cute_277728",
    "link_img": "https://live.staticflickr.com/65535/50019927076_3573f700d4_o.jpg",
    "id_image": "Cute_277728",
    "count_view": 0
  },
  {
    "link_thumb": "https://live.staticflickr.com/65535/50021842916_d4a217f118_n.jpg",
    "id_album": "-1882491687",
    "description": "Ladybug_288705",
    "title": "Ladybug_288705",
    "link_img": "https://live.staticflickr.com/65535/50021842916_aa5cdefe38_o.jpg",
    "id_image": "Ladybug_288705",
    "count_view": 0
  },
  {
    "link_thumb": "https://live.staticflickr.com/65535/50017243642_9e7f3af84b_n.jpg",
    "id_album": "-80092825",
    "description": "Barnowl_938188",
    "title": "Barnowl_938188",
    "link_img": "https://live.staticflickr.com/65535/50017243642_446f6945bb_o.jpg",
    "id_image": "Barnowl_938188",
    "count_view": 0
  },
  {
    "link_thumb": "https://live.staticflickr.com/65535/50017416023_f5cbb06c5d_n.jpg",
    "id_album": "-462831702",
    "description": "Cat_292926",
    "title": "Cat_292926",
    "link_img": "https://live.staticflickr.com/65535/50017416023_dae7204aac_o.jpg",
    "id_image": "Cat_292926",
    "count_view": 0
  },
  {
    "link_thumb": "https://live.staticflickr.com/65535/50019019683_a271802404_n.jpg",
    "id_album": "-462831703",
    "description": "Cat_983074",
    "title": "Cat_983074",
    "link_img": "https://live.staticflickr.com/65535/50019019683_ba13923c26_o.jpg",
    "id_image": "Cat_983074",
    "count_view": 0
  },
  {
    "link_thumb": "https://live.staticflickr.com/65535/50021208167_b9559db352_n.jpg",
    "id_album": "-128218148",
    "description": "Fox_362753",
    "title": "Fox_362753",
    "link_img": "https://live.staticflickr.com/65535/50021208167_622a566f64_o.jpg",
    "id_image": "Fox_362753",
    "count_view": 0
  },
  {
    "link_thumb": "https://live.staticflickr.com/65535/50017831512_3b6c117e48_n.jpg",
    "id_album": "-401151552",
    "description": "Butterfly_360037",
    "title": "Butterfly_360037",
    "link_img": "https://live.staticflickr.com/65535/50017831512_6170a46e4d_o.jpg",
    "id_image": "Butterfly_360037",
    "count_view": 0
  },
  {
    "link_thumb": "https://live.staticflickr.com/65535/50019657036_2de6d479ca_n.jpg",
    "id_album": "-766919393",
    "description": "Chameleon_649171",
    "title": "Chameleon_649171",
    "link_img": "https://live.staticflickr.com/65535/50019657036_60939f5f96_o.jpg",
    "id_image": "Chameleon_649171",
    "count_view": 0
  },
  {
    "link_thumb": "https://live.staticflickr.com/65535/50022827238_bdbeb2b6b2_n.jpg",
    "id_album": "1656131695",
    "description": "Seagull_468396",
    "title": "Seagull_468396",
    "link_img": "https://live.staticflickr.com/65535/50022827238_fd06ac2104_o.jpg",
    "id_image": "Seagull_468396",
    "count_view": 0
  },
  {
    "link_thumb": "https://live.staticflickr.com/65535/50021500257_6b53e5d920_n.jpg",
    "id_album": "-462831703",
    "description": "Cat_787534",
    "title": "Cat_787534",
    "link_img": "https://live.staticflickr.com/65535/50021500257_2972fdee2d_o.jpg",
    "id_image": "Cat_787534",
    "count_view": 0
  },
  {
    "link_thumb": "https://live.staticflickr.com/65535/50022138926_4954d0bd06_n.jpg",
    "id_album": "1894617400",
    "description": "Lynx_371430",
    "title": "Lynx_371430",
    "link_img": "https://live.staticflickr.com/65535/50022138926_80fcc0839c_o.jpg",
    "id_image": "Lynx_371430",
    "count_view": 0
  },
  {
    "link_thumb": "https://live.staticflickr.com/65535/50017115833_7ef5826023_n.jpg",
    "id_album": "-401151552",
    "description": "Butterfly_685302",
    "title": "Butterfly_685302",
    "link_img": "https://live.staticflickr.com/65535/50017115833_08ed1d01c0_o.jpg",
    "id_image": "Butterfly_685302",
    "count_view": 0
  },
  {
    "link_thumb": "https://live.staticflickr.com/65535/50023658737_90971fc1ae_n.jpg",
    "id_album": "1961094930",
    "description": "Seal_276799",
    "title": "Seal_276799",
    "link_img": "https://live.staticflickr.com/65535/50023658737_8fdb02c21a_o.jpg",
    "id_image": "Seal_276799",
    "count_view": 0
  },
  {
    "link_thumb": "https://live.staticflickr.com/65535/50023215236_7fcf6bd5d2_n.jpg",
    "id_album": "332874268",
    "description": "RedPanda_571361",
    "title": "RedPanda_571361",
    "link_img": "https://live.staticflickr.com/65535/50023215236_fdd4f51939_o.jpg",
    "id_image": "RedPanda_571361",
    "count_view": 0
  },
  {
    "link_thumb": "https://live.staticflickr.com/65535/50022237267_e491cc8faf_n.jpg",
    "id_album": "416744915",
    "description": "Lion_247671",
    "title": "Lion_247671",
    "link_img": "https://live.staticflickr.com/65535/50022237267_c7082f9e46_o.jpg",
    "id_image": "Lion_247671",
    "count_view": 0
  },
  {
    "link_thumb": "https://live.staticflickr.com/65535/50019637597_4fd3195322_n.jpg",
    "id_album": "-462831703",
    "description": "Cat_878001",
    "title": "Cat_878001",
    "link_img": "https://live.staticflickr.com/65535/50019637597_33e3ae1864_o.jpg",
    "id_image": "Cat_878001",
    "count_view": 0
  },
  {
    "link_thumb": "https://live.staticflickr.com/65535/50021924632_0eb56ab1b7_n.jpg",
    "id_album": "1658866795",
    "description": "Insect_393088",
    "title": "Insect_393088",
    "link_img": "https://live.staticflickr.com/65535/50021924632_4b917f4c87_o.jpg",
    "id_image": "Insect_393088",
    "count_view": 0
  },
  {
    "link_thumb": "https://live.staticflickr.com/65535/50020211653_6b19fb6c74_n.jpg",
    "id_album": "1270947998",
    "description": "Elephant_346935",
    "title": "Elephant_346935",
    "link_img": "https://live.staticflickr.com/65535/50020211653_d23b81b17a_o.jpg",
    "id_image": "Elephant_346935",
    "count_view": 0
  },
  {
    "link_thumb": "https://live.staticflickr.com/65535/50021057771_246723edaa_n.jpg",
    "id_album": "844170697",
    "description": "Frog_364022",
    "title": "Frog_364022",
    "link_img": "https://live.staticflickr.com/65535/50021057771_1a189073c2_o.jpg",
    "id_image": "Frog_364022",
    "count_view": 0
  },
  {
    "link_thumb": "https://live.staticflickr.com/65535/50016831971_907ebc5047_n.jpg",
    "id_album": "-1741290715",
    "description": "Ant_375287",
    "title": "Ant_375287",
    "link_img": "https://live.staticflickr.com/65535/50016831971_f9f16880e6_o.jpg",
    "id_image": "Ant_375287",
    "count_view": 0
  },
  {
    "link_thumb": "https://live.staticflickr.com/65535/50017337578_a6cc405224_n.jpg",
    "id_album": "-462831705",
    "description": "Cat_216793",
    "title": "Cat_216793",
    "link_img": "https://live.staticflickr.com/65535/50017337578_85312e0751_o.jpg",
    "id_image": "Cat_216793",
    "count_view": 0
  },
  {
    "link_thumb": "https://live.staticflickr.com/65535/50023982681_57c9d00196_n.jpg",
    "id_album": "702283289",
    "description": "Squirrel_981187",
    "title": "Squirrel_981187",
    "link_img": "https://live.staticflickr.com/65535/50023982681_52256bac04_o.jpg",
    "id_image": "Squirrel_981187",
    "count_view": 0
  },
  {
    "link_thumb": "https://live.staticflickr.com/65535/50023154053_eb5635820e_n.jpg",
    "id_album": "-359606417",
    "description": "Sparrow_210068",
    "title": "Sparrow_210068",
    "link_img": "https://live.staticflickr.com/65535/50023154053_1e3474f221_o.jpg",
    "id_image": "Sparrow_210068",
    "count_view": 0
  },
  {
    "link_thumb": "https://live.staticflickr.com/65535/50019780328_690c11eaa2_n.jpg",
    "id_album": "-149330232",
    "description": "Dog_357039",
    "title": "Dog_357039",
    "link_img": "https://live.staticflickr.com/65535/50019780328_7b363bdcf1_o.jpg",
    "id_image": "Dog_357039",
    "count_view": 0
  },
  {
    "link_thumb": "https://live.staticflickr.com/65535/50020577146_7f58f82b28_n.jpg",
    "id_album": "-54509188",
    "description": "Dolphin_461194",
    "title": "Dolphin_461194",
    "link_img": "https://live.staticflickr.com/65535/50020577146_310699b749_o.jpg",
    "id_image": "Dolphin_461194",
    "count_view": 0
  },
  {
    "link_thumb": "https://live.staticflickr.com/65535/50022854123_0165ccd4cb_n.jpg",
    "id_album": "1961094930",
    "description": "Seal_217640",
    "title": "Seal_217640",
    "link_img": "https://live.staticflickr.com/65535/50022854123_db89aa824e_o.jpg",
    "id_image": "Seal_217640",
    "count_view": 0
  },
  {
    "link_thumb": "https://live.staticflickr.com/65535/50022352903_b87e2db648_n.jpg",
    "id_album": "191452764",
    "description": "PrayingMantis_588122",
    "title": "PrayingMantis_588122",
    "link_img": "https://live.staticflickr.com/65535/50022352903_21fc3cea1c_o.jpg",
    "id_image": "PrayingMantis_588122",
    "count_view": 0
  },
  {
    "link_thumb": "https://live.staticflickr.com/65535/50019426446_e4d844e38d_n.jpg",
    "id_album": "-462831703",
    "description": "Cat_905054",
    "title": "Cat_905054",
    "link_img": "https://live.staticflickr.com/65535/50019426446_37e32b4d0e_o.jpg",
    "id_image": "Cat_905054",
    "count_view": 0
  },
  {
    "link_thumb": "https://live.staticflickr.com/65535/50017493447_b30421af0e_n.jpg",
    "id_album": "-1846011410",
    "description": "Bird_304066",
    "title": "Bird_304066",
    "link_img": "https://live.staticflickr.com/65535/50017493447_2e4349ca23_o.jpg",
    "id_image": "Bird_304066",
    "count_view": 0
  },
  {
    "link_thumb": "https://live.staticflickr.com/65535/50018138702_7c357e029e_n.jpg",
    "id_album": "-462831705",
    "description": "Cat_233325",
    "title": "Cat_233325",
    "link_img": "https://live.staticflickr.com/65535/50018138702_ee6723746d_o.jpg",
    "id_image": "Cat_233325",
    "count_view": 0
  },
  {
    "link_thumb": "https://live.staticflickr.com/65535/50019806268_aa22d84c62_n.jpg",
    "id_album": "-149330232",
    "description": "Dog_369200",
    "title": "Dog_369200",
    "link_img": "https://live.staticflickr.com/65535/50019806268_6d88ab9d95_o.jpg",
    "id_image": "Dog_369200",
    "count_view": 0
  },
  {
    "link_thumb": "https://live.staticflickr.com/65535/50017886797_6c6be975b9_n.jpg",
    "id_album": "-401151552",
    "description": "Butterfly_553659",
    "title": "Butterfly_553659",
    "link_img": "https://live.staticflickr.com/65535/50017886797_bb4535c0ac_o.jpg",
    "id_image": "Butterfly_553659",
    "count_view": 0
  },
  {
    "link_thumb": "https://live.staticflickr.com/65535/50352414821_3cedd76219_n.jpg",
    "id_album": "-462831703",
    "description": "Cat_189588",
    "title": "Cat_189588",
    "link_img": "https://live.staticflickr.com/65535/50352414821_bdc3190463_o.jpg",
    "id_image": "Cat_189588",
    "count_view": 0
  },
  {
    "link_thumb": "https://live.staticflickr.com/65535/50017796517_604e664175_n.jpg",
    "id_album": "-401151552",
    "description": "Butterfly_124557",
    "title": "Butterfly_124557",
    "link_img": "https://live.staticflickr.com/65535/50017796517_77cbd93d14_o.jpg",
    "id_image": "Butterfly_124557",
    "count_view": 0
  },
  {
    "link_thumb": "https://live.staticflickr.com/65535/50023482036_5050a0accc_n.jpg",
    "id_album": "-755466332",
    "description": "Sheep_491502",
    "title": "Sheep_491502",
    "link_img": "https://live.staticflickr.com/65535/50023482036_6a87740ab2_o.jpg",
    "id_image": "Sheep_491502",
    "count_view": 0
  },
  {
    "link_thumb": "https://live.staticflickr.com/65535/50017592656_e62c723206_n.jpg",
    "id_album": "-401151552",
    "description": "Butterfly_427095",
    "title": "Butterfly_427095",
    "link_img": "https://live.staticflickr.com/65535/50017592656_f94375dda5_o.jpg",
    "id_image": "Butterfly_427095",
    "count_view": 0
  },
  {
    "link_thumb": "https://live.staticflickr.com/65535/50020919952_a9a18a3f1a_n.jpg",
    "id_album": "1168627767",
    "description": "Duck_546782",
    "title": "Duck_546782",
    "link_img": "https://live.staticflickr.com/65535/50020919952_ee9d45241f_o.jpg",
    "id_image": "Duck_546782",
    "count_view": 0
  },
  {
    "link_thumb": "https://live.staticflickr.com/65535/50017484602_668da7db51_n.jpg",
    "id_album": "-1846011410",
    "description": "Bird_269559",
    "title": "Bird_269559",
    "link_img": "https://live.staticflickr.com/65535/50017484602_423e9cdce3_o.jpg",
    "id_image": "Bird_269559",
    "count_view": 0
  },
  {
    "link_thumb": "https://live.staticflickr.com/65535/50020072093_b2d802ddc2_n.jpg",
    "id_album": "-405058657",
    "description": "Dragonfly_110542",
    "title": "Dragonfly_110542",
    "link_img": "https://live.staticflickr.com/65535/50020072093_484d840d68_o.jpg",
    "id_image": "Dragonfly_110542",
    "count_view": 0
  },
  {
    "link_thumb": "https://live.staticflickr.com/65535/50023347596_0cd46f7efe_n.jpg",
    "id_album": "-419757464",
    "description": "SeaLife_75238",
    "title": "SeaLife_75238",
    "link_img": "https://live.staticflickr.com/65535/50023347596_04f82e83ff_o.jpg",
    "id_image": "SeaLife_75238",
    "count_view": 0
  },
  {
    "link_thumb": "https://live.staticflickr.com/65535/50020950737_174e9d1cab_n.jpg",
    "id_album": "-39098563",
    "description": "Eagle_347725",
    "title": "Eagle_347725",
    "link_img": "https://live.staticflickr.com/65535/50020950737_1004d6124f_o.jpg",
    "id_image": "Eagle_347725",
    "count_view": 0
  },
  {
    "link_thumb": "https://live.staticflickr.com/65535/50017182777_9816457c57_n.jpg",
    "id_album": "523598895",
    "description": "Artistic_867848",
    "title": "Artistic_867848",
    "link_img": "https://live.staticflickr.com/65535/50017182777_90c423625b_o.jpg",
    "id_image": "Artistic_867848",
    "count_view": 0
  },
  {
    "link_thumb": "https://live.staticflickr.com/65535/50017418147_e8024357fa_n.jpg",
    "id_album": "1699594607",
    "description": "Bee_715250",
    "title": "Bee_715250",
    "link_img": "https://live.staticflickr.com/65535/50017418147_d333754d85_o.jpg",
    "id_image": "Bee_715250",
    "count_view": 0
  },
  {
    "link_thumb": "https://live.staticflickr.com/65535/50021132491_78973c7698_n.jpg",
    "id_album": "-462831704",
    "description": "Cat_593611",
    "title": "Cat_593611",
    "link_img": "https://live.staticflickr.com/65535/50021132491_8ec4f76af9_o.jpg",
    "id_image": "Cat_593611",
    "count_view": 0
  },
  {
    "link_thumb": "https://live.staticflickr.com/65535/50021840181_b424cb424e_n.jpg",
    "id_album": "-1882491687",
    "description": "Ladybug_212865",
    "title": "Ladybug_212865",
    "link_img": "https://live.staticflickr.com/65535/50021840181_3e2cd06a49_o.jpg",
    "id_image": "Ladybug_212865",
    "count_view": 0
  },
  {
    "link_thumb": "https://live.staticflickr.com/65535/50020864327_24154c222b_n.jpg",
    "id_album": "-405058657",
    "description": "Dragonfly_311884",
    "title": "Dragonfly_311884",
    "link_img": "https://live.staticflickr.com/65535/50020864327_a89bbb032a_o.jpg",
    "id_image": "Dragonfly_311884",
    "count_view": 0
  },
  {
    "link_thumb": "https://live.staticflickr.com/65535/50017635356_c7689c96d0_n.jpg",
    "id_album": "-401151552",
    "description": "Butterfly_576886",
    "title": "Butterfly_576886",
    "link_img": "https://live.staticflickr.com/65535/50017635356_bf27876ac1_o.jpg",
    "id_image": "Butterfly_576886",
    "count_view": 0
  },
  {
    "link_thumb": "https://live.staticflickr.com/65535/50017034618_107cec0ce3_n.jpg",
    "id_album": "-401151552",
    "description": "Butterfly_326764",
    "title": "Butterfly_326764",
    "link_img": "https://live.staticflickr.com/65535/50017034618_c4dcf88d05_o.jpg",
    "id_image": "Butterfly_326764",
    "count_view": 0
  },
  {
    "link_thumb": "https://live.staticflickr.com/65535/50016633103_ed9466b4de_n.jpg",
    "id_album": "1699594607",
    "description": "Bee_750436",
    "title": "Bee_750436",
    "link_img": "https://live.staticflickr.com/65535/50016633103_14281a0354_o.jpg",
    "id_image": "Bee_750436",
    "count_view": 0
  },
  {
    "link_thumb": "https://live.staticflickr.com/65535/50018134262_43609809d3_n.jpg",
    "id_album": "-462831705",
    "description": "Cat_224126",
    "title": "Cat_224126",
    "link_img": "https://live.staticflickr.com/65535/50018134262_dcae304626_o.jpg",
    "id_image": "Cat_224126",
    "count_view": 0
  },
  {
    "link_thumb": "https://live.staticflickr.com/65535/50022212407_aef5d726c8_n.jpg",
    "id_album": "1392348450",
    "description": "Leopard_882409",
    "title": "Leopard_882409",
    "link_img": "https://live.staticflickr.com/65535/50022212407_a28f719069_o.jpg",
    "id_image": "Leopard_882409",
    "count_view": 0
  },
  {
    "link_thumb": "https://live.staticflickr.com/65535/50016777393_ecf620a1c3_n.jpg",
    "id_album": "-1846011410",
    "description": "Bird_397905",
    "title": "Bird_397905",
    "link_img": "https://live.staticflickr.com/65535/50016777393_89e49707a8_o.jpg",
    "id_image": "Bird_397905",
    "count_view": 0
  },
  {
    "link_thumb": "https://live.staticflickr.com/65535/50024052836_e07b81414a_n.jpg",
    "id_album": "405170427",
    "description": "Tiger_260832",
    "title": "Tiger_260832",
    "link_img": "https://live.staticflickr.com/65535/50024052836_ff76b1e7c5_o.jpg",
    "id_image": "Tiger_260832",
    "count_view": 0
  },
  {
    "link_thumb": "https://live.staticflickr.com/65535/50023590802_dea292f827_n.jpg",
    "id_album": "-419757464",
    "description": "SeaLife_159965",
    "title": "SeaLife_159965",
    "link_img": "https://live.staticflickr.com/65535/50023590802_4782cab207_o.jpg",
    "id_image": "SeaLife_159965",
    "count_view": 0
  },
  {
    "link_thumb": "https://live.staticflickr.com/65535/50017533521_3c6bc7949c_n.jpg",
    "id_album": "-401151552",
    "description": "Butterfly_117586",
    "title": "Butterfly_117586",
    "link_img": "https://live.staticflickr.com/65535/50017533521_56f51845b9_o.jpg",
    "id_image": "Butterfly_117586",
    "count_view": 0
  },
  {
    "link_thumb": "https://live.staticflickr.com/65535/50019842241_660efb854c_n.jpg",
    "id_album": "-2144640780",
    "description": "Cow_409132",
    "title": "Cow_409132",
    "link_img": "https://live.staticflickr.com/65535/50019842241_669e8bffde_o.jpg",
    "id_image": "Cow_409132",
    "count_view": 0
  },
  {
    "link_thumb": "https://live.staticflickr.com/65535/50352699081_e02d1b343e_n.jpg",
    "id_album": "-462831702",
    "description": "Cat_20656",
    "title": "Cat_20656",
    "link_img": "https://live.staticflickr.com/65535/50352699081_15c0120f36_o.jpg",
    "id_image": "Cat_20656",
    "count_view": 0
  },
  {
    "link_thumb": "https://live.staticflickr.com/65535/50017940622_ccf6c49693_n.jpg",
    "id_album": "-401151552",
    "description": "Butterfly_858538",
    "title": "Butterfly_858538",
    "link_img": "https://live.staticflickr.com/65535/50017940622_61b7786643_o.jpg",
    "id_image": "Butterfly_858538",
    "count_view": 0
  },
  {
    "link_thumb": "https://live.staticflickr.com/65535/50021713643_5eea4bd131_n.jpg",
    "id_album": "-784970094",
    "description": "Monkey_592002",
    "title": "Monkey_592002",
    "link_img": "https://live.staticflickr.com/65535/50021713643_16f11db0d0_o.jpg",
    "id_image": "Monkey_592002",
    "count_view": 0
  },
  {
    "link_thumb": "https://live.staticflickr.com/65535/50020739841_9494226f43_n.jpg",
    "id_album": "1270947998",
    "description": "Elephant_279328",
    "title": "Elephant_279328",
    "link_img": "https://live.staticflickr.com/65535/50020739841_4bf62dbafc_o.jpg",
    "id_image": "Elephant_279328",
    "count_view": 0
  },
  {
    "link_thumb": "https://live.staticflickr.com/65535/50016370628_e391587bcd_n.jpg",
    "id_album": "523598895",
    "description": "Artistic_339909",
    "title": "Artistic_339909",
    "link_img": "https://live.staticflickr.com/65535/50016370628_65aed2486b_o.jpg",
    "id_image": "Artistic_339909",
    "count_view": 0
  },
  {
    "link_thumb": "https://live.staticflickr.com/65535/50017124922_e235c71493_n.jpg",
    "id_album": "523598895",
    "description": "Artistic_115962",
    "title": "Artistic_115962",
    "link_img": "https://live.staticflickr.com/65535/50017124922_028381b5fa_o.jpg",
    "id_image": "Artistic_115962",
    "count_view": 0
  },
  {
    "link_thumb": "https://live.staticflickr.com/65535/50016813578_293bffe35a_n.jpg",
    "id_album": "-1846011410",
    "description": "Bird_443738",
    "title": "Bird_443738",
    "link_img": "https://live.staticflickr.com/65535/50016813578_f32186901d_o.jpg",
    "id_image": "Bird_443738",
    "count_view": 0
  },
  {
    "link_thumb": "https://live.staticflickr.com/65535/50019745468_1bf9f5a52e_n.jpg",
    "id_album": "-149330232",
    "description": "Dog_340470",
    "title": "Dog_340470",
    "link_img": "https://live.staticflickr.com/65535/50019745468_29d134f6f1_o.jpg",
    "id_image": "Dog_340470",
    "count_view": 0
  },
  {
    "link_thumb": "https://live.staticflickr.com/65535/50021240677_188a9f8eda_n.jpg",
    "id_album": "-128218148",
    "description": "Fox_668949",
    "title": "Fox_668949",
    "link_img": "https://live.staticflickr.com/65535/50021240677_382c825b2c_o.jpg",
    "id_image": "Fox_668949",
    "count_view": 0
  },
  {
    "link_thumb": "https://live.staticflickr.com/65535/50020828583_dd2cb5e74a_n.jpg",
    "id_album": "2060159334",
    "description": "GoldenRetriever_923720",
    "title": "GoldenRetriever_923720",
    "link_img": "https://live.staticflickr.com/65535/50020828583_a83a8a31d6_o.jpg",
    "id_image": "GoldenRetriever_923720",
    "count_view": 0
  },
  {
    "link_thumb": "https://live.staticflickr.com/65535/50022687798_8e8fb0c285_n.jpg",
    "id_album": "332874268",
    "description": "RedPanda_740479",
    "title": "RedPanda_740479",
    "link_img": "https://live.staticflickr.com/65535/50022687798_117ef96578_o.jpg",
    "id_image": "RedPanda_740479",
    "count_view": 0
  },
  {
    "link_thumb": "https://live.staticflickr.com/65535/50023467697_88f984f435_n.jpg",
    "id_album": "332874268",
    "description": "RedPanda_402858",
    "title": "RedPanda_402858",
    "link_img": "https://live.staticflickr.com/65535/50023467697_4c3ff461f3_o.jpg",
    "id_image": "RedPanda_402858",
    "count_view": 0
  },
  {
    "link_thumb": "https://live.staticflickr.com/65535/50021293646_187a43f13f_n.jpg",
    "id_album": "-405626519",
    "description": "GermanShepherd_654980",
    "title": "GermanShepherd_654980",
    "link_img": "https://live.staticflickr.com/65535/50021293646_4c0393b3c5_o.jpg",
    "id_image": "GermanShepherd_654980",
    "count_view": 0
  },
  {
    "link_thumb": "https://live.staticflickr.com/65535/50016944108_0881103495_n.jpg",
    "id_album": "-530283314",
    "description": "BlueandyellowMacaw_618337",
    "title": "BlueandyellowMacaw_618337",
    "link_img": "https://live.staticflickr.com/65535/50016944108_c4552217ea_o.jpg",
    "id_image": "BlueandyellowMacaw_618337",
    "count_view": 0
  },
  {
    "link_thumb": "https://live.staticflickr.com/65535/50017464098_70c8224366_n.jpg",
    "id_album": "-462831702",
    "description": "Cat_332198",
    "title": "Cat_332198",
    "link_img": "https://live.staticflickr.com/65535/50017464098_b12825fc7a_o.jpg",
    "id_image": "Cat_332198",
    "count_view": 0
  },
  {
    "link_thumb": "https://live.staticflickr.com/65535/50016532808_91e1d989fc_n.jpg",
    "id_album": "-422187261",
    "description": "Bear_589845",
    "title": "Bear_589845",
    "link_img": "https://live.staticflickr.com/65535/50016532808_671e1d334f_o.jpg",
    "id_image": "Bear_589845",
    "count_view": 0
  },
  {
    "link_thumb": "https://live.staticflickr.com/65535/50023494817_93aed6c730_n.jpg",
    "id_album": "332874268",
    "description": "RedPanda_873627",
    "title": "RedPanda_873627",
    "link_img": "https://live.staticflickr.com/65535/50023494817_a63be11019_o.jpg",
    "id_image": "RedPanda_873627",
    "count_view": 0
  },
  {
    "link_thumb": "https://live.staticflickr.com/65535/50022869178_be8abf6d44_n.jpg",
    "id_album": "1961094930",
    "description": "Seal_432509",
    "title": "Seal_432509",
    "link_img": "https://live.staticflickr.com/65535/50022869178_559a04163e_o.jpg",
    "id_image": "Seal_432509",
    "count_view": 0
  },
  {
    "link_thumb": "https://live.staticflickr.com/65535/50016961756_58176068b2_n.jpg",
    "id_album": "231236068",
    "description": "BaldEagle_569346",
    "title": "BaldEagle_569346",
    "link_img": "https://live.staticflickr.com/65535/50016961756_2923416cba_o.jpg",
    "id_image": "BaldEagle_569346",
    "count_view": 0
  },
  {
    "link_thumb": "https://live.staticflickr.com/65535/50021334042_8bff3c8171_n.jpg",
    "id_album": "844170697",
    "description": "Frog_865076",
    "title": "Frog_865076",
    "link_img": "https://live.staticflickr.com/65535/50021334042_6a861b11aa_o.jpg",
    "id_image": "Frog_865076",
    "count_view": 0
  },
  {
    "link_thumb": "https://live.staticflickr.com/65535/50023057971_443968fc40_n.jpg",
    "id_album": "-353898617",
    "description": "Puppy_740869",
    "title": "Puppy_740869",
    "link_img": "https://live.staticflickr.com/65535/50023057971_e4f36649b0_o.jpg",
    "id_image": "Puppy_740869",
    "count_view": 0
  },
  {
    "link_thumb": "https://live.staticflickr.com/65535/50022045487_9a1b064bea_n.jpg",
    "id_album": "-649286029",
    "description": "Kangaroo_266524",
    "title": "Kangaroo_266524",
    "link_img": "https://live.staticflickr.com/65535/50022045487_ed831b80a0_o.jpg",
    "id_image": "Kangaroo_266524",
    "count_view": 0
  },
  {
    "link_thumb": "https://live.staticflickr.com/65535/50022401872_7dc00d33e0_n.jpg",
    "id_album": "1894617400",
    "description": "Lynx_398260",
    "title": "Lynx_398260",
    "link_img": "https://live.staticflickr.com/65535/50022401872_c7b0297366_o.jpg",
    "id_image": "Lynx_398260",
    "count_view": 0
  },
  {
    "link_thumb": "https://live.staticflickr.com/65535/50020005321_518fb00159_n.jpg",
    "id_album": "1903411565",
    "description": "Deer_402367",
    "title": "Deer_402367",
    "link_img": "https://live.staticflickr.com/65535/50020005321_d06b6d5951_o.jpg",
    "id_image": "Deer_402367",
    "count_view": 0
  },
  {
    "link_thumb": "https://live.staticflickr.com/65535/50016601783_91d4cbd868_n.jpg",
    "id_album": "1699594607",
    "description": "Bee_359000",
    "title": "Bee_359000",
    "link_img": "https://live.staticflickr.com/65535/50016601783_3eb5b97287_o.jpg",
    "id_image": "Bee_359000",
    "count_view": 0
  },
  {
    "link_thumb": "https://live.staticflickr.com/65535/50021375107_71dc94318d_n.jpg",
    "id_album": "-462831704",
    "description": "Cat_572017",
    "title": "Cat_572017",
    "link_img": "https://live.staticflickr.com/65535/50021375107_5a67d401ef_o.jpg",
    "id_image": "Cat_572017",
    "count_view": 0
  },
  {
    "link_thumb": "https://live.staticflickr.com/65535/50020887532_faa90b5587_n.jpg",
    "id_album": "-405058657",
    "description": "Dragonfly_553660",
    "title": "Dragonfly_553660",
    "link_img": "https://live.staticflickr.com/65535/50020887532_5f20ec14a1_o.jpg",
    "id_image": "Dragonfly_553660",
    "count_view": 0
  },
  {
    "link_thumb": "https://live.staticflickr.com/65535/50021168996_68147b5b96_n.jpg",
    "id_album": "-462831704",
    "description": "Cat_686793",
    "title": "Cat_686793",
    "link_img": "https://live.staticflickr.com/65535/50021168996_4b20b8bfb4_o.jpg",
    "id_image": "Cat_686793",
    "count_view": 0
  },
  {
    "link_thumb": "https://live.staticflickr.com/65535/50017349128_67ef8bf869_n.jpg",
    "id_album": "-462831705",
    "description": "Cat_231324",
    "title": "Cat_231324",
    "link_img": "https://live.staticflickr.com/65535/50017349128_43ac0286e7_o.jpg",
    "id_image": "Cat_231324",
    "count_view": 0
  },
  {
    "link_thumb": "https://live.staticflickr.com/65535/50022073157_4937a39e5f_n.jpg",
    "id_album": "771796001",
    "description": "Koala_398787",
    "title": "Koala_398787",
    "link_img": "https://live.staticflickr.com/65535/50022073157_27cc5ee863_o.jpg",
    "id_image": "Koala_398787",
    "count_view": 0
  },
  {
    "link_thumb": "https://live.staticflickr.com/65535/50021562298_892687f79b_n.jpg",
    "id_album": "-656526748",
    "description": "Lizard_313861",
    "title": "Lizard_313861",
    "link_img": "https://live.staticflickr.com/65535/50021562298_a0513857ac_o.jpg",
    "id_image": "Lizard_313861",
    "count_view": 0
  },
  {
    "link_thumb": "https://live.staticflickr.com/65535/50016512018_3c7d223d05_n.jpg",
    "id_album": "-422187261",
    "description": "Bear_390717",
    "title": "Bear_390717",
    "link_img": "https://live.staticflickr.com/65535/50016512018_f55d0a4b8f_o.jpg",
    "id_image": "Bear_390717",
    "count_view": 0
  },
  {
    "link_thumb": "https://live.staticflickr.com/65535/50019943053_c9b1b31ec5_n.jpg",
    "id_album": "-149330231",
    "description": "Dog_672829",
    "title": "Dog_672829",
    "link_img": "https://live.staticflickr.com/65535/50019943053_39e925efd8_o.jpg",
    "id_image": "Dog_672829",
    "count_view": 0
  },
  {
    "link_thumb": "https://live.staticflickr.com/65535/50018041257_78e10a21d3_n.jpg",
    "id_album": "-462831705",
    "description": "Cat_140548",
    "title": "Cat_140548",
    "link_img": "https://live.staticflickr.com/65535/50018041257_e24484928f_o.jpg",
    "id_image": "Cat_140548",
    "count_view": 0
  },
  {
    "link_thumb": "https://live.staticflickr.com/65535/50022988301_67905edaf3_n.jpg",
    "id_album": "-353898617",
    "description": "Puppy_412572",
    "title": "Puppy_412572",
    "link_img": "https://live.staticflickr.com/65535/50022988301_60e6084ff5_o.jpg",
    "id_image": "Puppy_412572",
    "count_view": 0
  },
  {
    "link_thumb": "https://live.staticflickr.com/65535/50019409301_e2f2eefa2b_n.jpg",
    "id_album": "-462831703",
    "description": "Cat_899273",
    "title": "Cat_899273",
    "link_img": "https://live.staticflickr.com/65535/50019409301_0a8207952d_o.jpg",
    "id_image": "Cat_899273",
    "count_view": 0
  },
  {
    "link_thumb": "https://live.staticflickr.com/65535/50021824741_e5ed029c17_n.jpg",
    "id_album": "1307335982",
    "description": "LabradorRetriever_101773",
    "title": "LabradorRetriever_101773",
    "link_img": "https://live.staticflickr.com/65535/50021824741_e9cdd94c76_o.jpg",
    "id_image": "LabradorRetriever_101773",
    "count_view": 0
  },
  {
    "link_thumb": "https://live.staticflickr.com/65535/50022564307_a394393db9_n.jpg",
    "id_album": "1015034486",
    "description": "Muteswan_149915",
    "title": "Muteswan_149915",
    "link_img": "https://live.staticflickr.com/65535/50022564307_e684525f0a_o.jpg",
    "id_image": "Muteswan_149915",
    "count_view": 0
  },
  {
    "link_thumb": "https://live.staticflickr.com/65535/50020881411_4fe4590f08_n.jpg",
    "id_album": "-1758557371",
    "description": "Flamingo_105779",
    "title": "Flamingo_105779",
    "link_img": "https://live.staticflickr.com/65535/50020881411_b4569c2b1e_o.jpg",
    "id_image": "Flamingo_105779",
    "count_view": 0
  },
  {
    "link_thumb": "https://live.staticflickr.com/65535/50017817032_2995c6472a_n.jpg",
    "id_album": "-401151552",
    "description": "Butterfly_274705",
    "title": "Butterfly_274705",
    "link_img": "https://live.staticflickr.com/65535/50017817032_f708128734_o.jpg",
    "id_image": "Butterfly_274705",
    "count_view": 0
  },
  {
    "link_thumb": "https://live.staticflickr.com/65535/50021519991_843668f35b_n.jpg",
    "id_album": "-1933715543",
    "description": "Horse_437842",
    "title": "Horse_437842",
    "link_img": "https://live.staticflickr.com/65535/50021519991_b594c93f2a_o.jpg",
    "id_image": "Horse_437842",
    "count_view": 0
  },
  {
    "link_thumb": "https://live.staticflickr.com/65535/50023328277_ede7aca6cc_n.jpg",
    "id_album": "-353898617",
    "description": "Puppy_921271",
    "title": "Puppy_921271",
    "link_img": "https://live.staticflickr.com/65535/50023328277_6dc65bee2f_o.jpg",
    "id_image": "Puppy_921271",
    "count_view": 0
  },
  {
    "link_thumb": "https://live.staticflickr.com/65535/50021109757_76c3d4d043_n.jpg",
    "id_album": "-1118073211",
    "description": "Fish_438397",
    "title": "Fish_438397",
    "link_img": "https://live.staticflickr.com/65535/50021109757_9c11a58ec3_o.jpg",
    "id_image": "Fish_438397",
    "count_view": 0
  },
  {
    "link_thumb": "https://live.staticflickr.com/65535/50023801653_386b126769_n.jpg",
    "id_album": "410750612",
    "description": "Wasp_926262",
    "title": "Wasp_926262",
    "link_img": "https://live.staticflickr.com/65535/50023801653_272b2e128a_o.jpg",
    "id_image": "Wasp_926262",
    "count_view": 0
  },
  {
    "link_thumb": "https://live.staticflickr.com/65535/50019619537_4fa6bf6240_n.jpg",
    "id_album": "-462831703",
    "description": "Cat_872930",
    "title": "Cat_872930",
    "link_img": "https://live.staticflickr.com/65535/50019619537_9b21587b6e_o.jpg",
    "id_image": "Cat_872930",
    "count_view": 0
  },
  {
    "link_thumb": "https://live.staticflickr.com/65535/50017942826_e6265967dd_n.jpg",
    "id_album": "-462831702",
    "description": "Cat_291524",
    "title": "Cat_291524",
    "link_img": "https://live.staticflickr.com/65535/50017942826_33bea0cd22_o.jpg",
    "id_image": "Cat_291524",
    "count_view": 0
  },
  {
    "link_thumb": "https://live.staticflickr.com/65535/50020756418_8bf821dc73_n.jpg",
    "id_album": "-405626519",
    "description": "GermanShepherd_733345",
    "title": "GermanShepherd_733345",
    "link_img": "https://live.staticflickr.com/65535/50020756418_371482c78a_o.jpg",
    "id_image": "GermanShepherd_733345",
    "count_view": 0
  },
  {
    "link_thumb": "https://live.staticflickr.com/65535/50018054727_e02df14aed_n.jpg",
    "id_album": "-462831705",
    "description": "Cat_165584",
    "title": "Cat_165584",
    "link_img": "https://live.staticflickr.com/65535/50018054727_67968c7691_o.jpg",
    "id_image": "Cat_165584",
    "count_view": 0
  },
  {
    "link_thumb": "https://live.staticflickr.com/65535/50022181182_12033472c1_n.jpg",
    "id_album": "1392348450",
    "description": "Leopard_425433",
    "title": "Leopard_425433",
    "link_img": "https://live.staticflickr.com/65535/50022181182_39c6155618_o.jpg",
    "id_image": "Leopard_425433",
    "count_view": 0
  },
  {
    "link_thumb": "https://live.staticflickr.com/65535/50023678628_671a683a2b_n.jpg",
    "id_album": "405170427",
    "description": "Tiger_854153",
    "title": "Tiger_854153",
    "link_img": "https://live.staticflickr.com/65535/50023678628_455f8cbe32_o.jpg",
    "id_image": "Tiger_854153",
    "count_view": 0
  },
  {
    "link_thumb": "https://live.staticflickr.com/65535/50017553217_c2108c1bd0_n.jpg",
    "id_album": "-1846011410",
    "description": "Bird_385816",
    "title": "Bird_385816",
    "link_img": "https://live.staticflickr.com/65535/50017553217_d5a456b259_o.jpg",
    "id_image": "Bird_385816",
    "count_view": 0
  },
  {
    "link_thumb": "https://live.staticflickr.com/65535/50020077368_3a202c9c0b_n.jpg",
    "id_album": "-405058657",
    "description": "Dragonfly_334290",
    "title": "Dragonfly_334290",
    "link_img": "https://live.staticflickr.com/65535/50020077368_5f73239b7c_o.jpg",
    "id_image": "Dragonfly_334290",
    "count_view": 0
  },
  {
    "link_thumb": "https://live.staticflickr.com/65535/50017165737_ac7dd11f9e_n.jpg",
    "id_album": "523598895",
    "description": "Artistic_435065",
    "title": "Artistic_435065",
    "link_img": "https://live.staticflickr.com/65535/50017165737_6441259cc7_o.jpg",
    "id_image": "Artistic_435065",
    "count_view": 0
  },
  {
    "link_thumb": "https://live.staticflickr.com/65535/50021107448_1cbb19eac5_n.jpg",
    "id_album": "-737856092",
    "description": "Iguana_430559",
    "title": "Iguana_430559",
    "link_img": "https://live.staticflickr.com/65535/50021107448_99f84da3e7_o.jpg",
    "id_image": "Iguana_430559",
    "count_view": 0
  },
  {
    "link_thumb": "https://live.staticflickr.com/65535/50019085103_7fa4e99c15_n.jpg",
    "id_album": "-420782796",
    "description": "Caterpillar_927070",
    "title": "Caterpillar_927070",
    "link_img": "https://live.staticflickr.com/65535/50019085103_09bf2eabd5_o.jpg",
    "id_image": "Caterpillar_927070",
    "count_view": 0
  },
  {
    "link_thumb": "https://live.staticflickr.com/65535/50016857241_6cb381068a_n.jpg",
    "id_album": "523598895",
    "description": "Artistic_105525",
    "title": "Artistic_105525",
    "link_img": "https://live.staticflickr.com/65535/50016857241_6006cafa73_o.jpg",
    "id_image": "Artistic_105525",
    "count_view": 0
  },
  {
    "link_thumb": "https://live.staticflickr.com/65535/50021426723_a9f11c1d40_n.jpg",
    "id_album": "416744915",
    "description": "Lion_163508",
    "title": "Lion_163508",
    "link_img": "https://live.staticflickr.com/65535/50021426723_84d741ef1b_o.jpg",
    "id_image": "Lion_163508",
    "count_view": 0
  },
  {
    "link_thumb": "https://live.staticflickr.com/65535/50018052071_f5268fe270_n.jpg",
    "id_album": "-462831702",
    "description": "Cat_359993",
    "title": "Cat_359993",
    "link_img": "https://live.staticflickr.com/65535/50018052071_91110f74d7_o.jpg",
    "id_image": "Cat_359993",
    "count_view": 0
  },
  {
    "link_thumb": "https://live.staticflickr.com/65535/50021077051_ab116f45b6_n.jpg",
    "id_album": "844170697",
    "description": "Frog_81314",
    "title": "Frog_81314",
    "link_img": "https://live.staticflickr.com/65535/50021077051_89a7f1693e_o.jpg",
    "id_image": "Frog_81314",
    "count_view": 0
  },
  {
    "link_thumb": "https://live.staticflickr.com/65535/50018129676_15d612b57a_n.jpg",
    "id_album": "-462831702",
    "description": "Cat_395024",
    "title": "Cat_395024",
    "link_img": "https://live.staticflickr.com/65535/50018129676_5d5f9bc175_o.jpg",
    "id_image": "Cat_395024",
    "count_view": 0
  },
  {
    "link_thumb": "https://live.staticflickr.com/65535/50017977346_e73deba5b7_n.jpg",
    "id_album": "-462831702",
    "description": "Cat_326193",
    "title": "Cat_326193",
    "link_img": "https://live.staticflickr.com/65535/50017977346_0e6573c33d_o.jpg",
    "id_image": "Cat_326193",
    "count_view": 0
  },
  {
    "link_thumb": "https://live.staticflickr.com/65535/50020334086_d709ef60e5_n.jpg",
    "id_album": "-149330232",
    "description": "Dog_367187",
    "title": "Dog_367187",
    "link_img": "https://live.staticflickr.com/65535/50020334086_8d64b3fda0_o.jpg",
    "id_image": "Dog_367187",
    "count_view": 0
  },
  {
    "link_thumb": "https://live.staticflickr.com/65535/50017280053_bba0279b2f_n.jpg",
    "id_album": "-462831705",
    "description": "Cat_169806",
    "title": "Cat_169806",
    "link_img": "https://live.staticflickr.com/65535/50017280053_2661003ba7_o.jpg",
    "id_image": "Cat_169806",
    "count_view": 0
  },
  {
    "link_thumb": "https://live.staticflickr.com/65535/50017431413_222079ce0e_n.jpg",
    "id_album": "-462831702",
    "description": "Cat_315360",
    "title": "Cat_315360",
    "link_img": "https://live.staticflickr.com/65535/50017431413_47375d4e9a_o.jpg",
    "id_image": "Cat_315360",
    "count_view": 0
  },
  {
    "link_thumb": "https://live.staticflickr.com/65535/50019922153_d28f27e631_n.jpg",
    "id_album": "-149330231",
    "description": "Dog_534844",
    "title": "Dog_534844",
    "link_img": "https://live.staticflickr.com/65535/50019922153_1576fa57f1_o.jpg",
    "id_image": "Dog_534844",
    "count_view": 0
  },
  {
    "link_thumb": "https://live.staticflickr.com/65535/50016864246_908531a16f_n.jpg",
    "id_album": "523598895",
    "description": "Artistic_115908",
    "title": "Artistic_115908",
    "link_img": "https://live.staticflickr.com/65535/50016864246_d584ef6c35_o.jpg",
    "id_image": "Artistic_115908",
    "count_view": 0
  },
  {
    "link_thumb": "https://live.staticflickr.com/65535/50017136007_8154493b78_n.jpg",
    "id_album": "523598895",
    "description": "Artistic_177718",
    "title": "Artistic_177718",
    "link_img": "https://live.staticflickr.com/65535/50017136007_005496e854_o.jpg",
    "id_image": "Artistic_177718",
    "count_view": 0
  },
  {
    "link_thumb": "https://live.staticflickr.com/65535/50016843561_3ba11f0ce7_n.jpg",
    "id_album": "-834314226",
    "description": "ArcticFox_351115",
    "title": "ArcticFox_351115",
    "link_img": "https://live.staticflickr.com/65535/50016843561_10f9088c03_o.jpg",
    "id_image": "ArcticFox_351115",
    "count_view": 0
  },
  {
    "link_thumb": "https://live.staticflickr.com/65535/50352580211_5ac2abf197_n.jpg",
    "id_album": "-462831703",
    "description": "Cat_514366",
    "title": "Cat_514366",
    "link_img": "https://live.staticflickr.com/65535/50352580211_07ac0f3f7e_o.jpg",
    "id_image": "Cat_514366",
    "count_view": 0
  },
  {
    "link_thumb": "https://live.staticflickr.com/65535/50017439537_90490704bf_n.jpg",
    "id_album": "172748811",
    "description": "Beeeater_883597",
    "title": "Beeeater_883597",
    "link_img": "https://live.staticflickr.com/65535/50017439537_2d167043f8_o.jpg",
    "id_image": "Beeeater_883597",
    "count_view": 0
  },
  {
    "link_thumb": "https://live.staticflickr.com/65535/50020215866_bf21beba15_n.jpg",
    "id_album": "-149330232",
    "description": "Dog_276166",
    "title": "Dog_276166",
    "link_img": "https://live.staticflickr.com/65535/50020215866_e1835f56bf_o.jpg",
    "id_image": "Dog_276166",
    "count_view": 0
  },
  {
    "link_thumb": "https://live.staticflickr.com/65535/50017292131_36d919ec81_n.jpg",
    "id_album": "-1846011410",
    "description": "Bird_385392",
    "title": "Bird_385392",
    "link_img": "https://live.staticflickr.com/65535/50017292131_3a52dab6ba_o.jpg",
    "id_image": "Bird_385392",
    "count_view": 0
  },
  {
    "link_thumb": "https://live.staticflickr.com/65535/50017238862_5687a2a0db_n.jpg",
    "id_album": "-80092825",
    "description": "Barnowl_332457",
    "title": "Barnowl_332457",
    "link_img": "https://live.staticflickr.com/65535/50017238862_0d939bea7d_o.jpg",
    "id_image": "Barnowl_332457",
    "count_view": 0
  },
  {
    "link_thumb": "https://live.staticflickr.com/65535/50016646033_c67c784266_n.jpg",
    "id_album": "172748811",
    "description": "Beeeater_379783",
    "title": "Beeeater_379783",
    "link_img": "https://live.staticflickr.com/65535/50016646033_3f793aae98_o.jpg",
    "id_image": "Beeeater_379783",
    "count_view": 0
  },
  {
    "link_thumb": "https://live.staticflickr.com/65535/50017607838_f196d79637_n.jpg",
    "id_album": "-462831702",
    "description": "Cat_398816",
    "title": "Cat_398816",
    "link_img": "https://live.staticflickr.com/65535/50017607838_41dd866fd6_o.jpg",
    "id_image": "Cat_398816",
    "count_view": 0
  },
  {
    "link_thumb": "https://live.staticflickr.com/65535/50019350636_cdf7c11510_n.jpg",
    "id_album": "-462831703",
    "description": "Cat_867391",
    "title": "Cat_867391",
    "link_img": "https://live.staticflickr.com/65535/50019350636_44b42c7f0d_o.jpg",
    "id_image": "Cat_867391",
    "count_view": 0
  },
  {
    "link_thumb": "https://live.staticflickr.com/65535/50020027492_f38a3f5de3_n.jpg",
    "id_album": "791455625",
    "description": "Chipmunk_778950",
    "title": "Chipmunk_778950",
    "link_img": "https://live.staticflickr.com/65535/50020027492_afa9210513_o.jpg",
    "id_image": "Chipmunk_778950",
    "count_view": 0
  },
  {
    "link_thumb": "https://live.staticflickr.com/65535/50021959231_beff98b9ce_n.jpg",
    "id_album": "1392348450",
    "description": "Leopard_928784",
    "title": "Leopard_928784",
    "link_img": "https://live.staticflickr.com/65535/50021959231_d2c1c3d4d3_o.jpg",
    "id_image": "Leopard_928784",
    "count_view": 0
  },
  {
    "link_thumb": "https://live.staticflickr.com/65535/50020064998_a4347490c1_n.jpg",
    "id_album": "-1859457960",
    "description": "Dove_423575",
    "title": "Dove_423575",
    "link_img": "https://live.staticflickr.com/65535/50020064998_6251517e2b_o.jpg",
    "id_image": "Dove_423575",
    "count_view": 0
  },
  {
    "link_thumb": "https://live.staticflickr.com/65535/50020870427_1d01e115f3_n.jpg",
    "id_album": "-405058657",
    "description": "Dragonfly_354049",
    "title": "Dragonfly_354049",
    "link_img": "https://live.staticflickr.com/65535/50020870427_f45a994d6f_o.jpg",
    "id_image": "Dragonfly_354049",
    "count_view": 0
  },
  {
    "link_thumb": "https://live.staticflickr.com/65535/50018034956_38cae60da5_n.jpg",
    "id_album": "-462831702",
    "description": "Cat_351815",
    "title": "Cat_351815",
    "link_img": "https://live.staticflickr.com/65535/50018034956_65736ee7ec_o.jpg",
    "id_image": "Cat_351815",
    "count_view": 0
  },
  {
    "link_thumb": "https://live.staticflickr.com/65535/50020634436_169d7d1fdc_n.jpg",
    "id_album": "-405058657",
    "description": "Dragonfly_614341",
    "title": "Dragonfly_614341",
    "link_img": "https://live.staticflickr.com/65535/50020634436_1f0481a490_o.jpg",
    "id_image": "Dragonfly_614341",
    "count_view": 0
  },
  {
    "link_thumb": "https://live.staticflickr.com/65535/50021191573_bc27aa441b_n.jpg",
    "id_album": "-843028318",
    "description": "Jaguar_599247",
    "title": "Jaguar_599247",
    "link_img": "https://live.staticflickr.com/65535/50021191573_b0628347ac_o.jpg",
    "id_image": "Jaguar_599247",
    "count_view": 0
  },
  {
    "link_thumb": "https://live.staticflickr.com/65535/50023693668_900ef88e07_n.jpg",
    "id_album": "405170427",
    "description": "Tiger_913463",
    "title": "Tiger_913463",
    "link_img": "https://live.staticflickr.com/65535/50023693668_3f4ca01cf4_o.jpg",
    "id_image": "Tiger_913463",
    "count_view": 0
  },
  {
    "link_thumb": "https://live.staticflickr.com/65535/50017388448_a67568b3a3_n.jpg",
    "id_album": "-462831705",
    "description": "Cat_264655",
    "title": "Cat_264655",
    "link_img": "https://live.staticflickr.com/65535/50017388448_f423518639_o.jpg",
    "id_image": "Cat_264655",
    "count_view": 0
  },
  {
    "link_thumb": "https://live.staticflickr.com/65535/50019314691_2df8388e72_n.jpg",
    "id_album": "-462831703",
    "description": "Cat_846380",
    "title": "Cat_846380",
    "link_img": "https://live.staticflickr.com/65535/50019314691_f522e958a1_o.jpg",
    "id_image": "Cat_846380",
    "count_view": 0
  },
  {
    "link_thumb": "https://live.staticflickr.com/65535/50019680856_7d519fdf7a_n.jpg",
    "id_album": "-1481843714",
    "description": "Cheetah_209937",
    "title": "Cheetah_209937",
    "link_img": "https://live.staticflickr.com/65535/50019680856_c051850c4e_o.jpg",
    "id_image": "Cheetah_209937",
    "count_view": 0
  },
  {
    "link_thumb": "https://live.staticflickr.com/65535/50019448151_35d1f0b78d_n.jpg",
    "id_album": "-462831705",
    "description": "Cat_91381",
    "title": "Cat_91381",
    "link_img": "https://live.staticflickr.com/65535/50019448151_61cb3619a4_o.jpg",
    "id_image": "Cat_91381",
    "count_view": 0
  },
  {
    "link_thumb": "https://live.staticflickr.com/65535/50021457181_9536517506_n.jpg",
    "id_album": "-1933715543",
    "description": "Horse_102723",
    "title": "Horse_102723",
    "link_img": "https://live.staticflickr.com/65535/50021457181_b31fc397e1_o.jpg",
    "id_image": "Horse_102723",
    "count_view": 0
  },
  {
    "link_thumb": "https://live.staticflickr.com/65535/50019740102_5555a1ef07_n.jpg",
    "id_album": "-462831703",
    "description": "Cat_931190",
    "title": "Cat_931190",
    "link_img": "https://live.staticflickr.com/65535/50019740102_7b774e4723_o.jpg",
    "id_image": "Cat_931190",
    "count_view": 0
  },
  {
    "link_thumb": "https://live.staticflickr.com/65535/50021077968_095d3396c3_n.jpg",
    "id_album": "2144294979",
    "description": "Hummingbird_771811",
    "title": "Hummingbird_771811",
    "link_img": "https://live.staticflickr.com/65535/50021077968_2d83be1952_o.jpg",
    "id_image": "Hummingbird_771811",
    "count_view": 0
  },
  {
    "link_thumb": "https://live.staticflickr.com/65535/50021450366_ab14d7efdd_n.jpg",
    "id_album": "-362549635",
    "description": "Hippo_247728",
    "title": "Hippo_247728",
    "link_img": "https://live.staticflickr.com/65535/50021450366_eb8aa50fd7_o.jpg",
    "id_image": "Hippo_247728",
    "count_view": 0
  },
  {
    "link_thumb": "https://live.staticflickr.com/65535/50024549687_a93d1b2d2e_n.jpg",
    "id_album": "901523298",
    "description": "TreeFrog_383114",
    "title": "TreeFrog_383114",
    "link_img": "https://live.staticflickr.com/65535/50024549687_bb95377e1e_o.jpg",
    "id_image": "TreeFrog_383114",
    "count_view": 0
  },
  {
    "link_thumb": "https://live.staticflickr.com/65535/50020294511_6bdb3c0301_n.jpg",
    "id_album": "-149330232",
    "description": "Dog_347747",
    "title": "Dog_347747",
    "link_img": "https://live.staticflickr.com/65535/50020294511_c4c336679e_o.jpg",
    "id_image": "Dog_347747",
    "count_view": 0
  },
  {
    "link_thumb": "https://live.staticflickr.com/65535/50021321653_183731f8d7_n.jpg",
    "id_album": "-1882491687",
    "description": "Ladybug_753404",
    "title": "Ladybug_753404",
    "link_img": "https://live.staticflickr.com/65535/50021321653_91d9598a40_o.jpg",
    "id_image": "Ladybug_753404",
    "count_view": 0
  },
  {
    "link_thumb": "https://live.staticflickr.com/65535/50020716318_5f9c5ef63b_n.jpg",
    "id_album": "-462831703",
    "description": "Cat_803456",
    "title": "Cat_803456",
    "link_img": "https://live.staticflickr.com/65535/50020716318_4c20f2d5ba_o.jpg",
    "id_image": "Cat_803456",
    "count_view": 0
  },
  {
    "link_thumb": "https://live.staticflickr.com/65535/50019192386_c1eb19b92a_n.jpg",
    "id_album": "-462831702",
    "description": "Cat_433763",
    "title": "Cat_433763",
    "link_img": "https://live.staticflickr.com/65535/50019192386_f658c56672_o.jpg",
    "id_image": "Cat_433763",
    "count_view": 0
  },
  {
    "link_thumb": "https://live.staticflickr.com/65535/50021545616_610ee5dda4_n.jpg",
    "id_album": "-1933715543",
    "description": "Horse_593683",
    "title": "Horse_593683",
    "link_img": "https://live.staticflickr.com/65535/50021545616_da6f982759_o.jpg",
    "id_image": "Horse_593683",
    "count_view": 0
  },
  {
    "link_thumb": "https://live.staticflickr.com/65535/50023593322_ae2034a7c7_n.jpg",
    "id_album": "-419757464",
    "description": "SeaLife_211089",
    "title": "SeaLife_211089",
    "link_img": "https://live.staticflickr.com/65535/50023593322_a4af377d1e_o.jpg",
    "id_image": "SeaLife_211089",
    "count_view": 0
  },
  {
    "link_thumb": "https://live.staticflickr.com/65535/50019145556_5ddd4db7b6_n.jpg",
    "id_album": "-462831702",
    "description": "Cat_414232",
    "title": "Cat_414232",
    "link_img": "https://live.staticflickr.com/65535/50019145556_527b4b0700_o.jpg",
    "id_image": "Cat_414232",
    "count_view": 0
  },
  {
    "link_thumb": "https://live.staticflickr.com/65535/50019264263_93108c9c99_n.jpg",
    "id_album": "-1462118852",
    "description": "Corgi_576679",
    "title": "Corgi_576679",
    "link_img": "https://live.staticflickr.com/65535/50019264263_8f56bf7b2d_o.jpg",
    "id_image": "Corgi_576679",
    "count_view": 0
  },
  {
    "link_thumb": "https://live.staticflickr.com/65535/50017677701_eb233c4d13_n.jpg",
    "id_album": "-401151552",
    "description": "Butterfly_851640",
    "title": "Butterfly_851640",
    "link_img": "https://live.staticflickr.com/65535/50017677701_0a13817aef_o.jpg",
    "id_image": "Butterfly_851640",
    "count_view": 0
  },
  {
    "link_thumb": "https://live.staticflickr.com/65535/50021518967_2d73031c2f_n.jpg",
    "id_album": "-462831703",
    "description": "Cat_821443",
    "title": "Cat_821443",
    "link_img": "https://live.staticflickr.com/65535/50021518967_e8c0b1b5c0_o.jpg",
    "id_image": "Cat_821443",
    "count_view": 0
  },
  {
    "link_thumb": "https://live.staticflickr.com/65535/50021221732_67ff2463e3_n.jpg",
    "id_album": "-128218148",
    "description": "Fox_456935",
    "title": "Fox_456935",
    "link_img": "https://live.staticflickr.com/65535/50021221732_6c864fb869_o.jpg",
    "id_image": "Fox_456935",
    "count_view": 0
  },
  {
    "link_thumb": "https://live.staticflickr.com/65535/50018156576_07963f884a_n.jpg",
    "id_album": "-462831702",
    "description": "Cat_408954",
    "title": "Cat_408954",
    "link_img": "https://live.staticflickr.com/65535/50018156576_408f29bceb_o.jpg",
    "id_image": "Cat_408954",
    "count_view": 0
  }
]