[
  {
    "link_thumb": "https://live.staticflickr.com/65535/50019664032_9a39b83f53_n.jpg",
    "id_album": "-462831703",
    "description": "Cat_897344",
    "title": "Cat_897344",
    "link_img": "https://live.staticflickr.com/65535/50019664032_2f9124503b_o.jpg",
    "id_image": "Cat_897344",
    "count_view": 0
  },
  {
    "link_thumb": "https://live.staticflickr.com/65535/50019406421_63fd08955a_n.jpg",
    "id_album": "-462831703",
    "description": "Cat_897348",
    "title": "Cat_897348",
    "link_img": "https://live.staticflickr.com/65535/50019406421_99400792a1_o.jpg",
    "id_image": "Cat_897348",
    "count_view": 0
  },
  {
    "link_thumb": "https://live.staticflickr.com/65535/50019406601_1c79ff5b9e_n.jpg",
    "id_album": "-462831703",
    "description": "Cat_897451",
    "title": "Cat_897451",
    "link_img": "https://live.staticflickr.com/65535/50019406601_bde4647185_o.jpg",
    "id_image": "Cat_897451",
    "count_view": 0
  },
  {
    "link_thumb": "https://live.staticflickr.com/65535/50018877598_8bd7aea70c_n.jpg",
    "id_album": "-462831703",
    "description": "Cat_897592",
    "title": "Cat_897592",
    "link_img": "https://live.staticflickr.com/65535/50018877598_7b7c86f965_o.jpg",
    "id_image": "Cat_897592",
    "count_view": 0
  },
  {
    "link_thumb": "https://live.staticflickr.com/65535/50018877813_b6687fd4d5_n.jpg",
    "id_album": "-462831703",
    "description": "Cat_897602",
    "title": "Cat_897602",
    "link_img": "https://live.staticflickr.com/65535/50018877813_8157a7df99_o.jpg",
    "id_image": "Cat_897602",
    "count_view": 0
  },
  {
    "link_thumb": "https://live.staticflickr.com/65535/50019407181_877588ae50_n.jpg",
    "id_album": "-462831703",
    "description": "Cat_897901",
    "title": "Cat_897901",
    "link_img": "https://live.staticflickr.com/65535/50019407181_2c0a0f5073_o.jpg",
    "id_image": "Cat_897901",
    "count_view": 0
  },
  {
    "link_thumb": "https://live.staticflickr.com/65535/50019665247_59dca06bd7_n.jpg",
    "id_album": "-462831703",
    "description": "Cat_897916",
    "title": "Cat_897916",
    "link_img": "https://live.staticflickr.com/65535/50019665247_bd41990a67_o.jpg",
    "id_image": "Cat_897916",
    "count_view": 0
  },
  {
    "link_thumb": "https://live.staticflickr.com/65535/50019665517_fdcef36680_n.jpg",
    "id_album": "-462831703",
    "description": "Cat_898072",
    "title": "Cat_898072",
    "link_img": "https://live.staticflickr.com/65535/50019665517_13cbe51b0e_o.jpg",
    "id_image": "Cat_898072",
    "count_view": 0
  },
  {
    "link_thumb": "https://live.staticflickr.com/65535/50019665747_dff801eaf1_n.jpg",
    "id_album": "-462831703",
    "description": "Cat_898201",
    "title": "Cat_898201",
    "link_img": "https://live.staticflickr.com/65535/50019665747_1d443d989a_o.jpg",
    "id_image": "Cat_898201",
    "count_view": 0
  },
  {
    "link_thumb": "https://live.staticflickr.com/65535/50019408121_8b5ba83fb5_n.jpg",
    "id_album": "-462831703",
    "description": "Cat_898219",
    "title": "Cat_898219",
    "link_img": "https://live.staticflickr.com/65535/50019408121_826f036650_o.jpg",
    "id_image": "Cat_898219",
    "count_view": 0
  },
  {
    "link_thumb": "https://live.staticflickr.com/65535/50018879058_ba914545a1_n.jpg",
    "id_album": "-462831703",
    "description": "Cat_898222",
    "title": "Cat_898222",
    "link_img": "https://live.staticflickr.com/65535/50018879058_d29aa0db05_o.jpg",
    "id_image": "Cat_898222",
    "count_view": 0
  },
  {
    "link_thumb": "https://live.staticflickr.com/65535/50019666302_3d1d5fd273_n.jpg",
    "id_album": "-462831703",
    "description": "Cat_898443",
    "title": "Cat_898443",
    "link_img": "https://live.staticflickr.com/65535/50019666302_7e96363524_o.jpg",
    "id_image": "Cat_898443",
    "count_view": 0
  },
  {
    "link_thumb": "https://live.staticflickr.com/65535/50019408851_0872842c78_n.jpg",
    "id_album": "-462831703",
    "description": "Cat_898478",
    "title": "Cat_898478",
    "link_img": "https://live.staticflickr.com/65535/50019408851_406648b839_o.jpg",
    "id_image": "Cat_898478",
    "count_view": 0
  },
  {
    "link_thumb": "https://live.staticflickr.com/65535/50019666797_c74f656283_n.jpg",
    "id_album": "-462831703",
    "description": "Cat_898483",
    "title": "Cat_898483",
    "link_img": "https://live.staticflickr.com/65535/50019666797_eb92d37e00_o.jpg",
    "id_image": "Cat_898483",
    "count_view": 0
  },
  {
    "link_thumb": "https://live.staticflickr.com/65535/50019666962_679211fe88_n.jpg",
    "id_album": "-462831703",
    "description": "Cat_898832",
    "title": "Cat_898832",
    "link_img": "https://live.staticflickr.com/65535/50019666962_2d10ae0786_o.jpg",
    "id_image": "Cat_898832",
    "count_view": 0
  },
  {
    "link_thumb": "https://live.staticflickr.com/65535/50019409301_e2f2eefa2b_n.jpg",
    "id_album": "-462831703",
    "description": "Cat_899273",
    "title": "Cat_899273",
    "link_img": "https://live.staticflickr.com/65535/50019409301_0a8207952d_o.jpg",
    "id_image": "Cat_899273",
    "count_view": 0
  },
  {
    "link_thumb": "https://live.staticflickr.com/65535/50019409546_0063063500_n.jpg",
    "id_album": "-462831703",
    "description": "Cat_899352",
    "title": "Cat_899352",
    "link_img": "https://live.staticflickr.com/65535/50019409546_43f1131007_o.jpg",
    "id_image": "Cat_899352",
    "count_view": 0
  },
  {
    "link_thumb": "https://live.staticflickr.com/65535/50019409721_96cca4fac9_n.jpg",
    "id_album": "-462831703",
    "description": "Cat_899432",
    "title": "Cat_899432",
    "link_img": "https://live.staticflickr.com/65535/50019409721_f238eb715a_o.jpg",
    "id_image": "Cat_899432",
    "count_view": 0
  },
  {
    "link_thumb": "https://live.staticflickr.com/65535/50019667757_77c5718090_n.jpg",
    "id_album": "-462831703",
    "description": "Cat_899437",
    "title": "Cat_899437",
    "link_img": "https://live.staticflickr.com/65535/50019667757_047e38cf0f_o.jpg",
    "id_image": "Cat_899437",
    "count_view": 0
  },
  {
    "link_thumb": "https://live.staticflickr.com/65535/50019667902_149eca507f_n.jpg",
    "id_album": "-462831703",
    "description": "Cat_899439",
    "title": "Cat_899439",
    "link_img": "https://live.staticflickr.com/65535/50019667902_25c4d877d8_o.jpg",
    "id_image": "Cat_899439",
    "count_view": 0
  },
  {
    "link_thumb": "https://live.staticflickr.com/65535/50019668092_6e632855a5_n.jpg",
    "id_album": "-462831703",
    "description": "Cat_899440",
    "title": "Cat_899440",
    "link_img": "https://live.staticflickr.com/65535/50019668092_b3cfc55aab_o.jpg",
    "id_image": "Cat_899440",
    "count_view": 0
  },
  {
    "link_thumb": "https://live.staticflickr.com/65535/50019668292_e01bee37c1_n.jpg",
    "id_album": "-462831703",
    "description": "Cat_899550",
    "title": "Cat_899550",
    "link_img": "https://live.staticflickr.com/65535/50019668292_b064025c4c_o.jpg",
    "id_image": "Cat_899550",
    "count_view": 0
  },
  {
    "link_thumb": "https://live.staticflickr.com/65535/50019410901_f526e796a1_n.jpg",
    "id_album": "-462831703",
    "description": "Cat_899566",
    "title": "Cat_899566",
    "link_img": "https://live.staticflickr.com/65535/50019410901_411a938319_o.jpg",
    "id_image": "Cat_899566",
    "count_view": 0
  },
  {
    "link_thumb": "https://live.staticflickr.com/65535/50019669227_0d1526aff9_n.jpg",
    "id_album": "-462831703",
    "description": "Cat_899611",
    "title": "Cat_899611",
    "link_img": "https://live.staticflickr.com/65535/50019669227_bd70ee35a2_o.jpg",
    "id_image": "Cat_899611",
    "count_view": 0
  },
  {
    "link_thumb": "https://live.staticflickr.com/65535/50019411796_f90bd42976_n.jpg",
    "id_album": "-462831703",
    "description": "Cat_899621",
    "title": "Cat_899621",
    "link_img": "https://live.staticflickr.com/65535/50019411796_31a8eed9f4_o.jpg",
    "id_image": "Cat_899621",
    "count_view": 0
  },
  {
    "link_thumb": "https://live.staticflickr.com/65535/50019412016_bd6a5ea21b_n.jpg",
    "id_album": "-462831703",
    "description": "Cat_899737",
    "title": "Cat_899737",
    "link_img": "https://live.staticflickr.com/65535/50019412016_76a09531fb_o.jpg",
    "id_image": "Cat_899737",
    "count_view": 0
  },
  {
    "link_thumb": "https://live.staticflickr.com/65535/50019412246_1b68e4482a_n.jpg",
    "id_album": "-462831703",
    "description": "Cat_899740",
    "title": "Cat_899740",
    "link_img": "https://live.staticflickr.com/65535/50019412246_151ed0a204_o.jpg",
    "id_image": "Cat_899740",
    "count_view": 0
  },
  {
    "link_thumb": "https://live.staticflickr.com/65535/50019412401_efd3dbca34_n.jpg",
    "id_album": "-462831703",
    "description": "Cat_899921",
    "title": "Cat_899921",
    "link_img": "https://live.staticflickr.com/65535/50019412401_b3b8e1306b_o.jpg",
    "id_image": "Cat_899921",
    "count_view": 0
  },
  {
    "link_thumb": "https://live.staticflickr.com/65535/50019412651_766a6777fd_n.jpg",
    "id_album": "-462831703",
    "description": "Cat_899922",
    "title": "Cat_899922",
    "link_img": "https://live.staticflickr.com/65535/50019412651_1c69c2528a_o.jpg",
    "id_image": "Cat_899922",
    "count_view": 0
  },
  {
    "link_thumb": "https://live.staticflickr.com/65535/50019412796_55f8865f6c_n.jpg",
    "id_album": "-462831703",
    "description": "Cat_899924",
    "title": "Cat_899924",
    "link_img": "https://live.staticflickr.com/65535/50019412796_ef37b52567_o.jpg",
    "id_image": "Cat_899924",
    "count_view": 0
  },
  {
    "link_thumb": "https://live.staticflickr.com/65535/50019413016_5311ca51f1_n.jpg",
    "id_album": "-462831703",
    "description": "Cat_899981",
    "title": "Cat_899981",
    "link_img": "https://live.staticflickr.com/65535/50019413016_ec3d176385_o.jpg",
    "id_image": "Cat_899981",
    "count_view": 0
  },
  {
    "link_thumb": "https://live.staticflickr.com/65535/50018883763_d3885e1c4c_n.jpg",
    "id_album": "-462831703",
    "description": "Cat_900329",
    "title": "Cat_900329",
    "link_img": "https://live.staticflickr.com/65535/50018883763_65f3779be1_o.jpg",
    "id_image": "Cat_900329",
    "count_view": 0
  },
  {
    "link_thumb": "https://live.staticflickr.com/65535/50019413476_2ef65f43a7_n.jpg",
    "id_album": "-462831703",
    "description": "Cat_900341",
    "title": "Cat_900341",
    "link_img": "https://live.staticflickr.com/65535/50019413476_dd64ce456b_o.jpg",
    "id_image": "Cat_900341",
    "count_view": 0
  },
  {
    "link_thumb": "https://live.staticflickr.com/65535/50019413651_5edcb1df4b_n.jpg",
    "id_album": "-462831703",
    "description": "Cat_900346",
    "title": "Cat_900346",
    "link_img": "https://live.staticflickr.com/65535/50019413651_fc4e0bda2e_o.jpg",
    "id_image": "Cat_900346",
    "count_view": 0
  },
  {
    "link_thumb": "https://live.staticflickr.com/65535/50018884368_8307227465_n.jpg",
    "id_album": "-462831703",
    "description": "Cat_900350",
    "title": "Cat_900350",
    "link_img": "https://live.staticflickr.com/65535/50018884368_fa3e217956_o.jpg",
    "id_image": "Cat_900350",
    "count_view": 0
  },
  {
    "link_thumb": "https://live.staticflickr.com/65535/50019414031_fe9da9358f_n.jpg",
    "id_album": "-462831703",
    "description": "Cat_900486",
    "title": "Cat_900486",
    "link_img": "https://live.staticflickr.com/65535/50019414031_0ccd6aa7f2_o.jpg",
    "id_image": "Cat_900486",
    "count_view": 0
  },
  {
    "link_thumb": "https://live.staticflickr.com/65535/50018884623_e0f0933d9f_n.jpg",
    "id_album": "-462831703",
    "description": "Cat_900499",
    "title": "Cat_900499",
    "link_img": "https://live.staticflickr.com/65535/50018884623_774d7caa7e_o.jpg",
    "id_image": "Cat_900499",
    "count_view": 0
  },
  {
    "link_thumb": "https://live.staticflickr.com/65535/50019414351_8625116e0f_n.jpg",
    "id_album": "-462831703",
    "description": "Cat_900517",
    "title": "Cat_900517",
    "link_img": "https://live.staticflickr.com/65535/50019414351_d98c307af9_o.jpg",
    "id_image": "Cat_900517",
    "count_view": 0
  },
  {
    "link_thumb": "https://live.staticflickr.com/65535/50018884858_4bdfe5c731_n.jpg",
    "id_album": "-462831703",
    "description": "Cat_900649",
    "title": "Cat_900649",
    "link_img": "https://live.staticflickr.com/65535/50018884858_35654e02c0_o.jpg",
    "id_image": "Cat_900649",
    "count_view": 0
  },
  {
    "link_thumb": "https://live.staticflickr.com/65535/50019672157_738c5a886b_n.jpg",
    "id_album": "-462831703",
    "description": "Cat_900650",
    "title": "Cat_900650",
    "link_img": "https://live.staticflickr.com/65535/50019672157_97f7e9ed73_o.jpg",
    "id_image": "Cat_900650",
    "count_view": 0
  },
  {
    "link_thumb": "https://live.staticflickr.com/65535/50018885143_190b1dd203_n.jpg",
    "id_album": "-462831703",
    "description": "Cat_900656",
    "title": "Cat_900656",
    "link_img": "https://live.staticflickr.com/65535/50018885143_301bb007f3_o.jpg",
    "id_image": "Cat_900656",
    "count_view": 0
  },
  {
    "link_thumb": "https://live.staticflickr.com/65535/50352827832_2727023317_n.jpg",
    "id_album": "-462831703",
    "description": "Cat_900663",
    "title": "Cat_900663",
    "link_img": "https://live.staticflickr.com/65535/50352827832_56fe2c5119_o.jpg",
    "id_image": "Cat_900663",
    "count_view": 0
  },
  {
    "link_thumb": "https://live.staticflickr.com/65535/50019672642_2e0b1d4f50_n.jpg",
    "id_album": "-462831703",
    "description": "Cat_900689",
    "title": "Cat_900689",
    "link_img": "https://live.staticflickr.com/65535/50019672642_e304330097_o.jpg",
    "id_image": "Cat_900689",
    "count_view": 0
  },
  {
    "link_thumb": "https://live.staticflickr.com/65535/50019672762_ab0a56f1b5_n.jpg",
    "id_album": "-462831703",
    "description": "Cat_900778",
    "title": "Cat_900778",
    "link_img": "https://live.staticflickr.com/65535/50019672762_8cb6a65b96_o.jpg",
    "id_image": "Cat_900778",
    "count_view": 0
  },
  {
    "link_thumb": "https://live.staticflickr.com/65535/50019415351_0ddde0071c_n.jpg",
    "id_album": "-462831703",
    "description": "Cat_900781",
    "title": "Cat_900781",
    "link_img": "https://live.staticflickr.com/65535/50019415351_a02e14fe75_o.jpg",
    "id_image": "Cat_900781",
    "count_view": 0
  },
  {
    "link_thumb": "https://live.staticflickr.com/65535/50019415516_3aa56dfe01_n.jpg",
    "id_album": "-462831703",
    "description": "Cat_900804",
    "title": "Cat_900804",
    "link_img": "https://live.staticflickr.com/65535/50019415516_4ec35148ec_o.jpg",
    "id_image": "Cat_900804",
    "count_view": 0
  },
  {
    "link_thumb": "https://live.staticflickr.com/65535/50019673292_bcaec2c519_n.jpg",
    "id_album": "-462831703",
    "description": "Cat_900814",
    "title": "Cat_900814",
    "link_img": "https://live.staticflickr.com/65535/50019673292_a84de3aa0d_o.jpg",
    "id_image": "Cat_900814",
    "count_view": 0
  },
  {
    "link_thumb": "https://live.staticflickr.com/65535/50019415851_ce37312a70_n.jpg",
    "id_album": "-462831703",
    "description": "Cat_900926",
    "title": "Cat_900926",
    "link_img": "https://live.staticflickr.com/65535/50019415851_0022f39112_o.jpg",
    "id_image": "Cat_900926",
    "count_view": 0
  },
  {
    "link_thumb": "https://live.staticflickr.com/65535/50018886293_92b752bdef_n.jpg",
    "id_album": "-462831703",
    "description": "Cat_901155",
    "title": "Cat_901155",
    "link_img": "https://live.staticflickr.com/65535/50018886293_875b0d3c4d_o.jpg",
    "id_image": "Cat_901155",
    "count_view": 0
  },
  {
    "link_thumb": "https://live.staticflickr.com/65535/50019673787_8ed6130e4f_n.jpg",
    "id_album": "-462831703",
    "description": "Cat_901174",
    "title": "Cat_901174",
    "link_img": "https://live.staticflickr.com/65535/50019673787_f6beb589ea_o.jpg",
    "id_image": "Cat_901174",
    "count_view": 0
  },
  {
    "link_thumb": "https://live.staticflickr.com/65535/50019416196_04f5589ede_n.jpg",
    "id_album": "-462831703",
    "description": "Cat_901391",
    "title": "Cat_901391",
    "link_img": "https://live.staticflickr.com/65535/50019416196_97268d2785_o.jpg",
    "id_image": "Cat_901391",
    "count_view": 0
  },
  {
    "link_thumb": "https://live.staticflickr.com/65535/50019416316_5f012025f1_n.jpg",
    "id_album": "-462831703",
    "description": "Cat_901419",
    "title": "Cat_901419",
    "link_img": "https://live.staticflickr.com/65535/50019416316_1a7b1abe1d_o.jpg",
    "id_image": "Cat_901419",
    "count_view": 0
  },
  {
    "link_thumb": "https://live.staticflickr.com/65535/50019674122_c1ded1d408_n.jpg",
    "id_album": "-462831703",
    "description": "Cat_901704",
    "title": "Cat_901704",
    "link_img": "https://live.staticflickr.com/65535/50019674122_574c6049a7_o.jpg",
    "id_image": "Cat_901704",
    "count_view": 0
  },
  {
    "link_thumb": "https://live.staticflickr.com/65535/50018886858_9f1c41b0c2_n.jpg",
    "id_album": "-462831703",
    "description": "Cat_901705",
    "title": "Cat_901705",
    "link_img": "https://live.staticflickr.com/65535/50018886858_e9060da7ca_o.jpg",
    "id_image": "Cat_901705",
    "count_view": 0
  },
  {
    "link_thumb": "https://live.staticflickr.com/65535/50019674487_abf2cb7f99_n.jpg",
    "id_album": "-462831703",
    "description": "Cat_901718",
    "title": "Cat_901718",
    "link_img": "https://live.staticflickr.com/65535/50019674487_6233c06d6c_o.jpg",
    "id_image": "Cat_901718",
    "count_view": 0
  },
  {
    "link_thumb": "https://live.staticflickr.com/65535/50352827982_956032a7fe_n.jpg",
    "id_album": "-462831703",
    "description": "Cat_901769",
    "title": "Cat_901769",
    "link_img": "https://live.staticflickr.com/65535/50352827982_3a1af55339_o.jpg",
    "id_image": "Cat_901769",
    "count_view": 0
  },
  {
    "link_thumb": "https://live.staticflickr.com/65535/50019416956_fa51bccd44_n.jpg",
    "id_album": "-462831703",
    "description": "Cat_901876",
    "title": "Cat_901876",
    "link_img": "https://live.staticflickr.com/65535/50019416956_c9a358c41c_o.jpg",
    "id_image": "Cat_901876",
    "count_view": 0
  },
  {
    "link_thumb": "https://live.staticflickr.com/65535/50018887498_7e96edd49b_n.jpg",
    "id_album": "-462831703",
    "description": "Cat_901877",
    "title": "Cat_901877",
    "link_img": "https://live.staticflickr.com/65535/50018887498_d360562024_o.jpg",
    "id_image": "Cat_901877",
    "count_view": 0
  },
  {
    "link_thumb": "https://live.staticflickr.com/65535/50019675092_6d644cd377_n.jpg",
    "id_album": "-462831703",
    "description": "Cat_901885",
    "title": "Cat_901885",
    "link_img": "https://live.staticflickr.com/65535/50019675092_c4bec8f739_o.jpg",
    "id_image": "Cat_901885",
    "count_view": 0
  },
  {
    "link_thumb": "https://live.staticflickr.com/65535/50018887773_c071345aa6_n.jpg",
    "id_album": "-462831703",
    "description": "Cat_901890",
    "title": "Cat_901890",
    "link_img": "https://live.staticflickr.com/65535/50018887773_59321a0155_o.jpg",
    "id_image": "Cat_901890",
    "count_view": 0
  },
  {
    "link_thumb": "https://live.staticflickr.com/65535/50018887918_46c69030cc_n.jpg",
    "id_album": "-462831703",
    "description": "Cat_901892",
    "title": "Cat_901892",
    "link_img": "https://live.staticflickr.com/65535/50018887918_5ca4277286_o.jpg",
    "id_image": "Cat_901892",
    "count_view": 0
  },
  {
    "link_thumb": "https://live.staticflickr.com/65535/50018888118_f902f0ab7b_n.jpg",
    "id_album": "-462831703",
    "description": "Cat_901897",
    "title": "Cat_901897",
    "link_img": "https://live.staticflickr.com/65535/50018888118_77a6c2b33e_o.jpg",
    "id_image": "Cat_901897",
    "count_view": 0
  },
  {
    "link_thumb": "https://live.staticflickr.com/65535/50019675622_615262c4fe_n.jpg",
    "id_album": "-462831703",
    "description": "Cat_901901",
    "title": "Cat_901901",
    "link_img": "https://live.staticflickr.com/65535/50019675622_827710f7c4_o.jpg",
    "id_image": "Cat_901901",
    "count_view": 0
  },
  {
    "link_thumb": "https://live.staticflickr.com/65535/50019418026_974e5d1747_n.jpg",
    "id_album": "-462831703",
    "description": "Cat_901902",
    "title": "Cat_901902",
    "link_img": "https://live.staticflickr.com/65535/50019418026_cfeea0d52d_o.jpg",
    "id_image": "Cat_901902",
    "count_view": 0
  },
  {
    "link_thumb": "https://live.staticflickr.com/65535/50019418211_07780a86d8_n.jpg",
    "id_album": "-462831703",
    "description": "Cat_902011",
    "title": "Cat_902011",
    "link_img": "https://live.staticflickr.com/65535/50019418211_3beef73b71_o.jpg",
    "id_image": "Cat_902011",
    "count_view": 0
  },
  {
    "link_thumb": "https://live.staticflickr.com/65535/50018888798_c34328db93_n.jpg",
    "id_album": "-462831703",
    "description": "Cat_902180",
    "title": "Cat_902180",
    "link_img": "https://live.staticflickr.com/65535/50018888798_d7f98c6412_o.jpg",
    "id_image": "Cat_902180",
    "count_view": 0
  },
  {
    "link_thumb": "https://live.staticflickr.com/65535/50019676467_7d238195b4_n.jpg",
    "id_album": "-462831703",
    "description": "Cat_902309",
    "title": "Cat_902309",
    "link_img": "https://live.staticflickr.com/65535/50019676467_90aaaf092c_o.jpg",
    "id_image": "Cat_902309",
    "count_view": 0
  },
  {
    "link_thumb": "https://live.staticflickr.com/65535/50018889428_6315d640c9_n.jpg",
    "id_album": "-462831703",
    "description": "Cat_902318",
    "title": "Cat_902318",
    "link_img": "https://live.staticflickr.com/65535/50018889428_3cbf8383e1_o.jpg",
    "id_image": "Cat_902318",
    "count_view": 0
  },
  {
    "link_thumb": "https://live.staticflickr.com/65535/50018889653_07fc014df3_n.jpg",
    "id_album": "-462831703",
    "description": "Cat_902324",
    "title": "Cat_902324",
    "link_img": "https://live.staticflickr.com/65535/50018889653_e904d174ed_o.jpg",
    "id_image": "Cat_902324",
    "count_view": 0
  },
  {
    "link_thumb": "https://live.staticflickr.com/65535/50018889943_cc6ab17945_n.jpg",
    "id_album": "-462831703",
    "description": "Cat_902504",
    "title": "Cat_902504",
    "link_img": "https://live.staticflickr.com/65535/50018889943_82ea003a42_o.jpg",
    "id_image": "Cat_902504",
    "count_view": 0
  },
  {
    "link_thumb": "https://live.staticflickr.com/65535/50018890183_16d3fc3483_n.jpg",
    "id_album": "-462831703",
    "description": "Cat_902515",
    "title": "Cat_902515",
    "link_img": "https://live.staticflickr.com/65535/50018890183_6647040043_o.jpg",
    "id_image": "Cat_902515",
    "count_view": 0
  },
  {
    "link_thumb": "https://live.staticflickr.com/65535/50019677907_a20bc40117_n.jpg",
    "id_album": "-462831703",
    "description": "Cat_902705",
    "title": "Cat_902705",
    "link_img": "https://live.staticflickr.com/65535/50019677907_34612c8d22_o.jpg",
    "id_image": "Cat_902705",
    "count_view": 0
  },
  {
    "link_thumb": "https://live.staticflickr.com/65535/50019678102_554fe2e114_n.jpg",
    "id_album": "-462831703",
    "description": "Cat_902719",
    "title": "Cat_902719",
    "link_img": "https://live.staticflickr.com/65535/50019678102_22a8db5ff6_o.jpg",
    "id_image": "Cat_902719",
    "count_view": 0
  },
  {
    "link_thumb": "https://live.staticflickr.com/65535/50018890903_4e4fd8c280_n.jpg",
    "id_album": "-462831703",
    "description": "Cat_902936",
    "title": "Cat_902936",
    "link_img": "https://live.staticflickr.com/65535/50018890903_0392683020_o.jpg",
    "id_image": "Cat_902936",
    "count_view": 0
  },
  {
    "link_thumb": "https://live.staticflickr.com/65535/50019678292_dcbbff0d10_n.jpg",
    "id_album": "-462831703",
    "description": "Cat_902939",
    "title": "Cat_902939",
    "link_img": "https://live.staticflickr.com/65535/50019678292_603418c184_o.jpg",
    "id_image": "Cat_902939",
    "count_view": 0
  },
  {
    "link_thumb": "https://live.staticflickr.com/65535/50019678587_b32ac68afe_n.jpg",
    "id_album": "-462831703",
    "description": "Cat_903064",
    "title": "Cat_903064",
    "link_img": "https://live.staticflickr.com/65535/50019678587_0f71a1e690_o.jpg",
    "id_image": "Cat_903064",
    "count_view": 0
  },
  {
    "link_thumb": "https://live.staticflickr.com/65535/50019678857_6fa0f1698a_n.jpg",
    "id_album": "-462831703",
    "description": "Cat_903147",
    "title": "Cat_903147",
    "link_img": "https://live.staticflickr.com/65535/50019678857_ff4988305d_o.jpg",
    "id_image": "Cat_903147",
    "count_view": 0
  },
  {
    "link_thumb": "https://live.staticflickr.com/65535/50019421371_8f22957820_n.jpg",
    "id_album": "-462831703",
    "description": "Cat_903305",
    "title": "Cat_903305",
    "link_img": "https://live.staticflickr.com/65535/50019421371_10f74751af_o.jpg",
    "id_image": "Cat_903305",
    "count_view": 0
  },
  {
    "link_thumb": "https://live.staticflickr.com/65535/50018891813_5b124079a2_n.jpg",
    "id_album": "-462831703",
    "description": "Cat_903307",
    "title": "Cat_903307",
    "link_img": "https://live.staticflickr.com/65535/50018891813_74cd4cdc18_o.jpg",
    "id_image": "Cat_903307",
    "count_view": 0
  },
  {
    "link_thumb": "https://live.staticflickr.com/65535/50019679317_decbf6e6c0_n.jpg",
    "id_album": "-462831703",
    "description": "Cat_903447",
    "title": "Cat_903447",
    "link_img": "https://live.staticflickr.com/65535/50019679317_291d51e198_o.jpg",
    "id_image": "Cat_903447",
    "count_view": 0
  },
  {
    "link_thumb": "https://live.staticflickr.com/65535/50019421886_686f15a480_n.jpg",
    "id_album": "-462831703",
    "description": "Cat_903459",
    "title": "Cat_903459",
    "link_img": "https://live.staticflickr.com/65535/50019421886_f128a2da11_o.jpg",
    "id_image": "Cat_903459",
    "count_view": 0
  },
  {
    "link_thumb": "https://live.staticflickr.com/65535/50019422066_a7cd9fbcd2_n.jpg",
    "id_album": "-462831703",
    "description": "Cat_903482",
    "title": "Cat_903482",
    "link_img": "https://live.staticflickr.com/65535/50019422066_3b6b0883f6_o.jpg",
    "id_image": "Cat_903482",
    "count_view": 0
  },
  {
    "link_thumb": "https://live.staticflickr.com/65535/50018892513_469f450471_n.jpg",
    "id_album": "-462831703",
    "description": "Cat_903501",
    "title": "Cat_903501",
    "link_img": "https://live.staticflickr.com/65535/50018892513_6f27eaa16b_o.jpg",
    "id_image": "Cat_903501",
    "count_view": 0
  },
  {
    "link_thumb": "https://live.staticflickr.com/65535/50018892628_45c14b6547_n.jpg",
    "id_album": "-462831703",
    "description": "Cat_903615",
    "title": "Cat_903615",
    "link_img": "https://live.staticflickr.com/65535/50018892628_b6d10eb669_o.jpg",
    "id_image": "Cat_903615",
    "count_view": 0
  },
  {
    "link_thumb": "https://live.staticflickr.com/65535/50019680307_d3e5a41177_n.jpg",
    "id_album": "-462831703",
    "description": "Cat_903787",
    "title": "Cat_903787",
    "link_img": "https://live.staticflickr.com/65535/50019680307_f7876aba5c_o.jpg",
    "id_image": "Cat_903787",
    "count_view": 0
  },
  {
    "link_thumb": "https://live.staticflickr.com/65535/50018893078_a587018719_n.jpg",
    "id_album": "-462831703",
    "description": "Cat_903910",
    "title": "Cat_903910",
    "link_img": "https://live.staticflickr.com/65535/50018893078_a20894f6c3_o.jpg",
    "id_image": "Cat_903910",
    "count_view": 0
  },
  {
    "link_thumb": "https://live.staticflickr.com/65535/50019423026_c96d071a16_n.jpg",
    "id_album": "-462831703",
    "description": "Cat_904061",
    "title": "Cat_904061",
    "link_img": "https://live.staticflickr.com/65535/50019423026_6d9c80f013_o.jpg",
    "id_image": "Cat_904061",
    "count_view": 0
  },
  {
    "link_thumb": "https://live.staticflickr.com/65535/50019423166_cac76da22e_n.jpg",
    "id_album": "-462831703",
    "description": "Cat_904063",
    "title": "Cat_904063",
    "link_img": "https://live.staticflickr.com/65535/50019423166_f614592872_o.jpg",
    "id_image": "Cat_904063",
    "count_view": 0
  },
  {
    "link_thumb": "https://live.staticflickr.com/65535/50019423291_c01512b5df_n.jpg",
    "id_album": "-462831703",
    "description": "Cat_904064",
    "title": "Cat_904064",
    "link_img": "https://live.staticflickr.com/65535/50019423291_019249203e_o.jpg",
    "id_image": "Cat_904064",
    "count_view": 0
  },
  {
    "link_thumb": "https://live.staticflickr.com/65535/50019680877_935c5c49bb_n.jpg",
    "id_album": "-462831703",
    "description": "Cat_904074",
    "title": "Cat_904074",
    "link_img": "https://live.staticflickr.com/65535/50019680877_16fd7161fe_o.jpg",
    "id_image": "Cat_904074",
    "count_view": 0
  },
  {
    "link_thumb": "https://live.staticflickr.com/65535/50019681042_01c4ca278b_n.jpg",
    "id_album": "-462831703",
    "description": "Cat_904316",
    "title": "Cat_904316",
    "link_img": "https://live.staticflickr.com/65535/50019681042_94b031edb9_o.jpg",
    "id_image": "Cat_904316",
    "count_view": 0
  },
  {
    "link_thumb": "https://live.staticflickr.com/65535/50019423691_e33daf8fd9_n.jpg",
    "id_album": "-462831703",
    "description": "Cat_904322",
    "title": "Cat_904322",
    "link_img": "https://live.staticflickr.com/65535/50019423691_4f443cb8b1_o.jpg",
    "id_image": "Cat_904322",
    "count_view": 0
  },
  {
    "link_thumb": "https://live.staticflickr.com/65535/50018894048_71c9123608_n.jpg",
    "id_album": "-462831703",
    "description": "Cat_904335",
    "title": "Cat_904335",
    "link_img": "https://live.staticflickr.com/65535/50018894048_b275b220b2_o.jpg",
    "id_image": "Cat_904335",
    "count_view": 0
  },
  {
    "link_thumb": "https://live.staticflickr.com/65535/50019681472_81d647d97e_n.jpg",
    "id_album": "-462831703",
    "description": "Cat_904336",
    "title": "Cat_904336",
    "link_img": "https://live.staticflickr.com/65535/50019681472_ed1f70b7aa_o.jpg",
    "id_image": "Cat_904336",
    "count_view": 0
  },
  {
    "link_thumb": "https://live.staticflickr.com/65535/50019423986_8e361cfe74_n.jpg",
    "id_album": "-462831703",
    "description": "Cat_904346",
    "title": "Cat_904346",
    "link_img": "https://live.staticflickr.com/65535/50019423986_6a5ec741af_o.jpg",
    "id_image": "Cat_904346",
    "count_view": 0
  },
  {
    "link_thumb": "https://live.staticflickr.com/65535/50019424111_3aa5b231e6_n.jpg",
    "id_album": "-462831703",
    "description": "Cat_904360",
    "title": "Cat_904360",
    "link_img": "https://live.staticflickr.com/65535/50019424111_fdc755725d_o.jpg",
    "id_image": "Cat_904360",
    "count_view": 0
  },
  {
    "link_thumb": "https://live.staticflickr.com/65535/50018894593_53025626b0_n.jpg",
    "id_album": "-462831703",
    "description": "Cat_904362",
    "title": "Cat_904362",
    "link_img": "https://live.staticflickr.com/65535/50018894593_acbb61524b_o.jpg",
    "id_image": "Cat_904362",
    "count_view": 0
  },
  {
    "link_thumb": "https://live.staticflickr.com/65535/50019681962_3edc9da17b_n.jpg",
    "id_album": "-462831703",
    "description": "Cat_904490",
    "title": "Cat_904490",
    "link_img": "https://live.staticflickr.com/65535/50019681962_afd3041eb4_o.jpg",
    "id_image": "Cat_904490",
    "count_view": 0
  },
  {
    "link_thumb": "https://live.staticflickr.com/65535/50019682202_f79dc8eeac_n.jpg",
    "id_album": "-462831703",
    "description": "Cat_904495",
    "title": "Cat_904495",
    "link_img": "https://live.staticflickr.com/65535/50019682202_10583fe726_o.jpg",
    "id_image": "Cat_904495",
    "count_view": 0
  },
  {
    "link_thumb": "https://live.staticflickr.com/65535/50018895063_e980e2a7f8_n.jpg",
    "id_album": "-462831703",
    "description": "Cat_904507",
    "title": "Cat_904507",
    "link_img": "https://live.staticflickr.com/65535/50018895063_8bc07267c1_o.jpg",
    "id_image": "Cat_904507",
    "count_view": 0
  },
  {
    "link_thumb": "https://live.staticflickr.com/65535/50019424906_89f9755bc9_n.jpg",
    "id_album": "-462831703",
    "description": "Cat_904606",
    "title": "Cat_904606",
    "link_img": "https://live.staticflickr.com/65535/50019424906_0a41321753_o.jpg",
    "id_image": "Cat_904606",
    "count_view": 0
  },
  {
    "link_thumb": "https://live.staticflickr.com/65535/50019425056_000f9da0d2_n.jpg",
    "id_album": "-462831703",
    "description": "Cat_904781",
    "title": "Cat_904781",
    "link_img": "https://live.staticflickr.com/65535/50019425056_8c84f0d2b4_o.jpg",
    "id_image": "Cat_904781",
    "count_view": 0
  },
  {
    "link_thumb": "https://live.staticflickr.com/65535/50019425196_ffb0b65368_n.jpg",
    "id_album": "-462831703",
    "description": "Cat_904795",
    "title": "Cat_904795",
    "link_img": "https://live.staticflickr.com/65535/50019425196_fc5623fd1f_o.jpg",
    "id_image": "Cat_904795",
    "count_view": 0
  },
  {
    "link_thumb": "https://live.staticflickr.com/65535/50018895798_6d99373008_n.jpg",
    "id_album": "-462831703",
    "description": "Cat_904799",
    "title": "Cat_904799",
    "link_img": "https://live.staticflickr.com/65535/50018895798_492d8542c9_o.jpg",
    "id_image": "Cat_904799",
    "count_view": 0
  },
  {
    "link_thumb": "https://live.staticflickr.com/65535/50019425446_6bb4370c15_n.jpg",
    "id_album": "-462831703",
    "description": "Cat_904900",
    "title": "Cat_904900",
    "link_img": "https://live.staticflickr.com/65535/50019425446_827cc1fe8a_o.jpg",
    "id_image": "Cat_904900",
    "count_view": 0
  },
  {
    "link_thumb": "https://live.staticflickr.com/65535/50019425621_520a062edb_n.jpg",
    "id_album": "-462831703",
    "description": "Cat_904913",
    "title": "Cat_904913",
    "link_img": "https://live.staticflickr.com/65535/50019425621_289822951b_o.jpg",
    "id_image": "Cat_904913",
    "count_view": 0
  },
  {
    "link_thumb": "https://live.staticflickr.com/65535/50019683527_6b9ac5dd18_n.jpg",
    "id_album": "-462831703",
    "description": "Cat_904921",
    "title": "Cat_904921",
    "link_img": "https://live.staticflickr.com/65535/50019683527_ca520a1a0a_o.jpg",
    "id_image": "Cat_904921",
    "count_view": 0
  },
  {
    "link_thumb": "https://live.staticflickr.com/65535/50019683752_4b885eb7bf_n.jpg",
    "id_album": "-462831703",
    "description": "Cat_904922",
    "title": "Cat_904922",
    "link_img": "https://live.staticflickr.com/65535/50019683752_7823904462_o.jpg",
    "id_image": "Cat_904922",
    "count_view": 0
  },
  {
    "link_thumb": "https://live.staticflickr.com/65535/50019426161_edbf06ea5a_n.jpg",
    "id_album": "-462831703",
    "description": "Cat_904988",
    "title": "Cat_904988",
    "link_img": "https://live.staticflickr.com/65535/50019426161_8b26e3430f_o.jpg",
    "id_image": "Cat_904988",
    "count_view": 0
  },
  {
    "link_thumb": "https://live.staticflickr.com/65535/50019684062_00fbbb27e8_n.jpg",
    "id_album": "-462831703",
    "description": "Cat_905048",
    "title": "Cat_905048",
    "link_img": "https://live.staticflickr.com/65535/50019684062_4881e0a69b_o.jpg",
    "id_image": "Cat_905048",
    "count_view": 0
  },
  {
    "link_thumb": "https://live.staticflickr.com/65535/50019426446_e4d844e38d_n.jpg",
    "id_album": "-462831703",
    "description": "Cat_905054",
    "title": "Cat_905054",
    "link_img": "https://live.staticflickr.com/65535/50019426446_37e32b4d0e_o.jpg",
    "id_image": "Cat_905054",
    "count_view": 0
  },
  {
    "link_thumb": "https://live.staticflickr.com/65535/50019684307_406e126202_n.jpg",
    "id_album": "-462831703",
    "description": "Cat_905209",
    "title": "Cat_905209",
    "link_img": "https://live.staticflickr.com/65535/50019684307_df2be03786_o.jpg",
    "id_image": "Cat_905209",
    "count_view": 0
  },
  {
    "link_thumb": "https://live.staticflickr.com/65535/50019684442_26b14a0a15_n.jpg",
    "id_album": "-462831703",
    "description": "Cat_905248",
    "title": "Cat_905248",
    "link_img": "https://live.staticflickr.com/65535/50019684442_b8043feb5f_o.jpg",
    "id_image": "Cat_905248",
    "count_view": 0
  },
  {
    "link_thumb": "https://live.staticflickr.com/65535/50019427116_318b3a40f7_n.jpg",
    "id_album": "-462831703",
    "description": "Cat_905424",
    "title": "Cat_905424",
    "link_img": "https://live.staticflickr.com/65535/50019427116_0dbc71d4e8_o.jpg",
    "id_image": "Cat_905424",
    "count_view": 0
  },
  {
    "link_thumb": "https://live.staticflickr.com/65535/50019685742_e197e6d43e_n.jpg",
    "id_album": "-462831703",
    "description": "Cat_905438",
    "title": "Cat_905438",
    "link_img": "https://live.staticflickr.com/65535/50019685742_10db9f53a4_o.jpg",
    "id_image": "Cat_905438",
    "count_view": 0
  },
  {
    "link_thumb": "https://live.staticflickr.com/65535/50019685867_6d1630e790_n.jpg",
    "id_album": "-462831703",
    "description": "Cat_905492",
    "title": "Cat_905492",
    "link_img": "https://live.staticflickr.com/65535/50019685867_a165620589_o.jpg",
    "id_image": "Cat_905492",
    "count_view": 0
  },
  {
    "link_thumb": "https://live.staticflickr.com/65535/50019428331_b7f5d69d53_n.jpg",
    "id_album": "-462831703",
    "description": "Cat_905558",
    "title": "Cat_905558",
    "link_img": "https://live.staticflickr.com/65535/50019428331_8d5db605be_o.jpg",
    "id_image": "Cat_905558",
    "count_view": 0
  },
  {
    "link_thumb": "https://live.staticflickr.com/65535/50019686097_8315724a6b_n.jpg",
    "id_album": "-462831703",
    "description": "Cat_905569",
    "title": "Cat_905569",
    "link_img": "https://live.staticflickr.com/65535/50019686097_55e9c15eb4_o.jpg",
    "id_image": "Cat_905569",
    "count_view": 0
  },
  {
    "link_thumb": "https://live.staticflickr.com/65535/50018898838_9740073690_n.jpg",
    "id_album": "-462831703",
    "description": "Cat_905579",
    "title": "Cat_905579",
    "link_img": "https://live.staticflickr.com/65535/50018898838_c665b5a768_o.jpg",
    "id_image": "Cat_905579",
    "count_view": 0
  },
  {
    "link_thumb": "https://live.staticflickr.com/65535/50019686337_4123944a17_n.jpg",
    "id_album": "-462831703",
    "description": "Cat_905725",
    "title": "Cat_905725",
    "link_img": "https://live.staticflickr.com/65535/50019686337_87009c48d4_o.jpg",
    "id_image": "Cat_905725",
    "count_view": 0
  },
  {
    "link_thumb": "https://live.staticflickr.com/65535/50019686487_27d70b0957_n.jpg",
    "id_album": "-462831703",
    "description": "Cat_905743",
    "title": "Cat_905743",
    "link_img": "https://live.staticflickr.com/65535/50019686487_0771f308ce_o.jpg",
    "id_image": "Cat_905743",
    "count_view": 0
  },
  {
    "link_thumb": "https://live.staticflickr.com/65535/50018899263_feff05c446_n.jpg",
    "id_album": "-462831703",
    "description": "Cat_905878",
    "title": "Cat_905878",
    "link_img": "https://live.staticflickr.com/65535/50018899263_55a9e7a61f_o.jpg",
    "id_image": "Cat_905878",
    "count_view": 0
  },
  {
    "link_thumb": "https://live.staticflickr.com/65535/50018899403_2b0d7b0599_n.jpg",
    "id_album": "-462831703",
    "description": "Cat_905885",
    "title": "Cat_905885",
    "link_img": "https://live.staticflickr.com/65535/50018899403_3ff1c1df1f_o.jpg",
    "id_image": "Cat_905885",
    "count_view": 0
  },
  {
    "link_thumb": "https://live.staticflickr.com/65535/50018899468_5b5c71520c_n.jpg",
    "id_album": "-462831703",
    "description": "Cat_906168",
    "title": "Cat_906168",
    "link_img": "https://live.staticflickr.com/65535/50018899468_493a3ab97e_o.jpg",
    "id_image": "Cat_906168",
    "count_view": 0
  },
  {
    "link_thumb": "https://live.staticflickr.com/65535/50019429361_1a5011847d_n.jpg",
    "id_album": "-462831703",
    "description": "Cat_906429",
    "title": "Cat_906429",
    "link_img": "https://live.staticflickr.com/65535/50019429361_c25232cd28_o.jpg",
    "id_image": "Cat_906429",
    "count_view": 0
  },
  {
    "link_thumb": "https://live.staticflickr.com/65535/50018899768_e886e1feab_n.jpg",
    "id_album": "-462831703",
    "description": "Cat_906456",
    "title": "Cat_906456",
    "link_img": "https://live.staticflickr.com/65535/50018899768_eb07957503_o.jpg",
    "id_image": "Cat_906456",
    "count_view": 0
  },
  {
    "link_thumb": "https://live.staticflickr.com/65535/50019429756_c6e79ab45b_n.jpg",
    "id_album": "-462831703",
    "description": "Cat_906457",
    "title": "Cat_906457",
    "link_img": "https://live.staticflickr.com/65535/50019429756_2f31c93c08_o.jpg",
    "id_image": "Cat_906457",
    "count_view": 0
  },
  {
    "link_thumb": "https://live.staticflickr.com/65535/50019687517_620b9fed0b_n.jpg",
    "id_album": "-462831703",
    "description": "Cat_906480",
    "title": "Cat_906480",
    "link_img": "https://live.staticflickr.com/65535/50019687517_92110fb8d7_o.jpg",
    "id_image": "Cat_906480",
    "count_view": 0
  },
  {
    "link_thumb": "https://live.staticflickr.com/65535/50018900263_854476e9ba_n.jpg",
    "id_album": "-462831703",
    "description": "Cat_906507",
    "title": "Cat_906507",
    "link_img": "https://live.staticflickr.com/65535/50018900263_df0c0e6afe_o.jpg",
    "id_image": "Cat_906507",
    "count_view": 0
  },
  {
    "link_thumb": "https://live.staticflickr.com/65535/50018900358_ef1646d54d_n.jpg",
    "id_album": "-462831703",
    "description": "Cat_906879",
    "title": "Cat_906879",
    "link_img": "https://live.staticflickr.com/65535/50018900358_c6ab37b540_o.jpg",
    "id_image": "Cat_906879",
    "count_view": 0
  },
  {
    "link_thumb": "https://live.staticflickr.com/65535/50019687817_9bfa48c80a_n.jpg",
    "id_album": "-462831703",
    "description": "Cat_906904",
    "title": "Cat_906904",
    "link_img": "https://live.staticflickr.com/65535/50019687817_5fa74a6cb3_o.jpg",
    "id_image": "Cat_906904",
    "count_view": 0
  },
  {
    "link_thumb": "https://live.staticflickr.com/65535/50019430651_235127ee1b_n.jpg",
    "id_album": "-462831703",
    "description": "Cat_907102",
    "title": "Cat_907102",
    "link_img": "https://live.staticflickr.com/65535/50019430651_b9e5d266b9_o.jpg",
    "id_image": "Cat_907102",
    "count_view": 0
  },
  {
    "link_thumb": "https://live.staticflickr.com/65535/50019688212_aca3e40f11_n.jpg",
    "id_album": "-462831703",
    "description": "Cat_907243",
    "title": "Cat_907243",
    "link_img": "https://live.staticflickr.com/65535/50019688212_43d2cd854d_o.jpg",
    "id_image": "Cat_907243",
    "count_view": 0
  },
  {
    "link_thumb": "https://live.staticflickr.com/65535/50019430946_23419fc52e_n.jpg",
    "id_album": "-462831703",
    "description": "Cat_907250",
    "title": "Cat_907250",
    "link_img": "https://live.staticflickr.com/65535/50019430946_76bcae445b_o.jpg",
    "id_image": "Cat_907250",
    "count_view": 0
  },
  {
    "link_thumb": "https://live.staticflickr.com/65535/50018901138_e5d7ef87dd_n.jpg",
    "id_album": "-462831703",
    "description": "Cat_907279",
    "title": "Cat_907279",
    "link_img": "https://live.staticflickr.com/65535/50018901138_44174773a7_o.jpg",
    "id_image": "Cat_907279",
    "count_view": 0
  },
  {
    "link_thumb": "https://live.staticflickr.com/65535/50019431161_01c8684191_n.jpg",
    "id_album": "-462831703",
    "description": "Cat_907578",
    "title": "Cat_907578",
    "link_img": "https://live.staticflickr.com/65535/50019431161_b3a21d88fa_o.jpg",
    "id_image": "Cat_907578",
    "count_view": 0
  },
  {
    "link_thumb": "https://live.staticflickr.com/65535/50019688747_9146491aa2_n.jpg",
    "id_album": "-462831703",
    "description": "Cat_907586",
    "title": "Cat_907586",
    "link_img": "https://live.staticflickr.com/65535/50019688747_a6f6d0a779_o.jpg",
    "id_image": "Cat_907586",
    "count_view": 0
  },
  {
    "link_thumb": "https://live.staticflickr.com/65535/50018901608_967cc00db4_n.jpg",
    "id_album": "-462831703",
    "description": "Cat_907625",
    "title": "Cat_907625",
    "link_img": "https://live.staticflickr.com/65535/50018901608_f47882d831_o.jpg",
    "id_image": "Cat_907625",
    "count_view": 0
  },
  {
    "link_thumb": "https://live.staticflickr.com/65535/50019689067_02a8825178_n.jpg",
    "id_album": "-462831703",
    "description": "Cat_907776",
    "title": "Cat_907776",
    "link_img": "https://live.staticflickr.com/65535/50019689067_b99fd5a3cb_o.jpg",
    "id_image": "Cat_907776",
    "count_view": 0
  },
  {
    "link_thumb": "https://live.staticflickr.com/65535/50019689182_215b2bc24b_n.jpg",
    "id_album": "-462831703",
    "description": "Cat_907997",
    "title": "Cat_907997",
    "link_img": "https://live.staticflickr.com/65535/50019689182_4a8825f1eb_o.jpg",
    "id_image": "Cat_907997",
    "count_view": 0
  },
  {
    "link_thumb": "https://live.staticflickr.com/65535/50019689382_f8b5988210_n.jpg",
    "id_album": "-462831703",
    "description": "Cat_908162",
    "title": "Cat_908162",
    "link_img": "https://live.staticflickr.com/65535/50019689382_29a4b18b1f_o.jpg",
    "id_image": "Cat_908162",
    "count_view": 0
  },
  {
    "link_thumb": "https://live.staticflickr.com/65535/50019689472_58856307c2_n.jpg",
    "id_album": "-462831703",
    "description": "Cat_908169",
    "title": "Cat_908169",
    "link_img": "https://live.staticflickr.com/65535/50019689472_dd64bc96ee_o.jpg",
    "id_image": "Cat_908169",
    "count_view": 0
  },
  {
    "link_thumb": "https://live.staticflickr.com/65535/50018902393_038905e7cd_n.jpg",
    "id_album": "-462831703",
    "description": "Cat_908196",
    "title": "Cat_908196",
    "link_img": "https://live.staticflickr.com/65535/50018902393_e39c1130ab_o.jpg",
    "id_image": "Cat_908196",
    "count_view": 0
  },
  {
    "link_thumb": "https://live.staticflickr.com/65535/50018902513_b364e1995a_n.jpg",
    "id_album": "-462831703",
    "description": "Cat_908411",
    "title": "Cat_908411",
    "link_img": "https://live.staticflickr.com/65535/50018902513_6030a9a615_o.jpg",
    "id_image": "Cat_908411",
    "count_view": 0
  },
  {
    "link_thumb": "https://live.staticflickr.com/65535/50018902678_e0cddf1ac5_n.jpg",
    "id_album": "-462831703",
    "description": "Cat_908416",
    "title": "Cat_908416",
    "link_img": "https://live.staticflickr.com/65535/50018902678_5d6bc80084_o.jpg",
    "id_image": "Cat_908416",
    "count_view": 0
  },
  {
    "link_thumb": "https://live.staticflickr.com/65535/50019432791_34158f3a3c_n.jpg",
    "id_album": "-462831703",
    "description": "Cat_909167",
    "title": "Cat_909167",
    "link_img": "https://live.staticflickr.com/65535/50019432791_58153c3d9a_o.jpg",
    "id_image": "Cat_909167",
    "count_view": 0
  },
  {
    "link_thumb": "https://live.staticflickr.com/65535/50018903108_a13583bf11_n.jpg",
    "id_album": "-462831703",
    "description": "Cat_909174",
    "title": "Cat_909174",
    "link_img": "https://live.staticflickr.com/65535/50018903108_6c2830cba4_o.jpg",
    "id_image": "Cat_909174",
    "count_view": 0
  },
  {
    "link_thumb": "https://live.staticflickr.com/65535/50352669841_57ced4a50d_n.jpg",
    "id_album": "-462831703",
    "description": "Cat_909409",
    "title": "Cat_909409",
    "link_img": "https://live.staticflickr.com/65535/50352669841_edb97b7c9e_o.jpg",
    "id_image": "Cat_909409",
    "count_view": 0
  },
  {
    "link_thumb": "https://live.staticflickr.com/65535/50019690672_2c221c0b9e_n.jpg",
    "id_album": "-462831703",
    "description": "Cat_909712",
    "title": "Cat_909712",
    "link_img": "https://live.staticflickr.com/65535/50019690672_c08191640a_o.jpg",
    "id_image": "Cat_909712",
    "count_view": 0
  },
  {
    "link_thumb": "https://live.staticflickr.com/65535/50018903813_f49818bc8f_n.jpg",
    "id_album": "-462831703",
    "description": "Cat_909718",
    "title": "Cat_909718",
    "link_img": "https://live.staticflickr.com/65535/50018903813_0066855968_o.jpg",
    "id_image": "Cat_909718",
    "count_view": 0
  },
  {
    "link_thumb": "https://live.staticflickr.com/65535/50019691377_9a7c0a7ed5_n.jpg",
    "id_album": "-462831703",
    "description": "Cat_909814",
    "title": "Cat_909814",
    "link_img": "https://live.staticflickr.com/65535/50019691377_7f7dd880a2_o.jpg",
    "id_image": "Cat_909814",
    "count_view": 0
  },
  {
    "link_thumb": "https://live.staticflickr.com/65535/50019434386_1f85871e28_n.jpg",
    "id_album": "-462831703",
    "description": "Cat_909833",
    "title": "Cat_909833",
    "link_img": "https://live.staticflickr.com/65535/50019434386_4516b57300_o.jpg",
    "id_image": "Cat_909833",
    "count_view": 0
  },
  {
    "link_thumb": "https://live.staticflickr.com/65535/50019691962_aee7345674_n.jpg",
    "id_album": "-462831703",
    "description": "Cat_909984",
    "title": "Cat_909984",
    "link_img": "https://live.staticflickr.com/65535/50019691962_4ca3cf5f81_o.jpg",
    "id_image": "Cat_909984",
    "count_view": 0
  },
  {
    "link_thumb": "https://live.staticflickr.com/65535/50019434901_f627bd7282_n.jpg",
    "id_album": "-462831703",
    "description": "Cat_909986",
    "title": "Cat_909986",
    "link_img": "https://live.staticflickr.com/65535/50019434901_90ea604293_o.jpg",
    "id_image": "Cat_909986",
    "count_view": 0
  },
  {
    "link_thumb": "https://live.staticflickr.com/65535/50019692627_cf45c0c255_n.jpg",
    "id_album": "-462831703",
    "description": "Cat_909996",
    "title": "Cat_909996",
    "link_img": "https://live.staticflickr.com/65535/50019692627_58f5a76481_o.jpg",
    "id_image": "Cat_909996",
    "count_view": 0
  },
  {
    "link_thumb": "https://live.staticflickr.com/65535/50018905573_d37869c2c1_n.jpg",
    "id_album": "-462831703",
    "description": "Cat_910274",
    "title": "Cat_910274",
    "link_img": "https://live.staticflickr.com/65535/50018905573_1b93719d0e_o.jpg",
    "id_image": "Cat_910274",
    "count_view": 0
  },
  {
    "link_thumb": "https://live.staticflickr.com/65535/50019435951_d831ffaa11_n.jpg",
    "id_album": "-462831703",
    "description": "Cat_910279",
    "title": "Cat_910279",
    "link_img": "https://live.staticflickr.com/65535/50019435951_b20be47dab_o.jpg",
    "id_image": "Cat_910279",
    "count_view": 0
  },
  {
    "link_thumb": "https://live.staticflickr.com/65535/50019436066_b9a86475b7_n.jpg",
    "id_album": "-462831703",
    "description": "Cat_910430",
    "title": "Cat_910430",
    "link_img": "https://live.staticflickr.com/65535/50019436066_9344bc596c_o.jpg",
    "id_image": "Cat_910430",
    "count_view": 0
  },
  {
    "link_thumb": "https://live.staticflickr.com/65535/50019436231_2fdc8de701_n.jpg",
    "id_album": "-462831703",
    "description": "Cat_910435",
    "title": "Cat_910435",
    "link_img": "https://live.staticflickr.com/65535/50019436231_e3a221b23a_o.jpg",
    "id_image": "Cat_910435",
    "count_view": 0
  },
  {
    "link_thumb": "https://live.staticflickr.com/65535/50019693692_24c19aeed6_n.jpg",
    "id_album": "-462831703",
    "description": "Cat_910619",
    "title": "Cat_910619",
    "link_img": "https://live.staticflickr.com/65535/50019693692_0019b67baf_o.jpg",
    "id_image": "Cat_910619",
    "count_view": 0
  },
  {
    "link_thumb": "https://live.staticflickr.com/65535/50019693827_10f9e31916_n.jpg",
    "id_album": "-462831703",
    "description": "Cat_910702",
    "title": "Cat_910702",
    "link_img": "https://live.staticflickr.com/65535/50019693827_d1580f8305_o.jpg",
    "id_image": "Cat_910702",
    "count_view": 0
  },
  {
    "link_thumb": "https://live.staticflickr.com/65535/50018906403_f0d0cc4580_n.jpg",
    "id_album": "-462831703",
    "description": "Cat_910891",
    "title": "Cat_910891",
    "link_img": "https://live.staticflickr.com/65535/50018906403_c66ce61ba8_o.jpg",
    "id_image": "Cat_910891",
    "count_view": 0
  },
  {
    "link_thumb": "https://live.staticflickr.com/65535/50019694117_2902032d36_n.jpg",
    "id_album": "-462831703",
    "description": "Cat_911147",
    "title": "Cat_911147",
    "link_img": "https://live.staticflickr.com/65535/50019694117_0bd93c5894_o.jpg",
    "id_image": "Cat_911147",
    "count_view": 0
  },
  {
    "link_thumb": "https://live.staticflickr.com/65535/50019694317_65c21c9f09_n.jpg",
    "id_album": "-462831703",
    "description": "Cat_911246",
    "title": "Cat_911246",
    "link_img": "https://live.staticflickr.com/65535/50019694317_bc8c9ff0b0_o.jpg",
    "id_image": "Cat_911246",
    "count_view": 0
  },
  {
    "link_thumb": "https://live.staticflickr.com/65535/50019437246_4e1bf03f40_n.jpg",
    "id_album": "-462831703",
    "description": "Cat_911247",
    "title": "Cat_911247",
    "link_img": "https://live.staticflickr.com/65535/50019437246_e299cfe104_o.jpg",
    "id_image": "Cat_911247",
    "count_view": 0
  },
  {
    "link_thumb": "https://live.staticflickr.com/65535/50019694597_c6e83051b7_n.jpg",
    "id_album": "-462831703",
    "description": "Cat_911257",
    "title": "Cat_911257",
    "link_img": "https://live.staticflickr.com/65535/50019694597_026e59d394_o.jpg",
    "id_image": "Cat_911257",
    "count_view": 0
  },
  {
    "link_thumb": "https://live.staticflickr.com/65535/50019437566_7d469b28dd_n.jpg",
    "id_album": "-462831703",
    "description": "Cat_911263",
    "title": "Cat_911263",
    "link_img": "https://live.staticflickr.com/65535/50019437566_ed275c4b11_o.jpg",
    "id_image": "Cat_911263",
    "count_view": 0
  },
  {
    "link_thumb": "https://live.staticflickr.com/65535/50019437681_4e566606a5_n.jpg",
    "id_album": "-462831703",
    "description": "Cat_911512",
    "title": "Cat_911512",
    "link_img": "https://live.staticflickr.com/65535/50019437681_d063f4517a_o.jpg",
    "id_image": "Cat_911512",
    "count_view": 0
  },
  {
    "link_thumb": "https://live.staticflickr.com/65535/50018907348_5b38cf8a5b_n.jpg",
    "id_album": "-462831703",
    "description": "Cat_911522",
    "title": "Cat_911522",
    "link_img": "https://live.staticflickr.com/65535/50018907348_a52c394009_o.jpg",
    "id_image": "Cat_911522",
    "count_view": 0
  },
  {
    "link_thumb": "https://live.staticflickr.com/65535/50019437946_96372a3094_n.jpg",
    "id_album": "-462831703",
    "description": "Cat_911624",
    "title": "Cat_911624",
    "link_img": "https://live.staticflickr.com/65535/50019437946_f84cd07266_o.jpg",
    "id_image": "Cat_911624",
    "count_view": 0
  },
  {
    "link_thumb": "https://live.staticflickr.com/65535/50019438131_0a109744f2_n.jpg",
    "id_album": "-462831703",
    "description": "Cat_911644",
    "title": "Cat_911644",
    "link_img": "https://live.staticflickr.com/65535/50019438131_2fdc3b4ebb_o.jpg",
    "id_image": "Cat_911644",
    "count_view": 0
  },
  {
    "link_thumb": "https://live.staticflickr.com/65535/50018907818_e0e74745e1_n.jpg",
    "id_album": "-462831703",
    "description": "Cat_911647",
    "title": "Cat_911647",
    "link_img": "https://live.staticflickr.com/65535/50018907818_3a7798487a_o.jpg",
    "id_image": "Cat_911647",
    "count_view": 0
  },
  {
    "link_thumb": "https://live.staticflickr.com/65535/50019695657_756a38ef5c_n.jpg",
    "id_album": "-462831703",
    "description": "Cat_911935",
    "title": "Cat_911935",
    "link_img": "https://live.staticflickr.com/65535/50019695657_7a728f4481_o.jpg",
    "id_image": "Cat_911935",
    "count_view": 0
  },
  {
    "link_thumb": "https://live.staticflickr.com/65535/50019695792_ef764b8d21_n.jpg",
    "id_album": "-462831703",
    "description": "Cat_911991",
    "title": "Cat_911991",
    "link_img": "https://live.staticflickr.com/65535/50019695792_9bfa155906_o.jpg",
    "id_image": "Cat_911991",
    "count_view": 0
  },
  {
    "link_thumb": "https://live.staticflickr.com/65535/50019438971_c869bb68ee_n.jpg",
    "id_album": "-462831703",
    "description": "Cat_912140",
    "title": "Cat_912140",
    "link_img": "https://live.staticflickr.com/65535/50019438971_af0ee070c7_o.jpg",
    "id_image": "Cat_912140",
    "count_view": 0
  },
  {
    "link_thumb": "https://live.staticflickr.com/65535/50019696327_2f87f533c7_n.jpg",
    "id_album": "-462831703",
    "description": "Cat_912148",
    "title": "Cat_912148",
    "link_img": "https://live.staticflickr.com/65535/50019696327_4c6b0dd0b7_o.jpg",
    "id_image": "Cat_912148",
    "count_view": 0
  },
  {
    "link_thumb": "https://live.staticflickr.com/65535/50018908818_aa94a973b4_n.jpg",
    "id_album": "-462831703",
    "description": "Cat_912321",
    "title": "Cat_912321",
    "link_img": "https://live.staticflickr.com/65535/50018908818_11661f376c_o.jpg",
    "id_image": "Cat_912321",
    "count_view": 0
  },
  {
    "link_thumb": "https://live.staticflickr.com/65535/50018908943_b6212437c6_n.jpg",
    "id_album": "-462831703",
    "description": "Cat_912331",
    "title": "Cat_912331",
    "link_img": "https://live.staticflickr.com/65535/50018908943_61d52e457c_o.jpg",
    "id_image": "Cat_912331",
    "count_view": 0
  },
  {
    "link_thumb": "https://live.staticflickr.com/65535/50019696917_15133cd3e3_n.jpg",
    "id_album": "-462831703",
    "description": "Cat_912474",
    "title": "Cat_912474",
    "link_img": "https://live.staticflickr.com/65535/50019696917_d9c8dd8a23_o.jpg",
    "id_image": "Cat_912474",
    "count_view": 0
  },
  {
    "link_thumb": "https://live.staticflickr.com/65535/50018909233_7d4e2c4ee3_n.jpg",
    "id_album": "-462831703",
    "description": "Cat_912495",
    "title": "Cat_912495",
    "link_img": "https://live.staticflickr.com/65535/50018909233_5164eaaeeb_o.jpg",
    "id_image": "Cat_912495",
    "count_view": 0
  },
  {
    "link_thumb": "https://live.staticflickr.com/65535/50019440256_03aae25985_n.jpg",
    "id_album": "-462831703",
    "description": "Cat_912627",
    "title": "Cat_912627",
    "link_img": "https://live.staticflickr.com/65535/50019440256_19d674d4c3_o.jpg",
    "id_image": "Cat_912627",
    "count_view": 0
  },
  {
    "link_thumb": "https://live.staticflickr.com/65535/50019440401_8471d0f0ee_n.jpg",
    "id_album": "-462831703",
    "description": "Cat_912629",
    "title": "Cat_912629",
    "link_img": "https://live.staticflickr.com/65535/50019440401_e246af85d7_o.jpg",
    "id_image": "Cat_912629",
    "count_view": 0
  },
  {
    "link_thumb": "https://live.staticflickr.com/65535/50019697697_47211bfee3_n.jpg",
    "id_album": "-462831703",
    "description": "Cat_913325",
    "title": "Cat_913325",
    "link_img": "https://live.staticflickr.com/65535/50019697697_9c3966e0a3_o.jpg",
    "id_image": "Cat_913325",
    "count_view": 0
  },
  {
    "link_thumb": "https://live.staticflickr.com/65535/50019698117_5fdc26fff6_n.jpg",
    "id_album": "-462831703",
    "description": "Cat_913455",
    "title": "Cat_913455",
    "link_img": "https://live.staticflickr.com/65535/50019698117_dc49015a00_o.jpg",
    "id_image": "Cat_913455",
    "count_view": 0
  },
  {
    "link_thumb": "https://live.staticflickr.com/65535/50019698302_dec6212ace_n.jpg",
    "id_album": "-462831703",
    "description": "Cat_913464",
    "title": "Cat_913464",
    "link_img": "https://live.staticflickr.com/65535/50019698302_3486ba325e_o.jpg",
    "id_image": "Cat_913464",
    "count_view": 0
  },
  {
    "link_thumb": "https://live.staticflickr.com/65535/50019699737_7e308bee8c_n.jpg",
    "id_album": "-462831703",
    "description": "Cat_913775",
    "title": "Cat_913775",
    "link_img": "https://live.staticflickr.com/65535/50019699737_84f23b04b6_o.jpg",
    "id_image": "Cat_913775",
    "count_view": 0
  },
  {
    "link_thumb": "https://live.staticflickr.com/65535/50018912323_67556dab40_n.jpg",
    "id_album": "-462831703",
    "description": "Cat_913795",
    "title": "Cat_913795",
    "link_img": "https://live.staticflickr.com/65535/50018912323_8bf5afd49c_o.jpg",
    "id_image": "Cat_913795",
    "count_view": 0
  },
  {
    "link_thumb": "https://live.staticflickr.com/65535/50019443636_89c9109cbf_n.jpg",
    "id_album": "-462831703",
    "description": "Cat_913796",
    "title": "Cat_913796",
    "link_img": "https://live.staticflickr.com/65535/50019443636_f385bcf474_o.jpg",
    "id_image": "Cat_913796",
    "count_view": 0
  },
  {
    "link_thumb": "https://live.staticflickr.com/65535/50019443926_f8d29a29fc_n.jpg",
    "id_album": "-462831703",
    "description": "Cat_913797",
    "title": "Cat_913797",
    "link_img": "https://live.staticflickr.com/65535/50019443926_ecb7332829_o.jpg",
    "id_image": "Cat_913797",
    "count_view": 0
  },
  {
    "link_thumb": "https://live.staticflickr.com/65535/50019444286_5089b303a2_n.jpg",
    "id_album": "-462831703",
    "description": "Cat_913798",
    "title": "Cat_913798",
    "link_img": "https://live.staticflickr.com/65535/50019444286_c72f43ca5b_o.jpg",
    "id_image": "Cat_913798",
    "count_view": 0
  },
  {
    "link_thumb": "https://live.staticflickr.com/65535/50019444591_0ed58d8544_n.jpg",
    "id_album": "-462831703",
    "description": "Cat_913799",
    "title": "Cat_913799",
    "link_img": "https://live.staticflickr.com/65535/50019444591_9183dba5e4_o.jpg",
    "id_image": "Cat_913799",
    "count_view": 0
  },
  {
    "link_thumb": "https://live.staticflickr.com/65535/50019701617_daf6936361_n.jpg",
    "id_album": "-462831703",
    "description": "Cat_913800",
    "title": "Cat_913800",
    "link_img": "https://live.staticflickr.com/65535/50019701617_0b23c1cc19_o.jpg",
    "id_image": "Cat_913800",
    "count_view": 0
  },
  {
    "link_thumb": "https://live.staticflickr.com/65535/50019701882_cd7d246669_n.jpg",
    "id_album": "-462831703",
    "description": "Cat_913802",
    "title": "Cat_913802",
    "link_img": "https://live.staticflickr.com/65535/50019701882_043deaed0f_o.jpg",
    "id_image": "Cat_913802",
    "count_view": 0
  },
  {
    "link_thumb": "https://live.staticflickr.com/65535/50019702187_8380792ceb_n.jpg",
    "id_album": "-462831703",
    "description": "Cat_913803",
    "title": "Cat_913803",
    "link_img": "https://live.staticflickr.com/65535/50019702187_0d955ca978_o.jpg",
    "id_image": "Cat_913803",
    "count_view": 0
  },
  {
    "link_thumb": "https://live.staticflickr.com/65535/50018914808_07487eb4e4_n.jpg",
    "id_album": "-462831703",
    "description": "Cat_913804",
    "title": "Cat_913804",
    "link_img": "https://live.staticflickr.com/65535/50018914808_4b9135847a_o.jpg",
    "id_image": "Cat_913804",
    "count_view": 0
  },
  {
    "link_thumb": "https://live.staticflickr.com/65535/50018915253_41a919aff5_n.jpg",
    "id_album": "-462831703",
    "description": "Cat_913805",
    "title": "Cat_913805",
    "link_img": "https://live.staticflickr.com/65535/50018915253_8651f2c35d_o.jpg",
    "id_image": "Cat_913805",
    "count_view": 0
  },
  {
    "link_thumb": "https://live.staticflickr.com/65535/50019446581_bcb89c4f9a_n.jpg",
    "id_album": "-462831703",
    "description": "Cat_913806",
    "title": "Cat_913806",
    "link_img": "https://live.staticflickr.com/65535/50019446581_3b5b27bd8e_o.jpg",
    "id_image": "Cat_913806",
    "count_view": 0
  },
  {
    "link_thumb": "https://live.staticflickr.com/65535/50019703777_28be305461_n.jpg",
    "id_album": "-462831703",
    "description": "Cat_913807",
    "title": "Cat_913807",
    "link_img": "https://live.staticflickr.com/65535/50019703777_6ec51636af_o.jpg",
    "id_image": "Cat_913807",
    "count_view": 0
  },
  {
    "link_thumb": "https://live.staticflickr.com/65535/50018916348_7d360f7b09_n.jpg",
    "id_album": "-462831703",
    "description": "Cat_913808",
    "title": "Cat_913808",
    "link_img": "https://live.staticflickr.com/65535/50018916348_808c11be86_o.jpg",
    "id_image": "Cat_913808",
    "count_view": 0
  },
  {
    "link_thumb": "https://live.staticflickr.com/65535/50019704567_0b73bce062_n.jpg",
    "id_album": "-462831703",
    "description": "Cat_913809",
    "title": "Cat_913809",
    "link_img": "https://live.staticflickr.com/65535/50019704567_fcaeec70c8_o.jpg",
    "id_image": "Cat_913809",
    "count_view": 0
  }
]