[
  {
    "link_thumb": "https://live.staticflickr.com/65535/50018147222_e0189bf156_n.jpg",
    "id_album": "-462831705",
    "description": "Cat_236425",
    "title": "Cat_236425",
    "link_img": "https://live.staticflickr.com/65535/50018147222_e936cf6eb6_o.jpg",
    "id_image": "Cat_236425",
    "count_view": 0
  },
  {
    "link_thumb": "https://live.staticflickr.com/65535/50019752498_a1668d241d_n.jpg",
    "id_album": "-149330232",
    "description": "Dog_343061",
    "title": "Dog_343061",
    "link_img": "https://live.staticflickr.com/65535/50019752498_3d92c16951_o.jpg",
    "id_image": "Dog_343061",
    "count_view": 0
  },
  {
    "link_thumb": "https://live.staticflickr.com/65535/50023443652_f54c4bfd35_n.jpg",
    "id_album": "-1862965835",
    "description": "RedEyedTreeFrog_386914",
    "title": "RedEyedTreeFrog_386914",
    "link_img": "https://live.staticflickr.com/65535/50023443652_1361803e96_o.jpg",
    "id_image": "RedEyedTreeFrog_386914",
    "count_view": 0
  },
  {
    "link_thumb": "https://live.staticflickr.com/65535/50018638683_9ee0a65ce5_n.jpg",
    "id_album": "-462831702",
    "description": "Cat_425744",
    "title": "Cat_425744",
    "link_img": "https://live.staticflickr.com/65535/50018638683_ef97f76a5f_o.jpg",
    "id_image": "Cat_425744",
    "count_view": 0
  },
  {
    "link_thumb": "https://live.staticflickr.com/65535/50021385942_3b53d43ea2_n.jpg",
    "id_album": "-462831704",
    "description": "Cat_593649",
    "title": "Cat_593649",
    "link_img": "https://live.staticflickr.com/65535/50021385942_937962e32f_o.jpg",
    "id_image": "Cat_593649",
    "count_view": 0
  },
  {
    "link_thumb": "https://live.staticflickr.com/65535/50017973686_22911c496f_n.jpg",
    "id_album": "-462831702",
    "description": "Cat_325672",
    "title": "Cat_325672",
    "link_img": "https://live.staticflickr.com/65535/50017973686_507cea89a1_o.jpg",
    "id_image": "Cat_325672",
    "count_view": 0
  },
  {
    "link_thumb": "https://live.staticflickr.com/65535/50023047226_0c5969efe6_n.jpg",
    "id_album": "-353898617",
    "description": "Puppy_678243",
    "title": "Puppy_678243",
    "link_img": "https://live.staticflickr.com/65535/50023047226_6dc228839a_o.jpg",
    "id_image": "Puppy_678243",
    "count_view": 0
  },
  {
    "link_thumb": "https://live.staticflickr.com/65535/50024247801_7a62209d91_n.jpg",
    "id_album": "405170427",
    "description": "Tiger_941352",
    "title": "Tiger_941352",
    "link_img": "https://live.staticflickr.com/65535/50024247801_6e106ef42a_o.jpg",
    "id_image": "Tiger_941352",
    "count_view": 0
  },
  {
    "link_thumb": "https://live.staticflickr.com/65535/50020741568_290ab57bb3_n.jpg",
    "id_album": "-405626519",
    "description": "GermanShepherd_329023",
    "title": "GermanShepherd_329023",
    "link_img": "https://live.staticflickr.com/65535/50020741568_73092b3a04_o.jpg",
    "id_image": "GermanShepherd_329023",
    "count_view": 0
  },
  {
    "link_thumb": "https://live.staticflickr.com/65535/50019728988_977770fce0_n.jpg",
    "id_album": "-149330232",
    "description": "Dog_333636",
    "title": "Dog_333636",
    "link_img": "https://live.staticflickr.com/65535/50019728988_e95b3b91ab_o.jpg",
    "id_image": "Dog_333636",
    "count_view": 0
  },
  {
    "link_thumb": "https://live.staticflickr.com/65535/50019099303_da62d095d0_n.jpg",
    "id_album": "1889777354",
    "description": "CGI_649365",
    "title": "CGI_649365",
    "link_img": "https://live.staticflickr.com/65535/50019099303_4928b44895_o.jpg",
    "id_image": "CGI_649365",
    "count_view": 0
  },
  {
    "link_thumb": "https://live.staticflickr.com/65535/50020354368_07b7c486d5_n.jpg",
    "id_album": "-1758557371",
    "description": "Flamingo_409576",
    "title": "Flamingo_409576",
    "link_img": "https://live.staticflickr.com/65535/50020354368_7fb77e5c9f_o.jpg",
    "id_image": "Flamingo_409576",
    "count_view": 0
  },
  {
    "link_thumb": "https://live.staticflickr.com/65535/50020665233_ab67bec6f4_n.jpg",
    "id_album": "-462831704",
    "description": "Cat_725680",
    "title": "Cat_725680",
    "link_img": "https://live.staticflickr.com/65535/50020665233_53302ae438_o.jpg",
    "id_image": "Cat_725680",
    "count_view": 0
  },
  {
    "link_thumb": "https://live.staticflickr.com/65535/50021487832_b5d703b0dc_n.jpg",
    "id_album": "-462831703",
    "description": "Cat_771012",
    "title": "Cat_771012",
    "link_img": "https://live.staticflickr.com/65535/50021487832_9bf92e5acb_o.jpg",
    "id_image": "Cat_771012",
    "count_view": 0
  },
  {
    "link_thumb": "https://live.staticflickr.com/65535/50019608182_18121e3995_n.jpg",
    "id_album": "-462831703",
    "description": "Cat_867390",
    "title": "Cat_867390",
    "link_img": "https://live.staticflickr.com/65535/50019608182_5173756797_o.jpg",
    "id_image": "Cat_867390",
    "count_view": 0
  },
  {
    "link_thumb": "https://live.staticflickr.com/65535/50018032702_ced97e9c8e_n.jpg",
    "id_album": "-462831705",
    "description": "Cat_117548",
    "title": "Cat_117548",
    "link_img": "https://live.staticflickr.com/65535/50018032702_34c2a81d59_o.jpg",
    "id_image": "Cat_117548",
    "count_view": 0
  },
  {
    "link_thumb": "https://live.staticflickr.com/65535/50021838806_269a72765e_n.jpg",
    "id_album": "-1882491687",
    "description": "Ladybug_12937",
    "title": "Ladybug_12937",
    "link_img": "https://live.staticflickr.com/65535/50021838806_40ecca7154_o.jpg",
    "id_image": "Ladybug_12937",
    "count_view": 0
  },
  {
    "link_thumb": "https://live.staticflickr.com/65535/50017965301_41eb2e76a4_n.jpg",
    "id_album": "-462831702",
    "description": "Cat_323663",
    "title": "Cat_323663",
    "link_img": "https://live.staticflickr.com/65535/50017965301_7fc87633cd_o.jpg",
    "id_image": "Cat_323663",
    "count_view": 0
  },
  {
    "link_thumb": "https://live.staticflickr.com/65535/50017059683_14f8c85c4f_n.jpg",
    "id_album": "-401151552",
    "description": "Butterfly_407823",
    "title": "Butterfly_407823",
    "link_img": "https://live.staticflickr.com/65535/50017059683_1e96a91485_o.jpg",
    "id_image": "Butterfly_407823",
    "count_view": 0
  },
  {
    "link_thumb": "https://live.staticflickr.com/65535/50021120628_06d3babea6_n.jpg",
    "id_album": "1658866795",
    "description": "Insect_327744",
    "title": "Insect_327744",
    "link_img": "https://live.staticflickr.com/65535/50021120628_1dae29c535_o.jpg",
    "id_image": "Insect_327744",
    "count_view": 0
  },
  {
    "link_thumb": "https://live.staticflickr.com/65535/50021717032_58c67f56e5_n.jpg",
    "id_album": "-1933715543",
    "description": "Horse_167849",
    "title": "Horse_167849",
    "link_img": "https://live.staticflickr.com/65535/50021717032_eace30e608_o.jpg",
    "id_image": "Horse_167849",
    "count_view": 0
  },
  {
    "link_thumb": "https://live.staticflickr.com/65535/50019678587_b32ac68afe_n.jpg",
    "id_album": "-462831703",
    "description": "Cat_903064",
    "title": "Cat_903064",
    "link_img": "https://live.staticflickr.com/65535/50019678587_0f71a1e690_o.jpg",
    "id_image": "Cat_903064",
    "count_view": 0
  },
  {
    "link_thumb": "https://live.staticflickr.com/65535/50020969858_6bc9f6728b_n.jpg",
    "id_album": "-1933715543",
    "description": "Horse_404290",
    "title": "Horse_404290",
    "link_img": "https://live.staticflickr.com/65535/50020969858_2bde9348b6_o.jpg",
    "id_image": "Horse_404290",
    "count_view": 0
  },
  {
    "link_thumb": "https://live.staticflickr.com/65535/50020703777_7e7904720b_n.jpg",
    "id_album": "-149330231",
    "description": "Dog_515823",
    "title": "Dog_515823",
    "link_img": "https://live.staticflickr.com/65535/50020703777_884bf0c1d4_o.jpg",
    "id_image": "Dog_515823",
    "count_view": 0
  },
  {
    "link_thumb": "https://live.staticflickr.com/65535/50019355136_2f911be9b0_n.jpg",
    "id_album": "-462831703",
    "description": "Cat_870022",
    "title": "Cat_870022",
    "link_img": "https://live.staticflickr.com/65535/50019355136_1faba43183_o.jpg",
    "id_image": "Cat_870022",
    "count_view": 0
  },
  {
    "link_thumb": "https://live.staticflickr.com/65535/50021166456_a66de32935_n.jpg",
    "id_album": "-462831704",
    "description": "Cat_682975",
    "title": "Cat_682975",
    "link_img": "https://live.staticflickr.com/65535/50021166456_46cd545b86_o.jpg",
    "id_image": "Cat_682975",
    "count_view": 0
  },
  {
    "link_thumb": "https://live.staticflickr.com/65535/50017496683_b0131eff5c_n.jpg",
    "id_album": "-462831702",
    "description": "Cat_346860",
    "title": "Cat_346860",
    "link_img": "https://live.staticflickr.com/65535/50017496683_420ff0c3d1_o.jpg",
    "id_image": "Cat_346860",
    "count_view": 0
  },
  {
    "link_thumb": "https://live.staticflickr.com/65535/50022418107_84c4b2dc34_n.jpg",
    "id_album": "1894617400",
    "description": "Lynx_738392",
    "title": "Lynx_738392",
    "link_img": "https://live.staticflickr.com/65535/50022418107_9bed334df9_o.jpg",
    "id_image": "Lynx_738392",
    "count_view": 0
  },
  {
    "link_thumb": "https://live.staticflickr.com/65535/50351930473_dc71edb95e_n.jpg",
    "id_album": "-462831703",
    "description": "Cat_614350",
    "title": "Cat_614350",
    "link_img": "https://live.staticflickr.com/65535/50351930473_67ff1882d8_o.jpg",
    "id_image": "Cat_614350",
    "count_view": 0
  },
  {
    "link_thumb": "https://live.staticflickr.com/65535/50351748048_7fd67eec26_n.jpg",
    "id_album": "-462831703",
    "description": "Cat_255400",
    "title": "Cat_255400",
    "link_img": "https://live.staticflickr.com/65535/50351748048_deb9e5286a_o.jpg",
    "id_image": "Cat_255400",
    "count_view": 0
  },
  {
    "link_thumb": "https://live.staticflickr.com/65535/50023291792_146d82ee9b_n.jpg",
    "id_album": "-353898617",
    "description": "Puppy_591925",
    "title": "Puppy_591925",
    "link_img": "https://live.staticflickr.com/65535/50023291792_820ed6610d_o.jpg",
    "id_image": "Puppy_591925",
    "count_view": 0
  },
  {
    "link_thumb": "https://live.staticflickr.com/65535/50017565773_66c2c5960c_n.jpg",
    "id_album": "-462831702",
    "description": "Cat_370889",
    "title": "Cat_370889",
    "link_img": "https://live.staticflickr.com/65535/50017565773_669845a0f9_o.jpg",
    "id_image": "Cat_370889",
    "count_view": 0
  },
  {
    "link_thumb": "https://live.staticflickr.com/65535/50020310471_0cd275a14e_n.jpg",
    "id_album": "-149330232",
    "description": "Dog_355927",
    "title": "Dog_355927",
    "link_img": "https://live.staticflickr.com/65535/50020310471_f95fdf5b74_o.jpg",
    "id_image": "Dog_355927",
    "count_view": 0
  },
  {
    "link_thumb": "https://live.staticflickr.com/65535/50016488023_b586728506_n.jpg",
    "id_album": "-422187261",
    "description": "Bear_276148",
    "title": "Bear_276148",
    "link_img": "https://live.staticflickr.com/65535/50016488023_cf2e8d2110_o.jpg",
    "id_image": "Bear_276148",
    "count_view": 0
  },
  {
    "link_thumb": "https://live.staticflickr.com/65535/50020465522_6936ab32e6_n.jpg",
    "id_album": "-149330232",
    "description": "Dog_275573",
    "title": "Dog_275573",
    "link_img": "https://live.staticflickr.com/65535/50020465522_805d7ce07f_o.jpg",
    "id_image": "Dog_275573",
    "count_view": 0
  },
  {
    "link_thumb": "https://live.staticflickr.com/65535/50016628333_ee92beeeed_n.jpg",
    "id_album": "1699594607",
    "description": "Bee_691699",
    "title": "Bee_691699",
    "link_img": "https://live.staticflickr.com/65535/50016628333_f4cb84919a_o.jpg",
    "id_image": "Bee_691699",
    "count_view": 0
  },
  {
    "link_thumb": "https://live.staticflickr.com/65535/50020973058_1109d10f86_n.jpg",
    "id_album": "-1933715543",
    "description": "Horse_424006",
    "title": "Horse_424006",
    "link_img": "https://live.staticflickr.com/65535/50020973058_b68129a589_o.jpg",
    "id_image": "Horse_424006",
    "count_view": 0
  },
  {
    "link_thumb": "https://live.staticflickr.com/65535/50021841951_a9b2d8746e_n.jpg",
    "id_album": "-1882491687",
    "description": "Ladybug_268248",
    "title": "Ladybug_268248",
    "link_img": "https://live.staticflickr.com/65535/50021841951_020d5089ec_o.jpg",
    "id_image": "Ladybug_268248",
    "count_view": 0
  },
  {
    "link_thumb": "https://live.staticflickr.com/65535/50020455522_b9b46c01b9_n.jpg",
    "id_album": "-149330232",
    "description": "Dog_266512",
    "title": "Dog_266512",
    "link_img": "https://live.staticflickr.com/65535/50020455522_8b2e6af682_o.jpg",
    "id_image": "Dog_266512",
    "count_view": 0
  },
  {
    "link_thumb": "https://live.staticflickr.com/65535/50021719233_a8536176f0_n.jpg",
    "id_album": "-784970094",
    "description": "Monkey_737244",
    "title": "Monkey_737244",
    "link_img": "https://live.staticflickr.com/65535/50021719233_c831407f53_o.jpg",
    "id_image": "Monkey_737244",
    "count_view": 0
  },
  {
    "link_thumb": "https://live.staticflickr.com/65535/50024115396_8ede2d4c80_n.jpg",
    "id_album": "405170427",
    "description": "Tiger_398502",
    "title": "Tiger_398502",
    "link_img": "https://live.staticflickr.com/65535/50024115396_9d0c4df43a_o.jpg",
    "id_image": "Tiger_398502",
    "count_view": 0
  },
  {
    "link_thumb": "https://live.staticflickr.com/65535/50021479482_a1259b98c4_n.jpg",
    "id_album": "-462831703",
    "description": "Cat_747131",
    "title": "Cat_747131",
    "link_img": "https://live.staticflickr.com/65535/50021479482_0c7e89f879_o.jpg",
    "id_image": "Cat_747131",
    "count_view": 0
  },
  {
    "link_thumb": "https://live.staticflickr.com/65535/50016830593_8fc6d9e9b0_n.jpg",
    "id_album": "-1846011410",
    "description": "Bird_524832",
    "title": "Bird_524832",
    "link_img": "https://live.staticflickr.com/65535/50016830593_a88e70ab05_o.jpg",
    "id_image": "Bird_524832",
    "count_view": 0
  },
  {
    "link_thumb": "https://live.staticflickr.com/65535/50021277216_4181bf1724_n.jpg",
    "id_album": "822895535",
    "description": "Falcon_429273",
    "title": "Falcon_429273",
    "link_img": "https://live.staticflickr.com/65535/50021277216_72401858b9_o.jpg",
    "id_image": "Falcon_429273",
    "count_view": 0
  },
  {
    "link_thumb": "https://live.staticflickr.com/65535/50022127697_9c4521bcba_n.jpg",
    "id_album": "1918884325",
    "description": "Lemur_336588",
    "title": "Lemur_336588",
    "link_img": "https://live.staticflickr.com/65535/50022127697_28a60a0794_o.jpg",
    "id_image": "Lemur_336588",
    "count_view": 0
  },
  {
    "link_thumb": "https://live.staticflickr.com/65535/50021627778_b2a5639262_n.jpg",
    "id_album": "1894617400",
    "description": "Lynx_940770",
    "title": "Lynx_940770",
    "link_img": "https://live.staticflickr.com/65535/50021627778_ef8a346df6_o.jpg",
    "id_image": "Lynx_940770",
    "count_view": 0
  },
  {
    "link_thumb": "https://live.staticflickr.com/65535/50016378933_68e2c07ea2_n.jpg",
    "id_album": "523598895",
    "description": "Artistic_437309",
    "title": "Artistic_437309",
    "link_img": "https://live.staticflickr.com/65535/50016378933_7634f5bdd5_o.jpg",
    "id_image": "Artistic_437309",
    "count_view": 0
  },
  {
    "link_thumb": "https://live.staticflickr.com/65535/50020211482_ca715c7bde_n.jpg",
    "id_album": "1831085598",
    "description": "Dachshund_594801",
    "title": "Dachshund_594801",
    "link_img": "https://live.staticflickr.com/65535/50020211482_4ba3309a3f_o.jpg",
    "id_image": "Dachshund_594801",
    "count_view": 0
  },
  {
    "link_thumb": "https://live.staticflickr.com/65535/50020475293_9d79c2fa92_n.jpg",
    "id_album": "-128218148",
    "description": "Fox_896736",
    "title": "Fox_896736",
    "link_img": "https://live.staticflickr.com/65535/50020475293_297c33ee9e_o.jpg",
    "id_image": "Fox_896736",
    "count_view": 0
  },
  {
    "link_thumb": "https://live.staticflickr.com/65535/50016931086_1e6d0f056e_n.jpg",
    "id_album": "523598895",
    "description": "Artistic_99669",
    "title": "Artistic_99669",
    "link_img": "https://live.staticflickr.com/65535/50016931086_22b58fdf5a_o.jpg",
    "id_image": "Artistic_99669",
    "count_view": 0
  },
  {
    "link_thumb": "https://live.staticflickr.com/65535/50022785642_4ed8845faf_n.jpg",
    "id_album": "-358592519",
    "description": "Panda_362987",
    "title": "Panda_362987",
    "link_img": "https://live.staticflickr.com/65535/50022785642_f4aa7c3d47_o.jpg",
    "id_image": "Panda_362987",
    "count_view": 0
  },
  {
    "link_thumb": "https://live.staticflickr.com/65535/50016359153_d1c69f652a_n.jpg",
    "id_album": "523598895",
    "description": "Artistic_236658",
    "title": "Artistic_236658",
    "link_img": "https://live.staticflickr.com/65535/50016359153_3d2d626786_o.jpg",
    "id_image": "Artistic_236658",
    "count_view": 0
  },
  {
    "link_thumb": "https://live.staticflickr.com/65535/50020622637_c54183d214_n.jpg",
    "id_album": "-149330231",
    "description": "Dog_387282",
    "title": "Dog_387282",
    "link_img": "https://live.staticflickr.com/65535/50020622637_358257ec1a_o.jpg",
    "id_image": "Dog_387282",
    "count_view": 0
  },
  {
    "link_thumb": "https://live.staticflickr.com/65535/50020385237_1808a499bd_n.jpg",
    "id_album": "-149330232",
    "description": "Dog_156721",
    "title": "Dog_156721",
    "link_img": "https://live.staticflickr.com/65535/50020385237_ddeae09ba4_o.jpg",
    "id_image": "Dog_156721",
    "count_view": 0
  },
  {
    "link_thumb": "https://live.staticflickr.com/65535/50023904502_b6255c32d6_n.jpg",
    "id_album": "-1131363127",
    "description": "SnowLeopard_407213",
    "title": "SnowLeopard_407213",
    "link_img": "https://live.staticflickr.com/65535/50023904502_b158a01ea6_o.jpg",
    "id_image": "SnowLeopard_407213",
    "count_view": 0
  },
  {
    "link_thumb": "https://live.staticflickr.com/65535/50020541463_939b23e04c_n.jpg",
    "id_album": "844170697",
    "description": "Frog_911226",
    "title": "Frog_911226",
    "link_img": "https://live.staticflickr.com/65535/50020541463_4c6a96bfb2_o.jpg",
    "id_image": "Frog_911226",
    "count_view": 0
  },
  {
    "link_thumb": "https://live.staticflickr.com/65535/50017622403_6eb0fe2888_n.jpg",
    "id_album": "-462831702",
    "description": "Cat_407410",
    "title": "Cat_407410",
    "link_img": "https://live.staticflickr.com/65535/50017622403_48e646b814_o.jpg",
    "id_image": "Cat_407410",
    "count_view": 0
  },
  {
    "link_thumb": "https://live.staticflickr.com/65535/50021374443_3b30bfca37_n.jpg",
    "id_album": "1392348450",
    "description": "Leopard_387882",
    "title": "Leopard_387882",
    "link_img": "https://live.staticflickr.com/65535/50021374443_2d2a0a1e93_o.jpg",
    "id_image": "Leopard_387882",
    "count_view": 0
  },
  {
    "link_thumb": "https://live.staticflickr.com/65535/50017787491_f46c2b2f76_n.jpg",
    "id_album": "-462831705",
    "description": "Cat_154834",
    "title": "Cat_154834",
    "link_img": "https://live.staticflickr.com/65535/50017787491_3cb221827c_o.jpg",
    "id_image": "Cat_154834",
    "count_view": 0
  },
  {
    "link_thumb": "https://live.staticflickr.com/65535/50020618287_093baf5c52_n.jpg",
    "id_album": "-149330231",
    "description": "Dog_382728",
    "title": "Dog_382728",
    "link_img": "https://live.staticflickr.com/65535/50020618287_7a172577bf_o.jpg",
    "id_image": "Dog_382728",
    "count_view": 0
  },
  {
    "link_thumb": "https://live.staticflickr.com/65535/50023800427_01239b08b2_n.jpg",
    "id_album": "-800019164",
    "description": "Snail_752388",
    "title": "Snail_752388",
    "link_img": "https://live.staticflickr.com/65535/50023800427_115fd9bab3_o.jpg",
    "id_image": "Snail_752388",
    "count_view": 0
  },
  {
    "link_thumb": "https://live.staticflickr.com/65535/50021724681_c95acb9204_n.jpg",
    "id_album": "-843028318",
    "description": "Jaguar_412101",
    "title": "Jaguar_412101",
    "link_img": "https://live.staticflickr.com/65535/50021724681_bc20f88cb9_o.jpg",
    "id_image": "Jaguar_412101",
    "count_view": 0
  },
  {
    "link_thumb": "https://live.staticflickr.com/65535/50017383757_f950a13989_n.jpg",
    "id_album": "1699594607",
    "description": "Bee_290318",
    "title": "Bee_290318",
    "link_img": "https://live.staticflickr.com/65535/50017383757_197627bdde_o.jpg",
    "id_image": "Bee_290318",
    "count_view": 0
  },
  {
    "link_thumb": "https://live.staticflickr.com/65535/50023939727_11376ab3f8_n.jpg",
    "id_album": "1933547265",
    "description": "SnowyOwl_253914",
    "title": "SnowyOwl_253914",
    "link_img": "https://live.staticflickr.com/65535/50023939727_1f0dbeeb06_o.jpg",
    "id_image": "SnowyOwl_253914",
    "count_view": 0
  },
  {
    "link_thumb": "https://live.staticflickr.com/65535/50020706401_c02dd83bfb_n.jpg",
    "id_album": "-39098563",
    "description": "Eagle_406397",
    "title": "Eagle_406397",
    "link_img": "https://live.staticflickr.com/65535/50020706401_265d81d0a2_o.jpg",
    "id_image": "Eagle_406397",
    "count_view": 0
  },
  {
    "link_thumb": "https://live.staticflickr.com/65535/50017722606_7791458d23_n.jpg",
    "id_album": "-401151552",
    "description": "Butterfly_995496",
    "title": "Butterfly_995496",
    "link_img": "https://live.staticflickr.com/65535/50017722606_e623e5cbbc_o.jpg",
    "id_image": "Butterfly_995496",
    "count_view": 0
  },
  {
    "link_thumb": "https://live.staticflickr.com/65535/50018217052_743b3353b5_n.jpg",
    "id_album": "-462831702",
    "description": "Cat_312695",
    "title": "Cat_312695",
    "link_img": "https://live.staticflickr.com/65535/50018217052_37b813f2a1_o.jpg",
    "id_image": "Cat_312695",
    "count_view": 0
  },
  {
    "link_thumb": "https://live.staticflickr.com/65535/50024683057_960502d3c8_n.jpg",
    "id_album": "545627045",
    "description": "Whitestork_718473",
    "title": "Whitestork_718473",
    "link_img": "https://live.staticflickr.com/65535/50024683057_3f2d105e57_o.jpg",
    "id_image": "Whitestork_718473",
    "count_view": 0
  },
  {
    "link_thumb": "https://live.staticflickr.com/65535/50020860468_045535b919_n.jpg",
    "id_album": "-1168906494",
    "description": "Grasshopper_587972",
    "title": "Grasshopper_587972",
    "link_img": "https://live.staticflickr.com/65535/50020860468_d1b387ac57_o.jpg",
    "id_image": "Grasshopper_587972",
    "count_view": 0
  },
  {
    "link_thumb": "https://live.staticflickr.com/65535/50022960133_30578e919c_n.jpg",
    "id_album": "692487763",
    "description": "SiberianHusky_879168",
    "title": "SiberianHusky_879168",
    "link_img": "https://live.staticflickr.com/65535/50022960133_c5c99cb091_o.jpg",
    "id_image": "SiberianHusky_879168",
    "count_view": 0
  },
  {
    "link_thumb": "https://live.staticflickr.com/65535/50021680776_6e6df557ae_n.jpg",
    "id_album": "1658866795",
    "description": "Insect_403683",
    "title": "Insect_403683",
    "link_img": "https://live.staticflickr.com/65535/50021680776_aeb7ec4df5_o.jpg",
    "id_image": "Insect_403683",
    "count_view": 0
  },
  {
    "link_thumb": "https://live.staticflickr.com/65535/50017739376_f6e1d6d19e_n.jpg",
    "id_album": "189994021",
    "description": "Cardinal_911361",
    "title": "Cardinal_911361",
    "link_img": "https://live.staticflickr.com/65535/50017739376_048c6ab45b_o.jpg",
    "id_image": "Cardinal_911361",
    "count_view": 0
  },
  {
    "link_thumb": "https://live.staticflickr.com/65535/50017572507_1770d2a330_n.jpg",
    "id_album": "-1846011410",
    "description": "Bird_406401",
    "title": "Bird_406401",
    "link_img": "https://live.staticflickr.com/65535/50017572507_ab3afc0323_o.jpg",
    "id_image": "Bird_406401",
    "count_view": 0
  },
  {
    "link_thumb": "https://live.staticflickr.com/65535/50021455257_fb3e81ec58_n.jpg",
    "id_album": "-462831704",
    "description": "Cat_720750",
    "title": "Cat_720750",
    "link_img": "https://live.staticflickr.com/65535/50021455257_644de06ac8_o.jpg",
    "id_image": "Cat_720750",
    "count_view": 0
  },
  {
    "link_thumb": "https://live.staticflickr.com/65535/50020504508_8b2880cbe8_n.jpg",
    "id_album": "704811092",
    "description": "FrenchBulldog_877832",
    "title": "FrenchBulldog_877832",
    "link_img": "https://live.staticflickr.com/65535/50020504508_c473b54515_o.jpg",
    "id_image": "FrenchBulldog_877832",
    "count_view": 0
  },
  {
    "link_thumb": "https://live.staticflickr.com/65535/50019440503_acff84a543_n.jpg",
    "id_album": "-1783645069",
    "description": "Dalmatian_865315",
    "title": "Dalmatian_865315",
    "link_img": "https://live.staticflickr.com/65535/50019440503_3010f3a5d4_o.jpg",
    "id_image": "Dalmatian_865315",
    "count_view": 0
  },
  {
    "link_thumb": "https://live.staticflickr.com/65535/50020946481_cdf5a8d16c_n.jpg",
    "id_album": "-128218148",
    "description": "Fox_329984",
    "title": "Fox_329984",
    "link_img": "https://live.staticflickr.com/65535/50020946481_4f52bd1ebd_o.jpg",
    "id_image": "Fox_329984",
    "count_view": 0
  },
  {
    "link_thumb": "https://live.staticflickr.com/65535/50023645393_1d8de98467_n.jpg",
    "id_album": "405170427",
    "description": "Tiger_68054",
    "title": "Tiger_68054",
    "link_img": "https://live.staticflickr.com/65535/50023645393_cb18dbc962_o.jpg",
    "id_image": "Tiger_68054",
    "count_view": 0
  },
  {
    "link_thumb": "https://live.staticflickr.com/65535/50021381361_21d1fbc767_n.jpg",
    "id_album": "-817970789",
    "description": "Goose_373245",
    "title": "Goose_373245",
    "link_img": "https://live.staticflickr.com/65535/50021381361_563f4c94a6_o.jpg",
    "id_image": "Goose_373245",
    "count_view": 0
  },
  {
    "link_thumb": "https://live.staticflickr.com/65535/50020565437_4ca75c516c_n.jpg",
    "id_album": "-149330232",
    "description": "Dog_354745",
    "title": "Dog_354745",
    "link_img": "https://live.staticflickr.com/65535/50020565437_631f277d65_o.jpg",
    "id_image": "Dog_354745",
    "count_view": 0
  },
  {
    "link_thumb": "https://live.staticflickr.com/65535/50022687543_87bb5ea30d_n.jpg",
    "id_album": "332874268",
    "description": "RedPanda_735257",
    "title": "RedPanda_735257",
    "link_img": "https://live.staticflickr.com/65535/50022687543_ac6ebe5efb_o.jpg",
    "id_image": "RedPanda_735257",
    "count_view": 0
  },
  {
    "link_thumb": "https://live.staticflickr.com/65535/50024831507_27849151bd_n.jpg",
    "id_album": "1104421803",
    "description": "Zebra_366725",
    "title": "Zebra_366725",
    "link_img": "https://live.staticflickr.com/65535/50024831507_32bf0d8bb0_o.jpg",
    "id_image": "Zebra_366725",
    "count_view": 0
  },
  {
    "link_thumb": "https://live.staticflickr.com/65535/50020581132_e4d257eb95_n.jpg",
    "id_album": "-149330232",
    "description": "Dog_364184",
    "title": "Dog_364184",
    "link_img": "https://live.staticflickr.com/65535/50020581132_1b4053ee5b_o.jpg",
    "id_image": "Dog_364184",
    "count_view": 0
  },
  {
    "link_thumb": "https://live.staticflickr.com/65535/50351961588_fb6da60bfd_n.jpg",
    "id_album": "-462831703",
    "description": "Cat_724215",
    "title": "Cat_724215",
    "link_img": "https://live.staticflickr.com/65535/50351961588_62db860842_o.jpg",
    "id_image": "Cat_724215",
    "count_view": 0
  },
  {
    "link_thumb": "https://live.staticflickr.com/65535/50020983997_845d4a9927_n.jpg",
    "id_album": "1270947998",
    "description": "Elephant_106561",
    "title": "Elephant_106561",
    "link_img": "https://live.staticflickr.com/65535/50020983997_e28684f231_o.jpg",
    "id_image": "Elephant_106561",
    "count_view": 0
  },
  {
    "link_thumb": "https://live.staticflickr.com/65535/50017517866_65cb5a5ec8_n.jpg",
    "id_album": "1696155652",
    "description": "Boxer_371081",
    "title": "Boxer_371081",
    "link_img": "https://live.staticflickr.com/65535/50017517866_1d37e81b60_o.jpg",
    "id_image": "Boxer_371081",
    "count_view": 0
  },
  {
    "link_thumb": "https://live.staticflickr.com/65535/50022191761_08ca382c70_n.jpg",
    "id_album": "-1720012921",
    "description": "Meerkat_885436",
    "title": "Meerkat_885436",
    "link_img": "https://live.staticflickr.com/65535/50022191761_2276b6337b_o.jpg",
    "id_image": "Meerkat_885436",
    "count_view": 0
  },
  {
    "link_thumb": "https://live.staticflickr.com/65535/50022704716_e7e1efbce5_n.jpg",
    "id_album": "392248205",
    "description": "Penguin_519904",
    "title": "Penguin_519904",
    "link_img": "https://live.staticflickr.com/65535/50022704716_8f249ab6dc_o.jpg",
    "id_image": "Penguin_519904",
    "count_view": 0
  },
  {
    "link_thumb": "https://live.staticflickr.com/65535/50020744737_ea17c4fe15_n.jpg",
    "id_album": "-149330231",
    "description": "Dog_707651",
    "title": "Dog_707651",
    "link_img": "https://live.staticflickr.com/65535/50020744737_d7b0c6423b_o.jpg",
    "id_image": "Dog_707651",
    "count_view": 0
  },
  {
    "link_thumb": "https://live.staticflickr.com/65535/50021238606_8e4ceb1728_n.jpg",
    "id_album": "-462831703",
    "description": "Cat_776462",
    "title": "Cat_776462",
    "link_img": "https://live.staticflickr.com/65535/50021238606_9b25cda7df_o.jpg",
    "id_image": "Cat_776462",
    "count_view": 0
  },
  {
    "link_thumb": "https://live.staticflickr.com/65535/50022115652_71025daed5_n.jpg",
    "id_album": "-1882491687",
    "description": "Ladybug_691664",
    "title": "Ladybug_691664",
    "link_img": "https://live.staticflickr.com/65535/50022115652_1b336c8d0b_o.jpg",
    "id_image": "Ladybug_691664",
    "count_view": 0
  },
  {
    "link_thumb": "https://live.staticflickr.com/65535/50021224252_c5cfb61438_n.jpg",
    "id_album": "-128218148",
    "description": "Fox_523719",
    "title": "Fox_523719",
    "link_img": "https://live.staticflickr.com/65535/50021224252_a92a841376_o.jpg",
    "id_image": "Fox_523719",
    "count_view": 0
  },
  {
    "link_thumb": "https://live.staticflickr.com/65535/50019045978_1873aa9e04_n.jpg",
    "id_album": "-1930903528",
    "description": "CatDog_102342",
    "title": "CatDog_102342",
    "link_img": "https://live.staticflickr.com/65535/50019045978_d8ed5674de_o.jpg",
    "id_image": "CatDog_102342",
    "count_view": 0
  },
  {
    "link_thumb": "https://live.staticflickr.com/65535/50017535623_d81276af38_n.jpg",
    "id_album": "-462831702",
    "description": "Cat_363511",
    "title": "Cat_363511",
    "link_img": "https://live.staticflickr.com/65535/50017535623_4493f24852_o.jpg",
    "id_image": "Cat_363511",
    "count_view": 0
  },
  {
    "link_thumb": "https://live.staticflickr.com/65535/50020819163_7e06fd1900_n.jpg",
    "id_album": "2060159334",
    "description": "GoldenRetriever_837348",
    "title": "GoldenRetriever_837348",
    "link_img": "https://live.staticflickr.com/65535/50020819163_9557bd2dc5_o.jpg",
    "id_image": "GoldenRetriever_837348",
    "count_view": 0
  },
  {
    "link_thumb": "https://live.staticflickr.com/65535/50017113183_105469da9b_n.jpg",
    "id_album": "-401151552",
    "description": "Butterfly_652401",
    "title": "Butterfly_652401",
    "link_img": "https://live.staticflickr.com/65535/50017113183_c452d180ba_o.jpg",
    "id_image": "Butterfly_652401",
    "count_view": 0
  },
  {
    "link_thumb": "https://live.staticflickr.com/65535/50022638663_a7b4d02464_n.jpg",
    "id_album": "-434874555",
    "description": "RainbowLorikeet_707477",
    "title": "RainbowLorikeet_707477",
    "link_img": "https://live.staticflickr.com/65535/50022638663_01419bcf1a_o.jpg",
    "id_image": "RainbowLorikeet_707477",
    "count_view": 0
  },
  {
    "link_thumb": "https://live.staticflickr.com/65535/50023317812_631df923db_n.jpg",
    "id_album": "-353898617",
    "description": "Puppy_783555",
    "title": "Puppy_783555",
    "link_img": "https://live.staticflickr.com/65535/50023317812_dc32823e7e_o.jpg",
    "id_image": "Puppy_783555",
    "count_view": 0
  },
  {
    "link_thumb": "https://live.staticflickr.com/65535/50016568068_3777fab94b_n.jpg",
    "id_album": "-422187261",
    "description": "Bear_873513",
    "title": "Bear_873513",
    "link_img": "https://live.staticflickr.com/65535/50016568068_0298108ecd_o.jpg",
    "id_image": "Bear_873513",
    "count_view": 0
  },
  {
    "link_thumb": "https://live.staticflickr.com/65535/50352430741_aa00baa5ba_n.jpg",
    "id_album": "-462831703",
    "description": "Cat_221922",
    "title": "Cat_221922",
    "link_img": "https://live.staticflickr.com/65535/50352430741_c2bcb9f726_o.jpg",
    "id_image": "Cat_221922",
    "count_view": 0
  },
  {
    "link_thumb": "https://live.staticflickr.com/65535/50016998773_f57ab750e0_n.jpg",
    "id_album": "368532157",
    "description": "Bulldog_388783",
    "title": "Bulldog_388783",
    "link_img": "https://live.staticflickr.com/65535/50016998773_7c680de45d_o.jpg",
    "id_image": "Bulldog_388783",
    "count_view": 0
  },
  {
    "link_thumb": "https://live.staticflickr.com/65535/50022933522_8955a82f1c_n.jpg",
    "id_album": "1146438617",
    "description": "Pelican_932337",
    "title": "Pelican_932337",
    "link_img": "https://live.staticflickr.com/65535/50022933522_7db623dc42_o.jpg",
    "id_image": "Pelican_932337",
    "count_view": 0
  },
  {
    "link_thumb": "https://live.staticflickr.com/65535/50021759396_ccc9281344_n.jpg",
    "id_album": "1562047127",
    "description": "Jellyfish_109107",
    "title": "Jellyfish_109107",
    "link_img": "https://live.staticflickr.com/65535/50021759396_6d899b3697_o.jpg",
    "id_image": "Jellyfish_109107",
    "count_view": 0
  },
  {
    "link_thumb": "https://live.staticflickr.com/65535/50017185616_b71610a6f4_n.jpg",
    "id_album": "325287329",
    "description": "Beetle_520161",
    "title": "Beetle_520161",
    "link_img": "https://live.staticflickr.com/65535/50017185616_46f8e42a08_o.jpg",
    "id_image": "Beetle_520161",
    "count_view": 0
  },
  {
    "link_thumb": "https://live.staticflickr.com/65535/50020382163_cfa47e7579_n.jpg",
    "id_album": "-1694105481",
    "description": "Fly_592433",
    "title": "Fly_592433",
    "link_img": "https://live.staticflickr.com/65535/50020382163_722bd7ed6d_o.jpg",
    "id_image": "Fly_592433",
    "count_view": 0
  },
  {
    "link_thumb": "https://live.staticflickr.com/65535/50018012872_cf6dcc6b56_n.jpg",
    "id_album": "-462831705",
    "description": "Cat_111020",
    "title": "Cat_111020",
    "link_img": "https://live.staticflickr.com/65535/50018012872_8a14d7da15_o.jpg",
    "id_image": "Cat_111020",
    "count_view": 0
  },
  {
    "link_thumb": "https://live.staticflickr.com/65535/50020664761_016e90a998_n.jpg",
    "id_album": "1168627767",
    "description": "Duck_571735",
    "title": "Duck_571735",
    "link_img": "https://live.staticflickr.com/65535/50020664761_fd7cefb28c_o.jpg",
    "id_image": "Duck_571735",
    "count_view": 0
  },
  {
    "link_thumb": "https://live.staticflickr.com/65535/50017257031_28d18e6082_n.jpg",
    "id_album": "-1846011410",
    "description": "Bird_346799",
    "title": "Bird_346799",
    "link_img": "https://live.staticflickr.com/65535/50017257031_071d047d02_o.jpg",
    "id_image": "Bird_346799",
    "count_view": 0
  },
  {
    "link_thumb": "https://live.staticflickr.com/65535/50022447962_5457f56338_n.jpg",
    "id_album": "-1720012921",
    "description": "Meerkat_686924",
    "title": "Meerkat_686924",
    "link_img": "https://live.staticflickr.com/65535/50022447962_616ec38084_o.jpg",
    "id_image": "Meerkat_686924",
    "count_view": 0
  },
  {
    "link_thumb": "https://live.staticflickr.com/65535/50352614347_26c7832613_n.jpg",
    "id_album": "-462831703",
    "description": "Cat_326192",
    "title": "Cat_326192",
    "link_img": "https://live.staticflickr.com/65535/50352614347_f2280f515f_o.jpg",
    "id_image": "Cat_326192",
    "count_view": 0
  },
  {
    "link_thumb": "https://live.staticflickr.com/65535/50351777058_9689b64564_n.jpg",
    "id_album": "-462831703",
    "description": "Cat_366296",
    "title": "Cat_366296",
    "link_img": "https://live.staticflickr.com/65535/50351777058_ce18af4217_o.jpg",
    "id_image": "Cat_366296",
    "count_view": 0
  },
  {
    "link_thumb": "https://live.staticflickr.com/65535/50019661663_abd77275b0_n.jpg",
    "id_album": "-149330232",
    "description": "Dog_264014",
    "title": "Dog_264014",
    "link_img": "https://live.staticflickr.com/65535/50019661663_b0cd992d18_o.jpg",
    "id_image": "Dog_264014",
    "count_view": 0
  },
  {
    "link_thumb": "https://live.staticflickr.com/65535/50020433657_bc4a61c6a1_n.jpg",
    "id_album": "-149330232",
    "description": "Dog_244477",
    "title": "Dog_244477",
    "link_img": "https://live.staticflickr.com/65535/50020433657_6acdd09f76_o.jpg",
    "id_image": "Dog_244477",
    "count_view": 0
  },
  {
    "link_thumb": "https://live.staticflickr.com/65535/50018113747_c6d9bd8924_n.jpg",
    "id_album": "-462831705",
    "description": "Cat_209104",
    "title": "Cat_209104",
    "link_img": "https://live.staticflickr.com/65535/50018113747_d80505d0ea_o.jpg",
    "id_image": "Cat_209104",
    "count_view": 0
  },
  {
    "link_thumb": "https://live.staticflickr.com/65535/50017312041_c2eb19db5b_n.jpg",
    "id_album": "-1846011410",
    "description": "Bird_406652",
    "title": "Bird_406652",
    "link_img": "https://live.staticflickr.com/65535/50017312041_0f57557049_o.jpg",
    "id_image": "Bird_406652",
    "count_view": 0
  },
  {
    "link_thumb": "https://live.staticflickr.com/65535/50017376272_2980e8a2fa_n.jpg",
    "id_album": "1699594607",
    "description": "Bee_105942",
    "title": "Bee_105942",
    "link_img": "https://live.staticflickr.com/65535/50017376272_76b59a8edc_o.jpg",
    "id_image": "Bee_105942",
    "count_view": 0
  },
  {
    "link_thumb": "https://live.staticflickr.com/65535/50020503482_723ca3dda6_n.jpg",
    "id_album": "-149330232",
    "description": "Dog_326340",
    "title": "Dog_326340",
    "link_img": "https://live.staticflickr.com/65535/50020503482_159d8f49d3_o.jpg",
    "id_image": "Dog_326340",
    "count_view": 0
  },
  {
    "link_thumb": "https://live.staticflickr.com/65535/50022063082_7a357e5572_n.jpg",
    "id_album": "770105808",
    "description": "Kingfisher_730864",
    "title": "Kingfisher_730864",
    "link_img": "https://live.staticflickr.com/65535/50022063082_ede2421b9f_o.jpg",
    "id_image": "Kingfisher_730864",
    "count_view": 0
  },
  {
    "link_thumb": "https://live.staticflickr.com/65535/50019228186_9f4a9a5377_n.jpg",
    "id_album": "-462831704",
    "description": "Cat_458808",
    "title": "Cat_458808",
    "link_img": "https://live.staticflickr.com/65535/50019228186_9ff3184f45_o.jpg",
    "id_image": "Cat_458808",
    "count_view": 0
  },
  {
    "link_thumb": "https://live.staticflickr.com/65535/50016363528_19951ca470_n.jpg",
    "id_album": "523598895",
    "description": "Artistic_278861",
    "title": "Artistic_278861",
    "link_img": "https://live.staticflickr.com/65535/50016363528_a9bb50c7da_o.jpg",
    "id_image": "Artistic_278861",
    "count_view": 0
  },
  {
    "link_thumb": "https://live.staticflickr.com/65535/50020640768_363f52e464_n.jpg",
    "id_album": "-462831704",
    "description": "Cat_702176",
    "title": "Cat_702176",
    "link_img": "https://live.staticflickr.com/65535/50020640768_7cbed5691d_o.jpg",
    "id_image": "Cat_702176",
    "count_view": 0
  },
  {
    "link_thumb": "https://live.staticflickr.com/65535/50021651441_d2b39d23f0_n.jpg",
    "id_album": "-737856092",
    "description": "Iguana_450873",
    "title": "Iguana_450873",
    "link_img": "https://live.staticflickr.com/65535/50021651441_b35d08f6ef_o.jpg",
    "id_image": "Iguana_450873",
    "count_view": 0
  },
  {
    "link_thumb": "https://live.staticflickr.com/65535/50021772721_dabe614b3e_n.jpg",
    "id_album": "1562047127",
    "description": "Jellyfish_683480",
    "title": "Jellyfish_683480",
    "link_img": "https://live.staticflickr.com/65535/50021772721_49d4e75b53_o.jpg",
    "id_image": "Jellyfish_683480",
    "count_view": 0
  },
  {
    "link_thumb": "https://live.staticflickr.com/65535/50019113798_28fe57c9f7_n.jpg",
    "id_album": "-766919393",
    "description": "Chameleon_383303",
    "title": "Chameleon_383303",
    "link_img": "https://live.staticflickr.com/65535/50019113798_409c7c8b37_o.jpg",
    "id_image": "Chameleon_383303",
    "count_view": 0
  },
  {
    "link_thumb": "https://live.staticflickr.com/65535/50017371008_8db5b955ca_n.jpg",
    "id_album": "-462831705",
    "description": "Cat_243283",
    "title": "Cat_243283",
    "link_img": "https://live.staticflickr.com/65535/50017371008_d1b80442cf_o.jpg",
    "id_image": "Cat_243283",
    "count_view": 0
  },
  {
    "link_thumb": "https://live.staticflickr.com/65535/50024771852_16eda2448b_n.jpg",
    "id_album": "-709711865",
    "description": "Wolf_524458",
    "title": "Wolf_524458",
    "link_img": "https://live.staticflickr.com/65535/50024771852_8cd0658b22_o.jpg",
    "id_image": "Wolf_524458",
    "count_view": 0
  },
  {
    "link_thumb": "https://live.staticflickr.com/65535/50024419217_580078cdb5_n.jpg",
    "id_album": "405170427",
    "description": "Tiger_550403",
    "title": "Tiger_550403",
    "link_img": "https://live.staticflickr.com/65535/50024419217_49b33589cb_o.jpg",
    "id_image": "Tiger_550403",
    "count_view": 0
  },
  {
    "link_thumb": "https://live.staticflickr.com/65535/50018341137_d1fc48edd0_n.jpg",
    "id_album": "-462831702",
    "description": "Cat_368056",
    "title": "Cat_368056",
    "link_img": "https://live.staticflickr.com/65535/50018341137_a80d7404ec_o.jpg",
    "id_image": "Cat_368056",
    "count_view": 0
  },
  {
    "link_thumb": "https://live.staticflickr.com/65535/50021521072_9a858770f7_n.jpg",
    "id_album": "-462831703",
    "description": "Cat_826247",
    "title": "Cat_826247",
    "link_img": "https://live.staticflickr.com/65535/50021521072_9b827a318f_o.jpg",
    "id_image": "Cat_826247",
    "count_view": 0
  },
  {
    "link_thumb": "https://live.staticflickr.com/65535/50352648547_bc3ea67bab_n.jpg",
    "id_album": "-462831703",
    "description": "Cat_390249",
    "title": "Cat_390249",
    "link_img": "https://live.staticflickr.com/65535/50352648547_1e45fcf2fe_o.jpg",
    "id_image": "Cat_390249",
    "count_view": 0
  },
  {
    "link_thumb": "https://live.staticflickr.com/65535/50021878137_46d2bbd825_n.jpg",
    "id_album": "2144294979",
    "description": "Hummingbird_967118",
    "title": "Hummingbird_967118",
    "link_img": "https://live.staticflickr.com/65535/50021878137_0aa773b308_o.jpg",
    "id_image": "Hummingbird_967118",
    "count_view": 0
  },
  {
    "link_thumb": "https://live.staticflickr.com/65535/50016933808_99db2e7a0b_n.jpg",
    "id_album": "-530283314",
    "description": "BlueandyellowMacaw_171580",
    "title": "BlueandyellowMacaw_171580",
    "link_img": "https://live.staticflickr.com/65535/50016933808_b4fe136b8a_o.jpg",
    "id_image": "BlueandyellowMacaw_171580",
    "count_view": 0
  },
  {
    "link_thumb": "https://live.staticflickr.com/65535/50020680663_75a729bbd3_n.jpg",
    "id_album": "-462831703",
    "description": "Cat_743178",
    "title": "Cat_743178",
    "link_img": "https://live.staticflickr.com/65535/50020680663_38a4e9cc56_o.jpg",
    "id_image": "Cat_743178",
    "count_view": 0
  },
  {
    "link_thumb": "https://live.staticflickr.com/65535/50019236383_4314fb2908_n.jpg",
    "id_album": "791455625",
    "description": "Chipmunk_622050",
    "title": "Chipmunk_622050",
    "link_img": "https://live.staticflickr.com/65535/50019236383_2a10d0b2e7_o.jpg",
    "id_image": "Chipmunk_622050",
    "count_view": 0
  },
  {
    "link_thumb": "https://live.staticflickr.com/65535/50024502397_9dcb190b2d_n.jpg",
    "id_album": "405170427",
    "description": "Tiger_922880",
    "title": "Tiger_922880",
    "link_img": "https://live.staticflickr.com/65535/50024502397_0ba63c266d_o.jpg",
    "id_image": "Tiger_922880",
    "count_view": 0
  },
  {
    "link_thumb": "https://live.staticflickr.com/65535/50017540213_f562f55c42_n.jpg",
    "id_album": "-462831702",
    "description": "Cat_364326",
    "title": "Cat_364326",
    "link_img": "https://live.staticflickr.com/65535/50017540213_89ecbd7844_o.jpg",
    "id_image": "Cat_364326",
    "count_view": 0
  },
  {
    "link_thumb": "https://live.staticflickr.com/65535/50018702133_271113fcfd_n.jpg",
    "id_album": "-462831704",
    "description": "Cat_460304",
    "title": "Cat_460304",
    "link_img": "https://live.staticflickr.com/65535/50018702133_dc451d8910_o.jpg",
    "id_image": "Cat_460304",
    "count_view": 0
  },
  {
    "link_thumb": "https://live.staticflickr.com/65535/50020537322_400541a104_n.jpg",
    "id_album": "-149330232",
    "description": "Dog_341484",
    "title": "Dog_341484",
    "link_img": "https://live.staticflickr.com/65535/50020537322_202ac1c8a8_o.jpg",
    "id_image": "Dog_341484",
    "count_view": 0
  },
  {
    "link_thumb": "https://live.staticflickr.com/65535/50019159381_23a997e94c_n.jpg",
    "id_album": "-462831702",
    "description": "Cat_422961",
    "title": "Cat_422961",
    "link_img": "https://live.staticflickr.com/65535/50019159381_f2542d6f83_o.jpg",
    "id_image": "Cat_422961",
    "count_view": 0
  },
  {
    "link_thumb": "https://live.staticflickr.com/65535/50019708573_bb00dde37b_n.jpg",
    "id_album": "-149330232",
    "description": "Dog_323409",
    "title": "Dog_323409",
    "link_img": "https://live.staticflickr.com/65535/50019708573_651e10cd91_o.jpg",
    "id_image": "Dog_323409",
    "count_view": 0
  },
  {
    "link_thumb": "https://live.staticflickr.com/65535/50022108861_fc0dafdd28_n.jpg",
    "id_album": "-656526748",
    "description": "Lizard_342793",
    "title": "Lizard_342793",
    "link_img": "https://live.staticflickr.com/65535/50022108861_bdeefbf172_o.jpg",
    "id_image": "Lizard_342793",
    "count_view": 0
  },
  {
    "link_thumb": "https://live.staticflickr.com/65535/50023453768_fbfccb08b0_n.jpg",
    "id_album": "1244464375",
    "description": "Starfish_636697",
    "title": "Starfish_636697",
    "link_img": "https://live.staticflickr.com/65535/50023453768_1da28ab0f9_o.jpg",
    "id_image": "Starfish_636697",
    "count_view": 0
  },
  {
    "link_thumb": "https://live.staticflickr.com/65535/50024080517_ca3d8f00d3_n.jpg",
    "id_album": "702283289",
    "description": "Squirrel_275698",
    "title": "Squirrel_275698",
    "link_img": "https://live.staticflickr.com/65535/50024080517_701751de3c_o.jpg",
    "id_image": "Squirrel_275698",
    "count_view": 0
  },
  {
    "link_thumb": "https://live.staticflickr.com/65535/50020252102_64618c3249_n.jpg",
    "id_album": "1903411565",
    "description": "Deer_346082",
    "title": "Deer_346082",
    "link_img": "https://live.staticflickr.com/65535/50020252102_98a2502875_o.jpg",
    "id_image": "Deer_346082",
    "count_view": 0
  },
  {
    "link_thumb": "https://live.staticflickr.com/65535/50021527357_f0db1795f2_n.jpg",
    "id_album": "-462831703",
    "description": "Cat_839392",
    "title": "Cat_839392",
    "link_img": "https://live.staticflickr.com/65535/50021527357_6da6c9c8e6_o.jpg",
    "id_image": "Cat_839392",
    "count_view": 0
  },
  {
    "link_thumb": "https://live.staticflickr.com/65535/50019857952_372336e4a7_n.jpg",
    "id_album": "-420782796",
    "description": "Caterpillar_284681",
    "title": "Caterpillar_284681",
    "link_img": "https://live.staticflickr.com/65535/50019857952_be72d8f895_o.jpg",
    "id_image": "Caterpillar_284681",
    "count_view": 0
  },
  {
    "link_thumb": "https://live.staticflickr.com/65535/50017556752_da88b83b1c_n.jpg",
    "id_album": "-1846011410",
    "description": "Bird_391017",
    "title": "Bird_391017",
    "link_img": "https://live.staticflickr.com/65535/50017556752_bc8e3c1602_o.jpg",
    "id_image": "Bird_391017",
    "count_view": 0
  },
  {
    "link_thumb": "https://live.staticflickr.com/65535/50021693187_81a3fb197d_n.jpg",
    "id_album": "1469520430",
    "description": "Hedgehog_928811",
    "title": "Hedgehog_928811",
    "link_img": "https://live.staticflickr.com/65535/50021693187_78fb29874b_o.jpg",
    "id_image": "Hedgehog_928811",
    "count_view": 0
  },
  {
    "link_thumb": "https://live.staticflickr.com/65535/50352688072_7e3755aa5b_n.jpg",
    "id_album": "-462831703",
    "description": "Cat_445711",
    "title": "Cat_445711",
    "link_img": "https://live.staticflickr.com/65535/50352688072_5206ca2967_o.jpg",
    "id_image": "Cat_445711",
    "count_view": 0
  },
  {
    "link_thumb": "https://live.staticflickr.com/65535/50017207617_073614386e_n.jpg",
    "id_album": "390697200",
    "description": "AustralianShepherd_911916",
    "title": "AustralianShepherd_911916",
    "link_img": "https://live.staticflickr.com/65535/50017207617_a9dca7d894_o.jpg",
    "id_image": "AustralianShepherd_911916",
    "count_view": 0
  },
  {
    "link_thumb": "https://live.staticflickr.com/65535/50024262551_913ea87a1c_n.jpg",
    "id_album": "-809392728",
    "description": "Titmouse_737565",
    "title": "Titmouse_737565",
    "link_img": "https://live.staticflickr.com/65535/50024262551_0aa84dab05_o.jpg",
    "id_image": "Titmouse_737565",
    "count_view": 0
  },
  {
    "link_thumb": "https://live.staticflickr.com/65535/50021915156_900642c302_n.jpg",
    "id_album": "1392348450",
    "description": "Leopard_380961",
    "title": "Leopard_380961",
    "link_img": "https://live.staticflickr.com/65535/50021915156_d2d160c6c9_o.jpg",
    "id_image": "Leopard_380961",
    "count_view": 0
  },
  {
    "link_thumb": "https://live.staticflickr.com/65535/50020290488_90b9388c2a_n.jpg",
    "id_album": "-1118073211",
    "description": "Fish_203467",
    "title": "Fish_203467",
    "link_img": "https://live.staticflickr.com/65535/50020290488_eeea98626a_o.jpg",
    "id_image": "Fish_203467",
    "count_view": 0
  },
  {
    "link_thumb": "https://live.staticflickr.com/65535/50024583552_66772fba9c_n.jpg",
    "id_album": "46520366",
    "description": "Turtle_575380",
    "title": "Turtle_575380",
    "link_img": "https://live.staticflickr.com/65535/50024583552_54421ea8e8_o.jpg",
    "id_image": "Turtle_575380",
    "count_view": 0
  },
  {
    "link_thumb": "https://live.staticflickr.com/65535/50016901021_7f9ce9d5ca_n.jpg",
    "id_album": "523598895",
    "description": "Artistic_376389",
    "title": "Artistic_376389",
    "link_img": "https://live.staticflickr.com/65535/50016901021_4506251cc2_o.jpg",
    "id_image": "Artistic_376389",
    "count_view": 0
  },
  {
    "link_thumb": "https://live.staticflickr.com/65535/50351879818_f55a750672_n.jpg",
    "id_album": "-462831703",
    "description": "Cat_507085",
    "title": "Cat_507085",
    "link_img": "https://live.staticflickr.com/65535/50351879818_4a824f7bc6_o.jpg",
    "id_image": "Cat_507085",
    "count_view": 0
  },
  {
    "link_thumb": "https://live.staticflickr.com/65535/50018086926_0e65dc50f8_n.jpg",
    "id_album": "-462831702",
    "description": "Cat_369243",
    "title": "Cat_369243",
    "link_img": "https://live.staticflickr.com/65535/50018086926_71874b2187_o.jpg",
    "id_image": "Cat_369243",
    "count_view": 0
  },
  {
    "link_thumb": "https://live.staticflickr.com/65535/50021759596_0c8bc25d2b_n.jpg",
    "id_album": "1562047127",
    "description": "Jellyfish_121269",
    "title": "Jellyfish_121269",
    "link_img": "https://live.staticflickr.com/65535/50021759596_e86970289c_o.jpg",
    "id_image": "Jellyfish_121269",
    "count_view": 0
  },
  {
    "link_thumb": "https://live.staticflickr.com/65535/50017509338_c819baf381_n.jpg",
    "id_album": "-462831702",
    "description": "Cat_352642",
    "title": "Cat_352642",
    "link_img": "https://live.staticflickr.com/65535/50017509338_bb4805b0e9_o.jpg",
    "id_image": "Cat_352642",
    "count_view": 0
  },
  {
    "link_thumb": "https://live.staticflickr.com/65535/50021154171_1d71652ced_n.jpg",
    "id_album": "-462831704",
    "description": "Cat_658811",
    "title": "Cat_658811",
    "link_img": "https://live.staticflickr.com/65535/50021154171_40a2c0362d_o.jpg",
    "id_image": "Cat_658811",
    "count_view": 0
  },
  {
    "link_thumb": "https://live.staticflickr.com/65535/50017842052_9f27ccf822_n.jpg",
    "id_album": "-401151552",
    "description": "Butterfly_389607",
    "title": "Butterfly_389607",
    "link_img": "https://live.staticflickr.com/65535/50017842052_deb7d88e83_o.jpg",
    "id_image": "Butterfly_389607",
    "count_view": 0
  },
  {
    "link_thumb": "https://live.staticflickr.com/65535/50023953488_a0773c583d_n.jpg",
    "id_album": "-709711865",
    "description": "Wolf_407197",
    "title": "Wolf_407197",
    "link_img": "https://live.staticflickr.com/65535/50023953488_193122bc96_o.jpg",
    "id_image": "Wolf_407197",
    "count_view": 0
  },
  {
    "link_thumb": "https://live.staticflickr.com/65535/50024211017_f590d54080_n.jpg",
    "id_album": "702283289",
    "description": "Squirrel_855579",
    "title": "Squirrel_855579",
    "link_img": "https://live.staticflickr.com/65535/50024211017_49814f6b10_o.jpg",
    "id_image": "Squirrel_855579",
    "count_view": 0
  },
  {
    "link_thumb": "https://live.staticflickr.com/65535/50020561101_c3e1917f30_n.jpg",
    "id_album": "-54509188",
    "description": "Dolphin_172389",
    "title": "Dolphin_172389",
    "link_img": "https://live.staticflickr.com/65535/50020561101_b63b717426_o.jpg",
    "id_image": "Dolphin_172389",
    "count_view": 0
  },
  {
    "link_thumb": "https://live.staticflickr.com/65535/50020425587_c4866acb14_n.jpg",
    "id_album": "-149330232",
    "description": "Dog_234526",
    "title": "Dog_234526",
    "link_img": "https://live.staticflickr.com/65535/50020425587_2f980f4661_o.jpg",
    "id_image": "Dog_234526",
    "count_view": 0
  },
  {
    "link_thumb": "https://live.staticflickr.com/65535/50020319921_c76188f8bd_n.jpg",
    "id_album": "-149330232",
    "description": "Dog_361486",
    "title": "Dog_361486",
    "link_img": "https://live.staticflickr.com/65535/50020319921_a2f666a422_o.jpg",
    "id_image": "Dog_361486",
    "count_view": 0
  },
  {
    "link_thumb": "https://live.staticflickr.com/65535/50017081717_9067cf0ac1_n.jpg",
    "id_album": "-1473450542",
    "description": "Alpaca_685757",
    "title": "Alpaca_685757",
    "link_img": "https://live.staticflickr.com/65535/50017081717_cc3e12bf40_o.jpg",
    "id_image": "Alpaca_685757",
    "count_view": 0
  },
  {
    "link_thumb": "https://live.staticflickr.com/65535/50021058118_2a3dd85684_n.jpg",
    "id_album": "773713550",
    "description": "Hoverfly_926187",
    "title": "Hoverfly_926187",
    "link_img": "https://live.staticflickr.com/65535/50021058118_51d1806e90_o.jpg",
    "id_image": "Hoverfly_926187",
    "count_view": 0
  },
  {
    "link_thumb": "https://live.staticflickr.com/65535/50016949443_169a59f8fb_n.jpg",
    "id_album": "-530283314",
    "description": "BlueandyellowMacaw_782381",
    "title": "BlueandyellowMacaw_782381",
    "link_img": "https://live.staticflickr.com/65535/50016949443_b43dd85461_o.jpg",
    "id_image": "BlueandyellowMacaw_782381",
    "count_view": 0
  },
  {
    "link_thumb": "https://live.staticflickr.com/65535/50019482861_88b7174963_n.jpg",
    "id_album": "-462831703",
    "description": "Cat_930654",
    "title": "Cat_930654",
    "link_img": "https://live.staticflickr.com/65535/50019482861_3db7b9c238_o.jpg",
    "id_image": "Cat_930654",
    "count_view": 0
  },
  {
    "link_thumb": "https://live.staticflickr.com/65535/50021833461_ed8eff87a5_n.jpg",
    "id_album": "1307335982",
    "description": "LabradorRetriever_819577",
    "title": "LabradorRetriever_819577",
    "link_img": "https://live.staticflickr.com/65535/50021833461_fc75e48a16_o.jpg",
    "id_image": "LabradorRetriever_819577",
    "count_view": 0
  },
  {
    "link_thumb": "https://live.staticflickr.com/65535/50021193888_bf4393c934_n.jpg",
    "id_album": "-843028318",
    "description": "Jaguar_691659",
    "title": "Jaguar_691659",
    "link_img": "https://live.staticflickr.com/65535/50021193888_e5aee25911_o.jpg",
    "id_image": "Jaguar_691659",
    "count_view": 0
  },
  {
    "link_thumb": "https://live.staticflickr.com/65535/50019935093_919d76ffc9_n.jpg",
    "id_album": "-149330231",
    "description": "Dog_600993",
    "title": "Dog_600993",
    "link_img": "https://live.staticflickr.com/65535/50019935093_ea5097f007_o.jpg",
    "id_image": "Dog_600993",
    "count_view": 0
  },
  {
    "link_thumb": "https://live.staticflickr.com/65535/50021825721_03208533ce_n.jpg",
    "id_album": "1307335982",
    "description": "LabradorRetriever_277609",
    "title": "LabradorRetriever_277609",
    "link_img": "https://live.staticflickr.com/65535/50021825721_bfa69ce512_o.jpg",
    "id_image": "LabradorRetriever_277609",
    "count_view": 0
  },
  {
    "link_thumb": "https://live.staticflickr.com/65535/50019697697_47211bfee3_n.jpg",
    "id_album": "-462831703",
    "description": "Cat_913325",
    "title": "Cat_913325",
    "link_img": "https://live.staticflickr.com/65535/50019697697_9c3966e0a3_o.jpg",
    "id_image": "Cat_913325",
    "count_view": 0
  },
  {
    "link_thumb": "https://live.staticflickr.com/65535/50017328451_3913baf100_n.jpg",
    "id_album": "-1846011410",
    "description": "Bird_430242",
    "title": "Bird_430242",
    "link_img": "https://live.staticflickr.com/65535/50017328451_6312f2d347_o.jpg",
    "id_image": "Bird_430242",
    "count_view": 0
  },
  {
    "link_thumb": "https://live.staticflickr.com/65535/50020823247_8feca4fdd6_n.jpg",
    "id_album": "-54509188",
    "description": "Dolphin_323955",
    "title": "Dolphin_323955",
    "link_img": "https://live.staticflickr.com/65535/50020823247_6f789023fc_o.jpg",
    "id_image": "Dolphin_323955",
    "count_view": 0
  },
  {
    "link_thumb": "https://live.staticflickr.com/65535/50019686223_c20d0bc11d_n.jpg",
    "id_album": "-149330232",
    "description": "Dog_277111",
    "title": "Dog_277111",
    "link_img": "https://live.staticflickr.com/65535/50019686223_ed57177816_o.jpg",
    "id_image": "Dog_277111",
    "count_view": 0
  },
  {
    "link_thumb": "https://live.staticflickr.com/65535/50018372252_5511dc4623_n.jpg",
    "id_album": "-462831702",
    "description": "Cat_382659",
    "title": "Cat_382659",
    "link_img": "https://live.staticflickr.com/65535/50018372252_ecda8104d3_o.jpg",
    "id_image": "Cat_382659",
    "count_view": 0
  },
  {
    "link_thumb": "https://live.staticflickr.com/65535/50018297847_13839e87cf_n.jpg",
    "id_album": "-462831702",
    "description": "Cat_353082",
    "title": "Cat_353082",
    "link_img": "https://live.staticflickr.com/65535/50018297847_b69c207f05_o.jpg",
    "id_image": "Cat_353082",
    "count_view": 0
  },
  {
    "link_thumb": "https://live.staticflickr.com/65535/50019649483_d7e9db5fcd_n.jpg",
    "id_album": "-149330232",
    "description": "Dog_249955",
    "title": "Dog_249955",
    "link_img": "https://live.staticflickr.com/65535/50019649483_4c1111e5b0_o.jpg",
    "id_image": "Dog_249955",
    "count_view": 0
  },
  {
    "link_thumb": "https://live.staticflickr.com/65535/50020870561_a8b1f195c1_n.jpg",
    "id_album": "-1118073211",
    "description": "Fish_676386",
    "title": "Fish_676386",
    "link_img": "https://live.staticflickr.com/65535/50020870561_bfb753a966_o.jpg",
    "id_image": "Fish_676386",
    "count_view": 0
  },
  {
    "link_thumb": "https://live.staticflickr.com/65535/50017891952_17489e154a_n.jpg",
    "id_album": "-401151552",
    "description": "Butterfly_572566",
    "title": "Butterfly_572566",
    "link_img": "https://live.staticflickr.com/65535/50017891952_239fb49a01_o.jpg",
    "id_image": "Butterfly_572566",
    "count_view": 0
  },
  {
    "link_thumb": "https://live.staticflickr.com/65535/50022035598_924482c5f5_n.jpg",
    "id_album": "405592235",
    "description": "Parrot_705391",
    "title": "Parrot_705391",
    "link_img": "https://live.staticflickr.com/65535/50022035598_d33497cf90_o.jpg",
    "id_image": "Parrot_705391",
    "count_view": 0
  },
  {
    "link_thumb": "https://live.staticflickr.com/65535/50023861406_f4cae3fa3e_n.jpg",
    "id_album": "702283289",
    "description": "Squirrel_397814",
    "title": "Squirrel_397814",
    "link_img": "https://live.staticflickr.com/65535/50023861406_8cb28b1823_o.jpg",
    "id_image": "Squirrel_397814",
    "count_view": 0
  },
  {
    "link_thumb": "https://live.staticflickr.com/65535/50017851552_c7e1bc25d7_n.jpg",
    "id_album": "-401151552",
    "description": "Butterfly_419724",
    "title": "Butterfly_419724",
    "link_img": "https://live.staticflickr.com/65535/50017851552_db133b036a_o.jpg",
    "id_image": "Butterfly_419724",
    "count_view": 0
  },
  {
    "link_thumb": "https://live.staticflickr.com/65535/50020418328_e5c0b4f6b6_n.jpg",
    "id_album": "-128218148",
    "description": "Fox_405708",
    "title": "Fox_405708",
    "link_img": "https://live.staticflickr.com/65535/50020418328_65d8457fb3_o.jpg",
    "id_image": "Fox_405708",
    "count_view": 0
  },
  {
    "link_thumb": "https://live.staticflickr.com/65535/50020132086_55c0d5342d_n.jpg",
    "id_album": "-149330232",
    "description": "Dog_177034",
    "title": "Dog_177034",
    "link_img": "https://live.staticflickr.com/65535/50020132086_e9df783c07_o.jpg",
    "id_image": "Dog_177034",
    "count_view": 0
  },
  {
    "link_thumb": "https://live.staticflickr.com/65535/50021144291_76c1f1dbda_n.jpg",
    "id_album": "-462831704",
    "description": "Cat_614364",
    "title": "Cat_614364",
    "link_img": "https://live.staticflickr.com/65535/50021144291_cea915e266_o.jpg",
    "id_image": "Cat_614364",
    "count_view": 0
  },
  {
    "link_thumb": "https://live.staticflickr.com/65535/50024284571_5639025f71_n.jpg",
    "id_album": "-1103743486",
    "description": "Toucan_761856",
    "title": "Toucan_761856",
    "link_img": "https://live.staticflickr.com/65535/50024284571_701bcaebf1_o.jpg",
    "id_image": "Toucan_761856",
    "count_view": 0
  },
  {
    "link_thumb": "https://live.staticflickr.com/65535/50352804532_a471e9e99b_n.jpg",
    "id_album": "-462831703",
    "description": "Cat_686375",
    "title": "Cat_686375",
    "link_img": "https://live.staticflickr.com/65535/50352804532_66c81fdb31_o.jpg",
    "id_image": "Cat_686375",
    "count_view": 0
  },
  {
    "link_thumb": "https://live.staticflickr.com/65535/50021287228_d9553bcb06_n.jpg",
    "id_album": "1307335982",
    "description": "LabradorRetriever_49359",
    "title": "LabradorRetriever_49359",
    "link_img": "https://live.staticflickr.com/65535/50021287228_cb919537c3_o.jpg",
    "id_image": "LabradorRetriever_49359",
    "count_view": 0
  },
  {
    "link_thumb": "https://live.staticflickr.com/65535/50021116426_fcd1b667a9_n.jpg",
    "id_album": "-462831704",
    "description": "Cat_565248",
    "title": "Cat_565248",
    "link_img": "https://live.staticflickr.com/65535/50021116426_3486cd982b_o.jpg",
    "id_image": "Cat_565248",
    "count_view": 0
  },
  {
    "link_thumb": "https://live.staticflickr.com/65535/50020064151_c654aeb1a4_n.jpg",
    "id_album": "1903411565",
    "description": "Deer_936924",
    "title": "Deer_936924",
    "link_img": "https://live.staticflickr.com/65535/50020064151_ddff84216c_o.jpg",
    "id_image": "Deer_936924",
    "count_view": 0
  },
  {
    "link_thumb": "https://live.staticflickr.com/65535/50016886301_f0002f5384_n.jpg",
    "id_album": "523598895",
    "description": "Artistic_236208",
    "title": "Artistic_236208",
    "link_img": "https://live.staticflickr.com/65535/50016886301_feebc19105_o.jpg",
    "id_image": "Artistic_236208",
    "count_view": 0
  },
  {
    "link_thumb": "https://live.staticflickr.com/65535/50018846668_5c16e916e2_n.jpg",
    "id_album": "-462831703",
    "description": "Cat_877197",
    "title": "Cat_877197",
    "link_img": "https://live.staticflickr.com/65535/50018846668_0907e0e633_o.jpg",
    "id_image": "Cat_877197",
    "count_view": 0
  },
  {
    "link_thumb": "https://live.staticflickr.com/65535/50020246371_2c32ff893d_n.jpg",
    "id_album": "-149330232",
    "description": "Dog_328640",
    "title": "Dog_328640",
    "link_img": "https://live.staticflickr.com/65535/50020246371_efb7d47392_o.jpg",
    "id_image": "Dog_328640",
    "count_view": 0
  },
  {
    "link_thumb": "https://live.staticflickr.com/65535/50019402123_101484b8d3_n.jpg",
    "id_album": "1273365283",
    "description": "Cute_312789",
    "title": "Cute_312789",
    "link_img": "https://live.staticflickr.com/65535/50019402123_08fd0e7611_o.jpg",
    "id_image": "Cute_312789",
    "count_view": 0
  },
  {
    "link_thumb": "https://live.staticflickr.com/65535/50018328697_0528d53cd0_n.jpg",
    "id_album": "-462831702",
    "description": "Cat_364268",
    "title": "Cat_364268",
    "link_img": "https://live.staticflickr.com/65535/50018328697_50b7fafb6c_o.jpg",
    "id_image": "Cat_364268",
    "count_view": 0
  },
  {
    "link_thumb": "https://live.staticflickr.com/65535/50019088068_478650f93e_n.jpg",
    "id_album": "1889777354",
    "description": "CGI_116483",
    "title": "CGI_116483",
    "link_img": "https://live.staticflickr.com/65535/50019088068_315d0640c9_o.jpg",
    "id_image": "CGI_116483",
    "count_view": 0
  },
  {
    "link_thumb": "https://live.staticflickr.com/65535/50017080386_72e28b2793_n.jpg",
    "id_album": "-422187261",
    "description": "Bear_782385",
    "title": "Bear_782385",
    "link_img": "https://live.staticflickr.com/65535/50017080386_8ac143cb58_o.jpg",
    "id_image": "Bear_782385",
    "count_view": 0
  },
  {
    "link_thumb": "https://live.staticflickr.com/65535/50021064433_3c381ec6a4_n.jpg",
    "id_album": "2144294979",
    "description": "Hummingbird_370256",
    "title": "Hummingbird_370256",
    "link_img": "https://live.staticflickr.com/65535/50021064433_06480f4132_o.jpg",
    "id_image": "Hummingbird_370256",
    "count_view": 0
  },
  {
    "link_thumb": "https://live.staticflickr.com/65535/50016808593_bf167bab12_n.jpg",
    "id_album": "-1846011410",
    "description": "Bird_437820",
    "title": "Bird_437820",
    "link_img": "https://live.staticflickr.com/65535/50016808593_832cc39c6c_o.jpg",
    "id_image": "Bird_437820",
    "count_view": 0
  },
  {
    "link_thumb": "https://live.staticflickr.com/65535/50016683823_73a6bfd75e_n.jpg",
    "id_album": "-1846011410",
    "description": "Bird_203623",
    "title": "Bird_203623",
    "link_img": "https://live.staticflickr.com/65535/50016683823_850b631675_o.jpg",
    "id_image": "Bird_203623",
    "count_view": 0
  },
  {
    "link_thumb": "https://live.staticflickr.com/65535/50019687671_ec9912a26a_n.jpg",
    "id_album": "-1481843714",
    "description": "Cheetah_311141",
    "title": "Cheetah_311141",
    "link_img": "https://live.staticflickr.com/65535/50019687671_92160ccd1b_o.jpg",
    "id_image": "Cheetah_311141",
    "count_view": 0
  },
  {
    "link_thumb": "https://live.staticflickr.com/65535/50021460472_c2a1de5c8b_n.jpg",
    "id_album": "-462831704",
    "description": "Cat_725094",
    "title": "Cat_725094",
    "link_img": "https://live.staticflickr.com/65535/50021460472_d8acb8276b_o.jpg",
    "id_image": "Cat_725094",
    "count_view": 0
  },
  {
    "link_thumb": "https://live.staticflickr.com/65535/50022429082_8b1daa7241_n.jpg",
    "id_album": "1894617400",
    "description": "Lynx_929603",
    "title": "Lynx_929603",
    "link_img": "https://live.staticflickr.com/65535/50022429082_9491a19f99_o.jpg",
    "id_image": "Lynx_929603",
    "count_view": 0
  },
  {
    "link_thumb": "https://live.staticflickr.com/65535/50021886331_827988c768_n.jpg",
    "id_album": "1392348450",
    "description": "Leopard_205021",
    "title": "Leopard_205021",
    "link_img": "https://live.staticflickr.com/65535/50021886331_cda95ee7c0_o.jpg",
    "id_image": "Leopard_205021",
    "count_view": 0
  },
  {
    "link_thumb": "https://live.staticflickr.com/65535/50020906662_dba775c290_n.jpg",
    "id_album": "1168627767",
    "description": "Duck_331072",
    "title": "Duck_331072",
    "link_img": "https://live.staticflickr.com/65535/50020906662_1a10b2a8c6_o.jpg",
    "id_image": "Duck_331072",
    "count_view": 0
  },
  {
    "link_thumb": "https://live.staticflickr.com/65535/50019479362_e09e75edfb_n.jpg",
    "id_album": "-462831704",
    "description": "Cat_453862",
    "title": "Cat_453862",
    "link_img": "https://live.staticflickr.com/65535/50019479362_06f071e6d0_o.jpg",
    "id_image": "Cat_453862",
    "count_view": 0
  },
  {
    "link_thumb": "https://live.staticflickr.com/65535/50017145732_5c7eac5f00_n.jpg",
    "id_album": "523598895",
    "description": "Artistic_234622",
    "title": "Artistic_234622",
    "link_img": "https://live.staticflickr.com/65535/50017145732_4f4c2fc602_o.jpg",
    "id_image": "Artistic_234622",
    "count_view": 0
  },
  {
    "link_thumb": "https://live.staticflickr.com/65535/50019705063_643b8c9396_n.jpg",
    "id_album": "-149330232",
    "description": "Dog_323370",
    "title": "Dog_323370",
    "link_img": "https://live.staticflickr.com/65535/50019705063_836a3a94b3_o.jpg",
    "id_image": "Dog_323370",
    "count_view": 0
  },
  {
    "link_thumb": "https://live.staticflickr.com/65535/50023495173_247fcfdd9a_n.jpg",
    "id_album": "405170427",
    "description": "Tiger_231313",
    "title": "Tiger_231313",
    "link_img": "https://live.staticflickr.com/65535/50023495173_3df811f02c_o.jpg",
    "id_image": "Tiger_231313",
    "count_view": 0
  },
  {
    "link_thumb": "https://live.staticflickr.com/65535/50017988051_abb0d314de_n.jpg",
    "id_album": "-462831702",
    "description": "Cat_330028",
    "title": "Cat_330028",
    "link_img": "https://live.staticflickr.com/65535/50017988051_acb2981086_o.jpg",
    "id_image": "Cat_330028",
    "count_view": 0
  },
  {
    "link_thumb": "https://live.staticflickr.com/65535/50019570887_cf99e41f74_n.jpg",
    "id_album": "-462831703",
    "description": "Cat_841632",
    "title": "Cat_841632",
    "link_img": "https://live.staticflickr.com/65535/50019570887_ed73f1330a_o.jpg",
    "id_image": "Cat_841632",
    "count_view": 0
  },
  {
    "link_thumb": "https://live.staticflickr.com/65535/50020392457_96f6fb39f7_n.jpg",
    "id_album": "-149330232",
    "description": "Dog_177045",
    "title": "Dog_177045",
    "link_img": "https://live.staticflickr.com/65535/50020392457_8a95b16f3f_o.jpg",
    "id_image": "Dog_177045",
    "count_view": 0
  },
  {
    "link_thumb": "https://live.staticflickr.com/65535/50023668063_5078487f45_n.jpg",
    "id_album": "405170427",
    "description": "Tiger_778984",
    "title": "Tiger_778984",
    "link_img": "https://live.staticflickr.com/65535/50023668063_38cc0bcc04_o.jpg",
    "id_image": "Tiger_778984",
    "count_view": 0
  },
  {
    "link_thumb": "https://live.staticflickr.com/65535/50020505863_13a49cfb1c_n.jpg",
    "id_album": "844170697",
    "description": "Frog_110520",
    "title": "Frog_110520",
    "link_img": "https://live.staticflickr.com/65535/50020505863_e0dd776858_o.jpg",
    "id_image": "Frog_110520",
    "count_view": 0
  },
  {
    "link_thumb": "https://live.staticflickr.com/65535/50352439251_33706c884e_n.jpg",
    "id_album": "-462831703",
    "description": "Cat_242728",
    "title": "Cat_242728",
    "link_img": "https://live.staticflickr.com/65535/50352439251_ce3f3bb73b_o.jpg",
    "id_image": "Cat_242728",
    "count_view": 0
  },
  {
    "link_thumb": "https://live.staticflickr.com/65535/50020518492_c5f5dcc9b3_n.jpg",
    "id_album": "-149330232",
    "description": "Dog_333398",
    "title": "Dog_333398",
    "link_img": "https://live.staticflickr.com/65535/50020518492_86bc6cc5d1_o.jpg",
    "id_image": "Dog_333398",
    "count_view": 0
  },
  {
    "link_thumb": "https://live.staticflickr.com/65535/50351716608_a6f462cb62_n.jpg",
    "id_album": "-462831703",
    "description": "Cat_185628",
    "title": "Cat_185628",
    "link_img": "https://live.staticflickr.com/65535/50351716608_2a9323a2e9_o.jpg",
    "id_image": "Cat_185628",
    "count_view": 0
  },
  {
    "link_thumb": "https://live.staticflickr.com/65535/50021612083_f1ffeb2abe_n.jpg",
    "id_album": "1894617400",
    "description": "Lynx_591174",
    "title": "Lynx_591174",
    "link_img": "https://live.staticflickr.com/65535/50021612083_c8446ebd70_o.jpg",
    "id_image": "Lynx_591174",
    "count_view": 0
  },
  {
    "link_thumb": "https://live.staticflickr.com/65535/50019510866_92688f6601_n.jpg",
    "id_album": "-462831703",
    "description": "Cat_948473",
    "title": "Cat_948473",
    "link_img": "https://live.staticflickr.com/65535/50019510866_82bc4bf1b6_o.jpg",
    "id_image": "Cat_948473",
    "count_view": 0
  },
  {
    "link_thumb": "https://live.staticflickr.com/65535/50020125006_3c9ec37d8b_n.jpg",
    "id_album": "-149330232",
    "description": "Dog_148891",
    "title": "Dog_148891",
    "link_img": "https://live.staticflickr.com/65535/50020125006_9c281e628d_o.jpg",
    "id_image": "Dog_148891",
    "count_view": 0
  },
  {
    "link_thumb": "https://live.staticflickr.com/65535/50024175636_cf4008ff3e_n.jpg",
    "id_album": "405170427",
    "description": "Tiger_571642",
    "title": "Tiger_571642",
    "link_img": "https://live.staticflickr.com/65535/50024175636_a5207f8547_o.jpg",
    "id_image": "Tiger_571642",
    "count_view": 0
  },
  {
    "link_thumb": "https://live.staticflickr.com/65535/50352578456_23b9145a23_n.jpg",
    "id_album": "-462831703",
    "description": "Cat_511418",
    "title": "Cat_511418",
    "link_img": "https://live.staticflickr.com/65535/50352578456_a15e33c432_o.jpg",
    "id_image": "Cat_511418",
    "count_view": 0
  },
  {
    "link_thumb": "https://live.staticflickr.com/65535/50019706312_248cc590e9_n.jpg",
    "id_album": "-462831705",
    "description": "Cat_91391",
    "title": "Cat_91391",
    "link_img": "https://live.staticflickr.com/65535/50019706312_440718a05d_o.jpg",
    "id_image": "Cat_91391",
    "count_view": 0
  },
  {
    "link_thumb": "https://live.staticflickr.com/65535/50024023736_d8b435a900_n.jpg",
    "id_album": "405170427",
    "description": "Tiger_106268",
    "title": "Tiger_106268",
    "link_img": "https://live.staticflickr.com/65535/50024023736_4b7f6fc785_o.jpg",
    "id_image": "Tiger_106268",
    "count_view": 0
  },
  {
    "link_thumb": "https://live.staticflickr.com/65535/50351767773_31b58ff01f_n.jpg",
    "id_album": "-462831703",
    "description": "Cat_361640",
    "title": "Cat_361640",
    "link_img": "https://live.staticflickr.com/65535/50351767773_27ff2f295f_o.jpg",
    "id_image": "Cat_361640",
    "count_view": 0
  },
  {
    "link_thumb": "https://live.staticflickr.com/65535/50351745908_ed52a4b4fb_n.jpg",
    "id_album": "-462831703",
    "description": "Cat_249140",
    "title": "Cat_249140",
    "link_img": "https://live.staticflickr.com/65535/50351745908_2c68fb9d85_o.jpg",
    "id_image": "Cat_249140",
    "count_view": 0
  },
  {
    "link_thumb": "https://live.staticflickr.com/65535/50021768677_ba3be11131_n.jpg",
    "id_album": "-1933715543",
    "description": "Horse_428557",
    "title": "Horse_428557",
    "link_img": "https://live.staticflickr.com/65535/50021768677_b749a71375_o.jpg",
    "id_image": "Horse_428557",
    "count_view": 0
  },
  {
    "link_thumb": "https://live.staticflickr.com/65535/50021470831_2537f4a923_n.jpg",
    "id_album": "-1933715543",
    "description": "Horse_225204",
    "title": "Horse_225204",
    "link_img": "https://live.staticflickr.com/65535/50021470831_15d4da894b_o.jpg",
    "id_image": "Horse_225204",
    "count_view": 0
  },
  {
    "link_thumb": "https://live.staticflickr.com/65535/50017718662_d3d22a3101_n.jpg",
    "id_album": "-1561645279",
    "description": "BlackPanther_572283",
    "title": "BlackPanther_572283",
    "link_img": "https://live.staticflickr.com/65535/50017718662_23055d2e6e_o.jpg",
    "id_image": "BlackPanther_572283",
    "count_view": 0
  },
  {
    "link_thumb": "https://live.staticflickr.com/65535/50352730642_acfeaef284_n.jpg",
    "id_album": "-462831703",
    "description": "Cat_499892",
    "title": "Cat_499892",
    "link_img": "https://live.staticflickr.com/65535/50352730642_58068d4f59_o.jpg",
    "id_image": "Cat_499892",
    "count_view": 0
  },
  {
    "link_thumb": "https://live.staticflickr.com/65535/50021936151_058ae138fd_n.jpg",
    "id_album": "1392348450",
    "description": "Leopard_569342",
    "title": "Leopard_569342",
    "link_img": "https://live.staticflickr.com/65535/50021936151_e112cd306e_o.jpg",
    "id_image": "Leopard_569342",
    "count_view": 0
  },
  {
    "link_thumb": "https://live.staticflickr.com/65535/50020026852_e881291efb_n.jpg",
    "id_album": "791455625",
    "description": "Chipmunk_771094",
    "title": "Chipmunk_771094",
    "link_img": "https://live.staticflickr.com/65535/50020026852_88cf954e69_o.jpg",
    "id_image": "Chipmunk_771094",
    "count_view": 0
  },
  {
    "link_thumb": "https://live.staticflickr.com/65535/50020896451_d7e6aa9121_n.jpg",
    "id_album": "-1758557371",
    "description": "Flamingo_452255",
    "title": "Flamingo_452255",
    "link_img": "https://live.staticflickr.com/65535/50020896451_8efa676af0_o.jpg",
    "id_image": "Flamingo_452255",
    "count_view": 0
  },
  {
    "link_thumb": "https://live.staticflickr.com/65535/50020461128_d191016f97_n.jpg",
    "id_album": "-128218148",
    "description": "Fox_785528",
    "title": "Fox_785528",
    "link_img": "https://live.staticflickr.com/65535/50020461128_d86264d606_o.jpg",
    "id_image": "Fox_785528",
    "count_view": 0
  },
  {
    "link_thumb": "https://live.staticflickr.com/65535/50019962086_00bbcc71a8_n.jpg",
    "id_album": "-1783645069",
    "description": "Dalmatian_177727",
    "title": "Dalmatian_177727",
    "link_img": "https://live.staticflickr.com/65535/50019962086_28c7d86cfd_o.jpg",
    "id_image": "Dalmatian_177727",
    "count_view": 0
  },
  {
    "link_thumb": "https://live.staticflickr.com/65535/50017007191_cd08bb8efc_n.jpg",
    "id_album": "-422187261",
    "description": "Bear_201116",
    "title": "Bear_201116",
    "link_img": "https://live.staticflickr.com/65535/50017007191_f4e8ce37f9_o.jpg",
    "id_image": "Bear_201116",
    "count_view": 0
  },
  {
    "link_thumb": "https://live.staticflickr.com/65535/50020630113_15431c85ee_n.jpg",
    "id_album": "-462831704",
    "description": "Cat_692395",
    "title": "Cat_692395",
    "link_img": "https://live.staticflickr.com/65535/50020630113_0fa9445507_o.jpg",
    "id_image": "Cat_692395",
    "count_view": 0
  },
  {
    "link_thumb": "https://live.staticflickr.com/65535/50023307982_fe62ff6fd6_n.jpg",
    "id_album": "-353898617",
    "description": "Puppy_688046",
    "title": "Puppy_688046",
    "link_img": "https://live.staticflickr.com/65535/50023307982_ac74aebcfc_o.jpg",
    "id_image": "Puppy_688046",
    "count_view": 0
  },
  {
    "link_thumb": "https://live.staticflickr.com/65535/50016432238_2d77ccf60d_n.jpg",
    "id_album": "231236068",
    "description": "BaldEagle_473638",
    "title": "BaldEagle_473638",
    "link_img": "https://live.staticflickr.com/65535/50016432238_ffa81e33ce_o.jpg",
    "id_image": "BaldEagle_473638",
    "count_view": 0
  },
  {
    "link_thumb": "https://live.staticflickr.com/65535/50022054667_d0dded5f62_n.jpg",
    "id_album": "770105808",
    "description": "Kingfisher_407548",
    "title": "Kingfisher_407548",
    "link_img": "https://live.staticflickr.com/65535/50022054667_b53aa79552_o.jpg",
    "id_image": "Kingfisher_407548",
    "count_view": 0
  },
  {
    "link_thumb": "https://live.staticflickr.com/65535/50019327048_663332b2b4_n.jpg",
    "id_album": "-2144640780",
    "description": "Cow_731263",
    "title": "Cow_731263",
    "link_img": "https://live.staticflickr.com/65535/50019327048_5ee31a46ce_o.jpg",
    "id_image": "Cow_731263",
    "count_view": 0
  },
  {
    "link_thumb": "https://live.staticflickr.com/65535/50017193872_2f36b3a58f_n.jpg",
    "id_album": "390697200",
    "description": "AustralianShepherd_651115",
    "title": "AustralianShepherd_651115",
    "link_img": "https://live.staticflickr.com/65535/50017193872_5448190e0b_o.jpg",
    "id_image": "AustralianShepherd_651115",
    "count_view": 0
  },
  {
    "link_thumb": "https://live.staticflickr.com/65535/50351768873_5d43571ef3_n.jpg",
    "id_album": "-462831703",
    "description": "Cat_364103",
    "title": "Cat_364103",
    "link_img": "https://live.staticflickr.com/65535/50351768873_272902532d_o.jpg",
    "id_image": "Cat_364103",
    "count_view": 0
  },
  {
    "link_thumb": "https://live.staticflickr.com/65535/50021110458_c86cc6e459_n.jpg",
    "id_album": "-737856092",
    "description": "Iguana_685143",
    "title": "Iguana_685143",
    "link_img": "https://live.staticflickr.com/65535/50021110458_6490773671_o.jpg",
    "id_image": "Iguana_685143",
    "count_view": 0
  },
  {
    "link_thumb": "https://live.staticflickr.com/65535/50017315277_5b3330025b_n.jpg",
    "id_album": "-422187261",
    "description": "Bear_527496",
    "title": "Bear_527496",
    "link_img": "https://live.staticflickr.com/65535/50017315277_6fd97c4a54_o.jpg",
    "id_image": "Bear_527496",
    "count_view": 0
  },
  {
    "link_thumb": "https://live.staticflickr.com/65535/50019938142_a337a5f0c4_n.jpg",
    "id_album": "-1481843714",
    "description": "Cheetah_209932",
    "title": "Cheetah_209932",
    "link_img": "https://live.staticflickr.com/65535/50019938142_c1e3ec2a68_o.jpg",
    "id_image": "Cheetah_209932",
    "count_view": 0
  },
  {
    "link_thumb": "https://live.staticflickr.com/65535/50019776943_c89b506a1e_n.jpg",
    "id_album": "-149330232",
    "description": "Dog_355707",
    "title": "Dog_355707",
    "link_img": "https://live.staticflickr.com/65535/50019776943_88c8cef292_o.jpg",
    "id_image": "Dog_355707",
    "count_view": 0
  },
  {
    "link_thumb": "https://live.staticflickr.com/65535/50021600156_88d3d95e5a_n.jpg",
    "id_album": "773713550",
    "description": "Hoverfly_926158",
    "title": "Hoverfly_926158",
    "link_img": "https://live.staticflickr.com/65535/50021600156_8af4148122_o.jpg",
    "id_image": "Hoverfly_926158",
    "count_view": 0
  },
  {
    "link_thumb": "https://live.staticflickr.com/65535/50021168141_e9c7b0703a_n.jpg",
    "id_album": "-462831704",
    "description": "Cat_686018",
    "title": "Cat_686018",
    "link_img": "https://live.staticflickr.com/65535/50021168141_c27b0a93c5_o.jpg",
    "id_image": "Cat_686018",
    "count_view": 0
  },
  {
    "link_thumb": "https://live.staticflickr.com/65535/50023139882_c83c1a8240_n.jpg",
    "id_album": "191452764",
    "description": "PrayingMantis_382626",
    "title": "PrayingMantis_382626",
    "link_img": "https://live.staticflickr.com/65535/50023139882_f70031cf6d_o.jpg",
    "id_image": "PrayingMantis_382626",
    "count_view": 0
  },
  {
    "link_thumb": "https://live.staticflickr.com/65535/50020035431_0632e803f0_n.jpg",
    "id_album": "1903411565",
    "description": "Deer_662992",
    "title": "Deer_662992",
    "link_img": "https://live.staticflickr.com/65535/50020035431_dc98df7bcc_o.jpg",
    "id_image": "Deer_662992",
    "count_view": 0
  },
  {
    "link_thumb": "https://live.staticflickr.com/65535/50351889988_ba57c639ec_n.jpg",
    "id_album": "-462831703",
    "description": "Cat_525799",
    "title": "Cat_525799",
    "link_img": "https://live.staticflickr.com/65535/50351889988_20b826414b_o.jpg",
    "id_image": "Cat_525799",
    "count_view": 0
  },
  {
    "link_thumb": "https://live.staticflickr.com/65535/50020077798_aba597a460_n.jpg",
    "id_album": "-405058657",
    "description": "Dragonfly_335678",
    "title": "Dragonfly_335678",
    "link_img": "https://live.staticflickr.com/65535/50020077798_95391d75f6_o.jpg",
    "id_image": "Dragonfly_335678",
    "count_view": 0
  },
  {
    "link_thumb": "https://live.staticflickr.com/65535/50018171142_d7aa43ff17_n.jpg",
    "id_album": "-462831705",
    "description": "Cat_261183",
    "title": "Cat_261183",
    "link_img": "https://live.staticflickr.com/65535/50018171142_13649e21c5_o.jpg",
    "id_image": "Cat_261183",
    "count_view": 0
  },
  {
    "link_thumb": "https://live.staticflickr.com/65535/50017278542_6842c832c4_n.jpg",
    "id_album": "-422187261",
    "description": "Bear_301641",
    "title": "Bear_301641",
    "link_img": "https://live.staticflickr.com/65535/50017278542_a53b2ea98b_o.jpg",
    "id_image": "Bear_301641",
    "count_view": 0
  },
  {
    "link_thumb": "https://live.staticflickr.com/65535/50019663108_0a8fbb9162_n.jpg",
    "id_album": "-149330232",
    "description": "Dog_264037",
    "title": "Dog_264037",
    "link_img": "https://live.staticflickr.com/65535/50019663108_b0a2ed99b2_o.jpg",
    "id_image": "Dog_264037",
    "count_view": 0
  },
  {
    "link_thumb": "https://live.staticflickr.com/65535/50022779242_7bcb2129e2_n.jpg",
    "id_album": "-358592519",
    "description": "Panda_275727",
    "title": "Panda_275727",
    "link_img": "https://live.staticflickr.com/65535/50022779242_4cebbea83e_o.jpg",
    "id_image": "Panda_275727",
    "count_view": 0
  },
  {
    "link_thumb": "https://live.staticflickr.com/65535/50023330846_6d3f2ea6bf_n.jpg",
    "id_album": "-419757464",
    "description": "SeaLife_109431",
    "title": "SeaLife_109431",
    "link_img": "https://live.staticflickr.com/65535/50023330846_6d78cdfe2e_o.jpg",
    "id_image": "SeaLife_109431",
    "count_view": 0
  },
  {
    "link_thumb": "https://live.staticflickr.com/65535/50352604017_12bb2201f2_n.jpg",
    "id_album": "-462831703",
    "description": "Cat_255874",
    "title": "Cat_255874",
    "link_img": "https://live.staticflickr.com/65535/50352604017_ebc12733ff_o.jpg",
    "id_image": "Cat_255874",
    "count_view": 0
  },
  {
    "link_thumb": "https://live.staticflickr.com/65535/50016394328_3d78664624_n.jpg",
    "id_album": "523598895",
    "description": "Artistic_833478",
    "title": "Artistic_833478",
    "link_img": "https://live.staticflickr.com/65535/50016394328_83f7a4460e_o.jpg",
    "id_image": "Artistic_833478",
    "count_view": 0
  },
  {
    "link_thumb": "https://live.staticflickr.com/65535/50019276956_cbb84d26d7_n.jpg",
    "id_album": "-462831704",
    "description": "Cat_516139",
    "title": "Cat_516139",
    "link_img": "https://live.staticflickr.com/65535/50019276956_ce1d44c8b5_o.jpg",
    "id_image": "Cat_516139",
    "count_view": 0
  },
  {
    "link_thumb": "https://live.staticflickr.com/65535/50020729006_64b78d688c_n.jpg",
    "id_album": "1270947998",
    "description": "Elephant_116473",
    "title": "Elephant_116473",
    "link_img": "https://live.staticflickr.com/65535/50020729006_5370fbcb4d_o.jpg",
    "id_image": "Elephant_116473",
    "count_view": 0
  },
  {
    "link_thumb": "https://live.staticflickr.com/65535/50017173802_bd5592da9e_n.jpg",
    "id_album": "523598895",
    "description": "Artistic_6587",
    "title": "Artistic_6587",
    "link_img": "https://live.staticflickr.com/65535/50017173802_efe45025b6_o.jpg",
    "id_image": "Artistic_6587",
    "count_view": 0
  },
  {
    "link_thumb": "https://live.staticflickr.com/65535/50017902751_e35ce742fc_n.jpg",
    "id_album": "-462831705",
    "description": "Cat_247943",
    "title": "Cat_247943",
    "link_img": "https://live.staticflickr.com/65535/50017902751_e333009465_o.jpg",
    "id_image": "Cat_247943",
    "count_view": 0
  },
  {
    "link_thumb": "https://live.staticflickr.com/65535/50021081012_315187921e_n.jpg",
    "id_album": "-1118073211",
    "description": "Fish_201192",
    "title": "Fish_201192",
    "link_img": "https://live.staticflickr.com/65535/50021081012_6bd73736b5_o.jpg",
    "id_image": "Fish_201192",
    "count_view": 0
  },
  {
    "link_thumb": "https://live.staticflickr.com/65535/50023738297_fda5cd8132_n.jpg",
    "id_album": "-755466332",
    "description": "Sheep_477266",
    "title": "Sheep_477266",
    "link_img": "https://live.staticflickr.com/65535/50023738297_b4f1882435_o.jpg",
    "id_image": "Sheep_477266",
    "count_view": 0
  },
  {
    "link_thumb": "https://live.staticflickr.com/65535/50022988828_372547bc9d_n.jpg",
    "id_album": "-800019164",
    "description": "Snail_560724",
    "title": "Snail_560724",
    "link_img": "https://live.staticflickr.com/65535/50022988828_7586de9429_o.jpg",
    "id_image": "Snail_560724",
    "count_view": 0
  },
  {
    "link_thumb": "https://live.staticflickr.com/65535/50020013998_abe155b46e_n.jpg",
    "id_album": "-149330231",
    "description": "Dog_933972",
    "title": "Dog_933972",
    "link_img": "https://live.staticflickr.com/65535/50020013998_4841684f7f_o.jpg",
    "id_image": "Dog_933972",
    "count_view": 0
  },
  {
    "link_thumb": "https://live.staticflickr.com/65535/50021836211_8f1524a8cd_n.jpg",
    "id_album": "1307335982",
    "description": "LabradorRetriever_892156",
    "title": "LabradorRetriever_892156",
    "link_img": "https://live.staticflickr.com/65535/50021836211_0e7aa43ab4_o.jpg",
    "id_image": "LabradorRetriever_892156",
    "count_view": 0
  },
  {
    "link_thumb": "https://live.staticflickr.com/65535/50016345383_b000222d87_n.jpg",
    "id_album": "523598895",
    "description": "Artistic_167167",
    "title": "Artistic_167167",
    "link_img": "https://live.staticflickr.com/65535/50016345383_7e44740e7e_o.jpg",
    "id_image": "Artistic_167167",
    "count_view": 0
  },
  {
    "link_thumb": "https://live.staticflickr.com/65535/50021372787_f48438039f_n.jpg",
    "id_album": "-462831704",
    "description": "Cat_570450",
    "title": "Cat_570450",
    "link_img": "https://live.staticflickr.com/65535/50021372787_0841d2fae1_o.jpg",
    "id_image": "Cat_570450",
    "count_view": 0
  },
  {
    "link_thumb": "https://live.staticflickr.com/65535/50020847991_0cc67dfe68_n.jpg",
    "id_album": "-1118073211",
    "description": "Fish_384766",
    "title": "Fish_384766",
    "link_img": "https://live.staticflickr.com/65535/50020847991_7a9a6927b3_o.jpg",
    "id_image": "Fish_384766",
    "count_view": 0
  },
  {
    "link_thumb": "https://live.staticflickr.com/65535/50017109933_47505207cf_n.jpg",
    "id_album": "-401151552",
    "description": "Butterfly_580168",
    "title": "Butterfly_580168",
    "link_img": "https://live.staticflickr.com/65535/50017109933_62240795e9_o.jpg",
    "id_image": "Butterfly_580168",
    "count_view": 0
  },
  {
    "link_thumb": "https://live.staticflickr.com/65535/50017078597_6f2ec4cb80_n.jpg",
    "id_album": "-1473450542",
    "description": "Alpaca_548392",
    "title": "Alpaca_548392",
    "link_img": "https://live.staticflickr.com/65535/50017078597_47c2efcb53_o.jpg",
    "id_image": "Alpaca_548392",
    "count_view": 0
  },
  {
    "link_thumb": "https://live.staticflickr.com/65535/50017206707_d1636f0bb8_n.jpg",
    "id_album": "390697200",
    "description": "AustralianShepherd_906109",
    "title": "AustralianShepherd_906109",
    "link_img": "https://live.staticflickr.com/65535/50017206707_93b8e5cb63_o.jpg",
    "id_image": "AustralianShepherd_906109",
    "count_view": 0
  },
  {
    "link_thumb": "https://live.staticflickr.com/65535/50016726268_3693fd39b2_n.jpg",
    "id_album": "-1846011410",
    "description": "Bird_342668",
    "title": "Bird_342668",
    "link_img": "https://live.staticflickr.com/65535/50016726268_cd66aac9d7_o.jpg",
    "id_image": "Bird_342668",
    "count_view": 0
  },
  {
    "link_thumb": "https://live.staticflickr.com/65535/50020014317_7d408f85c9_n.jpg",
    "id_album": "791455625",
    "description": "Chipmunk_349278",
    "title": "Chipmunk_349278",
    "link_img": "https://live.staticflickr.com/65535/50020014317_293fa82f37_o.jpg",
    "id_image": "Chipmunk_349278",
    "count_view": 0
  },
  {
    "link_thumb": "https://live.staticflickr.com/65535/50020657052_8ebfd8950d_n.jpg",
    "id_album": "-149330231",
    "description": "Dog_421468",
    "title": "Dog_421468",
    "link_img": "https://live.staticflickr.com/65535/50020657052_7cfaf8712d_o.jpg",
    "id_image": "Dog_421468",
    "count_view": 0
  },
  {
    "link_thumb": "https://live.staticflickr.com/65535/50021303998_f40a8ac6c7_n.jpg",
    "id_album": "-1882491687",
    "description": "Ladybug_380917",
    "title": "Ladybug_380917",
    "link_img": "https://live.staticflickr.com/65535/50021303998_4c4891a104_o.jpg",
    "id_image": "Ladybug_380917",
    "count_view": 0
  },
  {
    "link_thumb": "https://live.staticflickr.com/65535/50017587837_d650e28c2c_n.jpg",
    "id_album": "-1846011410",
    "description": "Bird_429620",
    "title": "Bird_429620",
    "link_img": "https://live.staticflickr.com/65535/50017587837_df9934176c_o.jpg",
    "id_image": "Bird_429620",
    "count_view": 0
  },
  {
    "link_thumb": "https://live.staticflickr.com/65535/50021532767_a596d6cfaf_n.jpg",
    "id_album": "-34696179",
    "description": "Gecko_638282",
    "title": "Gecko_638282",
    "link_img": "https://live.staticflickr.com/65535/50021532767_3c8fd49db2_o.jpg",
    "id_image": "Gecko_638282",
    "count_view": 0
  },
  {
    "link_thumb": "https://live.staticflickr.com/65535/50021740978_5a03f31e6a_n.jpg",
    "id_album": "1610416937",
    "description": "Moth_771000",
    "title": "Moth_771000",
    "link_img": "https://live.staticflickr.com/65535/50021740978_fdf74a369c_o.jpg",
    "id_image": "Moth_771000",
    "count_view": 0
  },
  {
    "link_thumb": "https://live.staticflickr.com/65535/50020213503_95e4eccde5_n.jpg",
    "id_album": "1270947998",
    "description": "Elephant_356944",
    "title": "Elephant_356944",
    "link_img": "https://live.staticflickr.com/65535/50020213503_98407b8b6f_o.jpg",
    "id_image": "Elephant_356944",
    "count_view": 0
  },
  {
    "link_thumb": "https://live.staticflickr.com/65535/50021606916_68683d4229_n.jpg",
    "id_album": "2144294979",
    "description": "Hummingbird_367493",
    "title": "Hummingbird_367493",
    "link_img": "https://live.staticflickr.com/65535/50021606916_cb1055edcd_o.jpg",
    "id_image": "Hummingbird_367493",
    "count_view": 0
  },
  {
    "link_thumb": "https://live.staticflickr.com/65535/50023075198_84223db084_n.jpg",
    "id_album": "-1131363127",
    "description": "SnowLeopard_203944",
    "title": "SnowLeopard_203944",
    "link_img": "https://live.staticflickr.com/65535/50023075198_c50bf47b99_o.jpg",
    "id_image": "SnowLeopard_203944",
    "count_view": 0
  },
  {
    "link_thumb": "https://live.staticflickr.com/65535/50021674782_2dedc71d65_n.jpg",
    "id_album": "-1513987841",
    "description": "Hawk_438162",
    "title": "Hawk_438162",
    "link_img": "https://live.staticflickr.com/65535/50021674782_5cd353ae38_o.jpg",
    "id_image": "Hawk_438162",
    "count_view": 0
  },
  {
    "link_thumb": "https://live.staticflickr.com/65535/50352663122_e381e82981_n.jpg",
    "id_album": "-462831703",
    "description": "Cat_414967",
    "title": "Cat_414967",
    "link_img": "https://live.staticflickr.com/65535/50352663122_db6545b61e_o.jpg",
    "id_image": "Cat_414967",
    "count_view": 0
  },
  {
    "link_thumb": "https://live.staticflickr.com/65535/50020726192_de876a12ea_n.jpg",
    "id_album": "-149330231",
    "description": "Dog_643718",
    "title": "Dog_643718",
    "link_img": "https://live.staticflickr.com/65535/50020726192_9cb7d31ef3_o.jpg",
    "id_image": "Dog_643718",
    "count_view": 0
  },
  {
    "link_thumb": "https://live.staticflickr.com/65535/50021521012_63559d5819_n.jpg",
    "id_album": "-462831703",
    "description": "Cat_826229",
    "title": "Cat_826229",
    "link_img": "https://live.staticflickr.com/65535/50021521012_29a0f0cb82_o.jpg",
    "id_image": "Cat_826229",
    "count_view": 0
  },
  {
    "link_thumb": "https://live.staticflickr.com/65535/50021307173_2b19f4437c_n.jpg",
    "id_album": "-1882491687",
    "description": "Ladybug_409501",
    "title": "Ladybug_409501",
    "link_img": "https://live.staticflickr.com/65535/50021307173_7d984a2efe_o.jpg",
    "id_image": "Ladybug_409501",
    "count_view": 0
  },
  {
    "link_thumb": "https://live.staticflickr.com/65535/50019838877_12dca7752e_n.jpg",
    "id_album": "-1930903528",
    "description": "CatDog_678980",
    "title": "CatDog_678980",
    "link_img": "https://live.staticflickr.com/65535/50019838877_20bc81369b_o.jpg",
    "id_image": "CatDog_678980",
    "count_view": 0
  },
  {
    "link_thumb": "https://live.staticflickr.com/65535/50023806721_b2202e2e84_n.jpg",
    "id_album": "-1082521515",
    "description": "Spider_948449",
    "title": "Spider_948449",
    "link_img": "https://live.staticflickr.com/65535/50023806721_56c2395094_o.jpg",
    "id_image": "Spider_948449",
    "count_view": 0
  },
  {
    "link_thumb": "https://live.staticflickr.com/65535/50016900031_e9d47a3138_n.jpg",
    "id_album": "523598895",
    "description": "Artistic_360316",
    "title": "Artistic_360316",
    "link_img": "https://live.staticflickr.com/65535/50016900031_5fb3f5ddc3_o.jpg",
    "id_image": "Artistic_360316",
    "count_view": 0
  },
  {
    "link_thumb": "https://live.staticflickr.com/65535/50019457307_2b799b3091_n.jpg",
    "id_album": "-462831704",
    "description": "Cat_437357",
    "title": "Cat_437357",
    "link_img": "https://live.staticflickr.com/65535/50019457307_593f8e6947_o.jpg",
    "id_image": "Cat_437357",
    "count_view": 0
  },
  {
    "link_thumb": "https://live.staticflickr.com/65535/50017553762_99cce2082b_n.jpg",
    "id_album": "-1846011410",
    "description": "Bird_387155",
    "title": "Bird_387155",
    "link_img": "https://live.staticflickr.com/65535/50017553762_a5eb3d032a_o.jpg",
    "id_image": "Bird_387155",
    "count_view": 0
  },
  {
    "link_thumb": "https://live.staticflickr.com/65535/50017338553_6569668ddd_n.jpg",
    "id_album": "-462831705",
    "description": "Cat_217157",
    "title": "Cat_217157",
    "link_img": "https://live.staticflickr.com/65535/50017338553_2736792f19_o.jpg",
    "id_image": "Cat_217157",
    "count_view": 0
  }
]