[
  {
    "link_thumb": "https://live.staticflickr.com/65535/50017500962_7771c39062_n.jpg",
    "id_album": "-1846011410",
    "description": "Bird_327465",
    "title": "Bird_327465",
    "link_img": "https://live.staticflickr.com/65535/50017500962_bd9cdd5e63_o.jpg",
    "id_image": "Bird_327465",
    "count_view": 0
  },
  {
    "link_thumb": "https://live.staticflickr.com/65535/50017220416_dfa9c5b3db_n.jpg",
    "id_album": "-1846011410",
    "description": "Bird_254185",
    "title": "Bird_254185",
    "link_img": "https://live.staticflickr.com/65535/50017220416_72c34169c3_o.jpg",
    "id_image": "Bird_254185",
    "count_view": 0
  },
  {
    "link_thumb": "https://live.staticflickr.com/65535/50016520523_5c8ee05b47_n.jpg",
    "id_album": "-422187261",
    "description": "Bear_439892",
    "title": "Bear_439892",
    "link_img": "https://live.staticflickr.com/65535/50016520523_151aa9c400_o.jpg",
    "id_image": "Bear_439892",
    "count_view": 0
  },
  {
    "link_thumb": "https://live.staticflickr.com/65535/50018135422_d7f96e1ab4_n.jpg",
    "id_album": "-462831705",
    "description": "Cat_225366",
    "title": "Cat_225366",
    "link_img": "https://live.staticflickr.com/65535/50018135422_64167ee6cc_o.jpg",
    "id_image": "Cat_225366",
    "count_view": 0
  },
  {
    "link_thumb": "https://live.staticflickr.com/65535/50019906126_1ea1b0a8df_n.jpg",
    "id_album": "-392100404",
    "description": "Crow_458660",
    "title": "Crow_458660",
    "link_img": "https://live.staticflickr.com/65535/50019906126_990c31b3ba_o.jpg",
    "id_image": "Crow_458660",
    "count_view": 0
  },
  {
    "link_thumb": "https://live.staticflickr.com/65535/50352655931_f946a44349_n.jpg",
    "id_album": "-462831703",
    "description": "Cat_705874",
    "title": "Cat_705874",
    "link_img": "https://live.staticflickr.com/65535/50352655931_ff559c088a_o.jpg",
    "id_image": "Cat_705874",
    "count_view": 0
  },
  {
    "link_thumb": "https://live.staticflickr.com/65535/50017360566_41669d6b5a_n.jpg",
    "id_album": "-1846011410",
    "description": "Bird_535366",
    "title": "Bird_535366",
    "link_img": "https://live.staticflickr.com/65535/50017360566_dcd3b0164b_o.jpg",
    "id_image": "Bird_535366",
    "count_view": 0
  },
  {
    "link_thumb": "https://live.staticflickr.com/65535/50022078937_095c59a97b_n.jpg",
    "id_album": "771796001",
    "description": "Koala_784935",
    "title": "Koala_784935",
    "link_img": "https://live.staticflickr.com/65535/50022078937_8aec3bc20a_o.jpg",
    "id_image": "Koala_784935",
    "count_view": 0
  },
  {
    "link_thumb": "https://live.staticflickr.com/65535/50019429342_bb3907af28_n.jpg",
    "id_album": "-462831702",
    "description": "Cat_426131",
    "title": "Cat_426131",
    "link_img": "https://live.staticflickr.com/65535/50019429342_5b3e284ff2_o.jpg",
    "id_image": "Cat_426131",
    "count_view": 0
  },
  {
    "link_thumb": "https://live.staticflickr.com/65535/50019514286_40fa8f69cf_n.jpg",
    "id_album": "-462831703",
    "description": "Cat_951505",
    "title": "Cat_951505",
    "link_img": "https://live.staticflickr.com/65535/50019514286_3e1276e851_o.jpg",
    "id_image": "Cat_951505",
    "count_view": 0
  },
  {
    "link_thumb": "https://live.staticflickr.com/65535/50021674511_13384b1d87_n.jpg",
    "id_album": "1658866795",
    "description": "Insect_403225",
    "title": "Insect_403225",
    "link_img": "https://live.staticflickr.com/65535/50021674511_fb0eedf95c_o.jpg",
    "id_image": "Insect_403225",
    "count_view": 0
  },
  {
    "link_thumb": "https://live.staticflickr.com/65535/50021128023_6fdb6faefd_n.jpg",
    "id_album": "1658866795",
    "description": "Insect_393090",
    "title": "Insect_393090",
    "link_img": "https://live.staticflickr.com/65535/50021128023_e12faa5d16_o.jpg",
    "id_image": "Insect_393090",
    "count_view": 0
  },
  {
    "link_thumb": "https://live.staticflickr.com/65535/50017377632_c13e70e6ab_n.jpg",
    "id_album": "1699594607",
    "description": "Bee_153472",
    "title": "Bee_153472",
    "link_img": "https://live.staticflickr.com/65535/50017377632_ab4dbf2878_o.jpg",
    "id_image": "Bee_153472",
    "count_view": 0
  },
  {
    "link_thumb": "https://live.staticflickr.com/65535/50020590538_0cf46dd5ee_n.jpg",
    "id_album": "-462831704",
    "description": "Cat_593643",
    "title": "Cat_593643",
    "link_img": "https://live.staticflickr.com/65535/50020590538_a82105e83e_o.jpg",
    "id_image": "Cat_593643",
    "count_view": 0
  },
  {
    "link_thumb": "https://live.staticflickr.com/65535/50021097646_ac0f191e99_n.jpg",
    "id_album": "-462831704",
    "description": "Cat_536232",
    "title": "Cat_536232",
    "link_img": "https://live.staticflickr.com/65535/50021097646_8c85a055f6_o.jpg",
    "id_image": "Cat_536232",
    "count_view": 0
  },
  {
    "link_thumb": "https://live.staticflickr.com/65535/50024185021_6187511c4a_n.jpg",
    "id_album": "405170427",
    "description": "Tiger_597441",
    "title": "Tiger_597441",
    "link_img": "https://live.staticflickr.com/65535/50024185021_9080298462_o.jpg",
    "id_image": "Tiger_597441",
    "count_view": 0
  },
  {
    "link_thumb": "https://live.staticflickr.com/65535/50021850301_66b4f7a113_n.jpg",
    "id_album": "-1882491687",
    "description": "Ladybug_428335",
    "title": "Ladybug_428335",
    "link_img": "https://live.staticflickr.com/65535/50021850301_1b002535a1_o.jpg",
    "id_image": "Ladybug_428335",
    "count_view": 0
  },
  {
    "link_thumb": "https://live.staticflickr.com/65535/50021295578_4cffc5a47e_n.jpg",
    "id_album": "1307335982",
    "description": "LabradorRetriever_968797",
    "title": "LabradorRetriever_968797",
    "link_img": "https://live.staticflickr.com/65535/50021295578_59e28ae834_o.jpg",
    "id_image": "LabradorRetriever_968797",
    "count_view": 0
  },
  {
    "link_thumb": "https://live.staticflickr.com/65535/50021187157_941c586c10_n.jpg",
    "id_album": "-128218148",
    "description": "Fox_114909",
    "title": "Fox_114909",
    "link_img": "https://live.staticflickr.com/65535/50021187157_8bd90a301c_o.jpg",
    "id_image": "Fox_114909",
    "count_view": 0
  },
  {
    "link_thumb": "https://live.staticflickr.com/65535/50021096777_9b9b9c7f7f_n.jpg",
    "id_album": "-1118073211",
    "description": "Fish_355196",
    "title": "Fish_355196",
    "link_img": "https://live.staticflickr.com/65535/50021096777_c93cae8de0_o.jpg",
    "id_image": "Fish_355196",
    "count_view": 0
  },
  {
    "link_thumb": "https://live.staticflickr.com/65535/50019673292_bcaec2c519_n.jpg",
    "id_album": "-462831703",
    "description": "Cat_900814",
    "title": "Cat_900814",
    "link_img": "https://live.staticflickr.com/65535/50019673292_a84de3aa0d_o.jpg",
    "id_image": "Cat_900814",
    "count_view": 0
  },
  {
    "link_thumb": "https://live.staticflickr.com/65535/50018673753_9449ed6b47_n.jpg",
    "id_album": "-462831704",
    "description": "Cat_439164",
    "title": "Cat_439164",
    "link_img": "https://live.staticflickr.com/65535/50018673753_c329122dd4_o.jpg",
    "id_image": "Cat_439164",
    "count_view": 0
  },
  {
    "link_thumb": "https://live.staticflickr.com/65535/50021516577_73d7d028ef_n.jpg",
    "id_album": "-462831703",
    "description": "Cat_817058",
    "title": "Cat_817058",
    "link_img": "https://live.staticflickr.com/65535/50021516577_3ce90f3fac_o.jpg",
    "id_image": "Cat_817058",
    "count_view": 0
  },
  {
    "link_thumb": "https://live.staticflickr.com/65535/50017735471_91463d31a2_n.jpg",
    "id_album": "189994021",
    "description": "Cardinal_679168",
    "title": "Cardinal_679168",
    "link_img": "https://live.staticflickr.com/65535/50017735471_db587172a3_o.jpg",
    "id_image": "Cardinal_679168",
    "count_view": 0
  },
  {
    "link_thumb": "https://live.staticflickr.com/65535/50020265847_9b26a8be86_n.jpg",
    "id_album": "1903411565",
    "description": "Deer_428487",
    "title": "Deer_428487",
    "link_img": "https://live.staticflickr.com/65535/50020265847_4ef6e10f62_o.jpg",
    "id_image": "Deer_428487",
    "count_view": 0
  },
  {
    "link_thumb": "https://live.staticflickr.com/65535/50016887886_c2b27d406c_n.jpg",
    "id_album": "523598895",
    "description": "Artistic_242942",
    "title": "Artistic_242942",
    "link_img": "https://live.staticflickr.com/65535/50016887886_cf104c7789_o.jpg",
    "id_image": "Artistic_242942",
    "count_view": 0
  },
  {
    "link_thumb": "https://live.staticflickr.com/65535/50017447573_7f4c4dbf6f_n.jpg",
    "id_album": "-462831702",
    "description": "Cat_326189",
    "title": "Cat_326189",
    "link_img": "https://live.staticflickr.com/65535/50017447573_8a8296dbcb_o.jpg",
    "id_image": "Cat_326189",
    "count_view": 0
  },
  {
    "link_thumb": "https://live.staticflickr.com/65535/50021548262_3758193411_n.jpg",
    "id_album": "-405626519",
    "description": "GermanShepherd_659829",
    "title": "GermanShepherd_659829",
    "link_img": "https://live.staticflickr.com/65535/50021548262_6fe97d0743_o.jpg",
    "id_image": "GermanShepherd_659829",
    "count_view": 0
  },
  {
    "link_thumb": "https://live.staticflickr.com/65535/50016892321_1ab0200d2e_n.jpg",
    "id_album": "523598895",
    "description": "Artistic_290963",
    "title": "Artistic_290963",
    "link_img": "https://live.staticflickr.com/65535/50016892321_a9eb728ae9_o.jpg",
    "id_image": "Artistic_290963",
    "count_view": 0
  },
  {
    "link_thumb": "https://live.staticflickr.com/65535/50020528911_dfdc4a2d46_n.jpg",
    "id_album": "-149330231",
    "description": "Dog_869002",
    "title": "Dog_869002",
    "link_img": "https://live.staticflickr.com/65535/50020528911_848389ddba_o.jpg",
    "id_image": "Dog_869002",
    "count_view": 0
  },
  {
    "link_thumb": "https://live.staticflickr.com/65535/50023376776_4d4058e6e6_n.jpg",
    "id_album": "1656131695",
    "description": "Seagull_534786",
    "title": "Seagull_534786",
    "link_img": "https://live.staticflickr.com/65535/50023376776_f53c0544c6_o.jpg",
    "id_image": "Seagull_534786",
    "count_view": 0
  },
  {
    "link_thumb": "https://live.staticflickr.com/65535/50019798986_70238c90f3_n.jpg",
    "id_album": "-1462118852",
    "description": "Corgi_900270",
    "title": "Corgi_900270",
    "link_img": "https://live.staticflickr.com/65535/50019798986_f01cfc110c_o.jpg",
    "id_image": "Corgi_900270",
    "count_view": 0
  },
  {
    "link_thumb": "https://live.staticflickr.com/65535/50021814871_03cd8687f7_n.jpg",
    "id_album": "770105808",
    "description": "Kingfisher_985310",
    "title": "Kingfisher_985310",
    "link_img": "https://live.staticflickr.com/65535/50021814871_3932d35004_o.jpg",
    "id_image": "Kingfisher_985310",
    "count_view": 0
  },
  {
    "link_thumb": "https://live.staticflickr.com/65535/50022065061_a423ca9c78_n.jpg",
    "id_album": "416744915",
    "description": "Lion_81476",
    "title": "Lion_81476",
    "link_img": "https://live.staticflickr.com/65535/50022065061_1cf3b63c0b_o.jpg",
    "id_image": "Lion_81476",
    "count_view": 0
  },
  {
    "link_thumb": "https://live.staticflickr.com/65535/50020512733_88e7aebf0e_n.jpg",
    "id_album": "844170697",
    "description": "Frog_327642",
    "title": "Frog_327642",
    "link_img": "https://live.staticflickr.com/65535/50020512733_67b494c359_o.jpg",
    "id_image": "Frog_327642",
    "count_view": 0
  },
  {
    "link_thumb": "https://live.staticflickr.com/65535/50017923502_fa03507924_n.jpg",
    "id_album": "-401151552",
    "description": "Butterfly_771603",
    "title": "Butterfly_771603",
    "link_img": "https://live.staticflickr.com/65535/50017923502_b2fe485060_o.jpg",
    "id_image": "Butterfly_771603",
    "count_view": 0
  },
  {
    "link_thumb": "https://live.staticflickr.com/65535/50021481997_721e338f6c_n.jpg",
    "id_album": "-462831703",
    "description": "Cat_752065",
    "title": "Cat_752065",
    "link_img": "https://live.staticflickr.com/65535/50021481997_66f3107a00_o.jpg",
    "id_image": "Cat_752065",
    "count_view": 0
  },
  {
    "link_thumb": "https://live.staticflickr.com/65535/50017487683_4a9487eb55_n.jpg",
    "id_album": "-462831702",
    "description": "Cat_342766",
    "title": "Cat_342766",
    "link_img": "https://live.staticflickr.com/65535/50017487683_ebbd9441ce_o.jpg",
    "id_image": "Cat_342766",
    "count_view": 0
  },
  {
    "link_thumb": "https://live.staticflickr.com/65535/50017712311_275cb5d32e_n.jpg",
    "id_album": "-401151552",
    "description": "Butterfly_931136",
    "title": "Butterfly_931136",
    "link_img": "https://live.staticflickr.com/65535/50017712311_0a4cf10ddd_o.jpg",
    "id_image": "Butterfly_931136",
    "count_view": 0
  },
  {
    "link_thumb": "https://live.staticflickr.com/65535/50019684062_00fbbb27e8_n.jpg",
    "id_album": "-462831703",
    "description": "Cat_905048",
    "title": "Cat_905048",
    "link_img": "https://live.staticflickr.com/65535/50019684062_4881e0a69b_o.jpg",
    "id_image": "Cat_905048",
    "count_view": 0
  },
  {
    "link_thumb": "https://live.staticflickr.com/65535/50352454251_4ca083ecd9_n.jpg",
    "id_album": "-462831703",
    "description": "Cat_316462",
    "title": "Cat_316462",
    "link_img": "https://live.staticflickr.com/65535/50352454251_91b2beb7b7_o.jpg",
    "id_image": "Cat_316462",
    "count_view": 0
  },
  {
    "link_thumb": "https://live.staticflickr.com/65535/50020523296_c5fd150092_n.jpg",
    "id_album": "-149330231",
    "description": "Dog_852397",
    "title": "Dog_852397",
    "link_img": "https://live.staticflickr.com/65535/50020523296_b95e2f546e_o.jpg",
    "id_image": "Dog_852397",
    "count_view": 0
  },
  {
    "link_thumb": "https://live.staticflickr.com/65535/50017023488_4690ed32ff_n.jpg",
    "id_album": "-401151552",
    "description": "Butterfly_240249",
    "title": "Butterfly_240249",
    "link_img": "https://live.staticflickr.com/65535/50017023488_b819355522_o.jpg",
    "id_image": "Butterfly_240249",
    "count_view": 0
  },
  {
    "link_thumb": "https://live.staticflickr.com/65535/50019313078_6bb88a19ab_n.jpg",
    "id_album": "-2144640780",
    "description": "Cow_411531",
    "title": "Cow_411531",
    "link_img": "https://live.staticflickr.com/65535/50019313078_bce49cc72e_o.jpg",
    "id_image": "Cow_411531",
    "count_view": 0
  },
  {
    "link_thumb": "https://live.staticflickr.com/65535/50022631472_74866dff39_n.jpg",
    "id_album": "106807275",
    "description": "Otter_724687",
    "title": "Otter_724687",
    "link_img": "https://live.staticflickr.com/65535/50022631472_e8f1d88710_o.jpg",
    "id_image": "Otter_724687",
    "count_view": 0
  },
  {
    "link_thumb": "https://live.staticflickr.com/65535/50021325962_20e67b05c6_n.jpg",
    "id_album": "844170697",
    "description": "Frog_716830",
    "title": "Frog_716830",
    "link_img": "https://live.staticflickr.com/65535/50021325962_d60e344fd6_o.jpg",
    "id_image": "Frog_716830",
    "count_view": 0
  },
  {
    "link_thumb": "https://live.staticflickr.com/65535/50022089552_67f1279bfd_n.jpg",
    "id_album": "1307335982",
    "description": "LabradorRetriever_848242",
    "title": "LabradorRetriever_848242",
    "link_img": "https://live.staticflickr.com/65535/50022089552_33c25781a1_o.jpg",
    "id_image": "LabradorRetriever_848242",
    "count_view": 0
  },
  {
    "link_thumb": "https://live.staticflickr.com/65535/50019428292_81559a1cf6_n.jpg",
    "id_album": "-462831702",
    "description": "Cat_425918",
    "title": "Cat_425918",
    "link_img": "https://live.staticflickr.com/65535/50019428292_7eab389dca_o.jpg",
    "id_image": "Cat_425918",
    "count_view": 0
  },
  {
    "link_thumb": "https://live.staticflickr.com/65535/50017384633_30e2d63d7c_n.jpg",
    "id_album": "-462831705",
    "description": "Cat_261317",
    "title": "Cat_261317",
    "link_img": "https://live.staticflickr.com/65535/50017384633_78d0aa5961_o.jpg",
    "id_image": "Cat_261317",
    "count_view": 0
  },
  {
    "link_thumb": "https://live.staticflickr.com/65535/50020927266_179801afa4_n.jpg",
    "id_album": "-1694105481",
    "description": "Fly_889030",
    "title": "Fly_889030",
    "link_img": "https://live.staticflickr.com/65535/50020927266_54ca96117e_o.jpg",
    "id_image": "Fly_889030",
    "count_view": 0
  },
  {
    "link_thumb": "https://live.staticflickr.com/65535/50021933296_fe6695b76a_n.jpg",
    "id_album": "1392348450",
    "description": "Leopard_534586",
    "title": "Leopard_534586",
    "link_img": "https://live.staticflickr.com/65535/50021933296_f4ae5f560b_o.jpg",
    "id_image": "Leopard_534586",
    "count_view": 0
  },
  {
    "link_thumb": "https://live.staticflickr.com/65535/50352431976_a69db92d90_n.jpg",
    "id_album": "-462831703",
    "description": "Cat_229118",
    "title": "Cat_229118",
    "link_img": "https://live.staticflickr.com/65535/50352431976_44e9d71819_o.jpg",
    "id_image": "Cat_229118",
    "count_view": 0
  },
  {
    "link_thumb": "https://live.staticflickr.com/65535/50019379546_f34ef13685_n.jpg",
    "id_album": "-462831703",
    "description": "Cat_877986",
    "title": "Cat_877986",
    "link_img": "https://live.staticflickr.com/65535/50019379546_1a58142564_o.jpg",
    "id_image": "Cat_877986",
    "count_view": 0
  },
  {
    "link_thumb": "https://live.staticflickr.com/65535/50019200436_29bb8e7d43_n.jpg",
    "id_album": "-462831704",
    "description": "Cat_438111",
    "title": "Cat_438111",
    "link_img": "https://live.staticflickr.com/65535/50019200436_dba5991252_o.jpg",
    "id_image": "Cat_438111",
    "count_view": 0
  },
  {
    "link_thumb": "https://live.staticflickr.com/65535/50018148437_b7688a61f3_n.jpg",
    "id_album": "-462831705",
    "description": "Cat_236457",
    "title": "Cat_236457",
    "link_img": "https://live.staticflickr.com/65535/50018148437_653ca4a26a_o.jpg",
    "id_image": "Cat_236457",
    "count_view": 0
  },
  {
    "link_thumb": "https://live.staticflickr.com/65535/50018391157_aaea275984_n.jpg",
    "id_album": "-462831702",
    "description": "Cat_394806",
    "title": "Cat_394806",
    "link_img": "https://live.staticflickr.com/65535/50018391157_38ae52dac4_o.jpg",
    "id_image": "Cat_394806",
    "count_view": 0
  },
  {
    "link_thumb": "https://live.staticflickr.com/65535/50017043258_c6486270b4_n.jpg",
    "id_album": "-401151552",
    "description": "Butterfly_359130",
    "title": "Butterfly_359130",
    "link_img": "https://live.staticflickr.com/65535/50017043258_7361bb4037_o.jpg",
    "id_image": "Butterfly_359130",
    "count_view": 0
  },
  {
    "link_thumb": "https://live.staticflickr.com/65535/50020773438_84964704d5_n.jpg",
    "id_album": "-405626519",
    "description": "GermanShepherd_995276",
    "title": "GermanShepherd_995276",
    "link_img": "https://live.staticflickr.com/65535/50020773438_4d66895b7f_o.jpg",
    "id_image": "GermanShepherd_995276",
    "count_view": 0
  },
  {
    "link_thumb": "https://live.staticflickr.com/65535/50019918177_5a99f37e15_n.jpg",
    "id_album": "-766919393",
    "description": "Chameleon_716850",
    "title": "Chameleon_716850",
    "link_img": "https://live.staticflickr.com/65535/50019918177_a1c3aa5f2d_o.jpg",
    "id_image": "Chameleon_716850",
    "count_view": 0
  },
  {
    "link_thumb": "https://live.staticflickr.com/65535/50023661956_c07fab1591_n.jpg",
    "id_album": "-1131363127",
    "description": "SnowLeopard_585139",
    "title": "SnowLeopard_585139",
    "link_img": "https://live.staticflickr.com/65535/50023661956_7ed9a8cd3f_o.jpg",
    "id_image": "SnowLeopard_585139",
    "count_view": 0
  },
  {
    "link_thumb": "https://live.staticflickr.com/65535/50022141028_bcda1532d6_n.jpg",
    "id_album": "392248205",
    "description": "Penguin_247674",
    "title": "Penguin_247674",
    "link_img": "https://live.staticflickr.com/65535/50022141028_9dd05c726e_o.jpg",
    "id_image": "Penguin_247674",
    "count_view": 0
  },
  {
    "link_thumb": "https://live.staticflickr.com/65535/50018911253_55c3f81ea9_n.jpg",
    "id_album": "-462831705",
    "description": "Cat_91375",
    "title": "Cat_91375",
    "link_img": "https://live.staticflickr.com/65535/50018911253_48c3ba2bf8_o.jpg",
    "id_image": "Cat_91375",
    "count_view": 0
  },
  {
    "link_thumb": "https://live.staticflickr.com/65535/50019884481_73002ed30b_n.jpg",
    "id_album": "1475096665",
    "description": "Crocodile_102764",
    "title": "Crocodile_102764",
    "link_img": "https://live.staticflickr.com/65535/50019884481_9921dcd4d7_o.jpg",
    "id_image": "Crocodile_102764",
    "count_view": 0
  },
  {
    "link_thumb": "https://live.staticflickr.com/65535/50017268733_eec604c2ae_n.jpg",
    "id_album": "-462831705",
    "description": "Cat_166881",
    "title": "Cat_166881",
    "link_img": "https://live.staticflickr.com/65535/50017268733_bbe9c0a228_o.jpg",
    "id_image": "Cat_166881",
    "count_view": 0
  },
  {
    "link_thumb": "https://live.staticflickr.com/65535/50022533598_d35385307f_n.jpg",
    "id_album": "-353898617",
    "description": "Puppy_993384",
    "title": "Puppy_993384",
    "link_img": "https://live.staticflickr.com/65535/50022533598_5b39437821_o.jpg",
    "id_image": "Puppy_993384",
    "count_view": 0
  },
  {
    "link_thumb": "https://live.staticflickr.com/65535/50021674241_6c9ff477e5_n.jpg",
    "id_album": "1658866795",
    "description": "Insect_397265",
    "title": "Insect_397265",
    "link_img": "https://live.staticflickr.com/65535/50021674241_e84052b26d_o.jpg",
    "id_image": "Insect_397265",
    "count_view": 0
  },
  {
    "link_thumb": "https://live.staticflickr.com/65535/50017349672_326d705387_n.jpg",
    "id_album": "-422187261",
    "description": "Bear_854684",
    "title": "Bear_854684",
    "link_img": "https://live.staticflickr.com/65535/50017349672_0f259fc520_o.jpg",
    "id_image": "Bear_854684",
    "count_view": 0
  },
  {
    "link_thumb": "https://live.staticflickr.com/65535/50016938791_bc2d6cf3f4_n.jpg",
    "id_album": "390697200",
    "description": "AustralianShepherd_853259",
    "title": "AustralianShepherd_853259",
    "link_img": "https://live.staticflickr.com/65535/50016938791_eaf8366b3c_o.jpg",
    "id_image": "AustralianShepherd_853259",
    "count_view": 0
  },
  {
    "link_thumb": "https://live.staticflickr.com/65535/50020542781_248decb896_n.jpg",
    "id_album": "-149330231",
    "description": "Dog_911236",
    "title": "Dog_911236",
    "link_img": "https://live.staticflickr.com/65535/50020542781_40efaf424d_o.jpg",
    "id_image": "Dog_911236",
    "count_view": 0
  },
  {
    "link_thumb": "https://live.staticflickr.com/65535/50018964923_691085ec98_n.jpg",
    "id_album": "-462831703",
    "description": "Cat_938148",
    "title": "Cat_938148",
    "link_img": "https://live.staticflickr.com/65535/50018964923_1d588ddf5b_o.jpg",
    "id_image": "Cat_938148",
    "count_view": 0
  },
  {
    "link_thumb": "https://live.staticflickr.com/65535/50020617417_f38ff40eed_n.jpg",
    "id_album": "-149330231",
    "description": "Dog_382686",
    "title": "Dog_382686",
    "link_img": "https://live.staticflickr.com/65535/50020617417_7f09830055_o.jpg",
    "id_image": "Dog_382686",
    "count_view": 0
  },
  {
    "link_thumb": "https://live.staticflickr.com/65535/50019620486_d6bb6c00ef_n.jpg",
    "id_album": "1889777354",
    "description": "CGI_184260",
    "title": "CGI_184260",
    "link_img": "https://live.staticflickr.com/65535/50019620486_3bfb41b243_o.jpg",
    "id_image": "CGI_184260",
    "count_view": 0
  },
  {
    "link_thumb": "https://live.staticflickr.com/65535/50017540923_189141cd18_n.jpg",
    "id_album": "-462831702",
    "description": "Cat_364749",
    "title": "Cat_364749",
    "link_img": "https://live.staticflickr.com/65535/50017540923_5014eda1d6_o.jpg",
    "id_image": "Cat_364749",
    "count_view": 0
  },
  {
    "link_thumb": "https://live.staticflickr.com/65535/50021101201_9678fc981c_n.jpg",
    "id_album": "-462831704",
    "description": "Cat_543333",
    "title": "Cat_543333",
    "link_img": "https://live.staticflickr.com/65535/50021101201_6f7e018a5f_o.jpg",
    "id_image": "Cat_543333",
    "count_view": 0
  },
  {
    "link_thumb": "https://live.staticflickr.com/65535/50023412607_b49ab55c39_n.jpg",
    "id_album": "248289288",
    "description": "Raccoon_596047",
    "title": "Raccoon_596047",
    "link_img": "https://live.staticflickr.com/65535/50023412607_f68a9bdf89_o.jpg",
    "id_image": "Raccoon_596047",
    "count_view": 0
  },
  {
    "link_thumb": "https://live.staticflickr.com/65535/50017462786_69061d4b53_n.jpg",
    "id_album": "-530283314",
    "description": "BlueandyellowMacaw_357509",
    "title": "BlueandyellowMacaw_357509",
    "link_img": "https://live.staticflickr.com/65535/50017462786_81f737c044_o.jpg",
    "id_image": "BlueandyellowMacaw_357509",
    "count_view": 0
  },
  {
    "link_thumb": "https://live.staticflickr.com/65535/50019795436_28f2823a27_n.jpg",
    "id_album": "-1462118852",
    "description": "Corgi_852156",
    "title": "Corgi_852156",
    "link_img": "https://live.staticflickr.com/65535/50019795436_7c22d6f5f8_o.jpg",
    "id_image": "Corgi_852156",
    "count_view": 0
  },
  {
    "link_thumb": "https://live.staticflickr.com/65535/50022365602_b54e7bb8a5_n.jpg",
    "id_album": "-656526748",
    "description": "Lizard_326402",
    "title": "Lizard_326402",
    "link_img": "https://live.staticflickr.com/65535/50022365602_02ccbea028_o.jpg",
    "id_image": "Lizard_326402",
    "count_view": 0
  },
  {
    "link_thumb": "https://live.staticflickr.com/65535/50019770771_40ddf0f11a_n.jpg",
    "id_album": "791455625",
    "description": "Chipmunk_816826",
    "title": "Chipmunk_816826",
    "link_img": "https://live.staticflickr.com/65535/50019770771_4ca25b5e7a_o.jpg",
    "id_image": "Chipmunk_816826",
    "count_view": 0
  },
  {
    "link_thumb": "https://live.staticflickr.com/65535/50019713158_25f843fb81_n.jpg",
    "id_album": "-149330232",
    "description": "Dog_325771",
    "title": "Dog_325771",
    "link_img": "https://live.staticflickr.com/65535/50019713158_bcd04b3e4d_o.jpg",
    "id_image": "Dog_325771",
    "count_view": 0
  },
  {
    "link_thumb": "https://live.staticflickr.com/65535/50016577658_dcf5b89d1c_n.jpg",
    "id_album": "-422187261",
    "description": "Bear_929280",
    "title": "Bear_929280",
    "link_img": "https://live.staticflickr.com/65535/50016577658_79e602208e_o.jpg",
    "id_image": "Bear_929280",
    "count_view": 0
  },
  {
    "link_thumb": "https://live.staticflickr.com/65535/50023753053_2f2260bfc8_n.jpg",
    "id_album": "46520366",
    "description": "Turtle_123677",
    "title": "Turtle_123677",
    "link_img": "https://live.staticflickr.com/65535/50023753053_cb518f419b_o.jpg",
    "id_image": "Turtle_123677",
    "count_view": 0
  },
  {
    "link_thumb": "https://live.staticflickr.com/65535/50352508406_1001110bf3_n.jpg",
    "id_album": "-462831703",
    "description": "Cat_422953",
    "title": "Cat_422953",
    "link_img": "https://live.staticflickr.com/65535/50352508406_9e8aac0cc4_o.jpg",
    "id_image": "Cat_422953",
    "count_view": 0
  },
  {
    "link_thumb": "https://live.staticflickr.com/65535/50018305197_2a699c8eda_n.jpg",
    "id_album": "-462831702",
    "description": "Cat_357051",
    "title": "Cat_357051",
    "link_img": "https://live.staticflickr.com/65535/50018305197_52e0ee77a7_o.jpg",
    "id_image": "Cat_357051",
    "count_view": 0
  },
  {
    "link_thumb": "https://live.staticflickr.com/65535/50021347256_18aec94ee5_n.jpg",
    "id_album": "2060159334",
    "description": "GoldenRetriever_412294",
    "title": "GoldenRetriever_412294",
    "link_img": "https://live.staticflickr.com/65535/50021347256_82cd6a831a_o.jpg",
    "id_image": "GoldenRetriever_412294",
    "count_view": 0
  },
  {
    "link_thumb": "https://live.staticflickr.com/65535/50020513328_88dd75d05d_n.jpg",
    "id_album": "844170697",
    "description": "Frog_334564",
    "title": "Frog_334564",
    "link_img": "https://live.staticflickr.com/65535/50020513328_93109d7dde_o.jpg",
    "id_image": "Frog_334564",
    "count_view": 0
  },
  {
    "link_thumb": "https://live.staticflickr.com/65535/50016333028_3c881f4d01_n.jpg",
    "id_album": "523598895",
    "description": "Artistic_113072",
    "title": "Artistic_113072",
    "link_img": "https://live.staticflickr.com/65535/50016333028_aa10c57da1_o.jpg",
    "id_image": "Artistic_113072",
    "count_view": 0
  },
  {
    "link_thumb": "https://live.staticflickr.com/65535/50024333456_1cc3128db2_n.jpg",
    "id_album": "46520366",
    "description": "Turtle_997261",
    "title": "Turtle_997261",
    "link_img": "https://live.staticflickr.com/65535/50024333456_26c1aa1952_o.jpg",
    "id_image": "Turtle_997261",
    "count_view": 0
  },
  {
    "link_thumb": "https://live.staticflickr.com/65535/50020721253_06d3f37efb_n.jpg",
    "id_album": "-462831703",
    "description": "Cat_817073",
    "title": "Cat_817073",
    "link_img": "https://live.staticflickr.com/65535/50020721253_907a14d160_o.jpg",
    "id_image": "Cat_817073",
    "count_view": 0
  },
  {
    "link_thumb": "https://live.staticflickr.com/65535/50023868437_4e873ae8bd_n.jpg",
    "id_album": "-1182356179",
    "description": "Snake_817964",
    "title": "Snake_817964",
    "link_img": "https://live.staticflickr.com/65535/50023868437_0d30e0b80e_o.jpg",
    "id_image": "Snake_817964",
    "count_view": 0
  },
  {
    "link_thumb": "https://live.staticflickr.com/65535/50022927781_3e146ed366_n.jpg",
    "id_album": "-356780855",
    "description": "Puffin_546583",
    "title": "Puffin_546583",
    "link_img": "https://live.staticflickr.com/65535/50022927781_ab88e97684_o.jpg",
    "id_image": "Puffin_546583",
    "count_view": 0
  },
  {
    "link_thumb": "https://live.staticflickr.com/65535/50020448516_1243b67dd0_n.jpg",
    "id_album": "-149330231",
    "description": "Dog_522971",
    "title": "Dog_522971",
    "link_img": "https://live.staticflickr.com/65535/50020448516_cfb188e44a_o.jpg",
    "id_image": "Dog_522971",
    "count_view": 0
  },
  {
    "link_thumb": "https://live.staticflickr.com/65535/50022405782_5f94e3c897_n.jpg",
    "id_album": "1894617400",
    "description": "Lynx_426767",
    "title": "Lynx_426767",
    "link_img": "https://live.staticflickr.com/65535/50022405782_1135c86c77_o.jpg",
    "id_image": "Lynx_426767",
    "count_view": 0
  },
  {
    "link_thumb": "https://live.staticflickr.com/65535/50022074842_064d954dfe_n.jpg",
    "id_album": "771796001",
    "description": "Koala_545329",
    "title": "Koala_545329",
    "link_img": "https://live.staticflickr.com/65535/50022074842_836f89383d_o.jpg",
    "id_image": "Koala_545329",
    "count_view": 0
  },
  {
    "link_thumb": "https://live.staticflickr.com/65535/50024060606_0c3f2ff509_n.jpg",
    "id_album": "405170427",
    "description": "Tiger_324170",
    "title": "Tiger_324170",
    "link_img": "https://live.staticflickr.com/65535/50024060606_f140eeb422_o.jpg",
    "id_image": "Tiger_324170",
    "count_view": 0
  },
  {
    "link_thumb": "https://live.staticflickr.com/65535/50020191713_21bbabd20b_n.jpg",
    "id_album": "-39098563",
    "description": "Eagle_950829",
    "title": "Eagle_950829",
    "link_img": "https://live.staticflickr.com/65535/50020191713_4402e3e54e_o.jpg",
    "id_image": "Eagle_950829",
    "count_view": 0
  },
  {
    "link_thumb": "https://live.staticflickr.com/65535/50021309253_23d225cdd5_n.jpg",
    "id_album": "-1882491687",
    "description": "Ladybug_437042",
    "title": "Ladybug_437042",
    "link_img": "https://live.staticflickr.com/65535/50021309253_5b54c73639_o.jpg",
    "id_image": "Ladybug_437042",
    "count_view": 0
  },
  {
    "link_thumb": "https://live.staticflickr.com/65535/50021249126_77b038fe9c_n.jpg",
    "id_album": "-462831703",
    "description": "Cat_789854",
    "title": "Cat_789854",
    "link_img": "https://live.staticflickr.com/65535/50021249126_7c66e21257_o.jpg",
    "id_image": "Cat_789854",
    "count_view": 0
  },
  {
    "link_thumb": "https://live.staticflickr.com/65535/50020448307_10b57f5418_n.jpg",
    "id_album": "-149330232",
    "description": "Dog_262457",
    "title": "Dog_262457",
    "link_img": "https://live.staticflickr.com/65535/50020448307_ed915d5f78_o.jpg",
    "id_image": "Dog_262457",
    "count_view": 0
  },
  {
    "link_thumb": "https://live.staticflickr.com/65535/50021419961_7df6271d2d_n.jpg",
    "id_album": "-1513987841",
    "description": "Hawk_347990",
    "title": "Hawk_347990",
    "link_img": "https://live.staticflickr.com/65535/50021419961_ed1f099175_o.jpg",
    "id_image": "Hawk_347990",
    "count_view": 0
  },
  {
    "link_thumb": "https://live.staticflickr.com/65535/50017193473_049fb0f1ee_n.jpg",
    "id_album": "-401151552",
    "description": "Butterfly_983502",
    "title": "Butterfly_983502",
    "link_img": "https://live.staticflickr.com/65535/50017193473_93e1c0b6bd_o.jpg",
    "id_image": "Butterfly_983502",
    "count_view": 0
  },
  {
    "link_thumb": "https://live.staticflickr.com/65535/50021678562_7ec686944f_n.jpg",
    "id_album": "-1513987841",
    "description": "Hawk_703464",
    "title": "Hawk_703464",
    "link_img": "https://live.staticflickr.com/65535/50021678562_e45c017dc5_o.jpg",
    "id_image": "Hawk_703464",
    "count_view": 0
  },
  {
    "link_thumb": "https://live.staticflickr.com/65535/50017612692_dddba3cbff_n.jpg",
    "id_album": "-1846011410",
    "description": "Bird_496311",
    "title": "Bird_496311",
    "link_img": "https://live.staticflickr.com/65535/50017612692_4dd49113eb_o.jpg",
    "id_image": "Bird_496311",
    "count_view": 0
  },
  {
    "link_thumb": "https://live.staticflickr.com/65535/50019636916_e317b9ce74_n.jpg",
    "id_album": "-766919393",
    "description": "Chameleon_249756",
    "title": "Chameleon_249756",
    "link_img": "https://live.staticflickr.com/65535/50019636916_1d2aff4ae4_o.jpg",
    "id_image": "Chameleon_249756",
    "count_view": 0
  },
  {
    "link_thumb": "https://live.staticflickr.com/65535/50022721938_bf1406ed33_n.jpg",
    "id_album": "48367914",
    "description": "Rhino_247367",
    "title": "Rhino_247367",
    "link_img": "https://live.staticflickr.com/65535/50022721938_e8bc7e6343_o.jpg",
    "id_image": "Rhino_247367",
    "count_view": 0
  },
  {
    "link_thumb": "https://live.staticflickr.com/65535/50018933288_d963c299d5_n.jpg",
    "id_album": "-462831703",
    "description": "Cat_916565",
    "title": "Cat_916565",
    "link_img": "https://live.staticflickr.com/65535/50018933288_85b3d6bfe7_o.jpg",
    "id_image": "Cat_916565",
    "count_view": 0
  },
  {
    "link_thumb": "https://live.staticflickr.com/65535/50017107822_40baec958d_n.jpg",
    "id_album": "-834314226",
    "description": "ArcticFox_565202",
    "title": "ArcticFox_565202",
    "link_img": "https://live.staticflickr.com/65535/50017107822_9570900f32_o.jpg",
    "id_image": "ArcticFox_565202",
    "count_view": 0
  },
  {
    "link_thumb": "https://live.staticflickr.com/65535/50022529933_6535846f5d_n.jpg",
    "id_album": "-353898617",
    "description": "Puppy_923387",
    "title": "Puppy_923387",
    "link_img": "https://live.staticflickr.com/65535/50022529933_ebf539576f_o.jpg",
    "id_image": "Puppy_923387",
    "count_view": 0
  },
  {
    "link_thumb": "https://live.staticflickr.com/65535/50016987663_4ccd12a222_n.jpg",
    "id_album": "782930701",
    "description": "BorderCollie_978402",
    "title": "BorderCollie_978402",
    "link_img": "https://live.staticflickr.com/65535/50016987663_94d4918316_o.jpg",
    "id_image": "BorderCollie_978402",
    "count_view": 0
  },
  {
    "link_thumb": "https://live.staticflickr.com/65535/50019579217_c467f6e304_n.jpg",
    "id_album": "-462831703",
    "description": "Cat_852527",
    "title": "Cat_852527",
    "link_img": "https://live.staticflickr.com/65535/50019579217_ab95b4d4af_o.jpg",
    "id_image": "Cat_852527",
    "count_view": 0
  },
  {
    "link_thumb": "https://live.staticflickr.com/65535/50017184197_8ece08ac50_n.jpg",
    "id_album": "523598895",
    "description": "Artistic_912045",
    "title": "Artistic_912045",
    "link_img": "https://live.staticflickr.com/65535/50017184197_587950d486_o.jpg",
    "id_image": "Artistic_912045",
    "count_view": 0
  },
  {
    "link_thumb": "https://live.staticflickr.com/65535/50021644613_96415f1281_n.jpg",
    "id_album": "-1720012921",
    "description": "Meerkat_535225",
    "title": "Meerkat_535225",
    "link_img": "https://live.staticflickr.com/65535/50021644613_9abc94cdff_o.jpg",
    "id_image": "Meerkat_535225",
    "count_view": 0
  },
  {
    "link_thumb": "https://live.staticflickr.com/65535/50351821138_9a8fda86f0_n.jpg",
    "id_album": "-462831703",
    "description": "Cat_433177",
    "title": "Cat_433177",
    "link_img": "https://live.staticflickr.com/65535/50351821138_b4703235df_o.jpg",
    "id_image": "Cat_433177",
    "count_view": 0
  },
  {
    "link_thumb": "https://live.staticflickr.com/65535/50020109496_2391aa8603_n.jpg",
    "id_album": "297232732",
    "description": "Dinosaur_958528",
    "title": "Dinosaur_958528",
    "link_img": "https://live.staticflickr.com/65535/50020109496_f8980ce72b_o.jpg",
    "id_image": "Dinosaur_958528",
    "count_view": 0
  },
  {
    "link_thumb": "https://live.staticflickr.com/65535/50018350297_28248f8117_n.jpg",
    "id_album": "-462831702",
    "description": "Cat_369502",
    "title": "Cat_369502",
    "link_img": "https://live.staticflickr.com/65535/50018350297_9c3d1ac674_o.jpg",
    "id_image": "Cat_369502",
    "count_view": 0
  },
  {
    "link_thumb": "https://live.staticflickr.com/65535/50024123406_65b80a39a3_n.jpg",
    "id_album": "405170427",
    "description": "Tiger_414545",
    "title": "Tiger_414545",
    "link_img": "https://live.staticflickr.com/65535/50024123406_2c5e775c48_o.jpg",
    "id_image": "Tiger_414545",
    "count_view": 0
  },
  {
    "link_thumb": "https://live.staticflickr.com/65535/50020736882_20f91e9bae_n.jpg",
    "id_album": "-149330231",
    "description": "Dog_685820",
    "title": "Dog_685820",
    "link_img": "https://live.staticflickr.com/65535/50020736882_a070439cfc_o.jpg",
    "id_image": "Dog_685820",
    "count_view": 0
  },
  {
    "link_thumb": "https://live.staticflickr.com/65535/50022186187_385280fe8a_n.jpg",
    "id_album": "1392348450",
    "description": "Leopard_452066",
    "title": "Leopard_452066",
    "link_img": "https://live.staticflickr.com/65535/50022186187_baa2a2a3a8_o.jpg",
    "id_image": "Leopard_452066",
    "count_view": 0
  },
  {
    "link_thumb": "https://live.staticflickr.com/65535/50021498997_09fd8c194e_n.jpg",
    "id_album": "-462831703",
    "description": "Cat_785818",
    "title": "Cat_785818",
    "link_img": "https://live.staticflickr.com/65535/50021498997_3f70a63e64_o.jpg",
    "id_image": "Cat_785818",
    "count_view": 0
  },
  {
    "link_thumb": "https://live.staticflickr.com/65535/50020630007_e60f06c44d_n.jpg",
    "id_album": "-149330231",
    "description": "Dog_394865",
    "title": "Dog_394865",
    "link_img": "https://live.staticflickr.com/65535/50020630007_065b53009b_o.jpg",
    "id_image": "Dog_394865",
    "count_view": 0
  },
  {
    "link_thumb": "https://live.staticflickr.com/65535/50021843933_87f6c0c1af_n.jpg",
    "id_album": "-1384601601",
    "description": "Owl_300216",
    "title": "Owl_300216",
    "link_img": "https://live.staticflickr.com/65535/50021843933_6408f06a00_o.jpg",
    "id_image": "Owl_300216",
    "count_view": 0
  },
  {
    "link_thumb": "https://live.staticflickr.com/65535/50022811828_6cfe925e4c_n.jpg",
    "id_album": "1656131695",
    "description": "Seagull_353103",
    "title": "Seagull_353103",
    "link_img": "https://live.staticflickr.com/65535/50022811828_7932fe49cc_o.jpg",
    "id_image": "Seagull_353103",
    "count_view": 0
  },
  {
    "link_thumb": "https://live.staticflickr.com/65535/50021121476_440dc36158_n.jpg",
    "id_album": "-462831704",
    "description": "Cat_571336",
    "title": "Cat_571336",
    "link_img": "https://live.staticflickr.com/65535/50021121476_9910672e3f_o.jpg",
    "id_image": "Cat_571336",
    "count_view": 0
  },
  {
    "link_thumb": "https://live.staticflickr.com/65535/50020036178_17b4fd3e89_n.jpg",
    "id_album": "-54509188",
    "description": "Dolphin_346552",
    "title": "Dolphin_346552",
    "link_img": "https://live.staticflickr.com/65535/50020036178_55587f8536_o.jpg",
    "id_image": "Dolphin_346552",
    "count_view": 0
  },
  {
    "link_thumb": "https://live.staticflickr.com/65535/50019764218_2fa429a6f5_n.jpg",
    "id_album": "-149330232",
    "description": "Dog_349466",
    "title": "Dog_349466",
    "link_img": "https://live.staticflickr.com/65535/50019764218_f7130ea7ed_o.jpg",
    "id_image": "Dog_349466",
    "count_view": 0
  },
  {
    "link_thumb": "https://live.staticflickr.com/65535/50020460136_028437e221_n.jpg",
    "id_album": "-149330231",
    "description": "Dog_569759",
    "title": "Dog_569759",
    "link_img": "https://live.staticflickr.com/65535/50020460136_e9f5bca29d_o.jpg",
    "id_image": "Dog_569759",
    "count_view": 0
  },
  {
    "link_thumb": "https://live.staticflickr.com/65535/50021963051_9c021d15af_n.jpg",
    "id_album": "1392348450",
    "description": "Leopard_987030",
    "title": "Leopard_987030",
    "link_img": "https://live.staticflickr.com/65535/50021963051_7a6c3c5fd1_o.jpg",
    "id_image": "Leopard_987030",
    "count_view": 0
  },
  {
    "link_thumb": "https://live.staticflickr.com/65535/50021400431_1dbe1016ed_n.jpg",
    "id_album": "-1168906494",
    "description": "Grasshopper_390453",
    "title": "Grasshopper_390453",
    "link_img": "https://live.staticflickr.com/65535/50021400431_b93e2d972e_o.jpg",
    "id_image": "Grasshopper_390453",
    "count_view": 0
  },
  {
    "link_thumb": "https://live.staticflickr.com/65535/50021249341_409c3c8e6a_n.jpg",
    "id_album": "-462831703",
    "description": "Cat_790126",
    "title": "Cat_790126",
    "link_img": "https://live.staticflickr.com/65535/50021249341_cea090434d_o.jpg",
    "id_image": "Cat_790126",
    "count_view": 0
  },
  {
    "link_thumb": "https://live.staticflickr.com/65535/50021262016_10429c8b89_n.jpg",
    "id_album": "-462831705",
    "description": "Cat_81453",
    "title": "Cat_81453",
    "link_img": "https://live.staticflickr.com/65535/50021262016_4261e8a6b0_o.jpg",
    "id_image": "Cat_81453",
    "count_view": 0
  },
  {
    "link_thumb": "https://live.staticflickr.com/65535/50021210681_f28d12092b_n.jpg",
    "id_album": "-462831704",
    "description": "Cat_729700",
    "title": "Cat_729700",
    "link_img": "https://live.staticflickr.com/65535/50021210681_4ffe8afbcf_o.jpg",
    "id_image": "Cat_729700",
    "count_view": 0
  },
  {
    "link_thumb": "https://live.staticflickr.com/65535/50019349316_d57377f67d_n.jpg",
    "id_album": "-462831705",
    "description": "Cat_86706",
    "title": "Cat_86706",
    "link_img": "https://live.staticflickr.com/65535/50019349316_38f824d291_o.jpg",
    "id_image": "Cat_86706",
    "count_view": 0
  },
  {
    "link_thumb": "https://live.staticflickr.com/65535/50016852701_ab810b4a37_n.jpg",
    "id_album": "-834314226",
    "description": "ArcticFox_811191",
    "title": "ArcticFox_811191",
    "link_img": "https://live.staticflickr.com/65535/50016852701_44d837bf50_o.jpg",
    "id_image": "ArcticFox_811191",
    "count_view": 0
  },
  {
    "link_thumb": "https://live.staticflickr.com/65535/50018146057_6404e60244_n.jpg",
    "id_album": "-462831705",
    "description": "Cat_236388",
    "title": "Cat_236388",
    "link_img": "https://live.staticflickr.com/65535/50018146057_c392706aef_o.jpg",
    "id_image": "Cat_236388",
    "count_view": 0
  },
  {
    "link_thumb": "https://live.staticflickr.com/65535/50020915307_b66a443a48_n.jpg",
    "id_album": "1168627767",
    "description": "Duck_428615",
    "title": "Duck_428615",
    "link_img": "https://live.staticflickr.com/65535/50020915307_a54ba97883_o.jpg",
    "id_image": "Duck_428615",
    "count_view": 0
  },
  {
    "link_thumb": "https://live.staticflickr.com/65535/50020257491_8c03ef9237_n.jpg",
    "id_album": "-149330232",
    "description": "Dog_332105",
    "title": "Dog_332105",
    "link_img": "https://live.staticflickr.com/65535/50020257491_efd708625e_o.jpg",
    "id_image": "Dog_332105",
    "count_view": 0
  },
  {
    "link_thumb": "https://live.staticflickr.com/65535/50023033566_8d5c802115_n.jpg",
    "id_album": "-353898617",
    "description": "Puppy_590738",
    "title": "Puppy_590738",
    "link_img": "https://live.staticflickr.com/65535/50023033566_a6c93c92cd_o.jpg",
    "id_image": "Puppy_590738",
    "count_view": 0
  },
  {
    "link_thumb": "https://live.staticflickr.com/65535/50023628621_d2a4771b63_n.jpg",
    "id_album": "-1131363127",
    "description": "SnowLeopard_327433",
    "title": "SnowLeopard_327433",
    "link_img": "https://live.staticflickr.com/65535/50023628621_bee5c33ec4_o.jpg",
    "id_image": "SnowLeopard_327433",
    "count_view": 0
  },
  {
    "link_thumb": "https://live.staticflickr.com/65535/50018304207_73b0557f90_n.jpg",
    "id_album": "-462831702",
    "description": "Cat_356545",
    "title": "Cat_356545",
    "link_img": "https://live.staticflickr.com/65535/50018304207_7be22e668b_o.jpg",
    "id_image": "Cat_356545",
    "count_view": 0
  },
  {
    "link_thumb": "https://live.staticflickr.com/65535/50016661353_90ca66817f_n.jpg",
    "id_album": "325287329",
    "description": "Beetle_529442",
    "title": "Beetle_529442",
    "link_img": "https://live.staticflickr.com/65535/50016661353_9911869594_o.jpg",
    "id_image": "Beetle_529442",
    "count_view": 0
  },
  {
    "link_thumb": "https://live.staticflickr.com/65535/50017041548_0fa1a03e20_n.jpg",
    "id_album": "-401151552",
    "description": "Butterfly_354138",
    "title": "Butterfly_354138",
    "link_img": "https://live.staticflickr.com/65535/50017041548_a01bac2838_o.jpg",
    "id_image": "Butterfly_354138",
    "count_view": 0
  },
  {
    "link_thumb": "https://live.staticflickr.com/65535/50023712298_d986090699_n.jpg",
    "id_album": "405170427",
    "description": "Tiger_995497",
    "title": "Tiger_995497",
    "link_img": "https://live.staticflickr.com/65535/50023712298_9fdfdb894d_o.jpg",
    "id_image": "Tiger_995497",
    "count_view": 0
  },
  {
    "link_thumb": "https://live.staticflickr.com/65535/50017354597_67da137819_n.jpg",
    "id_album": "-422187261",
    "description": "Bear_869893",
    "title": "Bear_869893",
    "link_img": "https://live.staticflickr.com/65535/50017354597_3ee9efa079_o.jpg",
    "id_image": "Bear_869893",
    "count_view": 0
  },
  {
    "link_thumb": "https://live.staticflickr.com/65535/50017338553_6569668ddd_n.jpg",
    "id_album": "-462831705",
    "description": "Cat_217157",
    "title": "Cat_217157",
    "link_img": "https://live.staticflickr.com/65535/50017338553_2736792f19_o.jpg",
    "id_image": "Cat_217157",
    "count_view": 0
  },
  {
    "link_thumb": "https://live.staticflickr.com/65535/50024412497_4275f03047_n.jpg",
    "id_album": "405170427",
    "description": "Tiger_530754",
    "title": "Tiger_530754",
    "link_img": "https://live.staticflickr.com/65535/50024412497_22943e2e63_o.jpg",
    "id_image": "Tiger_530754",
    "count_view": 0
  },
  {
    "link_thumb": "https://live.staticflickr.com/65535/50020964321_45a1d05f66_n.jpg",
    "id_album": "-128218148",
    "description": "Fox_425488",
    "title": "Fox_425488",
    "link_img": "https://live.staticflickr.com/65535/50020964321_f1973674f2_o.jpg",
    "id_image": "Fox_425488",
    "count_view": 0
  },
  {
    "link_thumb": "https://live.staticflickr.com/65535/50017131021_6f7357022f_n.jpg",
    "id_album": "1699594607",
    "description": "Bee_366993",
    "title": "Bee_366993",
    "link_img": "https://live.staticflickr.com/65535/50017131021_b52d49d035_o.jpg",
    "id_image": "Bee_366993",
    "count_view": 0
  },
  {
    "link_thumb": "https://live.staticflickr.com/65535/50020764502_74fdeb1121_n.jpg",
    "id_album": "-149330231",
    "description": "Dog_755454",
    "title": "Dog_755454",
    "link_img": "https://live.staticflickr.com/65535/50020764502_2949c27515_o.jpg",
    "id_image": "Dog_755454",
    "count_view": 0
  },
  {
    "link_thumb": "https://live.staticflickr.com/65535/50352650012_45e7e49d4a_n.jpg",
    "id_album": "-462831703",
    "description": "Cat_393885",
    "title": "Cat_393885",
    "link_img": "https://live.staticflickr.com/65535/50352650012_1c72f3a6e7_o.jpg",
    "id_image": "Cat_393885",
    "count_view": 0
  },
  {
    "link_thumb": "https://live.staticflickr.com/65535/50021595678_967bda24a4_n.jpg",
    "id_album": "1894617400",
    "description": "Lynx_365128",
    "title": "Lynx_365128",
    "link_img": "https://live.staticflickr.com/65535/50021595678_8eebb38713_o.jpg",
    "id_image": "Lynx_365128",
    "count_view": 0
  },
  {
    "link_thumb": "https://live.staticflickr.com/65535/50016829411_145577c80f_n.jpg",
    "id_album": "-229810103",
    "description": "AmericanBison_934219",
    "title": "AmericanBison_934219",
    "link_img": "https://live.staticflickr.com/65535/50016829411_aa11fa2713_o.jpg",
    "id_image": "AmericanBison_934219",
    "count_view": 0
  },
  {
    "link_thumb": "https://live.staticflickr.com/65535/50018803678_c335e2df45_n.jpg",
    "id_album": "-462831703",
    "description": "Cat_861515",
    "title": "Cat_861515",
    "link_img": "https://live.staticflickr.com/65535/50018803678_3bc8584a6e_o.jpg",
    "id_image": "Cat_861515",
    "count_view": 0
  },
  {
    "link_thumb": "https://live.staticflickr.com/65535/50021638827_8981b65ff3_n.jpg",
    "id_album": "-817970789",
    "description": "Goose_667665",
    "title": "Goose_667665",
    "link_img": "https://live.staticflickr.com/65535/50021638827_dac236f14d_o.jpg",
    "id_image": "Goose_667665",
    "count_view": 0
  },
  {
    "link_thumb": "https://live.staticflickr.com/65535/50021303998_f40a8ac6c7_n.jpg",
    "id_album": "-1882491687",
    "description": "Ladybug_380917",
    "title": "Ladybug_380917",
    "link_img": "https://live.staticflickr.com/65535/50021303998_4c4891a104_o.jpg",
    "id_image": "Ladybug_380917",
    "count_view": 0
  },
  {
    "link_thumb": "https://live.staticflickr.com/65535/50019708982_9865310e4e_n.jpg",
    "id_album": "-462831705",
    "description": "Cat_91408",
    "title": "Cat_91408",
    "link_img": "https://live.staticflickr.com/65535/50019708982_83fc9f6a95_o.jpg",
    "id_image": "Cat_91408",
    "count_view": 0
  },
  {
    "link_thumb": "https://live.staticflickr.com/65535/50017148706_758785f8d9_n.jpg",
    "id_album": "1699594607",
    "description": "Bee_584284",
    "title": "Bee_584284",
    "link_img": "https://live.staticflickr.com/65535/50017148706_b77d6bae3c_o.jpg",
    "id_image": "Bee_584284",
    "count_view": 0
  },
  {
    "link_thumb": "https://live.staticflickr.com/65535/50022059016_0baf165c48_n.jpg",
    "id_album": "416744915",
    "description": "Lion_777475",
    "title": "Lion_777475",
    "link_img": "https://live.staticflickr.com/65535/50022059016_994617c75a_o.jpg",
    "id_image": "Lion_777475",
    "count_view": 0
  },
  {
    "link_thumb": "https://live.staticflickr.com/65535/50019787772_3df5817332_n.jpg",
    "id_album": "-462831703",
    "description": "Cat_965285",
    "title": "Cat_965285",
    "link_img": "https://live.staticflickr.com/65535/50019787772_3e1bd9d12b_o.jpg",
    "id_image": "Cat_965285",
    "count_view": 0
  },
  {
    "link_thumb": "https://live.staticflickr.com/65535/50020773703_b3d7cc1a71_n.jpg",
    "id_album": "-405626519",
    "description": "GermanShepherd_996795",
    "title": "GermanShepherd_996795",
    "link_img": "https://live.staticflickr.com/65535/50020773703_c433429a3e_o.jpg",
    "id_image": "GermanShepherd_996795",
    "count_view": 0
  },
  {
    "link_thumb": "https://live.staticflickr.com/65535/50020349481_168edbd490_n.jpg",
    "id_album": "-149330232",
    "description": "Dog_375292",
    "title": "Dog_375292",
    "link_img": "https://live.staticflickr.com/65535/50020349481_83aa1b6fea_o.jpg",
    "id_image": "Dog_375292",
    "count_view": 0
  },
  {
    "link_thumb": "https://live.staticflickr.com/65535/50017408543_29a8d2ab2c_n.jpg",
    "id_album": "-462831702",
    "description": "Cat_284192",
    "title": "Cat_284192",
    "link_img": "https://live.staticflickr.com/65535/50017408543_475d362c6b_o.jpg",
    "id_image": "Cat_284192",
    "count_view": 0
  },
  {
    "link_thumb": "https://live.staticflickr.com/65535/50020874133_6f4ca2d115_n.jpg",
    "id_album": "109779448",
    "description": "Hare_792334",
    "title": "Hare_792334",
    "link_img": "https://live.staticflickr.com/65535/50020874133_576cbf0618_o.jpg",
    "id_image": "Hare_792334",
    "count_view": 0
  },
  {
    "link_thumb": "https://live.staticflickr.com/65535/50017830991_0dc07a09a8_n.jpg",
    "id_album": "-462831705",
    "description": "Cat_185594",
    "title": "Cat_185594",
    "link_img": "https://live.staticflickr.com/65535/50017830991_05f80c0587_o.jpg",
    "id_image": "Cat_185594",
    "count_view": 0
  },
  {
    "link_thumb": "https://live.staticflickr.com/65535/50018852583_faa7f8960a_n.jpg",
    "id_album": "-462831703",
    "description": "Cat_878538",
    "title": "Cat_878538",
    "link_img": "https://live.staticflickr.com/65535/50018852583_15b27aa8ed_o.jpg",
    "id_image": "Cat_878538",
    "count_view": 0
  },
  {
    "link_thumb": "https://live.staticflickr.com/65535/50022746093_e8189b4cdd_n.jpg",
    "id_album": "48367914",
    "description": "Rhino_456551",
    "title": "Rhino_456551",
    "link_img": "https://live.staticflickr.com/65535/50022746093_c6a11903af_o.jpg",
    "id_image": "Rhino_456551",
    "count_view": 0
  },
  {
    "link_thumb": "https://live.staticflickr.com/65535/50024744357_42bb030d11_n.jpg",
    "id_album": "-709711865",
    "description": "Wolf_349882",
    "title": "Wolf_349882",
    "link_img": "https://live.staticflickr.com/65535/50024744357_a759779c69_o.jpg",
    "id_image": "Wolf_349882",
    "count_view": 0
  },
  {
    "link_thumb": "https://live.staticflickr.com/65535/50022182632_0566677948_n.jpg",
    "id_album": "1392348450",
    "description": "Leopard_427513",
    "title": "Leopard_427513",
    "link_img": "https://live.staticflickr.com/65535/50022182632_6c3af32644_o.jpg",
    "id_image": "Leopard_427513",
    "count_view": 0
  },
  {
    "link_thumb": "https://live.staticflickr.com/65535/50022988701_393c3ee478_n.jpg",
    "id_album": "-353898617",
    "description": "Puppy_413096",
    "title": "Puppy_413096",
    "link_img": "https://live.staticflickr.com/65535/50022988701_1d40818f58_o.jpg",
    "id_image": "Puppy_413096",
    "count_view": 0
  },
  {
    "link_thumb": "https://live.staticflickr.com/65535/50017728721_8cceb144eb_n.jpg",
    "id_album": "-1131161368",
    "description": "Camel_882606",
    "title": "Camel_882606",
    "link_img": "https://live.staticflickr.com/65535/50017728721_d255e968f9_o.jpg",
    "id_image": "Camel_882606",
    "count_view": 0
  },
  {
    "link_thumb": "https://live.staticflickr.com/65535/50017163438_1165cbcec4_n.jpg",
    "id_album": "-401151552",
    "description": "Butterfly_903462",
    "title": "Butterfly_903462",
    "link_img": "https://live.staticflickr.com/65535/50017163438_63d864d87e_o.jpg",
    "id_image": "Butterfly_903462",
    "count_view": 0
  },
  {
    "link_thumb": "https://live.staticflickr.com/65535/50017587948_9928af5047_n.jpg",
    "id_album": "-462831702",
    "description": "Cat_386652",
    "title": "Cat_386652",
    "link_img": "https://live.staticflickr.com/65535/50017587948_ea9531cb42_o.jpg",
    "id_image": "Cat_386652",
    "count_view": 0
  },
  {
    "link_thumb": "https://live.staticflickr.com/65535/50352565266_a4d6fc9b13_n.jpg",
    "id_album": "-462831703",
    "description": "Cat_494094",
    "title": "Cat_494094",
    "link_img": "https://live.staticflickr.com/65535/50352565266_0dc4a80792_o.jpg",
    "id_image": "Cat_494094",
    "count_view": 0
  },
  {
    "link_thumb": "https://live.staticflickr.com/65535/50023075756_912ca0933a_n.jpg",
    "id_album": "470794721",
    "description": "Python_26823",
    "title": "Python_26823",
    "link_img": "https://live.staticflickr.com/65535/50023075756_9ab8d3f0ae_o.jpg",
    "id_image": "Python_26823",
    "count_view": 0
  },
  {
    "link_thumb": "https://live.staticflickr.com/65535/50020808708_2f755edc93_n.jpg",
    "id_album": "2060159334",
    "description": "GoldenRetriever_650863",
    "title": "GoldenRetriever_650863",
    "link_img": "https://live.staticflickr.com/65535/50020808708_e326b83ea3_o.jpg",
    "id_image": "GoldenRetriever_650863",
    "count_view": 0
  },
  {
    "link_thumb": "https://live.staticflickr.com/65535/50021183253_d5eb95aa96_n.jpg",
    "id_album": "-843028318",
    "description": "Jaguar_433163",
    "title": "Jaguar_433163",
    "link_img": "https://live.staticflickr.com/65535/50021183253_fe348da16d_o.jpg",
    "id_image": "Jaguar_433163",
    "count_view": 0
  },
  {
    "link_thumb": "https://live.staticflickr.com/65535/50021059478_f94eaac8fd_n.jpg",
    "id_album": "2144294979",
    "description": "Hummingbird_234118",
    "title": "Hummingbird_234118",
    "link_img": "https://live.staticflickr.com/65535/50021059478_10b087ba59_o.jpg",
    "id_image": "Hummingbird_234118",
    "count_view": 0
  },
  {
    "link_thumb": "https://live.staticflickr.com/65535/50024563962_0943e01588_n.jpg",
    "id_album": "46520366",
    "description": "Turtle_342749",
    "title": "Turtle_342749",
    "link_img": "https://live.staticflickr.com/65535/50024563962_ce30ab220b_o.jpg",
    "id_image": "Turtle_342749",
    "count_view": 0
  },
  {
    "link_thumb": "https://live.staticflickr.com/65535/50021047736_cb067acd37_n.jpg",
    "id_album": "704811092",
    "description": "FrenchBulldog_899724",
    "title": "FrenchBulldog_899724",
    "link_img": "https://live.staticflickr.com/65535/50021047736_e0af2d6edf_o.jpg",
    "id_image": "FrenchBulldog_899724",
    "count_view": 0
  },
  {
    "link_thumb": "https://live.staticflickr.com/65535/50018005636_07bd6efbf5_n.jpg",
    "id_album": "-462831702",
    "description": "Cat_337376",
    "title": "Cat_337376",
    "link_img": "https://live.staticflickr.com/65535/50018005636_99bccc3b86_o.jpg",
    "id_image": "Cat_337376",
    "count_view": 0
  },
  {
    "link_thumb": "https://live.staticflickr.com/65535/50016791473_c45862ed13_n.jpg",
    "id_album": "-1846011410",
    "description": "Bird_409517",
    "title": "Bird_409517",
    "link_img": "https://live.staticflickr.com/65535/50016791473_406dac0c86_o.jpg",
    "id_image": "Bird_409517",
    "count_view": 0
  },
  {
    "link_thumb": "https://live.staticflickr.com/65535/50024047947_9275b0e1da_n.jpg",
    "id_album": "-1082521515",
    "description": "Spider_725060",
    "title": "Spider_725060",
    "link_img": "https://live.staticflickr.com/65535/50024047947_0513435894_o.jpg",
    "id_image": "Spider_725060",
    "count_view": 0
  },
  {
    "link_thumb": "https://live.staticflickr.com/65535/50021879567_4dc2c67191_n.jpg",
    "id_album": "-712553376",
    "description": "Husky_236948",
    "title": "Husky_236948",
    "link_img": "https://live.staticflickr.com/65535/50021879567_f324f46cd4_o.jpg",
    "id_image": "Husky_236948",
    "count_view": 0
  },
  {
    "link_thumb": "https://live.staticflickr.com/65535/50020751793_7eedf3f4bc_n.jpg",
    "id_album": "-405626519",
    "description": "GermanShepherd_653469",
    "title": "GermanShepherd_653469",
    "link_img": "https://live.staticflickr.com/65535/50020751793_2247dbc117_o.jpg",
    "id_image": "GermanShepherd_653469",
    "count_view": 0
  },
  {
    "link_thumb": "https://live.staticflickr.com/65535/50019641998_d38988c524_n.jpg",
    "id_album": "-149330232",
    "description": "Dog_242915",
    "title": "Dog_242915",
    "link_img": "https://live.staticflickr.com/65535/50019641998_b1ef4ca375_o.jpg",
    "id_image": "Dog_242915",
    "count_view": 0
  },
  {
    "link_thumb": "https://live.staticflickr.com/65535/50021261322_99b0b78180_n.jpg",
    "id_album": "-128218148",
    "description": "Fox_806090",
    "title": "Fox_806090",
    "link_img": "https://live.staticflickr.com/65535/50021261322_fc53f1228b_o.jpg",
    "id_image": "Fox_806090",
    "count_view": 0
  },
  {
    "link_thumb": "https://live.staticflickr.com/65535/50021561977_3f61032cb0_n.jpg",
    "id_album": "-405626519",
    "description": "GermanShepherd_881905",
    "title": "GermanShepherd_881905",
    "link_img": "https://live.staticflickr.com/65535/50021561977_df36ca0763_o.jpg",
    "id_image": "GermanShepherd_881905",
    "count_view": 0
  },
  {
    "link_thumb": "https://live.staticflickr.com/65535/50019781716_ee24d71ec7_n.jpg",
    "id_album": "643379324",
    "description": "Clownfish_404746",
    "title": "Clownfish_404746",
    "link_img": "https://live.staticflickr.com/65535/50019781716_84533e8a33_o.jpg",
    "id_image": "Clownfish_404746",
    "count_view": 0
  },
  {
    "link_thumb": "https://live.staticflickr.com/65535/50352553796_8f255f54b3_n.jpg",
    "id_album": "-462831703",
    "description": "Cat_470347",
    "title": "Cat_470347",
    "link_img": "https://live.staticflickr.com/65535/50352553796_99e8a1bbea_o.jpg",
    "id_image": "Cat_470347",
    "count_view": 0
  },
  {
    "link_thumb": "https://live.staticflickr.com/65535/50017811987_51a2a74714_n.jpg",
    "id_album": "-401151552",
    "description": "Butterfly_242108",
    "title": "Butterfly_242108",
    "link_img": "https://live.staticflickr.com/65535/50017811987_1c8d20d33b_o.jpg",
    "id_image": "Butterfly_242108",
    "count_view": 0
  },
  {
    "link_thumb": "https://live.staticflickr.com/65535/50017455888_32ed15bc94_n.jpg",
    "id_album": "-462831702",
    "description": "Cat_328968",
    "title": "Cat_328968",
    "link_img": "https://live.staticflickr.com/65535/50017455888_d11456a3c6_o.jpg",
    "id_image": "Cat_328968",
    "count_view": 0
  },
  {
    "link_thumb": "https://live.staticflickr.com/65535/50017201428_85ea8650b8_n.jpg",
    "id_album": "189994021",
    "description": "Cardinal_1000510",
    "title": "Cardinal_1000510",
    "link_img": "https://live.staticflickr.com/65535/50017201428_1891fc00db_o.jpg",
    "id_image": "Cardinal_1000510",
    "count_view": 0
  },
  {
    "link_thumb": "https://live.staticflickr.com/65535/50020285747_fd718314bc_n.jpg",
    "id_album": "1903411565",
    "description": "Deer_594195",
    "title": "Deer_594195",
    "link_img": "https://live.staticflickr.com/65535/50020285747_9234a2de71_o.jpg",
    "id_image": "Deer_594195",
    "count_view": 0
  },
  {
    "link_thumb": "https://live.staticflickr.com/65535/50021263962_af033688e8_n.jpg",
    "id_album": "-128218148",
    "description": "Fox_831243",
    "title": "Fox_831243",
    "link_img": "https://live.staticflickr.com/65535/50021263962_c309aac5cc_o.jpg",
    "id_image": "Fox_831243",
    "count_view": 0
  },
  {
    "link_thumb": "https://live.staticflickr.com/65535/50021106528_a4ec923f8f_n.jpg",
    "id_album": "-737856092",
    "description": "Iguana_409423",
    "title": "Iguana_409423",
    "link_img": "https://live.staticflickr.com/65535/50021106528_eb733c4ab4_o.jpg",
    "id_image": "Iguana_409423",
    "count_view": 0
  },
  {
    "link_thumb": "https://live.staticflickr.com/65535/50017422238_e556d7458e_n.jpg",
    "id_album": "-462831702",
    "description": "Cat_304608",
    "title": "Cat_304608",
    "link_img": "https://live.staticflickr.com/65535/50017422238_cba50a7c4a_o.jpg",
    "id_image": "Cat_304608",
    "count_view": 0
  },
  {
    "link_thumb": "https://live.staticflickr.com/65535/50020639398_56f6b5cf90_n.jpg",
    "id_album": "-462831704",
    "description": "Cat_700750",
    "title": "Cat_700750",
    "link_img": "https://live.staticflickr.com/65535/50020639398_9ef3503801_o.jpg",
    "id_image": "Cat_700750",
    "count_view": 0
  },
  {
    "link_thumb": "https://live.staticflickr.com/65535/50023316353_e85bc0f004_n.jpg",
    "id_album": "702283289",
    "description": "Squirrel_396325",
    "title": "Squirrel_396325",
    "link_img": "https://live.staticflickr.com/65535/50023316353_f76ee61256_o.jpg",
    "id_image": "Squirrel_396325",
    "count_view": 0
  },
  {
    "link_thumb": "https://live.staticflickr.com/65535/50016608623_8103cb62d0_n.jpg",
    "id_album": "1699594607",
    "description": "Bee_402308",
    "title": "Bee_402308",
    "link_img": "https://live.staticflickr.com/65535/50016608623_d04d497a0a_o.jpg",
    "id_image": "Bee_402308",
    "count_view": 0
  },
  {
    "link_thumb": "https://live.staticflickr.com/65535/50019659546_e19539051a_n.jpg",
    "id_album": "-766919393",
    "description": "Chameleon_667825",
    "title": "Chameleon_667825",
    "link_img": "https://live.staticflickr.com/65535/50019659546_d0a9e8d4ca_o.jpg",
    "id_image": "Chameleon_667825",
    "count_view": 0
  },
  {
    "link_thumb": "https://live.staticflickr.com/65535/50016978298_55beff9e2a_n.jpg",
    "id_album": "782930701",
    "description": "BorderCollie_875567",
    "title": "BorderCollie_875567",
    "link_img": "https://live.staticflickr.com/65535/50016978298_a997450e05_o.jpg",
    "id_image": "BorderCollie_875567",
    "count_view": 0
  },
  {
    "link_thumb": "https://live.staticflickr.com/65535/50019832287_676e4b2469_n.jpg",
    "id_album": "-462831703",
    "description": "Cat_998429",
    "title": "Cat_998429",
    "link_img": "https://live.staticflickr.com/65535/50019832287_8d9d94c948_o.jpg",
    "id_image": "Cat_998429",
    "count_view": 0
  },
  {
    "link_thumb": "https://live.staticflickr.com/65535/50017146643_ce44cbc1b8_n.jpg",
    "id_album": "-401151552",
    "description": "Butterfly_817429",
    "title": "Butterfly_817429",
    "link_img": "https://live.staticflickr.com/65535/50017146643_8c5a613c70_o.jpg",
    "id_image": "Butterfly_817429",
    "count_view": 0
  },
  {
    "link_thumb": "https://live.staticflickr.com/65535/50020228627_65e473fb80_n.jpg",
    "id_album": "-1783645069",
    "description": "Dalmatian_838936",
    "title": "Dalmatian_838936",
    "link_img": "https://live.staticflickr.com/65535/50020228627_30764e978b_o.jpg",
    "id_image": "Dalmatian_838936",
    "count_view": 0
  },
  {
    "link_thumb": "https://live.staticflickr.com/65535/50022806642_4ec2606de0_n.jpg",
    "id_album": "-358592519",
    "description": "Panda_732624",
    "title": "Panda_732624",
    "link_img": "https://live.staticflickr.com/65535/50022806642_5ae58fe114_o.jpg",
    "id_image": "Panda_732624",
    "count_view": 0
  },
  {
    "link_thumb": "https://live.staticflickr.com/65535/50020193906_0b4ceb9932_n.jpg",
    "id_album": "-149330232",
    "description": "Dog_264020",
    "title": "Dog_264020",
    "link_img": "https://live.staticflickr.com/65535/50020193906_0bded2bc0d_o.jpg",
    "id_image": "Dog_264020",
    "count_view": 0
  },
  {
    "link_thumb": "https://live.staticflickr.com/65535/50017177338_390cc70d8a_n.jpg",
    "id_album": "-401151552",
    "description": "Butterfly_926922",
    "title": "Butterfly_926922",
    "link_img": "https://live.staticflickr.com/65535/50017177338_086492a9a2_o.jpg",
    "id_image": "Butterfly_926922",
    "count_view": 0
  },
  {
    "link_thumb": "https://live.staticflickr.com/65535/50020792612_3209f06775_n.jpg",
    "id_album": "-149330232",
    "description": "Dog_88923",
    "title": "Dog_88923",
    "link_img": "https://live.staticflickr.com/65535/50020792612_ca1ff1c934_o.jpg",
    "id_image": "Dog_88923",
    "count_view": 0
  },
  {
    "link_thumb": "https://live.staticflickr.com/65535/50020574117_a96505fdf2_n.jpg",
    "id_album": "-149330232",
    "description": "Dog_359394",
    "title": "Dog_359394",
    "link_img": "https://live.staticflickr.com/65535/50020574117_6a89bdf690_o.jpg",
    "id_image": "Dog_359394",
    "count_view": 0
  },
  {
    "link_thumb": "https://live.staticflickr.com/65535/50023333417_91df7aedbc_n.jpg",
    "id_album": "470794721",
    "description": "Python_270210",
    "title": "Python_270210",
    "link_img": "https://live.staticflickr.com/65535/50023333417_90cc030dc8_o.jpg",
    "id_image": "Python_270210",
    "count_view": 0
  },
  {
    "link_thumb": "https://live.staticflickr.com/65535/50016498218_216fba9743_n.jpg",
    "id_album": "-422187261",
    "description": "Bear_341421",
    "title": "Bear_341421",
    "link_img": "https://live.staticflickr.com/65535/50016498218_c4bd71dff7_o.jpg",
    "id_image": "Bear_341421",
    "count_view": 0
  },
  {
    "link_thumb": "https://live.staticflickr.com/65535/50021606712_67ce125b57_n.jpg",
    "id_album": "2060159334",
    "description": "GoldenRetriever_650890",
    "title": "GoldenRetriever_650890",
    "link_img": "https://live.staticflickr.com/65535/50021606712_6e365e3337_o.jpg",
    "id_image": "GoldenRetriever_650890",
    "count_view": 0
  },
  {
    "link_thumb": "https://live.staticflickr.com/65535/50021903677_ce20499fd4_n.jpg",
    "id_album": "-737856092",
    "description": "Iguana_438012",
    "title": "Iguana_438012",
    "link_img": "https://live.staticflickr.com/65535/50021903677_848d6b017e_o.jpg",
    "id_image": "Iguana_438012",
    "count_view": 0
  },
  {
    "link_thumb": "https://live.staticflickr.com/65535/50020347376_a97248d564_n.jpg",
    "id_album": "-149330232",
    "description": "Dog_372700",
    "title": "Dog_372700",
    "link_img": "https://live.staticflickr.com/65535/50020347376_24dea8e53e_o.jpg",
    "id_image": "Dog_372700",
    "count_view": 0
  },
  {
    "link_thumb": "https://live.staticflickr.com/65535/50020721713_02c52c335e_n.jpg",
    "id_album": "-462831703",
    "description": "Cat_817934",
    "title": "Cat_817934",
    "link_img": "https://live.staticflickr.com/65535/50020721713_1b8515c623_o.jpg",
    "id_image": "Cat_817934",
    "count_view": 0
  },
  {
    "link_thumb": "https://live.staticflickr.com/65535/50020143251_19ce693867_n.jpg",
    "id_album": "-149330232",
    "description": "Dog_196476",
    "title": "Dog_196476",
    "link_img": "https://live.staticflickr.com/65535/50020143251_801dd7d8ce_o.jpg",
    "id_image": "Dog_196476",
    "count_view": 0
  },
  {
    "link_thumb": "https://live.staticflickr.com/65535/50017584342_82733e107a_n.jpg",
    "id_album": "-1846011410",
    "description": "Bird_425353",
    "title": "Bird_425353",
    "link_img": "https://live.staticflickr.com/65535/50017584342_390191b613_o.jpg",
    "id_image": "Bird_425353",
    "count_view": 0
  },
  {
    "link_thumb": "https://live.staticflickr.com/65535/50021642306_9c6beabf3f_n.jpg",
    "id_album": "-712553376",
    "description": "Husky_875232",
    "title": "Husky_875232",
    "link_img": "https://live.staticflickr.com/65535/50021642306_766f4b6c9e_o.jpg",
    "id_image": "Husky_875232",
    "count_view": 0
  },
  {
    "link_thumb": "https://live.staticflickr.com/65535/50017436776_68a235716c_n.jpg",
    "id_album": "-1846011410",
    "description": "Bird_878403",
    "title": "Bird_878403",
    "link_img": "https://live.staticflickr.com/65535/50017436776_1ba0c0eaff_o.jpg",
    "id_image": "Bird_878403",
    "count_view": 0
  },
  {
    "link_thumb": "https://live.staticflickr.com/65535/50020600227_ca9bbea7fb_n.jpg",
    "id_album": "-149330232",
    "description": "Dog_370198",
    "title": "Dog_370198",
    "link_img": "https://live.staticflickr.com/65535/50020600227_5680425c7f_o.jpg",
    "id_image": "Dog_370198",
    "count_view": 0
  },
  {
    "link_thumb": "https://live.staticflickr.com/65535/50017872567_e26c09d05e_n.jpg",
    "id_album": "-401151552",
    "description": "Butterfly_485433",
    "title": "Butterfly_485433",
    "link_img": "https://live.staticflickr.com/65535/50017872567_087daf78bc_o.jpg",
    "id_image": "Butterfly_485433",
    "count_view": 0
  },
  {
    "link_thumb": "https://live.staticflickr.com/65535/50017799546_b36335d977_n.jpg",
    "id_album": "-462831705",
    "description": "Cat_166905",
    "title": "Cat_166905",
    "link_img": "https://live.staticflickr.com/65535/50017799546_9c17e35164_o.jpg",
    "id_image": "Cat_166905",
    "count_view": 0
  },
  {
    "link_thumb": "https://live.staticflickr.com/65535/50018150037_3ea40b8451_n.jpg",
    "id_album": "-462831705",
    "description": "Cat_236919",
    "title": "Cat_236919",
    "link_img": "https://live.staticflickr.com/65535/50018150037_4aefe79d4a_o.jpg",
    "id_image": "Cat_236919",
    "count_view": 0
  },
  {
    "link_thumb": "https://live.staticflickr.com/65535/50020410963_9ffeb5fac0_n.jpg",
    "id_album": "-128218148",
    "description": "Fox_362741",
    "title": "Fox_362741",
    "link_img": "https://live.staticflickr.com/65535/50020410963_11c5af48d3_o.jpg",
    "id_image": "Fox_362741",
    "count_view": 0
  },
  {
    "link_thumb": "https://live.staticflickr.com/65535/50019474701_fbf1bd072e_n.jpg",
    "id_album": "-462831703",
    "description": "Cat_923721",
    "title": "Cat_923721",
    "link_img": "https://live.staticflickr.com/65535/50019474701_2e1836975f_o.jpg",
    "id_image": "Cat_923721",
    "count_view": 0
  },
  {
    "link_thumb": "https://live.staticflickr.com/65535/50021275558_8a86fb3099_n.jpg",
    "id_album": "771796001",
    "description": "Koala_419525",
    "title": "Koala_419525",
    "link_img": "https://live.staticflickr.com/65535/50021275558_07d696dd4d_o.jpg",
    "id_image": "Koala_419525",
    "count_view": 0
  },
  {
    "link_thumb": "https://live.staticflickr.com/65535/50022126307_03650320f2_n.jpg",
    "id_album": "1918884325",
    "description": "Lemur_104105",
    "title": "Lemur_104105",
    "link_img": "https://live.staticflickr.com/65535/50022126307_772119a19c_o.jpg",
    "id_image": "Lemur_104105",
    "count_view": 0
  },
  {
    "link_thumb": "https://live.staticflickr.com/65535/50021303476_ca69e0b0ea_n.jpg",
    "id_album": "-405626519",
    "description": "GermanShepherd_831494",
    "title": "GermanShepherd_831494",
    "link_img": "https://live.staticflickr.com/65535/50021303476_11e9722b05_o.jpg",
    "id_image": "GermanShepherd_831494",
    "count_view": 0
  },
  {
    "link_thumb": "https://live.staticflickr.com/65535/50021341768_2293fbb44c_n.jpg",
    "id_album": "1392348450",
    "description": "Leopard_167152",
    "title": "Leopard_167152",
    "link_img": "https://live.staticflickr.com/65535/50021341768_dcc82411ef_o.jpg",
    "id_image": "Leopard_167152",
    "count_view": 0
  },
  {
    "link_thumb": "https://live.staticflickr.com/65535/50351974473_b89fa0d9da_n.jpg",
    "id_album": "-462831703",
    "description": "Cat_959296",
    "title": "Cat_959296",
    "link_img": "https://live.staticflickr.com/65535/50351974473_8726c10e2f_o.jpg",
    "id_image": "Cat_959296",
    "count_view": 0
  },
  {
    "link_thumb": "https://live.staticflickr.com/65535/50017055918_f42c9df846_n.jpg",
    "id_album": "-401151552",
    "description": "Butterfly_395550",
    "title": "Butterfly_395550",
    "link_img": "https://live.staticflickr.com/65535/50017055918_c4d7412a9f_o.jpg",
    "id_image": "Butterfly_395550",
    "count_view": 0
  },
  {
    "link_thumb": "https://live.staticflickr.com/65535/50017838387_7b5bc65289_n.jpg",
    "id_album": "-401151552",
    "description": "Butterfly_378842",
    "title": "Butterfly_378842",
    "link_img": "https://live.staticflickr.com/65535/50017838387_6915fe9f53_o.jpg",
    "id_image": "Butterfly_378842",
    "count_view": 0
  },
  {
    "link_thumb": "https://live.staticflickr.com/65535/50024289152_6a8f918a13_n.jpg",
    "id_album": "405170427",
    "description": "Tiger_185464",
    "title": "Tiger_185464",
    "link_img": "https://live.staticflickr.com/65535/50024289152_67bd7b0dec_o.jpg",
    "id_image": "Tiger_185464",
    "count_view": 0
  },
  {
    "link_thumb": "https://live.staticflickr.com/65535/50017905652_2cbe465d48_n.jpg",
    "id_album": "-401151552",
    "description": "Butterfly_695478",
    "title": "Butterfly_695478",
    "link_img": "https://live.staticflickr.com/65535/50017905652_6908258d11_o.jpg",
    "id_image": "Butterfly_695478",
    "count_view": 0
  },
  {
    "link_thumb": "https://live.staticflickr.com/65535/50352690347_9dafda6dcd_n.jpg",
    "id_album": "-462831703",
    "description": "Cat_452067",
    "title": "Cat_452067",
    "link_img": "https://live.staticflickr.com/65535/50352690347_423b8dda2f_o.jpg",
    "id_image": "Cat_452067",
    "count_view": 0
  },
  {
    "link_thumb": "https://live.staticflickr.com/65535/50020293773_5b4874b1e9_n.jpg",
    "id_album": "-1118073211",
    "description": "Fish_247107",
    "title": "Fish_247107",
    "link_img": "https://live.staticflickr.com/65535/50020293773_7ce3dffde4_o.jpg",
    "id_image": "Fish_247107",
    "count_view": 0
  },
  {
    "link_thumb": "https://live.staticflickr.com/65535/50022205098_b893c2f897_n.jpg",
    "id_album": "407660898",
    "description": "Pigeon_176793",
    "title": "Pigeon_176793",
    "link_img": "https://live.staticflickr.com/65535/50022205098_b8fecf9f88_o.jpg",
    "id_image": "Pigeon_176793",
    "count_view": 0
  },
  {
    "link_thumb": "https://live.staticflickr.com/65535/50024073182_b72e6d9b5a_n.jpg",
    "id_album": "702283289",
    "description": "Squirrel_219936",
    "title": "Squirrel_219936",
    "link_img": "https://live.staticflickr.com/65535/50024073182_1751ec1fdf_o.jpg",
    "id_image": "Squirrel_219936",
    "count_view": 0
  },
  {
    "link_thumb": "https://live.staticflickr.com/65535/50018960368_e1ce59101d_n.jpg",
    "id_album": "-462831703",
    "description": "Cat_935975",
    "title": "Cat_935975",
    "link_img": "https://live.staticflickr.com/65535/50018960368_73c7e1a7fe_o.jpg",
    "id_image": "Cat_935975",
    "count_view": 0
  },
  {
    "link_thumb": "https://live.staticflickr.com/65535/50017117913_bfee550406_n.jpg",
    "id_album": "-401151552",
    "description": "Butterfly_691002",
    "title": "Butterfly_691002",
    "link_img": "https://live.staticflickr.com/65535/50017117913_a8da328fc8_o.jpg",
    "id_image": "Butterfly_691002",
    "count_view": 0
  },
  {
    "link_thumb": "https://live.staticflickr.com/65535/50352619392_4701255a1e_n.jpg",
    "id_album": "-462831703",
    "description": "Cat_355501",
    "title": "Cat_355501",
    "link_img": "https://live.staticflickr.com/65535/50352619392_19c02078b1_o.jpg",
    "id_image": "Cat_355501",
    "count_view": 0
  },
  {
    "link_thumb": "https://live.staticflickr.com/65535/50021951326_b16dceca27_n.jpg",
    "id_album": "1392348450",
    "description": "Leopard_785730",
    "title": "Leopard_785730",
    "link_img": "https://live.staticflickr.com/65535/50021951326_e3de89750b_o.jpg",
    "id_image": "Leopard_785730",
    "count_view": 0
  },
  {
    "link_thumb": "https://live.staticflickr.com/65535/50024580106_89e6e86343_n.jpg",
    "id_album": "1104421803",
    "description": "Zebra_888418",
    "title": "Zebra_888418",
    "link_img": "https://live.staticflickr.com/65535/50024580106_8cd381339e_o.jpg",
    "id_image": "Zebra_888418",
    "count_view": 0
  },
  {
    "link_thumb": "https://live.staticflickr.com/65535/50019449708_a1385d4e5b_n.jpg",
    "id_album": "1903411565",
    "description": "Deer_194347",
    "title": "Deer_194347",
    "link_img": "https://live.staticflickr.com/65535/50019449708_201f18319b_o.jpg",
    "id_image": "Deer_194347",
    "count_view": 0
  },
  {
    "link_thumb": "https://live.staticflickr.com/65535/50352776382_355d38fb90_n.jpg",
    "id_album": "-462831703",
    "description": "Cat_592802",
    "title": "Cat_592802",
    "link_img": "https://live.staticflickr.com/65535/50352776382_3d4320713a_o.jpg",
    "id_image": "Cat_592802",
    "count_view": 0
  },
  {
    "link_thumb": "https://live.staticflickr.com/65535/50017144382_5b18e0d290_n.jpg",
    "id_album": "523598895",
    "description": "Artistic_229143",
    "title": "Artistic_229143",
    "link_img": "https://live.staticflickr.com/65535/50017144382_e88a097d08_o.jpg",
    "id_image": "Artistic_229143",
    "count_view": 0
  },
  {
    "link_thumb": "https://live.staticflickr.com/65535/50021826396_150b504f0a_n.jpg",
    "id_album": "1307335982",
    "description": "LabradorRetriever_334051",
    "title": "LabradorRetriever_334051",
    "link_img": "https://live.staticflickr.com/65535/50021826396_717f897720_o.jpg",
    "id_image": "LabradorRetriever_334051",
    "count_view": 0
  },
  {
    "link_thumb": "https://live.staticflickr.com/65535/50023236862_0fa3142ee1_n.jpg",
    "id_album": "-353898617",
    "description": "Puppy_371097",
    "title": "Puppy_371097",
    "link_img": "https://live.staticflickr.com/65535/50023236862_73b7bf5d26_o.jpg",
    "id_image": "Puppy_371097",
    "count_view": 0
  },
  {
    "link_thumb": "https://live.staticflickr.com/65535/50017526752_57c8f86522_n.jpg",
    "id_album": "-1846011410",
    "description": "Bird_353340",
    "title": "Bird_353340",
    "link_img": "https://live.staticflickr.com/65535/50017526752_bb88db2547_o.jpg",
    "id_image": "Bird_353340",
    "count_view": 0
  },
  {
    "link_thumb": "https://live.staticflickr.com/65535/50017212213_dfe9630f41_n.jpg",
    "id_album": "-462831703",
    "description": "Cat_1000296",
    "title": "Cat_1000296",
    "link_img": "https://live.staticflickr.com/65535/50017212213_7ac196baf6_o.jpg",
    "id_image": "Cat_1000296",
    "count_view": 0
  },
  {
    "link_thumb": "https://live.staticflickr.com/65535/50020484902_d3b70d79c7_n.jpg",
    "id_album": "-149330232",
    "description": "Dog_291147",
    "title": "Dog_291147",
    "link_img": "https://live.staticflickr.com/65535/50020484902_e5f7129faf_o.jpg",
    "id_image": "Dog_291147",
    "count_view": 0
  },
  {
    "link_thumb": "https://live.staticflickr.com/65535/50016845678_de8acd9a5f_n.jpg",
    "id_album": "-1846011410",
    "description": "Bird_572144",
    "title": "Bird_572144",
    "link_img": "https://live.staticflickr.com/65535/50016845678_f1acced0e4_o.jpg",
    "id_image": "Bird_572144",
    "count_view": 0
  },
  {
    "link_thumb": "https://live.staticflickr.com/65535/50019460067_1b394b4317_n.jpg",
    "id_album": "-462831704",
    "description": "Cat_439077",
    "title": "Cat_439077",
    "link_img": "https://live.staticflickr.com/65535/50019460067_b1d12b71cc_o.jpg",
    "id_image": "Cat_439077",
    "count_view": 0
  },
  {
    "link_thumb": "https://live.staticflickr.com/65535/50022054027_89d8e4abcd_n.jpg",
    "id_album": "770105808",
    "description": "Kingfisher_381015",
    "title": "Kingfisher_381015",
    "link_img": "https://live.staticflickr.com/65535/50022054027_ccae3001fa_o.jpg",
    "id_image": "Kingfisher_381015",
    "count_view": 0
  },
  {
    "link_thumb": "https://live.staticflickr.com/65535/50020133153_82a8f20c20_n.jpg",
    "id_album": "1168627767",
    "description": "Duck_656668",
    "title": "Duck_656668",
    "link_img": "https://live.staticflickr.com/65535/50020133153_9b66df30e1_o.jpg",
    "id_image": "Duck_656668",
    "count_view": 0
  },
  {
    "link_thumb": "https://live.staticflickr.com/65535/50019698117_5fdc26fff6_n.jpg",
    "id_album": "-462831703",
    "description": "Cat_913455",
    "title": "Cat_913455",
    "link_img": "https://live.staticflickr.com/65535/50019698117_dc49015a00_o.jpg",
    "id_image": "Cat_913455",
    "count_view": 0
  },
  {
    "link_thumb": "https://live.staticflickr.com/65535/50018905573_d37869c2c1_n.jpg",
    "id_album": "-462831703",
    "description": "Cat_910274",
    "title": "Cat_910274",
    "link_img": "https://live.staticflickr.com/65535/50018905573_1b93719d0e_o.jpg",
    "id_image": "Cat_910274",
    "count_view": 0
  },
  {
    "link_thumb": "https://live.staticflickr.com/65535/50016933571_8c63cbf3de_n.jpg",
    "id_album": "390697200",
    "description": "AustralianShepherd_687212",
    "title": "AustralianShepherd_687212",
    "link_img": "https://live.staticflickr.com/65535/50016933571_e74e342ce0_o.jpg",
    "id_image": "AustralianShepherd_687212",
    "count_view": 0
  },
  {
    "link_thumb": "https://live.staticflickr.com/65535/50019338273_24e56ba0ce_n.jpg",
    "id_album": "-2144640780",
    "description": "Cow_921602",
    "title": "Cow_921602",
    "link_img": "https://live.staticflickr.com/65535/50019338273_932301c7c0_o.jpg",
    "id_image": "Cow_921602",
    "count_view": 0
  },
  {
    "link_thumb": "https://live.staticflickr.com/65535/50022131492_f13c6446b3_n.jpg",
    "id_album": "1918884325",
    "description": "Lemur_469611",
    "title": "Lemur_469611",
    "link_img": "https://live.staticflickr.com/65535/50022131492_1aee96dfde_o.jpg",
    "id_image": "Lemur_469611",
    "count_view": 0
  },
  {
    "link_thumb": "https://live.staticflickr.com/65535/50022260362_a07590d2c1_n.jpg",
    "id_album": "416744915",
    "description": "Lion_372093",
    "title": "Lion_372093",
    "link_img": "https://live.staticflickr.com/65535/50022260362_05f70f839f_o.jpg",
    "id_image": "Lion_372093",
    "count_view": 0
  },
  {
    "link_thumb": "https://live.staticflickr.com/65535/50023706848_03fc459658_n.jpg",
    "id_album": "405170427",
    "description": "Tiger_965753",
    "title": "Tiger_965753",
    "link_img": "https://live.staticflickr.com/65535/50023706848_034d6c50f1_o.jpg",
    "id_image": "Tiger_965753",
    "count_view": 0
  },
  {
    "link_thumb": "https://live.staticflickr.com/65535/50020407536_9dd4e5d50e_n.jpg",
    "id_album": "-149330231",
    "description": "Dog_429527",
    "title": "Dog_429527",
    "link_img": "https://live.staticflickr.com/65535/50020407536_7f636df134_o.jpg",
    "id_image": "Dog_429527",
    "count_view": 0
  },
  {
    "link_thumb": "https://live.staticflickr.com/65535/50018152307_cd4c0a9b59_n.jpg",
    "id_album": "-462831705",
    "description": "Cat_238843",
    "title": "Cat_238843",
    "link_img": "https://live.staticflickr.com/65535/50018152307_96bbeb93ac_o.jpg",
    "id_image": "Cat_238843",
    "count_view": 0
  },
  {
    "link_thumb": "https://live.staticflickr.com/65535/50022678422_afbcf28deb_n.jpg",
    "id_album": "-1384601601",
    "description": "Owl_412587",
    "title": "Owl_412587",
    "link_img": "https://live.staticflickr.com/65535/50022678422_54e3f51df8_o.jpg",
    "id_image": "Owl_412587",
    "count_view": 0
  },
  {
    "link_thumb": "https://live.staticflickr.com/65535/50023418547_74aac4594e_n.jpg",
    "id_album": "248289288",
    "description": "Raccoon_764238",
    "title": "Raccoon_764238",
    "link_img": "https://live.staticflickr.com/65535/50023418547_0bb5dc24a7_o.jpg",
    "id_image": "Raccoon_764238",
    "count_view": 0
  },
  {
    "link_thumb": "https://live.staticflickr.com/65535/50018212792_c2b8219312_n.jpg",
    "id_album": "-462831702",
    "description": "Cat_309308",
    "title": "Cat_309308",
    "link_img": "https://live.staticflickr.com/65535/50018212792_08699d60d3_o.jpg",
    "id_image": "Cat_309308",
    "count_view": 0
  },
  {
    "link_thumb": "https://live.staticflickr.com/65535/50022747003_864cd2dbc1_n.jpg",
    "id_album": "48367914",
    "description": "Rhino_456556",
    "title": "Rhino_456556",
    "link_img": "https://live.staticflickr.com/65535/50022747003_9a17973109_o.jpg",
    "id_image": "Rhino_456556",
    "count_view": 0
  },
  {
    "link_thumb": "https://live.staticflickr.com/65535/50020819856_1c411b2cfc_n.jpg",
    "id_album": "822895535",
    "description": "Falcon_816115",
    "title": "Falcon_816115",
    "link_img": "https://live.staticflickr.com/65535/50020819856_7877f1b95c_o.jpg",
    "id_image": "Falcon_816115",
    "count_view": 0
  },
  {
    "link_thumb": "https://live.staticflickr.com/65535/50017155987_2da7d75548_n.jpg",
    "id_album": "523598895",
    "description": "Artistic_323768",
    "title": "Artistic_323768",
    "link_img": "https://live.staticflickr.com/65535/50017155987_af78427a40_o.jpg",
    "id_image": "Artistic_323768",
    "count_view": 0
  },
  {
    "link_thumb": "https://live.staticflickr.com/65535/50017581188_3d874b3535_n.jpg",
    "id_album": "-462831702",
    "description": "Cat_381625",
    "title": "Cat_381625",
    "link_img": "https://live.staticflickr.com/65535/50017581188_281c8153e8_o.jpg",
    "id_image": "Cat_381625",
    "count_view": 0
  },
  {
    "link_thumb": "https://live.staticflickr.com/65535/50017215167_02095f0fd5_n.jpg",
    "id_album": "231236068",
    "description": "BaldEagle_361517",
    "title": "BaldEagle_361517",
    "link_img": "https://live.staticflickr.com/65535/50017215167_91bbac7fd8_o.jpg",
    "id_image": "BaldEagle_361517",
    "count_view": 0
  },
  {
    "link_thumb": "https://live.staticflickr.com/65535/50017283346_23e77c5786_n.jpg",
    "id_album": "-1846011410",
    "description": "Bird_368693",
    "title": "Bird_368693",
    "link_img": "https://live.staticflickr.com/65535/50017283346_4719a962d5_o.jpg",
    "id_image": "Bird_368693",
    "count_view": 0
  },
  {
    "link_thumb": "https://live.staticflickr.com/65535/50018148187_bc59231ff4_n.jpg",
    "id_album": "-462831705",
    "description": "Cat_236455",
    "title": "Cat_236455",
    "link_img": "https://live.staticflickr.com/65535/50018148187_5f501623b2_o.jpg",
    "id_image": "Cat_236455",
    "count_view": 0
  },
  {
    "link_thumb": "https://live.staticflickr.com/65535/50019053518_5343282c04_n.jpg",
    "id_album": "-1930903528",
    "description": "CatDog_716546",
    "title": "CatDog_716546",
    "link_img": "https://live.staticflickr.com/65535/50019053518_28d620bc08_o.jpg",
    "id_image": "CatDog_716546",
    "count_view": 0
  },
  {
    "link_thumb": "https://live.staticflickr.com/65535/50021842632_6c0ba504ce_n.jpg",
    "id_album": "-1933715543",
    "description": "Horse_954523",
    "title": "Horse_954523",
    "link_img": "https://live.staticflickr.com/65535/50021842632_35a5ef892f_o.jpg",
    "id_image": "Horse_954523",
    "count_view": 0
  },
  {
    "link_thumb": "https://live.staticflickr.com/65535/50023920033_37aa4fbf0d_n.jpg",
    "id_album": "-709711865",
    "description": "Wolf_229956",
    "title": "Wolf_229956",
    "link_img": "https://live.staticflickr.com/65535/50023920033_a8f7b9ab37_o.jpg",
    "id_image": "Wolf_229956",
    "count_view": 0
  },
  {
    "link_thumb": "https://live.staticflickr.com/65535/50021077291_0f36e291a8_n.jpg",
    "id_album": "844170697",
    "description": "Frog_81336",
    "title": "Frog_81336",
    "link_img": "https://live.staticflickr.com/65535/50021077291_493547d930_o.jpg",
    "id_image": "Frog_81336",
    "count_view": 0
  },
  {
    "link_thumb": "https://live.staticflickr.com/65535/50017865677_0f261aa08f_n.jpg",
    "id_album": "-401151552",
    "description": "Butterfly_458424",
    "title": "Butterfly_458424",
    "link_img": "https://live.staticflickr.com/65535/50017865677_98682a7127_o.jpg",
    "id_image": "Butterfly_458424",
    "count_view": 0
  },
  {
    "link_thumb": "https://live.staticflickr.com/65535/50016887411_978e1851bf_n.jpg",
    "id_album": "523598895",
    "description": "Artistic_239471",
    "title": "Artistic_239471",
    "link_img": "https://live.staticflickr.com/65535/50016887411_74c941a092_o.jpg",
    "id_image": "Artistic_239471",
    "count_view": 0
  },
  {
    "link_thumb": "https://live.staticflickr.com/65535/50021421428_590977bf25_n.jpg",
    "id_album": "1392348450",
    "description": "Leopard_984810",
    "title": "Leopard_984810",
    "link_img": "https://live.staticflickr.com/65535/50021421428_07acfe01c7_o.jpg",
    "id_image": "Leopard_984810",
    "count_view": 0
  },
  {
    "link_thumb": "https://live.staticflickr.com/65535/50021715738_b0eeb9dfb2_n.jpg",
    "id_album": "-784970094",
    "description": "Monkey_670238",
    "title": "Monkey_670238",
    "link_img": "https://live.staticflickr.com/65535/50021715738_cf297b22f4_o.jpg",
    "id_image": "Monkey_670238",
    "count_view": 0
  },
  {
    "link_thumb": "https://live.staticflickr.com/65535/50017067206_371687d3f0_n.jpg",
    "id_album": "-422187261",
    "description": "Bear_692687",
    "title": "Bear_692687",
    "link_img": "https://live.staticflickr.com/65535/50017067206_3080691098_o.jpg",
    "id_image": "Bear_692687",
    "count_view": 0
  },
  {
    "link_thumb": "https://live.staticflickr.com/65535/50351722633_e6b7a44a85_n.jpg",
    "id_album": "-462831703",
    "description": "Cat_203672",
    "title": "Cat_203672",
    "link_img": "https://live.staticflickr.com/65535/50351722633_5b26550675_o.jpg",
    "id_image": "Cat_203672",
    "count_view": 0
  },
  {
    "link_thumb": "https://live.staticflickr.com/65535/50352566647_db49270593_n.jpg",
    "id_album": "-462831703",
    "description": "Cat_173021",
    "title": "Cat_173021",
    "link_img": "https://live.staticflickr.com/65535/50352566647_e6753ce3cc_o.jpg",
    "id_image": "Cat_173021",
    "count_view": 0
  },
  {
    "link_thumb": "https://live.staticflickr.com/65535/50017985941_7473eb723b_n.jpg",
    "id_album": "-462831702",
    "description": "Cat_329026",
    "title": "Cat_329026",
    "link_img": "https://live.staticflickr.com/65535/50017985941_d6794d6d5d_o.jpg",
    "id_image": "Cat_329026",
    "count_view": 0
  },
  {
    "link_thumb": "https://live.staticflickr.com/65535/50020482718_0f362747bd_n.jpg",
    "id_album": "-128218148",
    "description": "Fox_920809",
    "title": "Fox_920809",
    "link_img": "https://live.staticflickr.com/65535/50020482718_dcfcec19b0_o.jpg",
    "id_image": "Fox_920809",
    "count_view": 0
  },
  {
    "link_thumb": "https://live.staticflickr.com/65535/50020612583_88f498ab48_n.jpg",
    "id_album": "-462831705",
    "description": "Cat_66332",
    "title": "Cat_66332",
    "link_img": "https://live.staticflickr.com/65535/50020612583_0a1c8618c6_o.jpg",
    "id_image": "Cat_66332",
    "count_view": 0
  },
  {
    "link_thumb": "https://live.staticflickr.com/65535/50021055777_e3ff9a5ca1_n.jpg",
    "id_album": "1270947998",
    "description": "Elephant_88196",
    "title": "Elephant_88196",
    "link_img": "https://live.staticflickr.com/65535/50021055777_e2b4ecd89c_o.jpg",
    "id_image": "Elephant_88196",
    "count_view": 0
  },
  {
    "link_thumb": "https://live.staticflickr.com/65535/50017165206_616919b3a9_n.jpg",
    "id_album": "1699594607",
    "description": "Bee_926197",
    "title": "Bee_926197",
    "link_img": "https://live.staticflickr.com/65535/50017165206_64f5700125_o.jpg",
    "id_image": "Bee_926197",
    "count_view": 0
  },
  {
    "link_thumb": "https://live.staticflickr.com/65535/50021569866_c6195fdda9_n.jpg",
    "id_album": "-1933715543",
    "description": "Horse_815002",
    "title": "Horse_815002",
    "link_img": "https://live.staticflickr.com/65535/50021569866_371c5184df_o.jpg",
    "id_image": "Horse_815002",
    "count_view": 0
  },
  {
    "link_thumb": "https://live.staticflickr.com/65535/50020375603_66f24cac08_n.jpg",
    "id_album": "-1694105481",
    "description": "Fly_207349",
    "title": "Fly_207349",
    "link_img": "https://live.staticflickr.com/65535/50020375603_51feaabb4a_o.jpg",
    "id_image": "Fly_207349",
    "count_view": 0
  },
  {
    "link_thumb": "https://live.staticflickr.com/65535/50019485626_369d152496_n.jpg",
    "id_album": "-462831703",
    "description": "Cat_931355",
    "title": "Cat_931355",
    "link_img": "https://live.staticflickr.com/65535/50019485626_c70e7e1618_o.jpg",
    "id_image": "Cat_931355",
    "count_view": 0
  },
  {
    "link_thumb": "https://live.staticflickr.com/65535/50020584102_eab9035335_n.jpg",
    "id_album": "-149330232",
    "description": "Dog_365108",
    "title": "Dog_365108",
    "link_img": "https://live.staticflickr.com/65535/50020584102_6acb2b5c92_o.jpg",
    "id_image": "Dog_365108",
    "count_view": 0
  },
  {
    "link_thumb": "https://live.staticflickr.com/65535/50017982767_4aae3f5a37_n.jpg",
    "id_album": "-401151552",
    "description": "Butterfly_986140",
    "title": "Butterfly_986140",
    "link_img": "https://live.staticflickr.com/65535/50017982767_8f6fb82f76_o.jpg",
    "id_image": "Butterfly_986140",
    "count_view": 0
  },
  {
    "link_thumb": "https://live.staticflickr.com/65535/50021292613_9e38407814_n.jpg",
    "id_album": "1307335982",
    "description": "LabradorRetriever_874352",
    "title": "LabradorRetriever_874352",
    "link_img": "https://live.staticflickr.com/65535/50021292613_f0132713d6_o.jpg",
    "id_image": "LabradorRetriever_874352",
    "count_view": 0
  },
  {
    "link_thumb": "https://live.staticflickr.com/65535/50022467523_634c62467c_n.jpg",
    "id_album": "-353898617",
    "description": "Puppy_523663",
    "title": "Puppy_523663",
    "link_img": "https://live.staticflickr.com/65535/50022467523_89ab661a3b_o.jpg",
    "id_image": "Puppy_523663",
    "count_view": 0
  },
  {
    "link_thumb": "https://live.staticflickr.com/65535/50017530313_4fa386ecac_n.jpg",
    "id_album": "-462831702",
    "description": "Cat_361877",
    "title": "Cat_361877",
    "link_img": "https://live.staticflickr.com/65535/50017530313_b8a340475f_o.jpg",
    "id_image": "Cat_361877",
    "count_view": 0
  },
  {
    "link_thumb": "https://live.staticflickr.com/65535/50017252751_37bd2fb0b4_n.jpg",
    "id_album": "-1846011410",
    "description": "Bird_342797",
    "title": "Bird_342797",
    "link_img": "https://live.staticflickr.com/65535/50017252751_c7a6fdb3a3_o.jpg",
    "id_image": "Bird_342797",
    "count_view": 0
  },
  {
    "link_thumb": "https://live.staticflickr.com/65535/50020090773_a4bc0a1cdd_n.jpg",
    "id_album": "-405058657",
    "description": "Dragonfly_450958",
    "title": "Dragonfly_450958",
    "link_img": "https://live.staticflickr.com/65535/50020090773_ba777ced92_o.jpg",
    "id_image": "Dragonfly_450958",
    "count_view": 0
  },
  {
    "link_thumb": "https://live.staticflickr.com/65535/50019928698_1ff59d1aaa_n.jpg",
    "id_album": "-149330231",
    "description": "Dog_572051",
    "title": "Dog_572051",
    "link_img": "https://live.staticflickr.com/65535/50019928698_66a1ac4bbd_o.jpg",
    "id_image": "Dog_572051",
    "count_view": 0
  }
]