[
  {
    "link_thumb": "https://live.staticflickr.com/65535/50018008257_f0b68a85ed_n.jpg",
    "id_album": "-462831705",
    "description": "Cat_103859",
    "title": "Cat_103859",
    "link_img": "https://live.staticflickr.com/65535/50018008257_f09200e776_o.jpg",
    "id_image": "Cat_103859",
    "count_view": 0
  },
  {
    "link_thumb": "https://live.staticflickr.com/65535/50019701791_b4fbbcd3f7_n.jpg",
    "id_album": "-1481843714",
    "description": "Cheetah_390944",
    "title": "Cheetah_390944",
    "link_img": "https://live.staticflickr.com/65535/50019701791_fafa2d236e_o.jpg",
    "id_image": "Cheetah_390944",
    "count_view": 0
  },
  {
    "link_thumb": "https://live.staticflickr.com/65535/50019754243_d524c8486e_n.jpg",
    "id_album": "-149330232",
    "description": "Dog_343680",
    "title": "Dog_343680",
    "link_img": "https://live.staticflickr.com/65535/50019754243_aea1cb0fac_o.jpg",
    "id_image": "Dog_343680",
    "count_view": 0
  },
  {
    "link_thumb": "https://live.staticflickr.com/65535/50017152956_2fffc037e7_n.jpg",
    "id_album": "1699594607",
    "description": "Bee_676372",
    "title": "Bee_676372",
    "link_img": "https://live.staticflickr.com/65535/50017152956_c37a42f897_o.jpg",
    "id_image": "Bee_676372",
    "count_view": 0
  },
  {
    "link_thumb": "https://live.staticflickr.com/65535/50019975807_ebc4352348_n.jpg",
    "id_album": "-1481843714",
    "description": "Cheetah_593308",
    "title": "Cheetah_593308",
    "link_img": "https://live.staticflickr.com/65535/50019975807_16773b6324_o.jpg",
    "id_image": "Cheetah_593308",
    "count_view": 0
  },
  {
    "link_thumb": "https://live.staticflickr.com/65535/50352668446_7a4d6b91de_n.jpg",
    "id_album": "-462831703",
    "description": "Cat_865530",
    "title": "Cat_865530",
    "link_img": "https://live.staticflickr.com/65535/50352668446_cfcae47c03_o.jpg",
    "id_image": "Cat_865530",
    "count_view": 0
  },
  {
    "link_thumb": "https://live.staticflickr.com/65535/50022142991_ce7f028d0e_n.jpg",
    "id_album": "1894617400",
    "description": "Lynx_406087",
    "title": "Lynx_406087",
    "link_img": "https://live.staticflickr.com/65535/50022142991_6581917645_o.jpg",
    "id_image": "Lynx_406087",
    "count_view": 0
  },
  {
    "link_thumb": "https://live.staticflickr.com/65535/50352756362_6a332c7fdd_n.jpg",
    "id_album": "-462831703",
    "description": "Cat_547192",
    "title": "Cat_547192",
    "link_img": "https://live.staticflickr.com/65535/50352756362_416211cd5f_o.jpg",
    "id_image": "Cat_547192",
    "count_view": 0
  },
  {
    "link_thumb": "https://live.staticflickr.com/65535/50018027061_1b231a289f_n.jpg",
    "id_album": "-462831702",
    "description": "Cat_347580",
    "title": "Cat_347580",
    "link_img": "https://live.staticflickr.com/65535/50018027061_3cdd667057_o.jpg",
    "id_image": "Cat_347580",
    "count_view": 0
  },
  {
    "link_thumb": "https://live.staticflickr.com/65535/50017945437_1a0676ee5f_n.jpg",
    "id_album": "-401151552",
    "description": "Butterfly_872272",
    "title": "Butterfly_872272",
    "link_img": "https://live.staticflickr.com/65535/50017945437_609cf3ab19_o.jpg",
    "id_image": "Butterfly_872272",
    "count_view": 0
  },
  {
    "link_thumb": "https://live.staticflickr.com/65535/50017727146_0982583b09_n.jpg",
    "id_album": "-1131161368",
    "description": "Camel_524314",
    "title": "Camel_524314",
    "link_img": "https://live.staticflickr.com/65535/50017727146_eb40b6c138_o.jpg",
    "id_image": "Camel_524314",
    "count_view": 0
  },
  {
    "link_thumb": "https://live.staticflickr.com/65535/50021382011_1966885690_n.jpg",
    "id_album": "-817970789",
    "description": "Goose_429143",
    "title": "Goose_429143",
    "link_img": "https://live.staticflickr.com/65535/50021382011_70c16e17eb_o.jpg",
    "id_image": "Goose_429143",
    "count_view": 0
  },
  {
    "link_thumb": "https://live.staticflickr.com/65535/50020742852_58ec093119_n.jpg",
    "id_album": "-149330232",
    "description": "Dog_70019",
    "title": "Dog_70019",
    "link_img": "https://live.staticflickr.com/65535/50020742852_28f6a63e4d_o.jpg",
    "id_image": "Dog_70019",
    "count_view": 0
  },
  {
    "link_thumb": "https://live.staticflickr.com/65535/50017588916_77b36ffa06_n.jpg",
    "id_album": "-401151552",
    "description": "Butterfly_416154",
    "title": "Butterfly_416154",
    "link_img": "https://live.staticflickr.com/65535/50017588916_d27673d286_o.jpg",
    "id_image": "Butterfly_416154",
    "count_view": 0
  },
  {
    "link_thumb": "https://live.staticflickr.com/65535/50021672366_562072ba52_n.jpg",
    "id_album": "1658866795",
    "description": "Insect_393115",
    "title": "Insect_393115",
    "link_img": "https://live.staticflickr.com/65535/50021672366_54833db9b7_o.jpg",
    "id_image": "Insect_393115",
    "count_view": 0
  },
  {
    "link_thumb": "https://live.staticflickr.com/65535/50017975717_3e0f56d7bc_n.jpg",
    "id_album": "-401151552",
    "description": "Butterfly_938181",
    "title": "Butterfly_938181",
    "link_img": "https://live.staticflickr.com/65535/50017975717_0b93d281d9_o.jpg",
    "id_image": "Butterfly_938181",
    "count_view": 0
  },
  {
    "link_thumb": "https://live.staticflickr.com/65535/50021817031_a2a5862d10_n.jpg",
    "id_album": "771796001",
    "description": "Koala_358035",
    "title": "Koala_358035",
    "link_img": "https://live.staticflickr.com/65535/50021817031_48b1c08a6e_o.jpg",
    "id_image": "Koala_358035",
    "count_view": 0
  },
  {
    "link_thumb": "https://live.staticflickr.com/65535/50021233376_cbe9a78300_n.jpg",
    "id_album": "-462831703",
    "description": "Cat_765615",
    "title": "Cat_765615",
    "link_img": "https://live.staticflickr.com/65535/50021233376_daa99ee3e6_o.jpg",
    "id_image": "Cat_765615",
    "count_view": 0
  },
  {
    "link_thumb": "https://live.staticflickr.com/65535/50016556703_6cb5a5166c_n.jpg",
    "id_album": "-422187261",
    "description": "Bear_798316",
    "title": "Bear_798316",
    "link_img": "https://live.staticflickr.com/65535/50016556703_e609e0c09c_o.jpg",
    "id_image": "Bear_798316",
    "count_view": 0
  },
  {
    "link_thumb": "https://live.staticflickr.com/65535/50023456692_80a33e5ff5_n.jpg",
    "id_album": "332874268",
    "description": "RedPanda_1000998",
    "title": "RedPanda_1000998",
    "link_img": "https://live.staticflickr.com/65535/50023456692_5fbc6b4646_o.jpg",
    "id_image": "RedPanda_1000998",
    "count_view": 0
  },
  {
    "link_thumb": "https://live.staticflickr.com/65535/50017237963_8dd4c2c8e5_n.jpg",
    "id_album": "-462831705",
    "description": "Cat_117103",
    "title": "Cat_117103",
    "link_img": "https://live.staticflickr.com/65535/50017237963_b5fa4cd97a_o.jpg",
    "id_image": "Cat_117103",
    "count_view": 0
  },
  {
    "link_thumb": "https://live.staticflickr.com/65535/50018627553_4aeb820a6c_n.jpg",
    "id_album": "-462831702",
    "description": "Cat_421950",
    "title": "Cat_421950",
    "link_img": "https://live.staticflickr.com/65535/50018627553_4e5db37002_o.jpg",
    "id_image": "Cat_421950",
    "count_view": 0
  },
  {
    "link_thumb": "https://live.staticflickr.com/65535/50016408513_e276b1836f_n.jpg",
    "id_album": "390697200",
    "description": "AustralianShepherd_709210",
    "title": "AustralianShepherd_709210",
    "link_img": "https://live.staticflickr.com/65535/50016408513_0864bc256d_o.jpg",
    "id_image": "AustralianShepherd_709210",
    "count_view": 0
  },
  {
    "link_thumb": "https://live.staticflickr.com/65535/50352548126_f5e35c4883_n.jpg",
    "id_album": "-462831703",
    "description": "Cat_464841",
    "title": "Cat_464841",
    "link_img": "https://live.staticflickr.com/65535/50352548126_f4e8f955ec_o.jpg",
    "id_image": "Cat_464841",
    "count_view": 0
  },
  {
    "link_thumb": "https://live.staticflickr.com/65535/50351771818_ac6cf57f14_n.jpg",
    "id_album": "-462831703",
    "description": "Cat_365175",
    "title": "Cat_365175",
    "link_img": "https://live.staticflickr.com/65535/50351771818_79384369a1_o.jpg",
    "id_image": "Cat_365175",
    "count_view": 0
  },
  {
    "link_thumb": "https://live.staticflickr.com/65535/50021939841_aee1342420_n.jpg",
    "id_album": "1392348450",
    "description": "Leopard_598768",
    "title": "Leopard_598768",
    "link_img": "https://live.staticflickr.com/65535/50021939841_bd4f8970e3_o.jpg",
    "id_image": "Leopard_598768",
    "count_view": 0
  },
  {
    "link_thumb": "https://live.staticflickr.com/65535/50017255176_8ba04643dd_n.jpg",
    "id_album": "-1846011410",
    "description": "Bird_344883",
    "title": "Bird_344883",
    "link_img": "https://live.staticflickr.com/65535/50017255176_9a6a5d8176_o.jpg",
    "id_image": "Bird_344883",
    "count_view": 0
  },
  {
    "link_thumb": "https://live.staticflickr.com/65535/50017426903_6bcdd164b0_n.jpg",
    "id_album": "-462831702",
    "description": "Cat_311142",
    "title": "Cat_311142",
    "link_img": "https://live.staticflickr.com/65535/50017426903_20ef1aefd4_o.jpg",
    "id_image": "Cat_311142",
    "count_view": 0
  },
  {
    "link_thumb": "https://live.staticflickr.com/65535/50020174168_18662143a5_n.jpg",
    "id_album": "-39098563",
    "description": "Eagle_428512",
    "title": "Eagle_428512",
    "link_img": "https://live.staticflickr.com/65535/50020174168_fd5b53ceae_o.jpg",
    "id_image": "Eagle_428512",
    "count_view": 0
  },
  {
    "link_thumb": "https://live.staticflickr.com/65535/50019314691_2df8388e72_n.jpg",
    "id_album": "-462831703",
    "description": "Cat_846380",
    "title": "Cat_846380",
    "link_img": "https://live.staticflickr.com/65535/50019314691_f522e958a1_o.jpg",
    "id_image": "Cat_846380",
    "count_view": 0
  },
  {
    "link_thumb": "https://live.staticflickr.com/65535/50019329946_2e455814a7_n.jpg",
    "id_album": "-462831703",
    "description": "Cat_857997",
    "title": "Cat_857997",
    "link_img": "https://live.staticflickr.com/65535/50019329946_1bcbf6b563_o.jpg",
    "id_image": "Cat_857997",
    "count_view": 0
  },
  {
    "link_thumb": "https://live.staticflickr.com/65535/50023585843_084071563f_n.jpg",
    "id_album": "405170427",
    "description": "Tiger_433062",
    "title": "Tiger_433062",
    "link_img": "https://live.staticflickr.com/65535/50023585843_66f751d920_o.jpg",
    "id_image": "Tiger_433062",
    "count_view": 0
  },
  {
    "link_thumb": "https://live.staticflickr.com/65535/50019185331_7d3440b677_n.jpg",
    "id_album": "-462831702",
    "description": "Cat_431610",
    "title": "Cat_431610",
    "link_img": "https://live.staticflickr.com/65535/50019185331_8ed4d4310e_o.jpg",
    "id_image": "Cat_431610",
    "count_view": 0
  },
  {
    "link_thumb": "https://live.staticflickr.com/65535/50020153197_5c60094fb1_n.jpg",
    "id_album": "1475096665",
    "description": "Crocodile_456942",
    "title": "Crocodile_456942",
    "link_img": "https://live.staticflickr.com/65535/50020153197_eb6e93bb06_o.jpg",
    "id_image": "Crocodile_456942",
    "count_view": 0
  },
  {
    "link_thumb": "https://live.staticflickr.com/65535/50024438187_f46ff7a63f_n.jpg",
    "id_album": "405170427",
    "description": "Tiger_587554",
    "title": "Tiger_587554",
    "link_img": "https://live.staticflickr.com/65535/50024438187_2f53bea014_o.jpg",
    "id_image": "Tiger_587554",
    "count_view": 0
  },
  {
    "link_thumb": "https://live.staticflickr.com/65535/50020307922_b6c39d4b3b_n.jpg",
    "id_album": "1903411565",
    "description": "Deer_747208",
    "title": "Deer_747208",
    "link_img": "https://live.staticflickr.com/65535/50020307922_938b2e887b_o.jpg",
    "id_image": "Deer_747208",
    "count_view": 0
  },
  {
    "link_thumb": "https://live.staticflickr.com/65535/50023579193_d82bbd5ec3_n.jpg",
    "id_album": "405170427",
    "description": "Tiger_417059",
    "title": "Tiger_417059",
    "link_img": "https://live.staticflickr.com/65535/50023579193_4f91deeda2_o.jpg",
    "id_image": "Tiger_417059",
    "count_view": 0
  },
  {
    "link_thumb": "https://live.staticflickr.com/65535/50023025901_a3ee52015b_n.jpg",
    "id_album": "-353898617",
    "description": "Puppy_572138",
    "title": "Puppy_572138",
    "link_img": "https://live.staticflickr.com/65535/50023025901_52a3c4e217_o.jpg",
    "id_image": "Puppy_572138",
    "count_view": 0
  },
  {
    "link_thumb": "https://live.staticflickr.com/65535/50017116163_19ed4102ba_n.jpg",
    "id_album": "-401151552",
    "description": "Butterfly_685776",
    "title": "Butterfly_685776",
    "link_img": "https://live.staticflickr.com/65535/50017116163_e3d5f0daa8_o.jpg",
    "id_image": "Butterfly_685776",
    "count_view": 0
  },
  {
    "link_thumb": "https://live.staticflickr.com/65535/50019515586_6858a5b07a_n.jpg",
    "id_album": "-462831703",
    "description": "Cat_951684",
    "title": "Cat_951684",
    "link_img": "https://live.staticflickr.com/65535/50019515586_ee40556556_o.jpg",
    "id_image": "Cat_951684",
    "count_view": 0
  },
  {
    "link_thumb": "https://live.staticflickr.com/65535/50021239311_f82afd301a_n.jpg",
    "id_album": "-462831703",
    "description": "Cat_777745",
    "title": "Cat_777745",
    "link_img": "https://live.staticflickr.com/65535/50021239311_1d617087b4_o.jpg",
    "id_image": "Cat_777745",
    "count_view": 0
  },
  {
    "link_thumb": "https://live.staticflickr.com/65535/50019406601_1c79ff5b9e_n.jpg",
    "id_album": "-462831703",
    "description": "Cat_897451",
    "title": "Cat_897451",
    "link_img": "https://live.staticflickr.com/65535/50019406601_bde4647185_o.jpg",
    "id_image": "Cat_897451",
    "count_view": 0
  },
  {
    "link_thumb": "https://live.staticflickr.com/65535/50019294201_e99a90ae31_n.jpg",
    "id_album": "-462831704",
    "description": "Cat_529618",
    "title": "Cat_529618",
    "link_img": "https://live.staticflickr.com/65535/50019294201_995a3a656f_o.jpg",
    "id_image": "Cat_529618",
    "count_view": 0
  },
  {
    "link_thumb": "https://live.staticflickr.com/65535/50019951541_8858013b6c_n.jpg",
    "id_album": "1831085598",
    "description": "Dachshund_442029",
    "title": "Dachshund_442029",
    "link_img": "https://live.staticflickr.com/65535/50019951541_2b8ccab961_o.jpg",
    "id_image": "Dachshund_442029",
    "count_view": 0
  },
  {
    "link_thumb": "https://live.staticflickr.com/65535/50022144547_8a4c00d727_n.jpg",
    "id_album": "1392348450",
    "description": "Leopard_210492",
    "title": "Leopard_210492",
    "link_img": "https://live.staticflickr.com/65535/50022144547_e9ec26958a_o.jpg",
    "id_image": "Leopard_210492",
    "count_view": 0
  },
  {
    "link_thumb": "https://live.staticflickr.com/65535/50020182137_143673472e_n.jpg",
    "id_album": "1273365283",
    "description": "Cute_277093",
    "title": "Cute_277093",
    "link_img": "https://live.staticflickr.com/65535/50020182137_63d456524f_o.jpg",
    "id_image": "Cute_277093",
    "count_view": 0
  },
  {
    "link_thumb": "https://live.staticflickr.com/65535/50023450247_7f2d353c92_n.jpg",
    "id_album": "-1862965835",
    "description": "RedEyedTreeFrog_747170",
    "title": "RedEyedTreeFrog_747170",
    "link_img": "https://live.staticflickr.com/65535/50023450247_50ee4046cb_o.jpg",
    "id_image": "RedEyedTreeFrog_747170",
    "count_view": 0
  },
  {
    "link_thumb": "https://live.staticflickr.com/65535/50019554496_987c654c97_n.jpg",
    "id_album": "-462831703",
    "description": "Cat_983996",
    "title": "Cat_983996",
    "link_img": "https://live.staticflickr.com/65535/50019554496_92a0e885ba_o.jpg",
    "id_image": "Cat_983996",
    "count_view": 0
  },
  {
    "link_thumb": "https://live.staticflickr.com/65535/50020376801_13de6b6d92_n.jpg",
    "id_album": "-149330231",
    "description": "Dog_402710",
    "title": "Dog_402710",
    "link_img": "https://live.staticflickr.com/65535/50020376801_a323464b3e_o.jpg",
    "id_image": "Dog_402710",
    "count_view": 0
  },
  {
    "link_thumb": "https://live.staticflickr.com/65535/50017352267_19b729bdac_n.jpg",
    "id_album": "-422187261",
    "description": "Bear_861471",
    "title": "Bear_861471",
    "link_img": "https://live.staticflickr.com/65535/50017352267_d0d1947793_o.jpg",
    "id_image": "Bear_861471",
    "count_view": 0
  },
  {
    "link_thumb": "https://live.staticflickr.com/65535/50022852998_0e48c8ce0d_n.jpg",
    "id_album": "1961094930",
    "description": "Seal_177407",
    "title": "Seal_177407",
    "link_img": "https://live.staticflickr.com/65535/50022852998_a1b44ea52a_o.jpg",
    "id_image": "Seal_177407",
    "count_view": 0
  },
  {
    "link_thumb": "https://live.staticflickr.com/65535/50024734577_c9fdf7f716_n.jpg",
    "id_album": "-709711865",
    "description": "Wolf_325510",
    "title": "Wolf_325510",
    "link_img": "https://live.staticflickr.com/65535/50024734577_cc781003ed_o.jpg",
    "id_image": "Wolf_325510",
    "count_view": 0
  },
  {
    "link_thumb": "https://live.staticflickr.com/65535/50022197757_99eb9061cd_n.jpg",
    "id_album": "1392348450",
    "description": "Leopard_602494",
    "title": "Leopard_602494",
    "link_img": "https://live.staticflickr.com/65535/50022197757_9a2c33eca1_o.jpg",
    "id_image": "Leopard_602494",
    "count_view": 0
  },
  {
    "link_thumb": "https://live.staticflickr.com/65535/50019854412_a62c7fd189_n.jpg",
    "id_album": "-1930903528",
    "description": "CatDog_899563",
    "title": "CatDog_899563",
    "link_img": "https://live.staticflickr.com/65535/50019854412_3da29b3063_o.jpg",
    "id_image": "CatDog_899563",
    "count_view": 0
  },
  {
    "link_thumb": "https://live.staticflickr.com/65535/50022918952_6fa9147a7c_n.jpg",
    "id_album": "1146438617",
    "description": "Pelican_705501",
    "title": "Pelican_705501",
    "link_img": "https://live.staticflickr.com/65535/50022918952_5015dcbbee_o.jpg",
    "id_image": "Pelican_705501",
    "count_view": 0
  },
  {
    "link_thumb": "https://live.staticflickr.com/65535/50020431133_2b5f6f94e3_n.jpg",
    "id_album": "-128218148",
    "description": "Fox_542456",
    "title": "Fox_542456",
    "link_img": "https://live.staticflickr.com/65535/50020431133_e305738142_o.jpg",
    "id_image": "Fox_542456",
    "count_view": 0
  },
  {
    "link_thumb": "https://live.staticflickr.com/65535/50021201611_de71272a68_n.jpg",
    "id_album": "-462831704",
    "description": "Cat_719484",
    "title": "Cat_719484",
    "link_img": "https://live.staticflickr.com/65535/50021201611_59912a64a3_o.jpg",
    "id_image": "Cat_719484",
    "count_view": 0
  },
  {
    "link_thumb": "https://live.staticflickr.com/65535/50022453453_65fb633d64_n.jpg",
    "id_album": "-353898617",
    "description": "Puppy_435151",
    "title": "Puppy_435151",
    "link_img": "https://live.staticflickr.com/65535/50022453453_b68442b109_o.jpg",
    "id_image": "Puppy_435151",
    "count_view": 0
  },
  {
    "link_thumb": "https://live.staticflickr.com/65535/50022479176_46a91ab9d7_n.jpg",
    "id_album": "-1384601601",
    "description": "Owl_778949",
    "title": "Owl_778949",
    "link_img": "https://live.staticflickr.com/65535/50022479176_5d714a6ccb_o.jpg",
    "id_image": "Owl_778949",
    "count_view": 0
  },
  {
    "link_thumb": "https://live.staticflickr.com/65535/50021568196_c583bb5cfb_n.jpg",
    "id_album": "-1933715543",
    "description": "Horse_796460",
    "title": "Horse_796460",
    "link_img": "https://live.staticflickr.com/65535/50021568196_c699948921_o.jpg",
    "id_image": "Horse_796460",
    "count_view": 0
  },
  {
    "link_thumb": "https://live.staticflickr.com/65535/50020171983_904fecffca_n.jpg",
    "id_album": "-39098563",
    "description": "Eagle_406399",
    "title": "Eagle_406399",
    "link_img": "https://live.staticflickr.com/65535/50020171983_aafaa5b625_o.jpg",
    "id_image": "Eagle_406399",
    "count_view": 0
  },
  {
    "link_thumb": "https://live.staticflickr.com/65535/50019926836_a0121641dc_n.jpg",
    "id_album": "1273365283",
    "description": "Cute_277724",
    "title": "Cute_277724",
    "link_img": "https://live.staticflickr.com/65535/50019926836_3361fc6530_o.jpg",
    "id_image": "Cute_277724",
    "count_view": 0
  },
  {
    "link_thumb": "https://live.staticflickr.com/65535/50017204593_cc0d5785a9_n.jpg",
    "id_album": "189994021",
    "description": "Cardinal_380991",
    "title": "Cardinal_380991",
    "link_img": "https://live.staticflickr.com/65535/50017204593_ec61fca401_o.jpg",
    "id_image": "Cardinal_380991",
    "count_view": 0
  },
  {
    "link_thumb": "https://live.staticflickr.com/65535/50022300931_6140f8d395_n.jpg",
    "id_album": "1957967135",
    "description": "Mouse_978772",
    "title": "Mouse_978772",
    "link_img": "https://live.staticflickr.com/65535/50022300931_725b3b910a_o.jpg",
    "id_image": "Mouse_978772",
    "count_view": 0
  },
  {
    "link_thumb": "https://live.staticflickr.com/65535/50024254186_c5bdab8a5a_n.jpg",
    "id_album": "405170427",
    "description": "Tiger_980640",
    "title": "Tiger_980640",
    "link_img": "https://live.staticflickr.com/65535/50024254186_a90a850220_o.jpg",
    "id_image": "Tiger_980640",
    "count_view": 0
  },
  {
    "link_thumb": "https://live.staticflickr.com/65535/50024329677_175c81a63c_n.jpg",
    "id_album": "405170427",
    "description": "Tiger_344808",
    "title": "Tiger_344808",
    "link_img": "https://live.staticflickr.com/65535/50024329677_63dc2fbc8f_o.jpg",
    "id_image": "Tiger_344808",
    "count_view": 0
  },
  {
    "link_thumb": "https://live.staticflickr.com/65535/50021307722_b080a313dc_n.jpg",
    "id_album": "844170697",
    "description": "Frog_312361",
    "title": "Frog_312361",
    "link_img": "https://live.staticflickr.com/65535/50021307722_83b283e645_o.jpg",
    "id_image": "Frog_312361",
    "count_view": 0
  },
  {
    "link_thumb": "https://live.staticflickr.com/65535/50019400886_3b00894caf_n.jpg",
    "id_album": "-462831703",
    "description": "Cat_892204",
    "title": "Cat_892204",
    "link_img": "https://live.staticflickr.com/65535/50019400886_1f742813e0_o.jpg",
    "id_image": "Cat_892204",
    "count_view": 0
  },
  {
    "link_thumb": "https://live.staticflickr.com/65535/50017045301_b923eaf2d1_n.jpg",
    "id_album": "-422187261",
    "description": "Bear_433071",
    "title": "Bear_433071",
    "link_img": "https://live.staticflickr.com/65535/50017045301_2d8a8be985_o.jpg",
    "id_image": "Bear_433071",
    "count_view": 0
  },
  {
    "link_thumb": "https://live.staticflickr.com/65535/50021252052_de672682c9_n.jpg",
    "id_album": "-128218148",
    "description": "Fox_745658",
    "title": "Fox_745658",
    "link_img": "https://live.staticflickr.com/65535/50021252052_14c468181a_o.jpg",
    "id_image": "Fox_745658",
    "count_view": 0
  },
  {
    "link_thumb": "https://live.staticflickr.com/65535/50017171316_80dbf68e00_n.jpg",
    "id_album": "172748811",
    "description": "Beeeater_421549",
    "title": "Beeeater_421549",
    "link_img": "https://live.staticflickr.com/65535/50017171316_7e6b530240_o.jpg",
    "id_image": "Beeeater_421549",
    "count_view": 0
  },
  {
    "link_thumb": "https://live.staticflickr.com/65535/50019443893_ff2ca2a6be_n.jpg",
    "id_album": "1903411565",
    "description": "Deer_118738",
    "title": "Deer_118738",
    "link_img": "https://live.staticflickr.com/65535/50019443893_9ac8f3807c_o.jpg",
    "id_image": "Deer_118738",
    "count_view": 0
  },
  {
    "link_thumb": "https://live.staticflickr.com/65535/50020417983_47249276f3_n.jpg",
    "id_album": "-128218148",
    "description": "Fox_402363",
    "title": "Fox_402363",
    "link_img": "https://live.staticflickr.com/65535/50020417983_d92e4df803_o.jpg",
    "id_image": "Fox_402363",
    "count_view": 0
  },
  {
    "link_thumb": "https://live.staticflickr.com/65535/50352634252_4e46a16c50_n.jpg",
    "id_album": "-462831703",
    "description": "Cat_369572",
    "title": "Cat_369572",
    "link_img": "https://live.staticflickr.com/65535/50352634252_80498bbd8a_o.jpg",
    "id_image": "Cat_369572",
    "count_view": 0
  },
  {
    "link_thumb": "https://live.staticflickr.com/65535/50016842986_6f10979938_n.jpg",
    "id_album": "-834314226",
    "description": "ArcticFox_343450",
    "title": "ArcticFox_343450",
    "link_img": "https://live.staticflickr.com/65535/50016842986_d4c6908520_o.jpg",
    "id_image": "ArcticFox_343450",
    "count_view": 0
  },
  {
    "link_thumb": "https://live.staticflickr.com/65535/50352414821_3cedd76219_n.jpg",
    "id_album": "-462831703",
    "description": "Cat_189588",
    "title": "Cat_189588",
    "link_img": "https://live.staticflickr.com/65535/50352414821_bdc3190463_o.jpg",
    "id_image": "Cat_189588",
    "count_view": 0
  },
  {
    "link_thumb": "https://live.staticflickr.com/65535/50019332496_74da525a79_n.jpg",
    "id_album": "-462831703",
    "description": "Cat_860916",
    "title": "Cat_860916",
    "link_img": "https://live.staticflickr.com/65535/50019332496_3a8915a1b5_o.jpg",
    "id_image": "Cat_860916",
    "count_view": 0
  },
  {
    "link_thumb": "https://live.staticflickr.com/65535/50024188372_6740f08808_n.jpg",
    "id_album": "702283289",
    "description": "Squirrel_717008",
    "title": "Squirrel_717008",
    "link_img": "https://live.staticflickr.com/65535/50024188372_96e04ef663_o.jpg",
    "id_image": "Squirrel_717008",
    "count_view": 0
  },
  {
    "link_thumb": "https://live.staticflickr.com/65535/50021593597_0bf56faaef_n.jpg",
    "id_album": "-804131074",
    "description": "Goat_325870",
    "title": "Goat_325870",
    "link_img": "https://live.staticflickr.com/65535/50021593597_0bd27d17b2_o.jpg",
    "id_image": "Goat_325870",
    "count_view": 0
  },
  {
    "link_thumb": "https://live.staticflickr.com/65535/50019822507_381a9990c3_n.jpg",
    "id_album": "-462831703",
    "description": "Cat_992596",
    "title": "Cat_992596",
    "link_img": "https://live.staticflickr.com/65535/50019822507_3d16aa6818_o.jpg",
    "id_image": "Cat_992596",
    "count_view": 0
  },
  {
    "link_thumb": "https://live.staticflickr.com/65535/50019782393_6aeab9495e_n.jpg",
    "id_album": "-149330232",
    "description": "Dog_357830",
    "title": "Dog_357830",
    "link_img": "https://live.staticflickr.com/65535/50019782393_f2f9c2a3cd_o.jpg",
    "id_image": "Dog_357830",
    "count_view": 0
  },
  {
    "link_thumb": "https://live.staticflickr.com/65535/50019101958_de5c941352_n.jpg",
    "id_album": "1889777354",
    "description": "CGI_898702",
    "title": "CGI_898702",
    "link_img": "https://live.staticflickr.com/65535/50019101958_e524e85c98_o.jpg",
    "id_image": "CGI_898702",
    "count_view": 0
  },
  {
    "link_thumb": "https://live.staticflickr.com/65535/50021531571_70a5967079_n.jpg",
    "id_album": "-1933715543",
    "description": "Horse_506295",
    "title": "Horse_506295",
    "link_img": "https://live.staticflickr.com/65535/50021531571_8630cb6ecc_o.jpg",
    "id_image": "Horse_506295",
    "count_view": 0
  },
  {
    "link_thumb": "https://live.staticflickr.com/65535/50020684918_300cc9be82_n.jpg",
    "id_album": "-462831703",
    "description": "Cat_748614",
    "title": "Cat_748614",
    "link_img": "https://live.staticflickr.com/65535/50020684918_c7b087b9df_o.jpg",
    "id_image": "Cat_748614",
    "count_view": 0
  },
  {
    "link_thumb": "https://live.staticflickr.com/65535/50022279586_1a87020425_n.jpg",
    "id_album": "1610416937",
    "description": "Moth_574434",
    "title": "Moth_574434",
    "link_img": "https://live.staticflickr.com/65535/50022279586_ba6b11117e_o.jpg",
    "id_image": "Moth_574434",
    "count_view": 0
  },
  {
    "link_thumb": "https://live.staticflickr.com/65535/50021070698_741a551cd7_n.jpg",
    "id_album": "2144294979",
    "description": "Hummingbird_523706",
    "title": "Hummingbird_523706",
    "link_img": "https://live.staticflickr.com/65535/50021070698_f97cf31b08_o.jpg",
    "id_image": "Hummingbird_523706",
    "count_view": 0
  },
  {
    "link_thumb": "https://live.staticflickr.com/65535/50017986262_5f27eac250_n.jpg",
    "id_album": "-1131161368",
    "description": "Camel_353355",
    "title": "Camel_353355",
    "link_img": "https://live.staticflickr.com/65535/50017986262_4a1cf0188d_o.jpg",
    "id_image": "Camel_353355",
    "count_view": 0
  },
  {
    "link_thumb": "https://live.staticflickr.com/65535/50021943046_433d9e2c16_n.jpg",
    "id_album": "1392348450",
    "description": "Leopard_685478",
    "title": "Leopard_685478",
    "link_img": "https://live.staticflickr.com/65535/50021943046_f80c512284_o.jpg",
    "id_image": "Leopard_685478",
    "count_view": 0
  },
  {
    "link_thumb": "https://live.staticflickr.com/65535/50023796793_4a49f98eb9_n.jpg",
    "id_album": "410750612",
    "description": "Wasp_414775",
    "title": "Wasp_414775",
    "link_img": "https://live.staticflickr.com/65535/50023796793_725897ba7a_o.jpg",
    "id_image": "Wasp_414775",
    "count_view": 0
  },
  {
    "link_thumb": "https://live.staticflickr.com/65535/50023908453_8283a5890a_n.jpg",
    "id_album": "766572659",
    "description": "WhiteTiger_929033",
    "title": "WhiteTiger_929033",
    "link_img": "https://live.staticflickr.com/65535/50023908453_79e6f8495b_o.jpg",
    "id_image": "WhiteTiger_929033",
    "count_view": 0
  },
  {
    "link_thumb": "https://live.staticflickr.com/65535/50019764573_5dd50199ab_n.jpg",
    "id_album": "-149330232",
    "description": "Dog_349722",
    "title": "Dog_349722",
    "link_img": "https://live.staticflickr.com/65535/50019764573_aeb9d36aab_o.jpg",
    "id_image": "Dog_349722",
    "count_view": 0
  },
  {
    "link_thumb": "https://live.staticflickr.com/65535/50017267663_c80a8f668d_n.jpg",
    "id_album": "-462831705",
    "description": "Cat_166560",
    "title": "Cat_166560",
    "link_img": "https://live.staticflickr.com/65535/50017267663_b060f676e3_o.jpg",
    "id_image": "Cat_166560",
    "count_view": 0
  },
  {
    "link_thumb": "https://live.staticflickr.com/65535/50018011076_a6e0aca1d6_n.jpg",
    "id_album": "-462831702",
    "description": "Cat_340665",
    "title": "Cat_340665",
    "link_img": "https://live.staticflickr.com/65535/50018011076_e87dcc3096_o.jpg",
    "id_image": "Cat_340665",
    "count_view": 0
  },
  {
    "link_thumb": "https://live.staticflickr.com/65535/50019700436_fa3c6d9105_n.jpg",
    "id_album": "-1481843714",
    "description": "Cheetah_384833",
    "title": "Cheetah_384833",
    "link_img": "https://live.staticflickr.com/65535/50019700436_153e2f30e3_o.jpg",
    "id_image": "Cheetah_384833",
    "count_view": 0
  },
  {
    "link_thumb": "https://live.staticflickr.com/65535/50021763366_f0853c7644_n.jpg",
    "id_album": "1562047127",
    "description": "Jellyfish_325966",
    "title": "Jellyfish_325966",
    "link_img": "https://live.staticflickr.com/65535/50021763366_52bfd7fef6_o.jpg",
    "id_image": "Jellyfish_325966",
    "count_view": 0
  },
  {
    "link_thumb": "https://live.staticflickr.com/65535/50352832442_8442e3cd17_n.jpg",
    "id_album": "-462831703",
    "description": "Cat_970321",
    "title": "Cat_970321",
    "link_img": "https://live.staticflickr.com/65535/50352832442_2d52a7bfbf_o.jpg",
    "id_image": "Cat_970321",
    "count_view": 0
  },
  {
    "link_thumb": "https://live.staticflickr.com/65535/50019450901_66d433cfd1_n.jpg",
    "id_album": "-462831705",
    "description": "Cat_91395",
    "title": "Cat_91395",
    "link_img": "https://live.staticflickr.com/65535/50019450901_020a94142f_o.jpg",
    "id_image": "Cat_91395",
    "count_view": 0
  },
  {
    "link_thumb": "https://live.staticflickr.com/65535/50022447497_ac2ab3ccf0_n.jpg",
    "id_album": "-1720012921",
    "description": "Meerkat_683474",
    "title": "Meerkat_683474",
    "link_img": "https://live.staticflickr.com/65535/50022447497_c071d290f6_o.jpg",
    "id_image": "Meerkat_683474",
    "count_view": 0
  },
  {
    "link_thumb": "https://live.staticflickr.com/65535/50019706683_e323d1db08_n.jpg",
    "id_album": "-149330232",
    "description": "Dog_323391",
    "title": "Dog_323391",
    "link_img": "https://live.staticflickr.com/65535/50019706683_8225b3d78b_o.jpg",
    "id_image": "Dog_323391",
    "count_view": 0
  },
  {
    "link_thumb": "https://live.staticflickr.com/65535/50020265187_f3fc813fdc_n.jpg",
    "id_album": "1903411565",
    "description": "Deer_427484",
    "title": "Deer_427484",
    "link_img": "https://live.staticflickr.com/65535/50020265187_ac84164447_o.jpg",
    "id_image": "Deer_427484",
    "count_view": 0
  },
  {
    "link_thumb": "https://live.staticflickr.com/65535/50016974496_6447487dc3_n.jpg",
    "id_album": "231236068",
    "description": "BaldEagle_998330",
    "title": "BaldEagle_998330",
    "link_img": "https://live.staticflickr.com/65535/50016974496_84f57f2c46_o.jpg",
    "id_image": "BaldEagle_998330",
    "count_view": 0
  },
  {
    "link_thumb": "https://live.staticflickr.com/65535/50019545533_12d98f9dfc_n.jpg",
    "id_album": "297232732",
    "description": "Dinosaur_156627",
    "title": "Dinosaur_156627",
    "link_img": "https://live.staticflickr.com/65535/50019545533_b899ccc69b_o.jpg",
    "id_image": "Dinosaur_156627",
    "count_view": 0
  },
  {
    "link_thumb": "https://live.staticflickr.com/65535/50021390446_0cb66e65ae_n.jpg",
    "id_album": "1950225324",
    "description": "Gorilla_286528",
    "title": "Gorilla_286528",
    "link_img": "https://live.staticflickr.com/65535/50021390446_27322e1c47_o.jpg",
    "id_image": "Gorilla_286528",
    "count_view": 0
  },
  {
    "link_thumb": "https://live.staticflickr.com/65535/50017572507_1770d2a330_n.jpg",
    "id_album": "-1846011410",
    "description": "Bird_406401",
    "title": "Bird_406401",
    "link_img": "https://live.staticflickr.com/65535/50017572507_ab3afc0323_o.jpg",
    "id_image": "Bird_406401",
    "count_view": 0
  },
  {
    "link_thumb": "https://live.staticflickr.com/65535/50021973252_c9928bc587_n.jpg",
    "id_album": "-843028318",
    "description": "Jaguar_279324",
    "title": "Jaguar_279324",
    "link_img": "https://live.staticflickr.com/65535/50021973252_b7fa318f78_o.jpg",
    "id_image": "Jaguar_279324",
    "count_view": 0
  },
  {
    "link_thumb": "https://live.staticflickr.com/65535/50019243986_401f0aa4e1_n.jpg",
    "id_album": "-462831704",
    "description": "Cat_470995",
    "title": "Cat_470995",
    "link_img": "https://live.staticflickr.com/65535/50019243986_0965a4bc0e_o.jpg",
    "id_image": "Cat_470995",
    "count_view": 0
  },
  {
    "link_thumb": "https://live.staticflickr.com/65535/50022174847_3c8399fb0d_n.jpg",
    "id_album": "1392348450",
    "description": "Leopard_390162",
    "title": "Leopard_390162",
    "link_img": "https://live.staticflickr.com/65535/50022174847_09a51bd6f4_o.jpg",
    "id_image": "Leopard_390162",
    "count_view": 0
  },
  {
    "link_thumb": "https://live.staticflickr.com/65535/50021108436_ec09edaccd_n.jpg",
    "id_album": "-462831704",
    "description": "Cat_548998",
    "title": "Cat_548998",
    "link_img": "https://live.staticflickr.com/65535/50021108436_e07d5151b9_o.jpg",
    "id_image": "Cat_548998",
    "count_view": 0
  },
  {
    "link_thumb": "https://live.staticflickr.com/65535/50020809338_38f12ef9f8_n.jpg",
    "id_album": "2060159334",
    "description": "GoldenRetriever_650883",
    "title": "GoldenRetriever_650883",
    "link_img": "https://live.staticflickr.com/65535/50020809338_affcfe96af_o.jpg",
    "id_image": "GoldenRetriever_650883",
    "count_view": 0
  },
  {
    "link_thumb": "https://live.staticflickr.com/65535/50016577943_0f4522612b_n.jpg",
    "id_album": "-422187261",
    "description": "Bear_932066",
    "title": "Bear_932066",
    "link_img": "https://live.staticflickr.com/65535/50016577943_3f519715b8_o.jpg",
    "id_image": "Bear_932066",
    "count_view": 0
  },
  {
    "link_thumb": "https://live.staticflickr.com/65535/50018032702_ced97e9c8e_n.jpg",
    "id_album": "-462831705",
    "description": "Cat_117548",
    "title": "Cat_117548",
    "link_img": "https://live.staticflickr.com/65535/50018032702_34c2a81d59_o.jpg",
    "id_image": "Cat_117548",
    "count_view": 0
  },
  {
    "link_thumb": "https://live.staticflickr.com/65535/50017864311_2e31340f49_n.jpg",
    "id_album": "-462831705",
    "description": "Cat_216159",
    "title": "Cat_216159",
    "link_img": "https://live.staticflickr.com/65535/50017864311_84dcf36533_o.jpg",
    "id_image": "Cat_216159",
    "count_view": 0
  },
  {
    "link_thumb": "https://live.staticflickr.com/65535/50020062406_fa4277c50d_n.jpg",
    "id_album": "1903411565",
    "description": "Deer_909404",
    "title": "Deer_909404",
    "link_img": "https://live.staticflickr.com/65535/50020062406_e502503df7_o.jpg",
    "id_image": "Deer_909404",
    "count_view": 0
  },
  {
    "link_thumb": "https://live.staticflickr.com/65535/50021784496_e06eb7b235_n.jpg",
    "id_album": "1562047127",
    "description": "Jellyfish_834999",
    "title": "Jellyfish_834999",
    "link_img": "https://live.staticflickr.com/65535/50021784496_1d762c9c71_o.jpg",
    "id_image": "Jellyfish_834999",
    "count_view": 0
  },
  {
    "link_thumb": "https://live.staticflickr.com/65535/50017488308_2bc3289d07_n.jpg",
    "id_album": "-462831702",
    "description": "Cat_343024",
    "title": "Cat_343024",
    "link_img": "https://live.staticflickr.com/65535/50017488308_9303258212_o.jpg",
    "id_image": "Cat_343024",
    "count_view": 0
  },
  {
    "link_thumb": "https://live.staticflickr.com/65535/50020210421_bf8502d507_n.jpg",
    "id_album": "-149330232",
    "description": "Dog_275600",
    "title": "Dog_275600",
    "link_img": "https://live.staticflickr.com/65535/50020210421_a1debc2312_o.jpg",
    "id_image": "Dog_275600",
    "count_view": 0
  },
  {
    "link_thumb": "https://live.staticflickr.com/65535/50022684276_e9c34954de_n.jpg",
    "id_album": "392248205",
    "description": "Penguin_258398",
    "title": "Penguin_258398",
    "link_img": "https://live.staticflickr.com/65535/50022684276_3e2b82bbbb_o.jpg",
    "id_image": "Penguin_258398",
    "count_view": 0
  },
  {
    "link_thumb": "https://live.staticflickr.com/65535/50021576416_ba33a92c43_n.jpg",
    "id_album": "-1933715543",
    "description": "Horse_867729",
    "title": "Horse_867729",
    "link_img": "https://live.staticflickr.com/65535/50021576416_593bd064ba_o.jpg",
    "id_image": "Horse_867729",
    "count_view": 0
  },
  {
    "link_thumb": "https://live.staticflickr.com/65535/50019109203_1e4f1d45a8_n.jpg",
    "id_album": "-766919393",
    "description": "Chameleon_329872",
    "title": "Chameleon_329872",
    "link_img": "https://live.staticflickr.com/65535/50019109203_ddd5a243db_o.jpg",
    "id_image": "Chameleon_329872",
    "count_view": 0
  },
  {
    "link_thumb": "https://live.staticflickr.com/65535/50024420432_3aeae8e727_n.jpg",
    "id_album": "405170427",
    "description": "Tiger_556334",
    "title": "Tiger_556334",
    "link_img": "https://live.staticflickr.com/65535/50024420432_9c254ef5bf_o.jpg",
    "id_image": "Tiger_556334",
    "count_view": 0
  },
  {
    "link_thumb": "https://live.staticflickr.com/65535/50021257008_53ecc17f80_n.jpg",
    "id_album": "770105808",
    "description": "Kingfisher_416142",
    "title": "Kingfisher_416142",
    "link_img": "https://live.staticflickr.com/65535/50021257008_e4fc28819a_o.jpg",
    "id_image": "Kingfisher_416142",
    "count_view": 0
  },
  {
    "link_thumb": "https://live.staticflickr.com/65535/50017963776_bd7e67c981_n.jpg",
    "id_album": "-462831702",
    "description": "Cat_323254",
    "title": "Cat_323254",
    "link_img": "https://live.staticflickr.com/65535/50017963776_8d6eaf60ac_o.jpg",
    "id_image": "Cat_323254",
    "count_view": 0
  },
  {
    "link_thumb": "https://live.staticflickr.com/65535/50023127488_d9f99efa96_n.jpg",
    "id_album": "-1131363127",
    "description": "SnowLeopard_770980",
    "title": "SnowLeopard_770980",
    "link_img": "https://live.staticflickr.com/65535/50023127488_70d33c74ea_o.jpg",
    "id_image": "SnowLeopard_770980",
    "count_view": 0
  },
  {
    "link_thumb": "https://live.staticflickr.com/65535/50017571473_5bafa00513_n.jpg",
    "id_album": "-462831705",
    "description": "Cat_37427",
    "title": "Cat_37427",
    "link_img": "https://live.staticflickr.com/65535/50017571473_ce27d4ca4a_o.jpg",
    "id_image": "Cat_37427",
    "count_view": 0
  },
  {
    "link_thumb": "https://live.staticflickr.com/65535/50352703347_d73fcb3e6b_n.jpg",
    "id_album": "-462831703",
    "description": "Cat_461820",
    "title": "Cat_461820",
    "link_img": "https://live.staticflickr.com/65535/50352703347_961c320e58_o.jpg",
    "id_image": "Cat_461820",
    "count_view": 0
  },
  {
    "link_thumb": "https://live.staticflickr.com/65535/50023708748_dba5856921_n.jpg",
    "id_album": "405170427",
    "description": "Tiger_978166",
    "title": "Tiger_978166",
    "link_img": "https://live.staticflickr.com/65535/50023708748_ece66c9a97_o.jpg",
    "id_image": "Tiger_978166",
    "count_view": 0
  },
  {
    "link_thumb": "https://live.staticflickr.com/65535/50017335521_c3d4f6692e_n.jpg",
    "id_album": "-1846011410",
    "description": "Bird_437850",
    "title": "Bird_437850",
    "link_img": "https://live.staticflickr.com/65535/50017335521_ca2db45768_o.jpg",
    "id_image": "Bird_437850",
    "count_view": 0
  },
  {
    "link_thumb": "https://live.staticflickr.com/65535/50352653447_854347181b_n.jpg",
    "id_album": "-462831703",
    "description": "Cat_394372",
    "title": "Cat_394372",
    "link_img": "https://live.staticflickr.com/65535/50352653447_9aeb4cb27e_o.jpg",
    "id_image": "Cat_394372",
    "count_view": 0
  },
  {
    "link_thumb": "https://live.staticflickr.com/65535/50021549307_69a0ea3bb2_n.jpg",
    "id_album": "-405626519",
    "description": "GermanShepherd_685176",
    "title": "GermanShepherd_685176",
    "link_img": "https://live.staticflickr.com/65535/50021549307_03234dc208_o.jpg",
    "id_image": "GermanShepherd_685176",
    "count_view": 0
  },
  {
    "link_thumb": "https://live.staticflickr.com/65535/50020546193_06dfc1e573_n.jpg",
    "id_album": "844170697",
    "description": "Frog_983086",
    "title": "Frog_983086",
    "link_img": "https://live.staticflickr.com/65535/50020546193_0ecb71fa7b_o.jpg",
    "id_image": "Frog_983086",
    "count_view": 0
  },
  {
    "link_thumb": "https://live.staticflickr.com/65535/50023957667_c698d7584e_n.jpg",
    "id_album": "-359606417",
    "description": "Sparrow_311618",
    "title": "Sparrow_311618",
    "link_img": "https://live.staticflickr.com/65535/50023957667_be6229facf_o.jpg",
    "id_image": "Sparrow_311618",
    "count_view": 0
  },
  {
    "link_thumb": "https://live.staticflickr.com/65535/50021298386_b94f2339a3_n.jpg",
    "id_album": "-405626519",
    "description": "GermanShepherd_734381",
    "title": "GermanShepherd_734381",
    "link_img": "https://live.staticflickr.com/65535/50021298386_99e420e0ab_o.jpg",
    "id_image": "GermanShepherd_734381",
    "count_view": 0
  },
  {
    "link_thumb": "https://live.staticflickr.com/65535/50017243568_e65287fd07_n.jpg",
    "id_album": "-462831705",
    "description": "Cat_117537",
    "title": "Cat_117537",
    "link_img": "https://live.staticflickr.com/65535/50017243568_5d873ece05_o.jpg",
    "id_image": "Cat_117537",
    "count_view": 0
  },
  {
    "link_thumb": "https://live.staticflickr.com/65535/50021375022_d65fe7c7b9_n.jpg",
    "id_album": "-462831704",
    "description": "Cat_572001",
    "title": "Cat_572001",
    "link_img": "https://live.staticflickr.com/65535/50021375022_9419238201_o.jpg",
    "id_image": "Cat_572001",
    "count_view": 0
  },
  {
    "link_thumb": "https://live.staticflickr.com/65535/50019469376_22cd7648a5_n.jpg",
    "id_album": "-462831703",
    "description": "Cat_919152",
    "title": "Cat_919152",
    "link_img": "https://live.staticflickr.com/65535/50019469376_21b950cc4e_o.jpg",
    "id_image": "Cat_919152",
    "count_view": 0
  },
  {
    "link_thumb": "https://live.staticflickr.com/65535/50019577256_e97732ea25_n.jpg",
    "id_album": "-462831703",
    "description": "Cat_999144",
    "title": "Cat_999144",
    "link_img": "https://live.staticflickr.com/65535/50019577256_bbbf374550_o.jpg",
    "id_image": "Cat_999144",
    "count_view": 0
  },
  {
    "link_thumb": "https://live.staticflickr.com/65535/50021903747_9da10698c8_n.jpg",
    "id_album": "-737856092",
    "description": "Iguana_438517",
    "title": "Iguana_438517",
    "link_img": "https://live.staticflickr.com/65535/50021903747_1ec1ff7219_o.jpg",
    "id_image": "Iguana_438517",
    "count_view": 0
  },
  {
    "link_thumb": "https://live.staticflickr.com/65535/50019604211_708dfeabcd_n.jpg",
    "id_album": "-420782796",
    "description": "Caterpillar_391705",
    "title": "Caterpillar_391705",
    "link_img": "https://live.staticflickr.com/65535/50019604211_e9d653754f_o.jpg",
    "id_image": "Caterpillar_391705",
    "count_view": 0
  },
  {
    "link_thumb": "https://live.staticflickr.com/65535/50019639318_db5c59d808_n.jpg",
    "id_album": "-149330232",
    "description": "Dog_238833",
    "title": "Dog_238833",
    "link_img": "https://live.staticflickr.com/65535/50019639318_24061300e3_o.jpg",
    "id_image": "Dog_238833",
    "count_view": 0
  },
  {
    "link_thumb": "https://live.staticflickr.com/65535/50017889667_1b77ed7c03_n.jpg",
    "id_album": "-401151552",
    "description": "Butterfly_570838",
    "title": "Butterfly_570838",
    "link_img": "https://live.staticflickr.com/65535/50017889667_1827580e67_o.jpg",
    "id_image": "Butterfly_570838",
    "count_view": 0
  },
  {
    "link_thumb": "https://live.staticflickr.com/65535/50023286372_b604fbd197_n.jpg",
    "id_album": "-353898617",
    "description": "Puppy_589815",
    "title": "Puppy_589815",
    "link_img": "https://live.staticflickr.com/65535/50023286372_6f7f57e7e4_o.jpg",
    "id_image": "Puppy_589815",
    "count_view": 0
  },
  {
    "link_thumb": "https://live.staticflickr.com/65535/50021755401_b33e0c12b4_n.jpg",
    "id_album": "665694624",
    "description": "JapaneseMacaque_690446",
    "title": "JapaneseMacaque_690446",
    "link_img": "https://live.staticflickr.com/65535/50021755401_ff335d0599_o.jpg",
    "id_image": "JapaneseMacaque_690446",
    "count_view": 0
  },
  {
    "link_thumb": "https://live.staticflickr.com/65535/50022269646_eedb6d59f6_n.jpg",
    "id_album": "-817970387",
    "description": "Moose_420977",
    "title": "Moose_420977",
    "link_img": "https://live.staticflickr.com/65535/50022269646_7444cee17b_o.jpg",
    "id_image": "Moose_420977",
    "count_view": 0
  },
  {
    "link_thumb": "https://live.staticflickr.com/65535/50018684538_a0b091909b_n.jpg",
    "id_album": "-462831704",
    "description": "Cat_443747",
    "title": "Cat_443747",
    "link_img": "https://live.staticflickr.com/65535/50018684538_b9df3c598f_o.jpg",
    "id_image": "Cat_443747",
    "count_view": 0
  },
  {
    "link_thumb": "https://live.staticflickr.com/65535/50017265296_07243f31eb_n.jpg",
    "id_album": "-1846011410",
    "description": "Bird_352669",
    "title": "Bird_352669",
    "link_img": "https://live.staticflickr.com/65535/50017265296_e9af96bb1a_o.jpg",
    "id_image": "Bird_352669",
    "count_view": 0
  },
  {
    "link_thumb": "https://live.staticflickr.com/65535/50021187157_941c586c10_n.jpg",
    "id_album": "-128218148",
    "description": "Fox_114909",
    "title": "Fox_114909",
    "link_img": "https://live.staticflickr.com/65535/50021187157_8bd90a301c_o.jpg",
    "id_image": "Fox_114909",
    "count_view": 0
  },
  {
    "link_thumb": "https://live.staticflickr.com/65535/50022369401_100cfe4d8e_n.jpg",
    "id_album": "106807275",
    "description": "Otter_709222",
    "title": "Otter_709222",
    "link_img": "https://live.staticflickr.com/65535/50022369401_f0ea2d9820_o.jpg",
    "id_image": "Otter_709222",
    "count_view": 0
  },
  {
    "link_thumb": "https://live.staticflickr.com/65535/50021164608_b8152b565f_n.jpg",
    "id_album": "1658866795",
    "description": "Insect_584286",
    "title": "Insect_584286",
    "link_img": "https://live.staticflickr.com/65535/50021164608_6e02c0bb9e_o.jpg",
    "id_image": "Insect_584286",
    "count_view": 0
  },
  {
    "link_thumb": "https://live.staticflickr.com/65535/50021929622_77fb47d4bb_n.jpg",
    "id_album": "1658866795",
    "description": "Insect_403325",
    "title": "Insect_403325",
    "link_img": "https://live.staticflickr.com/65535/50021929622_6b9c5bef5d_o.jpg",
    "id_image": "Insect_403325",
    "count_view": 0
  },
  {
    "link_thumb": "https://live.staticflickr.com/65535/50022140137_6172457518_n.jpg",
    "id_album": "1392348450",
    "description": "Leopard_160672",
    "title": "Leopard_160672",
    "link_img": "https://live.staticflickr.com/65535/50022140137_fb3c6bf5b2_o.jpg",
    "id_image": "Leopard_160672",
    "count_view": 0
  },
  {
    "link_thumb": "https://live.staticflickr.com/65535/50017690966_1a701f73ac_n.jpg",
    "id_album": "-401151552",
    "description": "Butterfly_900899",
    "title": "Butterfly_900899",
    "link_img": "https://live.staticflickr.com/65535/50017690966_12f3513ea1_o.jpg",
    "id_image": "Butterfly_900899",
    "count_view": 0
  },
  {
    "link_thumb": "https://live.staticflickr.com/65535/50021378172_c15fc25ecd_n.jpg",
    "id_album": "-462831704",
    "description": "Cat_583219",
    "title": "Cat_583219",
    "link_img": "https://live.staticflickr.com/65535/50021378172_98eb6f2ed2_o.jpg",
    "id_image": "Cat_583219",
    "count_view": 0
  },
  {
    "link_thumb": "https://live.staticflickr.com/65535/50019424858_de0fb900ae_n.jpg",
    "id_album": "1831085598",
    "description": "Dachshund_783145",
    "title": "Dachshund_783145",
    "link_img": "https://live.staticflickr.com/65535/50019424858_8dd4929828_o.jpg",
    "id_image": "Dachshund_783145",
    "count_view": 0
  },
  {
    "link_thumb": "https://live.staticflickr.com/65535/50023411342_da1d0f0bb7_n.jpg",
    "id_album": "248289288",
    "description": "Raccoon_590444",
    "title": "Raccoon_590444",
    "link_img": "https://live.staticflickr.com/65535/50023411342_3a8ba37922_o.jpg",
    "id_image": "Raccoon_590444",
    "count_view": 0
  },
  {
    "link_thumb": "https://live.staticflickr.com/65535/50021498172_f720f4b85f_n.jpg",
    "id_album": "-462831703",
    "description": "Cat_785145",
    "title": "Cat_785145",
    "link_img": "https://live.staticflickr.com/65535/50021498172_9ca5cd323f_o.jpg",
    "id_image": "Cat_785145",
    "count_view": 0
  },
  {
    "link_thumb": "https://live.staticflickr.com/65535/50019185648_6ed2a7867b_n.jpg",
    "id_album": "-1481843714",
    "description": "Cheetah_516171",
    "title": "Cheetah_516171",
    "link_img": "https://live.staticflickr.com/65535/50019185648_5f08620ab6_o.jpg",
    "id_image": "Cheetah_516171",
    "count_view": 0
  },
  {
    "link_thumb": "https://live.staticflickr.com/65535/50019107273_91cf6bb613_n.jpg",
    "id_album": "-766919393",
    "description": "Chameleon_294687",
    "title": "Chameleon_294687",
    "link_img": "https://live.staticflickr.com/65535/50019107273_6280a895a8_o.jpg",
    "id_image": "Chameleon_294687",
    "count_view": 0
  },
  {
    "link_thumb": "https://live.staticflickr.com/65535/50351819178_599223ef7c_n.jpg",
    "id_album": "-462831703",
    "description": "Cat_429142",
    "title": "Cat_429142",
    "link_img": "https://live.staticflickr.com/65535/50351819178_fc6cc3dd44_o.jpg",
    "id_image": "Cat_429142",
    "count_view": 0
  },
  {
    "link_thumb": "https://live.staticflickr.com/65535/50352832812_d781e34d27_n.jpg",
    "id_album": "-462831703",
    "description": "Cat_970805",
    "title": "Cat_970805",
    "link_img": "https://live.staticflickr.com/65535/50352832812_20c4beb4ec_o.jpg",
    "id_image": "Cat_970805",
    "count_view": 0
  },
  {
    "link_thumb": "https://live.staticflickr.com/65535/50018150547_f2a3b0d972_n.jpg",
    "id_album": "-462831705",
    "description": "Cat_236926",
    "title": "Cat_236926",
    "link_img": "https://live.staticflickr.com/65535/50018150547_59cdc2f4bb_o.jpg",
    "id_image": "Cat_236926",
    "count_view": 0
  },
  {
    "link_thumb": "https://live.staticflickr.com/65535/50017723427_999fa55002_n.jpg",
    "id_album": "-530283314",
    "description": "BlueandyellowMacaw_354032",
    "title": "BlueandyellowMacaw_354032",
    "link_img": "https://live.staticflickr.com/65535/50017723427_e9c734f893_o.jpg",
    "id_image": "BlueandyellowMacaw_354032",
    "count_view": 0
  },
  {
    "link_thumb": "https://live.staticflickr.com/65535/50022186362_a28e38f012_n.jpg",
    "id_album": "1392348450",
    "description": "Leopard_454228",
    "title": "Leopard_454228",
    "link_img": "https://live.staticflickr.com/65535/50022186362_446c5625e7_o.jpg",
    "id_image": "Leopard_454228",
    "count_view": 0
  },
  {
    "link_thumb": "https://live.staticflickr.com/65535/50020728262_f9a5d960f1_n.jpg",
    "id_album": "-149330231",
    "description": "Dog_656567",
    "title": "Dog_656567",
    "link_img": "https://live.staticflickr.com/65535/50020728262_aa8cac2a4f_o.jpg",
    "id_image": "Dog_656567",
    "count_view": 0
  },
  {
    "link_thumb": "https://live.staticflickr.com/65535/50021815641_877755e1aa_n.jpg",
    "id_album": "771796001",
    "description": "Koala_240176",
    "title": "Koala_240176",
    "link_img": "https://live.staticflickr.com/65535/50021815641_65df0784d7_o.jpg",
    "id_image": "Koala_240176",
    "count_view": 0
  },
  {
    "link_thumb": "https://live.staticflickr.com/65535/50021596528_4c384ec3c8_n.jpg",
    "id_album": "1894617400",
    "description": "Lynx_369232",
    "title": "Lynx_369232",
    "link_img": "https://live.staticflickr.com/65535/50021596528_7495cdf52e_o.jpg",
    "id_image": "Lynx_369232",
    "count_view": 0
  },
  {
    "link_thumb": "https://live.staticflickr.com/65535/50023967043_fd10259b57_n.jpg",
    "id_album": "-709711865",
    "description": "Wolf_522655",
    "title": "Wolf_522655",
    "link_img": "https://live.staticflickr.com/65535/50023967043_6f35b896c0_o.jpg",
    "id_image": "Wolf_522655",
    "count_view": 0
  },
  {
    "link_thumb": "https://live.staticflickr.com/65535/50022929301_ab0442c31d_n.jpg",
    "id_album": "-356780855",
    "description": "Puffin_683816",
    "title": "Puffin_683816",
    "link_img": "https://live.staticflickr.com/65535/50022929301_7048691ebf_o.jpg",
    "id_image": "Puffin_683816",
    "count_view": 0
  },
  {
    "link_thumb": "https://live.staticflickr.com/65535/50352660737_520ae09c68_n.jpg",
    "id_album": "-462831703",
    "description": "Cat_411190",
    "title": "Cat_411190",
    "link_img": "https://live.staticflickr.com/65535/50352660737_325641f481_o.jpg",
    "id_image": "Cat_411190",
    "count_view": 0
  },
  {
    "link_thumb": "https://live.staticflickr.com/65535/50021745377_deb78df5df_n.jpg",
    "id_album": "-1933715543",
    "description": "Horse_341495",
    "title": "Horse_341495",
    "link_img": "https://live.staticflickr.com/65535/50021745377_04996d292b_o.jpg",
    "id_image": "Horse_341495",
    "count_view": 0
  },
  {
    "link_thumb": "https://live.staticflickr.com/65535/50020246746_7ba04f8fe3_n.jpg",
    "id_album": "-149330232",
    "description": "Dog_328668",
    "title": "Dog_328668",
    "link_img": "https://live.staticflickr.com/65535/50020246746_c50fca0363_o.jpg",
    "id_image": "Dog_328668",
    "count_view": 0
  },
  {
    "link_thumb": "https://live.staticflickr.com/65535/50019837178_419dab2d14_n.jpg",
    "id_album": "-149330231",
    "description": "Dog_391312",
    "title": "Dog_391312",
    "link_img": "https://live.staticflickr.com/65535/50019837178_7e8d8c1c77_o.jpg",
    "id_image": "Dog_391312",
    "count_view": 0
  },
  {
    "link_thumb": "https://live.staticflickr.com/65535/50019880522_628a8095e6_n.jpg",
    "id_album": "1889777354",
    "description": "CGI_258319",
    "title": "CGI_258319",
    "link_img": "https://live.staticflickr.com/65535/50019880522_95517bdbd4_o.jpg",
    "id_image": "CGI_258319",
    "count_view": 0
  },
  {
    "link_thumb": "https://live.staticflickr.com/65535/50022864946_ac60173e33_n.jpg",
    "id_album": "1008910300",
    "description": "PolarBear_868585",
    "title": "PolarBear_868585",
    "link_img": "https://live.staticflickr.com/65535/50022864946_3435958919_o.jpg",
    "id_image": "PolarBear_868585",
    "count_view": 0
  },
  {
    "link_thumb": "https://live.staticflickr.com/65535/50016761488_780b217bdc_n.jpg",
    "id_album": "-1846011410",
    "description": "Bird_378761",
    "title": "Bird_378761",
    "link_img": "https://live.staticflickr.com/65535/50016761488_93ce2261c3_o.jpg",
    "id_image": "Bird_378761",
    "count_view": 0
  },
  {
    "link_thumb": "https://live.staticflickr.com/65535/50351736253_90c56a0f77_n.jpg",
    "id_album": "-462831703",
    "description": "Cat_234137",
    "title": "Cat_234137",
    "link_img": "https://live.staticflickr.com/65535/50351736253_0ce3ec41a8_o.jpg",
    "id_image": "Cat_234137",
    "count_view": 0
  },
  {
    "link_thumb": "https://live.staticflickr.com/65535/50023901083_fffd6e4431_n.jpg",
    "id_album": "766572659",
    "description": "WhiteTiger_602877",
    "title": "WhiteTiger_602877",
    "link_img": "https://live.staticflickr.com/65535/50023901083_093192b4af_o.jpg",
    "id_image": "WhiteTiger_602877",
    "count_view": 0
  },
  {
    "link_thumb": "https://live.staticflickr.com/65535/50021738023_182ecc4838_n.jpg",
    "id_album": "1610416937",
    "description": "Moth_574405",
    "title": "Moth_574405",
    "link_img": "https://live.staticflickr.com/65535/50021738023_4dc2364aa6_o.jpg",
    "id_image": "Moth_574405",
    "count_view": 0
  },
  {
    "link_thumb": "https://live.staticflickr.com/65535/50017721262_6d3e6cfc0a_n.jpg",
    "id_album": "-530283314",
    "description": "BlueandyellowMacaw_212696",
    "title": "BlueandyellowMacaw_212696",
    "link_img": "https://live.staticflickr.com/65535/50017721262_3d79dfd4eb_o.jpg",
    "id_image": "BlueandyellowMacaw_212696",
    "count_view": 0
  },
  {
    "link_thumb": "https://live.staticflickr.com/65535/50016821556_45539f56c0_n.jpg",
    "id_album": "-1473450542",
    "description": "Alpaca_821503",
    "title": "Alpaca_821503",
    "link_img": "https://live.staticflickr.com/65535/50016821556_140d8c3d35_o.jpg",
    "id_image": "Alpaca_821503",
    "count_view": 0
  },
  {
    "link_thumb": "https://live.staticflickr.com/65535/50021607062_3029dd9fd1_n.jpg",
    "id_album": "2060159334",
    "description": "GoldenRetriever_650997",
    "title": "GoldenRetriever_650997",
    "link_img": "https://live.staticflickr.com/65535/50021607062_7235bc980a_o.jpg",
    "id_image": "GoldenRetriever_650997",
    "count_view": 0
  },
  {
    "link_thumb": "https://live.staticflickr.com/65535/50020543268_161e8fa58d_n.jpg",
    "id_album": "844170697",
    "description": "Frog_927164",
    "title": "Frog_927164",
    "link_img": "https://live.staticflickr.com/65535/50020543268_d223714558_o.jpg",
    "id_image": "Frog_927164",
    "count_view": 0
  },
  {
    "link_thumb": "https://live.staticflickr.com/65535/50018017856_3da18e352f_n.jpg",
    "id_album": "-462831702",
    "description": "Cat_343437",
    "title": "Cat_343437",
    "link_img": "https://live.staticflickr.com/65535/50018017856_c839a70be4_o.jpg",
    "id_image": "Cat_343437",
    "count_view": 0
  },
  {
    "link_thumb": "https://live.staticflickr.com/65535/50017991716_1516074621_n.jpg",
    "id_album": "-462831702",
    "description": "Cat_331964",
    "title": "Cat_331964",
    "link_img": "https://live.staticflickr.com/65535/50017991716_259c41c7f7_o.jpg",
    "id_image": "Cat_331964",
    "count_view": 0
  },
  {
    "link_thumb": "https://live.staticflickr.com/65535/50021293982_b86d07b904_n.jpg",
    "id_album": "704811092",
    "description": "FrenchBulldog_438175",
    "title": "FrenchBulldog_438175",
    "link_img": "https://live.staticflickr.com/65535/50021293982_5b29f5705c_o.jpg",
    "id_image": "FrenchBulldog_438175",
    "count_view": 0
  },
  {
    "link_thumb": "https://live.staticflickr.com/65535/50020180742_5d5400cfff_n.jpg",
    "id_album": "1273365283",
    "description": "Cute_276206",
    "title": "Cute_276206",
    "link_img": "https://live.staticflickr.com/65535/50020180742_9db87e6bc3_o.jpg",
    "id_image": "Cute_276206",
    "count_view": 0
  },
  {
    "link_thumb": "https://live.staticflickr.com/65535/50017081628_210fe498f8_n.jpg",
    "id_album": "-401151552",
    "description": "Butterfly_470351",
    "title": "Butterfly_470351",
    "link_img": "https://live.staticflickr.com/65535/50017081628_d9ed4550ac_o.jpg",
    "id_image": "Butterfly_470351",
    "count_view": 0
  },
  {
    "link_thumb": "https://live.staticflickr.com/65535/50019971368_b7fa517a93_n.jpg",
    "id_album": "-149330231",
    "description": "Dog_744019",
    "title": "Dog_744019",
    "link_img": "https://live.staticflickr.com/65535/50019971368_b27ccdecf4_o.jpg",
    "id_image": "Dog_744019",
    "count_view": 0
  },
  {
    "link_thumb": "https://live.staticflickr.com/65535/50022655193_76e210ae9f_n.jpg",
    "id_album": "-1862965835",
    "description": "RedEyedTreeFrog_904994",
    "title": "RedEyedTreeFrog_904994",
    "link_img": "https://live.staticflickr.com/65535/50022655193_96dcba6520_o.jpg",
    "id_image": "RedEyedTreeFrog_904994",
    "count_view": 0
  },
  {
    "link_thumb": "https://live.staticflickr.com/65535/50017789817_b4d7f568f6_n.jpg",
    "id_album": "368532157",
    "description": "Bulldog_772304",
    "title": "Bulldog_772304",
    "link_img": "https://live.staticflickr.com/65535/50017789817_ef5d5da64d_o.jpg",
    "id_image": "Bulldog_772304",
    "count_view": 0
  },
  {
    "link_thumb": "https://live.staticflickr.com/65535/50021887462_d7bedfc0aa_n.jpg",
    "id_album": "-712553376",
    "description": "Husky_458809",
    "title": "Husky_458809",
    "link_img": "https://live.staticflickr.com/65535/50021887462_f7573c2b19_o.jpg",
    "id_image": "Husky_458809",
    "count_view": 0
  },
  {
    "link_thumb": "https://live.staticflickr.com/65535/50018394012_9b150937a0_n.jpg",
    "id_album": "-462831702",
    "description": "Cat_396501",
    "title": "Cat_396501",
    "link_img": "https://live.staticflickr.com/65535/50018394012_b9166a2a20_o.jpg",
    "id_image": "Cat_396501",
    "count_view": 0
  },
  {
    "link_thumb": "https://live.staticflickr.com/65535/50018945688_1d380b0e4d_n.jpg",
    "id_album": "-462831703",
    "description": "Cat_924959",
    "title": "Cat_924959",
    "link_img": "https://live.staticflickr.com/65535/50018945688_5c08144489_o.jpg",
    "id_image": "Cat_924959",
    "count_view": 0
  },
  {
    "link_thumb": "https://live.staticflickr.com/65535/50022254966_75c5b70e99_n.jpg",
    "id_album": "-784970094",
    "description": "Monkey_668044",
    "title": "Monkey_668044",
    "link_img": "https://live.staticflickr.com/65535/50022254966_a182434604_o.jpg",
    "id_image": "Monkey_668044",
    "count_view": 0
  },
  {
    "link_thumb": "https://live.staticflickr.com/65535/50023356812_31a594049c_n.jpg",
    "id_album": "-1940643173",
    "description": "Rabbit_365413",
    "title": "Rabbit_365413",
    "link_img": "https://live.staticflickr.com/65535/50023356812_95e6dc76af_o.jpg",
    "id_image": "Rabbit_365413",
    "count_view": 0
  },
  {
    "link_thumb": "https://live.staticflickr.com/65535/50021751813_7734ef94c8_n.jpg",
    "id_album": "1957967135",
    "description": "Mouse_721568",
    "title": "Mouse_721568",
    "link_img": "https://live.staticflickr.com/65535/50021751813_56af2d8d03_o.jpg",
    "id_image": "Mouse_721568",
    "count_view": 0
  },
  {
    "link_thumb": "https://live.staticflickr.com/65535/50021733842_1f8a8a4e5c_n.jpg",
    "id_album": "-1933715543",
    "description": "Horse_279357",
    "title": "Horse_279357",
    "link_img": "https://live.staticflickr.com/65535/50021733842_39841f690d_o.jpg",
    "id_image": "Horse_279357",
    "count_view": 0
  },
  {
    "link_thumb": "https://live.staticflickr.com/65535/50017456762_b6ca957f1d_n.jpg",
    "id_album": "-1846011410",
    "description": "Bird_116329",
    "title": "Bird_116329",
    "link_img": "https://live.staticflickr.com/65535/50017456762_59ae76e756_o.jpg",
    "id_image": "Bird_116329",
    "count_view": 0
  },
  {
    "link_thumb": "https://live.staticflickr.com/65535/50020834136_97d94a15c5_n.jpg",
    "id_album": "-1118073211",
    "description": "Fish_311902",
    "title": "Fish_311902",
    "link_img": "https://live.staticflickr.com/65535/50020834136_85975a606b_o.jpg",
    "id_image": "Fish_311902",
    "count_view": 0
  },
  {
    "link_thumb": "https://live.staticflickr.com/65535/50019746153_ff6d7332d1_n.jpg",
    "id_album": "-149330232",
    "description": "Dog_340711",
    "title": "Dog_340711",
    "link_img": "https://live.staticflickr.com/65535/50019746153_17c9aedb24_o.jpg",
    "id_image": "Dog_340711",
    "count_view": 0
  },
  {
    "link_thumb": "https://live.staticflickr.com/65535/50019494042_8388fef379_n.jpg",
    "id_album": "-462831704",
    "description": "Cat_463931",
    "title": "Cat_463931",
    "link_img": "https://live.staticflickr.com/65535/50019494042_a99807b67d_o.jpg",
    "id_image": "Cat_463931",
    "count_view": 0
  },
  {
    "link_thumb": "https://live.staticflickr.com/65535/50019808023_26c07d4791_n.jpg",
    "id_album": "-149330232",
    "description": "Dog_369812",
    "title": "Dog_369812",
    "link_img": "https://live.staticflickr.com/65535/50019808023_f597548a62_o.jpg",
    "id_image": "Dog_369812",
    "count_view": 0
  },
  {
    "link_thumb": "https://live.staticflickr.com/65535/50022573048_802ac63d31_n.jpg",
    "id_album": "-1940643173",
    "description": "Rabbit_480819",
    "title": "Rabbit_480819",
    "link_img": "https://live.staticflickr.com/65535/50022573048_2af1b63806_o.jpg",
    "id_image": "Rabbit_480819",
    "count_view": 0
  },
  {
    "link_thumb": "https://live.staticflickr.com/65535/50017418701_bdb153d8ed_n.jpg",
    "id_album": "-1846011410",
    "description": "Bird_743814",
    "title": "Bird_743814",
    "link_img": "https://live.staticflickr.com/65535/50017418701_670775195f_o.jpg",
    "id_image": "Bird_743814",
    "count_view": 0
  },
  {
    "link_thumb": "https://live.staticflickr.com/65535/50017381038_c49d4d9963_n.jpg",
    "id_album": "-462831705",
    "description": "Cat_255592",
    "title": "Cat_255592",
    "link_img": "https://live.staticflickr.com/65535/50017381038_41d8d825f1_o.jpg",
    "id_image": "Cat_255592",
    "count_view": 0
  },
  {
    "link_thumb": "https://live.staticflickr.com/65535/50020141367_709f05a786_n.jpg",
    "id_album": "815329026",
    "description": "Crab_794230",
    "title": "Crab_794230",
    "link_img": "https://live.staticflickr.com/65535/50020141367_ce559bf796_o.jpg",
    "id_image": "Crab_794230",
    "count_view": 0
  },
  {
    "link_thumb": "https://live.staticflickr.com/65535/50020334576_ae2d25798e_n.jpg",
    "id_album": "-149330232",
    "description": "Dog_367190",
    "title": "Dog_367190",
    "link_img": "https://live.staticflickr.com/65535/50020334576_27481b6b7d_o.jpg",
    "id_image": "Dog_367190",
    "count_view": 0
  },
  {
    "link_thumb": "https://live.staticflickr.com/65535/50021281707_d5e5a9181c_n.jpg",
    "id_album": "-128218148",
    "description": "Fox_936699",
    "title": "Fox_936699",
    "link_img": "https://live.staticflickr.com/65535/50021281707_9411faabac_o.jpg",
    "id_image": "Fox_936699",
    "count_view": 0
  },
  {
    "link_thumb": "https://live.staticflickr.com/65535/50024303907_7e2a4c224b_n.jpg",
    "id_album": "405170427",
    "description": "Tiger_237719",
    "title": "Tiger_237719",
    "link_img": "https://live.staticflickr.com/65535/50024303907_238c3ae2fb_o.jpg",
    "id_image": "Tiger_237719",
    "count_view": 0
  },
  {
    "link_thumb": "https://live.staticflickr.com/65535/50019607867_4749bcb34a_n.jpg",
    "id_album": "-462831703",
    "description": "Cat_867388",
    "title": "Cat_867388",
    "link_img": "https://live.staticflickr.com/65535/50019607867_11b0694eed_o.jpg",
    "id_image": "Cat_867388",
    "count_view": 0
  },
  {
    "link_thumb": "https://live.staticflickr.com/65535/50017713107_2cd84d8cd5_n.jpg",
    "id_album": "-1561645279",
    "description": "BlackPanther_395421",
    "title": "BlackPanther_395421",
    "link_img": "https://live.staticflickr.com/65535/50017713107_628f1733bf_o.jpg",
    "id_image": "BlackPanther_395421",
    "count_view": 0
  },
  {
    "link_thumb": "https://live.staticflickr.com/65535/50021459361_c6c80ccb34_n.jpg",
    "id_album": "-1933715543",
    "description": "Horse_103350",
    "title": "Horse_103350",
    "link_img": "https://live.staticflickr.com/65535/50021459361_193b9fa2d1_o.jpg",
    "id_image": "Horse_103350",
    "count_view": 0
  },
  {
    "link_thumb": "https://live.staticflickr.com/65535/50024249552_87d74f83e7_n.jpg",
    "id_album": "1244464375",
    "description": "Starfish_311947",
    "title": "Starfish_311947",
    "link_img": "https://live.staticflickr.com/65535/50024249552_defd7cb685_o.jpg",
    "id_image": "Starfish_311947",
    "count_view": 0
  },
  {
    "link_thumb": "https://live.staticflickr.com/65535/50021402191_ee5d72c148_n.jpg",
    "id_album": "-1168906494",
    "description": "Grasshopper_524441",
    "title": "Grasshopper_524441",
    "link_img": "https://live.staticflickr.com/65535/50021402191_f0f8bb3800_o.jpg",
    "id_image": "Grasshopper_524441",
    "count_view": 0
  },
  {
    "link_thumb": "https://live.staticflickr.com/65535/50021426836_8915775ae1_n.jpg",
    "id_album": "-1513987841",
    "description": "Hawk_843819",
    "title": "Hawk_843819",
    "link_img": "https://live.staticflickr.com/65535/50021426836_c889faf6f2_o.jpg",
    "id_image": "Hawk_843819",
    "count_view": 0
  },
  {
    "link_thumb": "https://live.staticflickr.com/65535/50019400146_43609f8a7c_n.jpg",
    "id_album": "-462831703",
    "description": "Cat_890597",
    "title": "Cat_890597",
    "link_img": "https://live.staticflickr.com/65535/50019400146_332b3ec272_o.jpg",
    "id_image": "Cat_890597",
    "count_view": 0
  },
  {
    "link_thumb": "https://live.staticflickr.com/65535/50020223058_ac5eb8f62c_n.jpg",
    "id_album": "1270947998",
    "description": "Elephant_434513",
    "title": "Elephant_434513",
    "link_img": "https://live.staticflickr.com/65535/50020223058_9d8c1a1120_o.jpg",
    "id_image": "Elephant_434513",
    "count_view": 0
  },
  {
    "link_thumb": "https://live.staticflickr.com/65535/50022255097_f63486d436_n.jpg",
    "id_album": "416744915",
    "description": "Lion_355292",
    "title": "Lion_355292",
    "link_img": "https://live.staticflickr.com/65535/50022255097_530b8ac2fe_o.jpg",
    "id_image": "Lion_355292",
    "count_view": 0
  },
  {
    "link_thumb": "https://live.staticflickr.com/65535/50017511443_c8169194f3_n.jpg",
    "id_album": "-462831702",
    "description": "Cat_354019",
    "title": "Cat_354019",
    "link_img": "https://live.staticflickr.com/65535/50017511443_e55e6ee487_o.jpg",
    "id_image": "Cat_354019",
    "count_view": 0
  },
  {
    "link_thumb": "https://live.staticflickr.com/65535/50022565898_6c078aab62_n.jpg",
    "id_album": "-1940643173",
    "description": "Rabbit_427010",
    "title": "Rabbit_427010",
    "link_img": "https://live.staticflickr.com/65535/50022565898_97987394eb_o.jpg",
    "id_image": "Rabbit_427010",
    "count_view": 0
  },
  {
    "link_thumb": "https://live.staticflickr.com/65535/50017344292_d04ede9120_n.jpg",
    "id_album": "-422187261",
    "description": "Bear_792834",
    "title": "Bear_792834",
    "link_img": "https://live.staticflickr.com/65535/50017344292_e73d9db1f7_o.jpg",
    "id_image": "Bear_792834",
    "count_view": 0
  },
  {
    "link_thumb": "https://live.staticflickr.com/65535/50017949172_8d7cfaf2d4_n.jpg",
    "id_album": "-401151552",
    "description": "Butterfly_887719",
    "title": "Butterfly_887719",
    "link_img": "https://live.staticflickr.com/65535/50017949172_edcf72452b_o.jpg",
    "id_image": "Butterfly_887719",
    "count_view": 0
  },
  {
    "link_thumb": "https://live.staticflickr.com/65535/50020558768_ee4e66cb4d_n.jpg",
    "id_album": "-462831704",
    "description": "Cat_543713",
    "title": "Cat_543713",
    "link_img": "https://live.staticflickr.com/65535/50020558768_84e3857bf7_o.jpg",
    "id_image": "Cat_543713",
    "count_view": 0
  },
  {
    "link_thumb": "https://live.staticflickr.com/65535/50019704608_b8c8b4d31a_n.jpg",
    "id_album": "-149330232",
    "description": "Dog_323363",
    "title": "Dog_323363",
    "link_img": "https://live.staticflickr.com/65535/50019704608_e9d80effc4_o.jpg",
    "id_image": "Dog_323363",
    "count_view": 0
  },
  {
    "link_thumb": "https://live.staticflickr.com/65535/50019579217_c467f6e304_n.jpg",
    "id_album": "-462831703",
    "description": "Cat_852527",
    "title": "Cat_852527",
    "link_img": "https://live.staticflickr.com/65535/50019579217_ab95b4d4af_o.jpg",
    "id_image": "Cat_852527",
    "count_view": 0
  },
  {
    "link_thumb": "https://live.staticflickr.com/65535/50023329247_9bef9a503a_n.jpg",
    "id_album": "-353898617",
    "description": "Puppy_925547",
    "title": "Puppy_925547",
    "link_img": "https://live.staticflickr.com/65535/50023329247_1e91471413_o.jpg",
    "id_image": "Puppy_925547",
    "count_view": 0
  },
  {
    "link_thumb": "https://live.staticflickr.com/65535/50020611886_b37c491ed8_n.jpg",
    "id_album": "-405058657",
    "description": "Dragonfly_349617",
    "title": "Dragonfly_349617",
    "link_img": "https://live.staticflickr.com/65535/50020611886_a5952e43a0_o.jpg",
    "id_image": "Dragonfly_349617",
    "count_view": 0
  },
  {
    "link_thumb": "https://live.staticflickr.com/65535/50017356668_a019807452_n.jpg",
    "id_album": "-462831705",
    "description": "Cat_236358",
    "title": "Cat_236358",
    "link_img": "https://live.staticflickr.com/65535/50017356668_da875d719b_o.jpg",
    "id_image": "Cat_236358",
    "count_view": 0
  },
  {
    "link_thumb": "https://live.staticflickr.com/65535/50016603773_9dfb26cb44_n.jpg",
    "id_album": "1699594607",
    "description": "Bee_364921",
    "title": "Bee_364921",
    "link_img": "https://live.staticflickr.com/65535/50016603773_7c46d13d82_o.jpg",
    "id_image": "Bee_364921",
    "count_view": 0
  },
  {
    "link_thumb": "https://live.staticflickr.com/65535/50021444731_15f9a4d0a8_n.jpg",
    "id_album": "54253492",
    "description": "Heron_479480",
    "title": "Heron_479480",
    "link_img": "https://live.staticflickr.com/65535/50021444731_ed5af6d6f3_o.jpg",
    "id_image": "Heron_479480",
    "count_view": 0
  },
  {
    "link_thumb": "https://live.staticflickr.com/65535/50019901763_cef40428a7_n.jpg",
    "id_album": "-149330231",
    "description": "Dog_469867",
    "title": "Dog_469867",
    "link_img": "https://live.staticflickr.com/65535/50019901763_a187f29d6a_o.jpg",
    "id_image": "Dog_469867",
    "count_view": 0
  },
  {
    "link_thumb": "https://live.staticflickr.com/65535/50021648042_a6a219c896_n.jpg",
    "id_album": "1950225324",
    "description": "Gorilla_596662",
    "title": "Gorilla_596662",
    "link_img": "https://live.staticflickr.com/65535/50021648042_4a73c4923f_o.jpg",
    "id_image": "Gorilla_596662",
    "count_view": 0
  },
  {
    "link_thumb": "https://live.staticflickr.com/65535/50020316166_52d4de25b4_n.jpg",
    "id_album": "-149330232",
    "description": "Dog_358262",
    "title": "Dog_358262",
    "link_img": "https://live.staticflickr.com/65535/50020316166_5d55802f21_o.jpg",
    "id_image": "Dog_358262",
    "count_view": 0
  },
  {
    "link_thumb": "https://live.staticflickr.com/65535/50020240138_30a06de4dd_n.jpg",
    "id_album": "1270947998",
    "description": "Elephant_637142",
    "title": "Elephant_637142",
    "link_img": "https://live.staticflickr.com/65535/50020240138_0be5c50826_o.jpg",
    "id_image": "Elephant_637142",
    "count_view": 0
  },
  {
    "link_thumb": "https://live.staticflickr.com/65535/50023270443_5ebef438a9_n.jpg",
    "id_album": "702283289",
    "description": "Squirrel_218067",
    "title": "Squirrel_218067",
    "link_img": "https://live.staticflickr.com/65535/50023270443_cff19a04f1_o.jpg",
    "id_image": "Squirrel_218067",
    "count_view": 0
  },
  {
    "link_thumb": "https://live.staticflickr.com/65535/50020483536_070276282d_n.jpg",
    "id_album": "-149330231",
    "description": "Dog_694149",
    "title": "Dog_694149",
    "link_img": "https://live.staticflickr.com/65535/50020483536_045a6c7463_o.jpg",
    "id_image": "Dog_694149",
    "count_view": 0
  },
  {
    "link_thumb": "https://live.staticflickr.com/65535/50021626972_83458fb12a_n.jpg",
    "id_album": "2060159334",
    "description": "GoldenRetriever_975373",
    "title": "GoldenRetriever_975373",
    "link_img": "https://live.staticflickr.com/65535/50021626972_c09c846eb0_o.jpg",
    "id_image": "GoldenRetriever_975373",
    "count_view": 0
  },
  {
    "link_thumb": "https://live.staticflickr.com/65535/50018081371_939187278d_n.jpg",
    "id_album": "-462831702",
    "description": "Cat_368702",
    "title": "Cat_368702",
    "link_img": "https://live.staticflickr.com/65535/50018081371_69df825c17_o.jpg",
    "id_image": "Cat_368702",
    "count_view": 0
  },
  {
    "link_thumb": "https://live.staticflickr.com/65535/50020076476_c7cc4f3a80_n.jpg",
    "id_album": "297232732",
    "description": "Dinosaur_156718",
    "title": "Dinosaur_156718",
    "link_img": "https://live.staticflickr.com/65535/50020076476_9cc7993c25_o.jpg",
    "id_image": "Dinosaur_156718",
    "count_view": 0
  },
  {
    "link_thumb": "https://live.staticflickr.com/65535/50020765668_eb47423c8e_n.jpg",
    "id_album": "-405626519",
    "description": "GermanShepherd_878457",
    "title": "GermanShepherd_878457",
    "link_img": "https://live.staticflickr.com/65535/50020765668_71a8de7d1a_o.jpg",
    "id_image": "GermanShepherd_878457",
    "count_view": 0
  },
  {
    "link_thumb": "https://live.staticflickr.com/65535/50016748748_70363ebc90_n.jpg",
    "id_album": "-1846011410",
    "description": "Bird_364242",
    "title": "Bird_364242",
    "link_img": "https://live.staticflickr.com/65535/50016748748_145a3e89d2_o.jpg",
    "id_image": "Bird_364242",
    "count_view": 0
  },
  {
    "link_thumb": "https://live.staticflickr.com/65535/50017888131_257f0aece4_n.jpg",
    "id_album": "-462831705",
    "description": "Cat_236452",
    "title": "Cat_236452",
    "link_img": "https://live.staticflickr.com/65535/50017888131_3a1097bb13_o.jpg",
    "id_image": "Cat_236452",
    "count_view": 0
  },
  {
    "link_thumb": "https://live.staticflickr.com/65535/50021421046_69ef6322c0_n.jpg",
    "id_album": "-1513987841",
    "description": "Hawk_406136",
    "title": "Hawk_406136",
    "link_img": "https://live.staticflickr.com/65535/50021421046_497cf74f1d_o.jpg",
    "id_image": "Hawk_406136",
    "count_view": 0
  },
  {
    "link_thumb": "https://live.staticflickr.com/65535/50020556643_2218fdc243_n.jpg",
    "id_album": "-462831704",
    "description": "Cat_542316",
    "title": "Cat_542316",
    "link_img": "https://live.staticflickr.com/65535/50020556643_08faa996fa_o.jpg",
    "id_image": "Cat_542316",
    "count_view": 0
  },
  {
    "link_thumb": "https://live.staticflickr.com/65535/50021100276_24aa34634f_n.jpg",
    "id_album": "-462831704",
    "description": "Cat_543076",
    "title": "Cat_543076",
    "link_img": "https://live.staticflickr.com/65535/50021100276_555bd982aa_o.jpg",
    "id_image": "Cat_543076",
    "count_view": 0
  },
  {
    "link_thumb": "https://live.staticflickr.com/65535/50024397677_82ac78b35d_n.jpg",
    "id_album": "405170427",
    "description": "Tiger_452070",
    "title": "Tiger_452070",
    "link_img": "https://live.staticflickr.com/65535/50024397677_faf7ece1cf_o.jpg",
    "id_image": "Tiger_452070",
    "count_view": 0
  },
  {
    "link_thumb": "https://live.staticflickr.com/65535/50021485931_1c874f3053_n.jpg",
    "id_album": "-1933715543",
    "description": "Horse_311994",
    "title": "Horse_311994",
    "link_img": "https://live.staticflickr.com/65535/50021485931_2f48ec59e1_o.jpg",
    "id_image": "Horse_311994",
    "count_view": 0
  },
  {
    "link_thumb": "https://live.staticflickr.com/65535/50020759237_4c4f62e84e_n.jpg",
    "id_album": "-149330231",
    "description": "Dog_742527",
    "title": "Dog_742527",
    "link_img": "https://live.staticflickr.com/65535/50020759237_e5a465212e_o.jpg",
    "id_image": "Dog_742527",
    "count_view": 0
  },
  {
    "link_thumb": "https://live.staticflickr.com/65535/50020751607_0f7f72a8bf_n.jpg",
    "id_album": "-149330231",
    "description": "Dog_722662",
    "title": "Dog_722662",
    "link_img": "https://live.staticflickr.com/65535/50020751607_654346e8f8_o.jpg",
    "id_image": "Dog_722662",
    "count_view": 0
  },
  {
    "link_thumb": "https://live.staticflickr.com/65535/50017447776_41bd126e24_n.jpg",
    "id_album": "-1561645279",
    "description": "BlackPanther_287625",
    "title": "BlackPanther_287625",
    "link_img": "https://live.staticflickr.com/65535/50017447776_98680874b4_o.jpg",
    "id_image": "BlackPanther_287625",
    "count_view": 0
  },
  {
    "link_thumb": "https://live.staticflickr.com/65535/50020277327_ae1bca2c57_n.jpg",
    "id_album": "1903411565",
    "description": "Deer_526343",
    "title": "Deer_526343",
    "link_img": "https://live.staticflickr.com/65535/50020277327_96712dd0ca_o.jpg",
    "id_image": "Deer_526343",
    "count_view": 0
  },
  {
    "link_thumb": "https://live.staticflickr.com/65535/50018854468_7a1dc50431_n.jpg",
    "id_album": "-462831703",
    "description": "Cat_878865",
    "title": "Cat_878865",
    "link_img": "https://live.staticflickr.com/65535/50018854468_049ef58827_o.jpg",
    "id_image": "Cat_878865",
    "count_view": 0
  },
  {
    "link_thumb": "https://live.staticflickr.com/65535/50017606853_ef8120388d_n.jpg",
    "id_album": "-462831702",
    "description": "Cat_398740",
    "title": "Cat_398740",
    "link_img": "https://live.staticflickr.com/65535/50017606853_a2c518a8df_o.jpg",
    "id_image": "Cat_398740",
    "count_view": 0
  },
  {
    "link_thumb": "https://live.staticflickr.com/65535/50352637411_2e2efb522d_n.jpg",
    "id_album": "-462831703",
    "description": "Cat_668024",
    "title": "Cat_668024",
    "link_img": "https://live.staticflickr.com/65535/50352637411_22432658b1_o.jpg",
    "id_image": "Cat_668024",
    "count_view": 0
  },
  {
    "link_thumb": "https://live.staticflickr.com/65535/50020847991_0cc67dfe68_n.jpg",
    "id_album": "-1118073211",
    "description": "Fish_384766",
    "title": "Fish_384766",
    "link_img": "https://live.staticflickr.com/65535/50020847991_7a9a6927b3_o.jpg",
    "id_image": "Fish_384766",
    "count_view": 0
  },
  {
    "link_thumb": "https://live.staticflickr.com/65535/50351922683_560763bb90_n.jpg",
    "id_album": "-462831703",
    "description": "Cat_594828",
    "title": "Cat_594828",
    "link_img": "https://live.staticflickr.com/65535/50351922683_49cd6072ee_o.jpg",
    "id_image": "Cat_594828",
    "count_view": 0
  },
  {
    "link_thumb": "https://live.staticflickr.com/65535/50022523743_9c7bdafdb3_n.jpg",
    "id_album": "-353898617",
    "description": "Puppy_861473",
    "title": "Puppy_861473",
    "link_img": "https://live.staticflickr.com/65535/50022523743_e9d5580572_o.jpg",
    "id_image": "Puppy_861473",
    "count_view": 0
  },
  {
    "link_thumb": "https://live.staticflickr.com/65535/50020580733_44768a6723_n.jpg",
    "id_album": "-462831704",
    "description": "Cat_572207",
    "title": "Cat_572207",
    "link_img": "https://live.staticflickr.com/65535/50020580733_9a21143bf0_o.jpg",
    "id_image": "Cat_572207",
    "count_view": 0
  },
  {
    "link_thumb": "https://live.staticflickr.com/65535/50021692396_5642c11d3a_n.jpg",
    "id_album": "1658866795",
    "description": "Insect_404788",
    "title": "Insect_404788",
    "link_img": "https://live.staticflickr.com/65535/50021692396_128d98d6de_o.jpg",
    "id_image": "Insect_404788",
    "count_view": 0
  },
  {
    "link_thumb": "https://live.staticflickr.com/65535/50023824357_65e943c3a4_n.jpg",
    "id_album": "-1182356179",
    "description": "Snake_327802",
    "title": "Snake_327802",
    "link_img": "https://live.staticflickr.com/65535/50023824357_bb3b55fdc6_o.jpg",
    "id_image": "Snake_327802",
    "count_view": 0
  },
  {
    "link_thumb": "https://live.staticflickr.com/65535/50022726641_0cc8aebcea_n.jpg",
    "id_album": "392248205",
    "description": "Penguin_872935",
    "title": "Penguin_872935",
    "link_img": "https://live.staticflickr.com/65535/50022726641_50d7cfb16a_o.jpg",
    "id_image": "Penguin_872935",
    "count_view": 0
  },
  {
    "link_thumb": "https://live.staticflickr.com/65535/50020077316_e7d90b7033_n.jpg",
    "id_album": "297232732",
    "description": "Dinosaur_17724",
    "title": "Dinosaur_17724",
    "link_img": "https://live.staticflickr.com/65535/50020077316_35de74f922_o.jpg",
    "id_image": "Dinosaur_17724",
    "count_view": 0
  },
  {
    "link_thumb": "https://live.staticflickr.com/65535/50017671831_abcc0393ca_n.jpg",
    "id_album": "-401151552",
    "description": "Butterfly_801159",
    "title": "Butterfly_801159",
    "link_img": "https://live.staticflickr.com/65535/50017671831_2505aca7cb_o.jpg",
    "id_image": "Butterfly_801159",
    "count_view": 0
  },
  {
    "link_thumb": "https://live.staticflickr.com/65535/50016928108_b22d4fbf7f_n.jpg",
    "id_album": "-1561645279",
    "description": "BlackPanther_431639",
    "title": "BlackPanther_431639",
    "link_img": "https://live.staticflickr.com/65535/50016928108_61fda6994e_o.jpg",
    "id_image": "BlackPanther_431639",
    "count_view": 0
  },
  {
    "link_thumb": "https://live.staticflickr.com/65535/50022428387_8ff97bb1ca_n.jpg",
    "id_album": "1894617400",
    "description": "Lynx_921942",
    "title": "Lynx_921942",
    "link_img": "https://live.staticflickr.com/65535/50022428387_9f4b21febf_o.jpg",
    "id_image": "Lynx_921942",
    "count_view": 0
  },
  {
    "link_thumb": "https://live.staticflickr.com/65535/50019155058_a4f0031980_n.jpg",
    "id_album": "-1481843714",
    "description": "Cheetah_249180",
    "title": "Cheetah_249180",
    "link_img": "https://live.staticflickr.com/65535/50019155058_1109f5ef6f_o.jpg",
    "id_image": "Cheetah_249180",
    "count_view": 0
  },
  {
    "link_thumb": "https://live.staticflickr.com/65535/50021655313_b3a6791d2b_n.jpg",
    "id_album": "-784970094",
    "description": "Monkey_258367",
    "title": "Monkey_258367",
    "link_img": "https://live.staticflickr.com/65535/50021655313_771f6a670e_o.jpg",
    "id_image": "Monkey_258367",
    "count_view": 0
  },
  {
    "link_thumb": "https://live.staticflickr.com/65535/50021404571_0fe06f6b65_n.jpg",
    "id_album": "-1168906494",
    "description": "Grasshopper_735608",
    "title": "Grasshopper_735608",
    "link_img": "https://live.staticflickr.com/65535/50021404571_e2e2ffa844_o.jpg",
    "id_image": "Grasshopper_735608",
    "count_view": 0
  },
  {
    "link_thumb": "https://live.staticflickr.com/65535/50023194126_1d44af40f7_n.jpg",
    "id_album": "-1862965835",
    "description": "RedEyedTreeFrog_81321",
    "title": "RedEyedTreeFrog_81321",
    "link_img": "https://live.staticflickr.com/65535/50023194126_59f4d8362e_o.jpg",
    "id_image": "RedEyedTreeFrog_81321",
    "count_view": 0
  },
  {
    "link_thumb": "https://live.staticflickr.com/65535/50021274241_123919816b_n.jpg",
    "id_album": "-462831703",
    "description": "Cat_840627",
    "title": "Cat_840627",
    "link_img": "https://live.staticflickr.com/65535/50021274241_1ceaa1b0f4_o.jpg",
    "id_image": "Cat_840627",
    "count_view": 0
  },
  {
    "link_thumb": "https://live.staticflickr.com/65535/50020517003_e639405fca_n.jpg",
    "id_album": "844170697",
    "description": "Frog_390889",
    "title": "Frog_390889",
    "link_img": "https://live.staticflickr.com/65535/50020517003_6b9cbe0c65_o.jpg",
    "id_image": "Frog_390889",
    "count_view": 0
  },
  {
    "link_thumb": "https://live.staticflickr.com/65535/50021101153_7053333692_n.jpg",
    "id_album": "-712553376",
    "description": "Husky_928528",
    "title": "Husky_928528",
    "link_img": "https://live.staticflickr.com/65535/50021101153_e09412011e_o.jpg",
    "id_image": "Husky_928528",
    "count_view": 0
  },
  {
    "link_thumb": "https://live.staticflickr.com/65535/50021364323_95737fb2d8_n.jpg",
    "id_album": "1392348450",
    "description": "Leopard_365012",
    "title": "Leopard_365012",
    "link_img": "https://live.staticflickr.com/65535/50021364323_745cbb4d89_o.jpg",
    "id_image": "Leopard_365012",
    "count_view": 0
  },
  {
    "link_thumb": "https://live.staticflickr.com/65535/50017935441_efdffaea42_n.jpg",
    "id_album": "-462831702",
    "description": "Cat_280286",
    "title": "Cat_280286",
    "link_img": "https://live.staticflickr.com/65535/50017935441_582d28bf4d_o.jpg",
    "id_image": "Cat_280286",
    "count_view": 0
  },
  {
    "link_thumb": "https://live.staticflickr.com/65535/50022624883_8cc95ac8fe_n.jpg",
    "id_album": "248289288",
    "description": "Raccoon_923716",
    "title": "Raccoon_923716",
    "link_img": "https://live.staticflickr.com/65535/50022624883_77eedde36e_o.jpg",
    "id_image": "Raccoon_923716",
    "count_view": 0
  },
  {
    "link_thumb": "https://live.staticflickr.com/65535/50019438971_c869bb68ee_n.jpg",
    "id_album": "-462831703",
    "description": "Cat_912140",
    "title": "Cat_912140",
    "link_img": "https://live.staticflickr.com/65535/50019438971_af0ee070c7_o.jpg",
    "id_image": "Cat_912140",
    "count_view": 0
  },
  {
    "link_thumb": "https://live.staticflickr.com/65535/50020542157_daf586433c_n.jpg",
    "id_album": "-149330232",
    "description": "Dog_342824",
    "title": "Dog_342824",
    "link_img": "https://live.staticflickr.com/65535/50020542157_b945517d72_o.jpg",
    "id_image": "Dog_342824",
    "count_view": 0
  },
  {
    "link_thumb": "https://live.staticflickr.com/65535/50020600081_b94f01dcb9_n.jpg",
    "id_album": "-1859457960",
    "description": "Dove_574038",
    "title": "Dove_574038",
    "link_img": "https://live.staticflickr.com/65535/50020600081_9e5620772c_o.jpg",
    "id_image": "Dove_574038",
    "count_view": 0
  },
  {
    "link_thumb": "https://live.staticflickr.com/65535/50016952456_cf6078c8ce_n.jpg",
    "id_album": "231236068",
    "description": "BaldEagle_244478",
    "title": "BaldEagle_244478",
    "link_img": "https://live.staticflickr.com/65535/50016952456_a169f01da8_o.jpg",
    "id_image": "BaldEagle_244478",
    "count_view": 0
  },
  {
    "link_thumb": "https://live.staticflickr.com/65535/50017434732_333edd7f7e_n.jpg",
    "id_album": "172748811",
    "description": "Beeeater_571330",
    "title": "Beeeater_571330",
    "link_img": "https://live.staticflickr.com/65535/50017434732_2e2e625019_o.jpg",
    "id_image": "Beeeater_571330",
    "count_view": 0
  },
  {
    "link_thumb": "https://live.staticflickr.com/65535/50020121523_6c4bcbec35_n.jpg",
    "id_album": "1168627767",
    "description": "Duck_387671",
    "title": "Duck_387671",
    "link_img": "https://live.staticflickr.com/65535/50020121523_c4b3d12464_o.jpg",
    "id_image": "Duck_387671",
    "count_view": 0
  },
  {
    "link_thumb": "https://live.staticflickr.com/65535/50018029661_5360f2d496_n.jpg",
    "id_album": "-462831702",
    "description": "Cat_349237",
    "title": "Cat_349237",
    "link_img": "https://live.staticflickr.com/65535/50018029661_3cf35556b2_o.jpg",
    "id_image": "Cat_349237",
    "count_view": 0
  },
  {
    "link_thumb": "https://live.staticflickr.com/65535/50024242307_3772c2b2a4_n.jpg",
    "id_album": "702283289",
    "description": "Squirrel_982091",
    "title": "Squirrel_982091",
    "link_img": "https://live.staticflickr.com/65535/50024242307_12984b43a7_o.jpg",
    "id_image": "Squirrel_982091",
    "count_view": 0
  },
  {
    "link_thumb": "https://live.staticflickr.com/65535/50017974176_046fd894ae_n.jpg",
    "id_album": "-462831702",
    "description": "Cat_325790",
    "title": "Cat_325790",
    "link_img": "https://live.staticflickr.com/65535/50017974176_4b73558f7c_o.jpg",
    "id_image": "Cat_325790",
    "count_view": 0
  },
  {
    "link_thumb": "https://live.staticflickr.com/65535/50021802821_69ae9707a3_n.jpg",
    "id_album": "770105808",
    "description": "Kingfisher_556290",
    "title": "Kingfisher_556290",
    "link_img": "https://live.staticflickr.com/65535/50021802821_569801ccbf_o.jpg",
    "id_image": "Kingfisher_556290",
    "count_view": 0
  },
  {
    "link_thumb": "https://live.staticflickr.com/65535/50019545632_ce7fbf317c_n.jpg",
    "id_album": "-462831704",
    "description": "Cat_524541",
    "title": "Cat_524541",
    "link_img": "https://live.staticflickr.com/65535/50019545632_c4c37c3b4f_o.jpg",
    "id_image": "Cat_524541",
    "count_view": 0
  },
  {
    "link_thumb": "https://live.staticflickr.com/65535/50020932932_f84293d2c9_n.jpg",
    "id_album": "1168627767",
    "description": "Duck_879064",
    "title": "Duck_879064",
    "link_img": "https://live.staticflickr.com/65535/50020932932_77ced892b7_o.jpg",
    "id_image": "Duck_879064",
    "count_view": 0
  },
  {
    "link_thumb": "https://live.staticflickr.com/65535/50021183363_712a1ebc69_n.jpg",
    "id_album": "-843028318",
    "description": "Jaguar_434221",
    "title": "Jaguar_434221",
    "link_img": "https://live.staticflickr.com/65535/50021183363_ab3224cdeb_o.jpg",
    "id_image": "Jaguar_434221",
    "count_view": 0
  },
  {
    "link_thumb": "https://live.staticflickr.com/65535/50352760317_1d9486555b_n.jpg",
    "id_album": "-462831703",
    "description": "Cat_548973",
    "title": "Cat_548973",
    "link_img": "https://live.staticflickr.com/65535/50352760317_49a3f57ca1_o.jpg",
    "id_image": "Cat_548973",
    "count_view": 0
  },
  {
    "link_thumb": "https://live.staticflickr.com/65535/50020889047_022bb12223_n.jpg",
    "id_album": "-405058657",
    "description": "Dragonfly_588145",
    "title": "Dragonfly_588145",
    "link_img": "https://live.staticflickr.com/65535/50020889047_63aefbda7a_o.jpg",
    "id_image": "Dragonfly_588145",
    "count_view": 0
  },
  {
    "link_thumb": "https://live.staticflickr.com/65535/50016520938_3ea0f4a9ab_n.jpg",
    "id_album": "-422187261",
    "description": "Bear_445002",
    "title": "Bear_445002",
    "link_img": "https://live.staticflickr.com/65535/50016520938_511d4bc906_o.jpg",
    "id_image": "Bear_445002",
    "count_view": 0
  },
  {
    "link_thumb": "https://live.staticflickr.com/65535/50019774618_c7bb1700ce_n.jpg",
    "id_album": "-149330232",
    "description": "Dog_354482",
    "title": "Dog_354482",
    "link_img": "https://live.staticflickr.com/65535/50019774618_2f11fa6943_o.jpg",
    "id_image": "Dog_354482",
    "count_view": 0
  },
  {
    "link_thumb": "https://live.staticflickr.com/65535/50023858186_3a105245e1_n.jpg",
    "id_album": "702283289",
    "description": "Squirrel_394623",
    "title": "Squirrel_394623",
    "link_img": "https://live.staticflickr.com/65535/50023858186_ec72258c7b_o.jpg",
    "id_image": "Squirrel_394623",
    "count_view": 0
  },
  {
    "link_thumb": "https://live.staticflickr.com/65535/50017386368_83bb6447db_n.jpg",
    "id_album": "-462831705",
    "description": "Cat_262957",
    "title": "Cat_262957",
    "link_img": "https://live.staticflickr.com/65535/50017386368_62fc9df3c6_o.jpg",
    "id_image": "Cat_262957",
    "count_view": 0
  },
  {
    "link_thumb": "https://live.staticflickr.com/65535/50021910381_1e0f529a8e_n.jpg",
    "id_album": "1392348450",
    "description": "Leopard_370683",
    "title": "Leopard_370683",
    "link_img": "https://live.staticflickr.com/65535/50021910381_6563dc0e70_o.jpg",
    "id_image": "Leopard_370683",
    "count_view": 0
  },
  {
    "link_thumb": "https://live.staticflickr.com/65535/50020381553_46d366ced9_n.jpg",
    "id_album": "-1694105481",
    "description": "Fly_552071",
    "title": "Fly_552071",
    "link_img": "https://live.staticflickr.com/65535/50020381553_04cb29c8ca_o.jpg",
    "id_image": "Fly_552071",
    "count_view": 0
  },
  {
    "link_thumb": "https://live.staticflickr.com/65535/50018838783_22e1655973_n.jpg",
    "id_album": "-462831703",
    "description": "Cat_874520",
    "title": "Cat_874520",
    "link_img": "https://live.staticflickr.com/65535/50018838783_ea39c3b8e2_o.jpg",
    "id_image": "Cat_874520",
    "count_view": 0
  },
  {
    "link_thumb": "https://live.staticflickr.com/65535/50023486561_5d2434ec44_n.jpg",
    "id_album": "-755466332",
    "description": "Sheep_694141",
    "title": "Sheep_694141",
    "link_img": "https://live.staticflickr.com/65535/50023486561_f8c9965c2d_o.jpg",
    "id_image": "Sheep_694141",
    "count_view": 0
  },
  {
    "link_thumb": "https://live.staticflickr.com/65535/50017337901_7560c94527_n.jpg",
    "id_album": "-1846011410",
    "description": "Bird_440412",
    "title": "Bird_440412",
    "link_img": "https://live.staticflickr.com/65535/50017337901_df14202614_o.jpg",
    "id_image": "Bird_440412",
    "count_view": 0
  },
  {
    "link_thumb": "https://live.staticflickr.com/65535/50019563026_23a12ee904_n.jpg",
    "id_album": "-462831703",
    "description": "Cat_989807",
    "title": "Cat_989807",
    "link_img": "https://live.staticflickr.com/65535/50019563026_8a6b5479a8_o.jpg",
    "id_image": "Cat_989807",
    "count_view": 0
  },
  {
    "link_thumb": "https://live.staticflickr.com/65535/50016335163_08d2994bd2_n.jpg",
    "id_album": "523598895",
    "description": "Artistic_114817",
    "title": "Artistic_114817",
    "link_img": "https://live.staticflickr.com/65535/50016335163_5432d348bc_o.jpg",
    "id_image": "Artistic_114817",
    "count_view": 0
  }
]