[
  {
    "link_thumb": "https://live.staticflickr.com/65535/50018928668_50296c5ab5_n.jpg",
    "id_album": "-462831705",
    "description": "Cat_91489",
    "title": "Cat_91489",
    "link_img": "https://live.staticflickr.com/65535/50018928668_b5b21ba557_o.jpg",
    "id_image": "Cat_91489",
    "count_view": 0
  },
  {
    "link_thumb": "https://live.staticflickr.com/65535/50021148358_edebeeff36_n.jpg",
    "id_album": "1658866795",
    "description": "Insect_404661",
    "title": "Insect_404661",
    "link_img": "https://live.staticflickr.com/65535/50021148358_a9c41ffbb4_o.jpg",
    "id_image": "Insect_404661",
    "count_view": 0
  },
  {
    "link_thumb": "https://live.staticflickr.com/65535/50019173123_c73797f7f0_n.jpg",
    "id_album": "-1481843714",
    "description": "Cheetah_398114",
    "title": "Cheetah_398114",
    "link_img": "https://live.staticflickr.com/65535/50019173123_7b76dd9e2c_o.jpg",
    "id_image": "Cheetah_398114",
    "count_view": 0
  },
  {
    "link_thumb": "https://live.staticflickr.com/65535/50352765512_aa47516f13_n.jpg",
    "id_album": "-462831703",
    "description": "Cat_558919",
    "title": "Cat_558919",
    "link_img": "https://live.staticflickr.com/65535/50352765512_692baa4075_o.jpg",
    "id_image": "Cat_558919",
    "count_view": 0
  },
  {
    "link_thumb": "https://live.staticflickr.com/65535/50023016217_72dc581ccb_n.jpg",
    "id_album": "407660898",
    "description": "Pigeon_392176",
    "title": "Pigeon_392176",
    "link_img": "https://live.staticflickr.com/65535/50023016217_367120895f_o.jpg",
    "id_image": "Pigeon_392176",
    "count_view": 0
  },
  {
    "link_thumb": "https://live.staticflickr.com/65535/50021380517_c721d89e2e_n.jpg",
    "id_album": "-462831704",
    "description": "Cat_589101",
    "title": "Cat_589101",
    "link_img": "https://live.staticflickr.com/65535/50021380517_9b8b8d9312_o.jpg",
    "id_image": "Cat_589101",
    "count_view": 0
  },
  {
    "link_thumb": "https://live.staticflickr.com/65535/50020665587_ecb50a43dc_n.jpg",
    "id_album": "-149330231",
    "description": "Dog_430571",
    "title": "Dog_430571",
    "link_img": "https://live.staticflickr.com/65535/50020665587_f0f63099d1_o.jpg",
    "id_image": "Dog_430571",
    "count_view": 0
  },
  {
    "link_thumb": "https://live.staticflickr.com/65535/50024168691_b1a199c87a_n.jpg",
    "id_album": "-1131363127",
    "description": "SnowLeopard_773624",
    "title": "SnowLeopard_773624",
    "link_img": "https://live.staticflickr.com/65535/50024168691_f16be943b8_o.jpg",
    "id_image": "SnowLeopard_773624",
    "count_view": 0
  },
  {
    "link_thumb": "https://live.staticflickr.com/65535/50018197352_f8bdb96bd6_n.jpg",
    "id_album": "-462831702",
    "description": "Cat_285049",
    "title": "Cat_285049",
    "link_img": "https://live.staticflickr.com/65535/50018197352_af92379231_o.jpg",
    "id_image": "Cat_285049",
    "count_view": 0
  },
  {
    "link_thumb": "https://live.staticflickr.com/65535/50022622308_3c876c41b4_n.jpg",
    "id_album": "248289288",
    "description": "Raccoon_834981",
    "title": "Raccoon_834981",
    "link_img": "https://live.staticflickr.com/65535/50022622308_2f2ca76a86_o.jpg",
    "id_image": "Raccoon_834981",
    "count_view": 0
  },
  {
    "link_thumb": "https://live.staticflickr.com/65535/50017402583_cd7ec8b30b_n.jpg",
    "id_album": "-462831702",
    "description": "Cat_275328",
    "title": "Cat_275328",
    "link_img": "https://live.staticflickr.com/65535/50017402583_288764644d_o.jpg",
    "id_image": "Cat_275328",
    "count_view": 0
  },
  {
    "link_thumb": "https://live.staticflickr.com/65535/50019399367_8030a9c971_n.jpg",
    "id_album": "-462831702",
    "description": "Cat_411946",
    "title": "Cat_411946",
    "link_img": "https://live.staticflickr.com/65535/50019399367_3972abd731_o.jpg",
    "id_image": "Cat_411946",
    "count_view": 0
  },
  {
    "link_thumb": "https://live.staticflickr.com/65535/50020485637_d10c0e0e1a_n.jpg",
    "id_album": "-149330232",
    "description": "Dog_293325",
    "title": "Dog_293325",
    "link_img": "https://live.staticflickr.com/65535/50020485637_40f59959ef_o.jpg",
    "id_image": "Dog_293325",
    "count_view": 0
  },
  {
    "link_thumb": "https://live.staticflickr.com/65535/50018800983_453e17bd94_n.jpg",
    "id_album": "-462831703",
    "description": "Cat_859450",
    "title": "Cat_859450",
    "link_img": "https://live.staticflickr.com/65535/50018800983_e53de136e5_o.jpg",
    "id_image": "Cat_859450",
    "count_view": 0
  },
  {
    "link_thumb": "https://live.staticflickr.com/65535/50020415668_b162ed0856_n.jpg",
    "id_album": "-128218148",
    "description": "Fox_388468",
    "title": "Fox_388468",
    "link_img": "https://live.staticflickr.com/65535/50020415668_f5a5445515_o.jpg",
    "id_image": "Fox_388468",
    "count_view": 0
  },
  {
    "link_thumb": "https://live.staticflickr.com/65535/50020427681_edb53b2f70_n.jpg",
    "id_album": "-149330231",
    "description": "Dog_464428",
    "title": "Dog_464428",
    "link_img": "https://live.staticflickr.com/65535/50020427681_56ba9b918f_o.jpg",
    "id_image": "Dog_464428",
    "count_view": 0
  },
  {
    "link_thumb": "https://live.staticflickr.com/65535/50019162953_ffe01da88c_n.jpg",
    "id_album": "-1481843714",
    "description": "Cheetah_344815",
    "title": "Cheetah_344815",
    "link_img": "https://live.staticflickr.com/65535/50019162953_21cb1f7d89_o.jpg",
    "id_image": "Cheetah_344815",
    "count_view": 0
  },
  {
    "link_thumb": "https://live.staticflickr.com/65535/50016560588_7d241d508d_n.jpg",
    "id_album": "-422187261",
    "description": "Bear_829829",
    "title": "Bear_829829",
    "link_img": "https://live.staticflickr.com/65535/50016560588_df84808965_o.jpg",
    "id_image": "Bear_829829",
    "count_view": 0
  },
  {
    "link_thumb": "https://live.staticflickr.com/65535/50017970411_72c6bcfabe_n.jpg",
    "id_album": "-462831702",
    "description": "Cat_324797",
    "title": "Cat_324797",
    "link_img": "https://live.staticflickr.com/65535/50017970411_df2e83517d_o.jpg",
    "id_image": "Cat_324797",
    "count_view": 0
  },
  {
    "link_thumb": "https://live.staticflickr.com/65535/50021663832_51e57236cd_n.jpg",
    "id_album": "82558972",
    "description": "GuineaPig_792600",
    "title": "GuineaPig_792600",
    "link_img": "https://live.staticflickr.com/65535/50021663832_09f4095376_o.jpg",
    "id_image": "GuineaPig_792600",
    "count_view": 0
  },
  {
    "link_thumb": "https://live.staticflickr.com/65535/50021867792_dbca6ae429_n.jpg",
    "id_album": "2144294979",
    "description": "Hummingbird_565394",
    "title": "Hummingbird_565394",
    "link_img": "https://live.staticflickr.com/65535/50021867792_997aa2e7d3_o.jpg",
    "id_image": "Hummingbird_565394",
    "count_view": 0
  },
  {
    "link_thumb": "https://live.staticflickr.com/65535/50017656196_23378a0d16_n.jpg",
    "id_album": "-401151552",
    "description": "Butterfly_726190",
    "title": "Butterfly_726190",
    "link_img": "https://live.staticflickr.com/65535/50017656196_b85332441b_o.jpg",
    "id_image": "Butterfly_726190",
    "count_view": 0
  },
  {
    "link_thumb": "https://live.staticflickr.com/65535/50016301093_739a04f462_n.jpg",
    "id_album": "-229810103",
    "description": "AmericanBison_998701",
    "title": "AmericanBison_998701",
    "link_img": "https://live.staticflickr.com/65535/50016301093_41708a6568_o.jpg",
    "id_image": "AmericanBison_998701",
    "count_view": 0
  },
  {
    "link_thumb": "https://live.staticflickr.com/65535/50019957588_5f4bba3ae4_n.jpg",
    "id_album": "-149330231",
    "description": "Dog_714946",
    "title": "Dog_714946",
    "link_img": "https://live.staticflickr.com/65535/50019957588_de1de885cc_o.jpg",
    "id_image": "Dog_714946",
    "count_view": 0
  },
  {
    "link_thumb": "https://live.staticflickr.com/65535/50023057971_443968fc40_n.jpg",
    "id_album": "-353898617",
    "description": "Puppy_740869",
    "title": "Puppy_740869",
    "link_img": "https://live.staticflickr.com/65535/50023057971_e4f36649b0_o.jpg",
    "id_image": "Puppy_740869",
    "count_view": 0
  },
  {
    "link_thumb": "https://live.staticflickr.com/65535/50020222811_0732a70ffc_n.jpg",
    "id_album": "-149330232",
    "description": "Dog_286207",
    "title": "Dog_286207",
    "link_img": "https://live.staticflickr.com/65535/50020222811_dc121b389b_o.jpg",
    "id_image": "Dog_286207",
    "count_view": 0
  },
  {
    "link_thumb": "https://live.staticflickr.com/65535/50017673436_0af2428d16_n.jpg",
    "id_album": "-401151552",
    "description": "Butterfly_815864",
    "title": "Butterfly_815864",
    "link_img": "https://live.staticflickr.com/65535/50017673436_e3c0cb26a3_o.jpg",
    "id_image": "Butterfly_815864",
    "count_view": 0
  },
  {
    "link_thumb": "https://live.staticflickr.com/65535/50021757628_d2139a0cc3_n.jpg",
    "id_album": "1957967135",
    "description": "Mouse_877422",
    "title": "Mouse_877422",
    "link_img": "https://live.staticflickr.com/65535/50021757628_803a41b4a5_o.jpg",
    "id_image": "Mouse_877422",
    "count_view": 0
  },
  {
    "link_thumb": "https://live.staticflickr.com/65535/50018130242_dda7be460b_n.jpg",
    "id_album": "-462831705",
    "description": "Cat_219817",
    "title": "Cat_219817",
    "link_img": "https://live.staticflickr.com/65535/50018130242_c7fa0e8f65_o.jpg",
    "id_image": "Cat_219817",
    "count_view": 0
  },
  {
    "link_thumb": "https://live.staticflickr.com/65535/50017757056_f6c1889260_n.jpg",
    "id_album": "-462831705",
    "description": "Cat_113274",
    "title": "Cat_113274",
    "link_img": "https://live.staticflickr.com/65535/50017757056_390bd069c8_o.jpg",
    "id_image": "Cat_113274",
    "count_view": 0
  },
  {
    "link_thumb": "https://live.staticflickr.com/65535/50021108747_41fc2ab00f_n.jpg",
    "id_album": "-1118073211",
    "description": "Fish_429414",
    "title": "Fish_429414",
    "link_img": "https://live.staticflickr.com/65535/50021108747_2c26721253_o.jpg",
    "id_image": "Fish_429414",
    "count_view": 0
  },
  {
    "link_thumb": "https://live.staticflickr.com/65535/50017620982_5fc4902f09_n.jpg",
    "id_album": "-1846011410",
    "description": "Bird_535241",
    "title": "Bird_535241",
    "link_img": "https://live.staticflickr.com/65535/50017620982_66591011ab_o.jpg",
    "id_image": "Bird_535241",
    "count_view": 0
  },
  {
    "link_thumb": "https://live.staticflickr.com/65535/50017969807_995aa5e9e4_n.jpg",
    "id_album": "-401151552",
    "description": "Butterfly_927064",
    "title": "Butterfly_927064",
    "link_img": "https://live.staticflickr.com/65535/50017969807_193cf5b34f_o.jpg",
    "id_image": "Butterfly_927064",
    "count_view": 0
  },
  {
    "link_thumb": "https://live.staticflickr.com/65535/50017978416_390dc03d52_n.jpg",
    "id_album": "-462831702",
    "description": "Cat_326339",
    "title": "Cat_326339",
    "link_img": "https://live.staticflickr.com/65535/50017978416_cbd2af346b_o.jpg",
    "id_image": "Cat_326339",
    "count_view": 0
  },
  {
    "link_thumb": "https://live.staticflickr.com/65535/50021555386_de4354bfb6_n.jpg",
    "id_album": "-1933715543",
    "description": "Horse_707729",
    "title": "Horse_707729",
    "link_img": "https://live.staticflickr.com/65535/50021555386_dc72de3be3_o.jpg",
    "id_image": "Horse_707729",
    "count_view": 0
  },
  {
    "link_thumb": "https://live.staticflickr.com/65535/50019344398_73d50909af_n.jpg",
    "id_album": "815329026",
    "description": "Crab_276157",
    "title": "Crab_276157",
    "link_img": "https://live.staticflickr.com/65535/50019344398_954d80b1e8_o.jpg",
    "id_image": "Crab_276157",
    "count_view": 0
  },
  {
    "link_thumb": "https://live.staticflickr.com/65535/50017098023_0fec6c5e66_n.jpg",
    "id_album": "-401151552",
    "description": "Butterfly_544171",
    "title": "Butterfly_544171",
    "link_img": "https://live.staticflickr.com/65535/50017098023_c92062afdb_o.jpg",
    "id_image": "Butterfly_544171",
    "count_view": 0
  },
  {
    "link_thumb": "https://live.staticflickr.com/65535/50017091022_5549b9ec45_n.jpg",
    "id_album": "-1741290715",
    "description": "Ant_278127",
    "title": "Ant_278127",
    "link_img": "https://live.staticflickr.com/65535/50017091022_1a745c3593_o.jpg",
    "id_image": "Ant_278127",
    "count_view": 0
  },
  {
    "link_thumb": "https://live.staticflickr.com/65535/50019344238_e19256c247_n.jpg",
    "id_album": "815329026",
    "description": "Crab_276131",
    "title": "Crab_276131",
    "link_img": "https://live.staticflickr.com/65535/50019344238_aae89ea460_o.jpg",
    "id_image": "Crab_276131",
    "count_view": 0
  },
  {
    "link_thumb": "https://live.staticflickr.com/65535/50022632542_0e19f8780d_n.jpg",
    "id_album": "106807275",
    "description": "Otter_896698",
    "title": "Otter_896698",
    "link_img": "https://live.staticflickr.com/65535/50022632542_733a58b220_o.jpg",
    "id_image": "Otter_896698",
    "count_view": 0
  },
  {
    "link_thumb": "https://live.staticflickr.com/65535/50022178808_37cb703157_n.jpg",
    "id_album": "392248205",
    "description": "Penguin_787836",
    "title": "Penguin_787836",
    "link_img": "https://live.staticflickr.com/65535/50022178808_e7a7bd489a_o.jpg",
    "id_image": "Penguin_787836",
    "count_view": 0
  },
  {
    "link_thumb": "https://live.staticflickr.com/65535/50018205467_63ac9d9999_n.jpg",
    "id_album": "-462831702",
    "description": "Cat_294720",
    "title": "Cat_294720",
    "link_img": "https://live.staticflickr.com/65535/50018205467_ff598665b6_o.jpg",
    "id_image": "Cat_294720",
    "count_view": 0
  },
  {
    "link_thumb": "https://live.staticflickr.com/65535/50017491502_5e04bcc2a5_n.jpg",
    "id_album": "-1846011410",
    "description": "Bird_284689",
    "title": "Bird_284689",
    "link_img": "https://live.staticflickr.com/65535/50017491502_5055d05ab3_o.jpg",
    "id_image": "Bird_284689",
    "count_view": 0
  },
  {
    "link_thumb": "https://live.staticflickr.com/65535/50021082548_9d45cf60a7_n.jpg",
    "id_album": "2144294979",
    "description": "Hummingbird_924974",
    "title": "Hummingbird_924974",
    "link_img": "https://live.staticflickr.com/65535/50021082548_d0dc4055e3_o.jpg",
    "id_image": "Hummingbird_924974",
    "count_view": 0
  },
  {
    "link_thumb": "https://live.staticflickr.com/65535/50020107478_6e6e5021f0_n.jpg",
    "id_album": "-405058657",
    "description": "Dragonfly_951338",
    "title": "Dragonfly_951338",
    "link_img": "https://live.staticflickr.com/65535/50020107478_f191a564b7_o.jpg",
    "id_image": "Dragonfly_951338",
    "count_view": 0
  },
  {
    "link_thumb": "https://live.staticflickr.com/65535/50021276892_b875f6d81b_n.jpg",
    "id_album": "-128218148",
    "description": "Fox_912315",
    "title": "Fox_912315",
    "link_img": "https://live.staticflickr.com/65535/50021276892_4b4824cee4_o.jpg",
    "id_image": "Fox_912315",
    "count_view": 0
  },
  {
    "link_thumb": "https://live.staticflickr.com/65535/50020530148_567cdfed78_n.jpg",
    "id_album": "844170697",
    "description": "Frog_717211",
    "title": "Frog_717211",
    "link_img": "https://live.staticflickr.com/65535/50020530148_ae82e509bd_o.jpg",
    "id_image": "Frog_717211",
    "count_view": 0
  },
  {
    "link_thumb": "https://live.staticflickr.com/65535/50017846962_1b53cd6488_n.jpg",
    "id_album": "-401151552",
    "description": "Butterfly_407422",
    "title": "Butterfly_407422",
    "link_img": "https://live.staticflickr.com/65535/50017846962_bbea34c268_o.jpg",
    "id_image": "Butterfly_407422",
    "count_view": 0
  },
  {
    "link_thumb": "https://live.staticflickr.com/65535/50019884611_039e41bcc1_n.jpg",
    "id_album": "1475096665",
    "description": "Crocodile_103590",
    "title": "Crocodile_103590",
    "link_img": "https://live.staticflickr.com/65535/50019884611_12287929f0_o.jpg",
    "id_image": "Crocodile_103590",
    "count_view": 0
  },
  {
    "link_thumb": "https://live.staticflickr.com/65535/50017039538_23b9797f37_n.jpg",
    "id_album": "-401151552",
    "description": "Butterfly_346502",
    "title": "Butterfly_346502",
    "link_img": "https://live.staticflickr.com/65535/50017039538_894703e156_o.jpg",
    "id_image": "Butterfly_346502",
    "count_view": 0
  },
  {
    "link_thumb": "https://live.staticflickr.com/65535/50018956398_79ed3d1cfb_n.jpg",
    "id_album": "-462831703",
    "description": "Cat_932561",
    "title": "Cat_932561",
    "link_img": "https://live.staticflickr.com/65535/50018956398_b4d47a54ae_o.jpg",
    "id_image": "Cat_932561",
    "count_view": 0
  },
  {
    "link_thumb": "https://live.staticflickr.com/65535/50017211588_658202198d_n.jpg",
    "id_album": "189994021",
    "description": "Cardinal_934386",
    "title": "Cardinal_934386",
    "link_img": "https://live.staticflickr.com/65535/50017211588_14e84cc457_o.jpg",
    "id_image": "Cardinal_934386",
    "count_view": 0
  },
  {
    "link_thumb": "https://live.staticflickr.com/65535/50021290618_ea5cc14aa4_n.jpg",
    "id_album": "1307335982",
    "description": "LabradorRetriever_780110",
    "title": "LabradorRetriever_780110",
    "link_img": "https://live.staticflickr.com/65535/50021290618_f7da67a8d7_o.jpg",
    "id_image": "LabradorRetriever_780110",
    "count_view": 0
  },
  {
    "link_thumb": "https://live.staticflickr.com/65535/50023703716_0d194c0585_n.jpg",
    "id_album": "-359606417",
    "description": "Sparrow_426882",
    "title": "Sparrow_426882",
    "link_img": "https://live.staticflickr.com/65535/50023703716_564cd84966_o.jpg",
    "id_image": "Sparrow_426882",
    "count_view": 0
  },
  {
    "link_thumb": "https://live.staticflickr.com/65535/50352439076_4abab52389_n.jpg",
    "id_album": "-462831703",
    "description": "Cat_242725",
    "title": "Cat_242725",
    "link_img": "https://live.staticflickr.com/65535/50352439076_4a00cac7f1_o.jpg",
    "id_image": "Cat_242725",
    "count_view": 0
  },
  {
    "link_thumb": "https://live.staticflickr.com/65535/50022196186_296b703a6f_n.jpg",
    "id_album": "-784970094",
    "description": "Monkey_248754",
    "title": "Monkey_248754",
    "link_img": "https://live.staticflickr.com/65535/50022196186_c2e965c8df_o.jpg",
    "id_image": "Monkey_248754",
    "count_view": 0
  },
  {
    "link_thumb": "https://live.staticflickr.com/65535/50352795407_fa838563cd_n.jpg",
    "id_album": "-462831703",
    "description": "Cat_664363",
    "title": "Cat_664363",
    "link_img": "https://live.staticflickr.com/65535/50352795407_6f4d4199b7_o.jpg",
    "id_image": "Cat_664363",
    "count_view": 0
  },
  {
    "link_thumb": "https://live.staticflickr.com/65535/50021959541_37d74aa0ae_n.jpg",
    "id_album": "1392348450",
    "description": "Leopard_929685",
    "title": "Leopard_929685",
    "link_img": "https://live.staticflickr.com/65535/50021959541_3c15e02610_o.jpg",
    "id_image": "Leopard_929685",
    "count_view": 0
  },
  {
    "link_thumb": "https://live.staticflickr.com/65535/50017114996_c028b10418_n.jpg",
    "id_album": "1699594607",
    "description": "Bee_110240",
    "title": "Bee_110240",
    "link_img": "https://live.staticflickr.com/65535/50017114996_24753480f0_o.jpg",
    "id_image": "Bee_110240",
    "count_view": 0
  },
  {
    "link_thumb": "https://live.staticflickr.com/65535/50018145721_c8698c9393_n.jpg",
    "id_album": "-462831702",
    "description": "Cat_405104",
    "title": "Cat_405104",
    "link_img": "https://live.staticflickr.com/65535/50018145721_b08e0fa43f_o.jpg",
    "id_image": "Cat_405104",
    "count_view": 0
  },
  {
    "link_thumb": "https://live.staticflickr.com/65535/50016694413_06f7a944b7_n.jpg",
    "id_album": "-1846011410",
    "description": "Bird_249101",
    "title": "Bird_249101",
    "link_img": "https://live.staticflickr.com/65535/50016694413_c28f08385b_o.jpg",
    "id_image": "Bird_249101",
    "count_view": 0
  },
  {
    "link_thumb": "https://live.staticflickr.com/65535/50020205678_6aa1cbe260_n.jpg",
    "id_album": "1270947998",
    "description": "Elephant_307924",
    "title": "Elephant_307924",
    "link_img": "https://live.staticflickr.com/65535/50020205678_a11001a8ca_o.jpg",
    "id_image": "Elephant_307924",
    "count_view": 0
  },
  {
    "link_thumb": "https://live.staticflickr.com/65535/50022424043_c9e1410072_n.jpg",
    "id_album": "-353898617",
    "description": "Puppy_364753",
    "title": "Puppy_364753",
    "link_img": "https://live.staticflickr.com/65535/50022424043_5d829e38a0_o.jpg",
    "id_image": "Puppy_364753",
    "count_view": 0
  },
  {
    "link_thumb": "https://live.staticflickr.com/65535/50016660108_e70db24855_n.jpg",
    "id_album": "325287329",
    "description": "Beetle_495939",
    "title": "Beetle_495939",
    "link_img": "https://live.staticflickr.com/65535/50016660108_dfd993085f_o.jpg",
    "id_image": "Beetle_495939",
    "count_view": 0
  },
  {
    "link_thumb": "https://live.staticflickr.com/65535/50017226642_e8728d2ee5_n.jpg",
    "id_album": "231236068",
    "description": "BaldEagle_687622",
    "title": "BaldEagle_687622",
    "link_img": "https://live.staticflickr.com/65535/50017226642_a3ae914ba7_o.jpg",
    "id_image": "BaldEagle_687622",
    "count_view": 0
  },
  {
    "link_thumb": "https://live.staticflickr.com/65535/50017046333_54668bde28_n.jpg",
    "id_album": "-401151552",
    "description": "Butterfly_367041",
    "title": "Butterfly_367041",
    "link_img": "https://live.staticflickr.com/65535/50017046333_a262eab62e_o.jpg",
    "id_image": "Butterfly_367041",
    "count_view": 0
  },
  {
    "link_thumb": "https://live.staticflickr.com/65535/50020634836_3be2d29e74_n.jpg",
    "id_album": "-405058657",
    "description": "Dragonfly_643749",
    "title": "Dragonfly_643749",
    "link_img": "https://live.staticflickr.com/65535/50020634836_df753a8636_o.jpg",
    "id_image": "Dragonfly_643749",
    "count_view": 0
  },
  {
    "link_thumb": "https://live.staticflickr.com/65535/50017835926_5a31958e5c_n.jpg",
    "id_album": "-462831705",
    "description": "Cat_192604",
    "title": "Cat_192604",
    "link_img": "https://live.staticflickr.com/65535/50017835926_5b305c2605_o.jpg",
    "id_image": "Cat_192604",
    "count_view": 0
  },
  {
    "link_thumb": "https://live.staticflickr.com/65535/50352480831_452e151b0f_n.jpg",
    "id_album": "-462831703",
    "description": "Cat_374642",
    "title": "Cat_374642",
    "link_img": "https://live.staticflickr.com/65535/50352480831_d0d8a8a7f7_o.jpg",
    "id_image": "Cat_374642",
    "count_view": 0
  },
  {
    "link_thumb": "https://live.staticflickr.com/65535/50017532408_2a3b54a972_n.jpg",
    "id_album": "-462831702",
    "description": "Cat_362635",
    "title": "Cat_362635",
    "link_img": "https://live.staticflickr.com/65535/50017532408_1eb37e9484_o.jpg",
    "id_image": "Cat_362635",
    "count_view": 0
  },
  {
    "link_thumb": "https://live.staticflickr.com/65535/50021895443_8cb5a4c81c_n.jpg",
    "id_album": "-1384601601",
    "description": "Owl_543330",
    "title": "Owl_543330",
    "link_img": "https://live.staticflickr.com/65535/50021895443_f4b564ebb3_o.jpg",
    "id_image": "Owl_543330",
    "count_view": 0
  },
  {
    "link_thumb": "https://live.staticflickr.com/65535/50021907521_31dd15f361_n.jpg",
    "id_album": "1392348450",
    "description": "Leopard_365023",
    "title": "Leopard_365023",
    "link_img": "https://live.staticflickr.com/65535/50021907521_502073f91c_o.jpg",
    "id_image": "Leopard_365023",
    "count_view": 0
  },
  {
    "link_thumb": "https://live.staticflickr.com/65535/50019978986_aff206b542_n.jpg",
    "id_album": "1903411565",
    "description": "Deer_181650",
    "title": "Deer_181650",
    "link_img": "https://live.staticflickr.com/65535/50019978986_b95e057b85_o.jpg",
    "id_image": "Deer_181650",
    "count_view": 0
  },
  {
    "link_thumb": "https://live.staticflickr.com/65535/50022572626_06548d2324_n.jpg",
    "id_album": "405592235",
    "description": "Parrot_525830",
    "title": "Parrot_525830",
    "link_img": "https://live.staticflickr.com/65535/50022572626_82fef4979a_o.jpg",
    "id_image": "Parrot_525830",
    "count_view": 0
  },
  {
    "link_thumb": "https://live.staticflickr.com/65535/50022969178_60b8e69d18_n.jpg",
    "id_album": "-800019164",
    "description": "Snail_336128",
    "title": "Snail_336128",
    "link_img": "https://live.staticflickr.com/65535/50022969178_2cf21ed4aa_o.jpg",
    "id_image": "Snail_336128",
    "count_view": 0
  },
  {
    "link_thumb": "https://live.staticflickr.com/65535/50017161416_44ba49604a_n.jpg",
    "id_album": "1699594607",
    "description": "Bee_790222",
    "title": "Bee_790222",
    "link_img": "https://live.staticflickr.com/65535/50017161416_e62c117544_o.jpg",
    "id_image": "Bee_790222",
    "count_view": 0
  },
  {
    "link_thumb": "https://live.staticflickr.com/65535/50020775192_d59dd821d2_n.jpg",
    "id_album": "-149330232",
    "description": "Dog_8291",
    "title": "Dog_8291",
    "link_img": "https://live.staticflickr.com/65535/50020775192_d2fc32ce4a_o.jpg",
    "id_image": "Dog_8291",
    "count_view": 0
  },
  {
    "link_thumb": "https://live.staticflickr.com/65535/50022389781_4786bec6c0_n.jpg",
    "id_album": "-1384601601",
    "description": "Owl_329008",
    "title": "Owl_329008",
    "link_img": "https://live.staticflickr.com/65535/50022389781_3b7a31e29d_o.jpg",
    "id_image": "Owl_329008",
    "count_view": 0
  },
  {
    "link_thumb": "https://live.staticflickr.com/65535/50019842497_d9cdd8d321_n.jpg",
    "id_album": "-1930903528",
    "description": "CatDog_737536",
    "title": "CatDog_737536",
    "link_img": "https://live.staticflickr.com/65535/50019842497_27a8fe8c4e_o.jpg",
    "id_image": "CatDog_737536",
    "count_view": 0
  },
  {
    "link_thumb": "https://live.staticflickr.com/65535/50021436742_1c74567e72_n.jpg",
    "id_album": "-462831704",
    "description": "Cat_702439",
    "title": "Cat_702439",
    "link_img": "https://live.staticflickr.com/65535/50021436742_48317aa882_o.jpg",
    "id_image": "Cat_702439",
    "count_view": 0
  },
  {
    "link_thumb": "https://live.staticflickr.com/65535/50020968546_5af530ea08_n.jpg",
    "id_album": "-128218148",
    "description": "Fox_455717",
    "title": "Fox_455717",
    "link_img": "https://live.staticflickr.com/65535/50020968546_d29b5ee5f5_o.jpg",
    "id_image": "Fox_455717",
    "count_view": 0
  },
  {
    "link_thumb": "https://live.staticflickr.com/65535/50023088368_cd77bee21b_n.jpg",
    "id_album": "-1131363127",
    "description": "SnowLeopard_353086",
    "title": "SnowLeopard_353086",
    "link_img": "https://live.staticflickr.com/65535/50023088368_2dd14b4bfc_o.jpg",
    "id_image": "SnowLeopard_353086",
    "count_view": 0
  },
  {
    "link_thumb": "https://live.staticflickr.com/65535/50019812566_4f5bb3e83a_n.jpg",
    "id_album": "-1868680171",
    "description": "Cougar_376850",
    "title": "Cougar_376850",
    "link_img": "https://live.staticflickr.com/65535/50019812566_9695662cc7_o.jpg",
    "id_image": "Cougar_376850",
    "count_view": 0
  },
  {
    "link_thumb": "https://live.staticflickr.com/65535/50019772578_d0ff9618d7_n.jpg",
    "id_album": "-149330232",
    "description": "Dog_354420",
    "title": "Dog_354420",
    "link_img": "https://live.staticflickr.com/65535/50019772578_1f3c7f6d1b_o.jpg",
    "id_image": "Dog_354420",
    "count_view": 0
  },
  {
    "link_thumb": "https://live.staticflickr.com/65535/50019425777_d790396b6a_n.jpg",
    "id_album": "-462831702",
    "description": "Cat_425363",
    "title": "Cat_425363",
    "link_img": "https://live.staticflickr.com/65535/50019425777_55cdb65dbd_o.jpg",
    "id_image": "Cat_425363",
    "count_view": 0
  },
  {
    "link_thumb": "https://live.staticflickr.com/65535/50024211017_f590d54080_n.jpg",
    "id_album": "702283289",
    "description": "Squirrel_855579",
    "title": "Squirrel_855579",
    "link_img": "https://live.staticflickr.com/65535/50024211017_49814f6b10_o.jpg",
    "id_image": "Squirrel_855579",
    "count_view": 0
  },
  {
    "link_thumb": "https://live.staticflickr.com/65535/50017517636_a5c7e6f5ef_n.jpg",
    "id_album": "1696155652",
    "description": "Boxer_369777",
    "title": "Boxer_369777",
    "link_img": "https://live.staticflickr.com/65535/50017517636_f50e7af886_o.jpg",
    "id_image": "Boxer_369777",
    "count_view": 0
  },
  {
    "link_thumb": "https://live.staticflickr.com/65535/50020677701_cec9b2b1d3_n.jpg",
    "id_album": "1168627767",
    "description": "Duck_915903",
    "title": "Duck_915903",
    "link_img": "https://live.staticflickr.com/65535/50020677701_33039087cb_o.jpg",
    "id_image": "Duck_915903",
    "count_view": 0
  },
  {
    "link_thumb": "https://live.staticflickr.com/65535/50023633518_ef500e988b_n.jpg",
    "id_album": "405170427",
    "description": "Tiger_587555",
    "title": "Tiger_587555",
    "link_img": "https://live.staticflickr.com/65535/50023633518_f93b68cbd8_o.jpg",
    "id_image": "Tiger_587555",
    "count_view": 0
  },
  {
    "link_thumb": "https://live.staticflickr.com/65535/50018048351_815345b9c7_n.jpg",
    "id_album": "-462831702",
    "description": "Cat_358492",
    "title": "Cat_358492",
    "link_img": "https://live.staticflickr.com/65535/50018048351_cf6ddafb3d_o.jpg",
    "id_image": "Cat_358492",
    "count_view": 0
  },
  {
    "link_thumb": "https://live.staticflickr.com/65535/50017850591_ea406777b5_n.jpg",
    "id_album": "-462831705",
    "description": "Cat_207595",
    "title": "Cat_207595",
    "link_img": "https://live.staticflickr.com/65535/50017850591_5749e7d6f3_o.jpg",
    "id_image": "Cat_207595",
    "count_view": 0
  },
  {
    "link_thumb": "https://live.staticflickr.com/65535/50022425922_e904cfbaa3_n.jpg",
    "id_album": "1894617400",
    "description": "Lynx_881375",
    "title": "Lynx_881375",
    "link_img": "https://live.staticflickr.com/65535/50022425922_bf83474b5b_o.jpg",
    "id_image": "Lynx_881375",
    "count_view": 0
  },
  {
    "link_thumb": "https://live.staticflickr.com/65535/50024487646_92f9565cb4_n.jpg",
    "id_album": "-709711865",
    "description": "Wolf_367153",
    "title": "Wolf_367153",
    "link_img": "https://live.staticflickr.com/65535/50024487646_18dbd03d9e_o.jpg",
    "id_image": "Wolf_367153",
    "count_view": 0
  },
  {
    "link_thumb": "https://live.staticflickr.com/65535/50021410327_d3b706f624_n.jpg",
    "id_album": "-462831704",
    "description": "Cat_668922",
    "title": "Cat_668922",
    "link_img": "https://live.staticflickr.com/65535/50021410327_3bce090daf_o.jpg",
    "id_image": "Cat_668922",
    "count_view": 0
  },
  {
    "link_thumb": "https://live.staticflickr.com/65535/50024076202_4dafa9beac_n.jpg",
    "id_album": "702283289",
    "description": "Squirrel_234251",
    "title": "Squirrel_234251",
    "link_img": "https://live.staticflickr.com/65535/50024076202_360f7b2518_o.jpg",
    "id_image": "Squirrel_234251",
    "count_view": 0
  },
  {
    "link_thumb": "https://live.staticflickr.com/65535/50022330881_6da97e8fbb_n.jpg",
    "id_album": "1015034486",
    "description": "Muteswan_707753",
    "title": "Muteswan_707753",
    "link_img": "https://live.staticflickr.com/65535/50022330881_6c7be140ba_o.jpg",
    "id_image": "Muteswan_707753",
    "count_view": 0
  },
  {
    "link_thumb": "https://live.staticflickr.com/65535/50021073646_53f39f8bac_n.jpg",
    "id_album": "844170697",
    "description": "Frog_728263",
    "title": "Frog_728263",
    "link_img": "https://live.staticflickr.com/65535/50021073646_193656321f_o.jpg",
    "id_image": "Frog_728263",
    "count_view": 0
  },
  {
    "link_thumb": "https://live.staticflickr.com/65535/50019475876_f105fabe9a_n.jpg",
    "id_album": "-462831703",
    "description": "Cat_924359",
    "title": "Cat_924359",
    "link_img": "https://live.staticflickr.com/65535/50019475876_37b28aef94_o.jpg",
    "id_image": "Cat_924359",
    "count_view": 0
  },
  {
    "link_thumb": "https://live.staticflickr.com/65535/50017490697_b7daf5189e_n.jpg",
    "id_album": "-1846011410",
    "description": "Bird_279366",
    "title": "Bird_279366",
    "link_img": "https://live.staticflickr.com/65535/50017490697_54e21273fe_o.jpg",
    "id_image": "Bird_279366",
    "count_view": 0
  },
  {
    "link_thumb": "https://live.staticflickr.com/65535/50020754301_d284f3bc58_n.jpg",
    "id_album": "1270947998",
    "description": "Elephant_403379",
    "title": "Elephant_403379",
    "link_img": "https://live.staticflickr.com/65535/50020754301_1753e9af12_o.jpg",
    "id_image": "Elephant_403379",
    "count_view": 0
  },
  {
    "link_thumb": "https://live.staticflickr.com/65535/50020061728_30798a1806_n.jpg",
    "id_album": "-1859457960",
    "description": "Dove_116778",
    "title": "Dove_116778",
    "link_img": "https://live.staticflickr.com/65535/50020061728_8cd6cb5680_o.jpg",
    "id_image": "Dove_116778",
    "count_view": 0
  },
  {
    "link_thumb": "https://live.staticflickr.com/65535/50017417698_bef7bbb743_n.jpg",
    "id_album": "-462831702",
    "description": "Cat_296680",
    "title": "Cat_296680",
    "link_img": "https://live.staticflickr.com/65535/50017417698_8a0f5ebfd9_o.jpg",
    "id_image": "Cat_296680",
    "count_view": 0
  },
  {
    "link_thumb": "https://live.staticflickr.com/65535/50019686097_8315724a6b_n.jpg",
    "id_album": "-462831703",
    "description": "Cat_905569",
    "title": "Cat_905569",
    "link_img": "https://live.staticflickr.com/65535/50019686097_55e9c15eb4_o.jpg",
    "id_image": "Cat_905569",
    "count_view": 0
  },
  {
    "link_thumb": "https://live.staticflickr.com/65535/50022120467_900e8fafdd_n.jpg",
    "id_album": "-1882491687",
    "description": "Ladybug_787510",
    "title": "Ladybug_787510",
    "link_img": "https://live.staticflickr.com/65535/50022120467_8b1b319dfb_o.jpg",
    "id_image": "Ladybug_787510",
    "count_view": 0
  },
  {
    "link_thumb": "https://live.staticflickr.com/65535/50023909961_4bd1a88d87_n.jpg",
    "id_album": "702283289",
    "description": "Squirrel_591457",
    "title": "Squirrel_591457",
    "link_img": "https://live.staticflickr.com/65535/50023909961_c3780db2c2_o.jpg",
    "id_image": "Squirrel_591457",
    "count_view": 0
  },
  {
    "link_thumb": "https://live.staticflickr.com/65535/50018132341_78cbe6c6d1_n.jpg",
    "id_album": "-462831702",
    "description": "Cat_396449",
    "title": "Cat_396449",
    "link_img": "https://live.staticflickr.com/65535/50018132341_0006d9af42_o.jpg",
    "id_image": "Cat_396449",
    "count_view": 0
  },
  {
    "link_thumb": "https://live.staticflickr.com/65535/50020933907_dff3a88fac_n.jpg",
    "id_album": "1168627767",
    "description": "Duck_911514",
    "title": "Duck_911514",
    "link_img": "https://live.staticflickr.com/65535/50020933907_5959dc797d_o.jpg",
    "id_image": "Duck_911514",
    "count_view": 0
  },
  {
    "link_thumb": "https://live.staticflickr.com/65535/50019962086_00bbcc71a8_n.jpg",
    "id_album": "-1783645069",
    "description": "Dalmatian_177727",
    "title": "Dalmatian_177727",
    "link_img": "https://live.staticflickr.com/65535/50019962086_28c7d86cfd_o.jpg",
    "id_image": "Dalmatian_177727",
    "count_view": 0
  },
  {
    "link_thumb": "https://live.staticflickr.com/65535/50023757236_436358fa7b_n.jpg",
    "id_album": "-1082521515",
    "description": "Spider_410210",
    "title": "Spider_410210",
    "link_img": "https://live.staticflickr.com/65535/50023757236_c83f4f75e4_o.jpg",
    "id_image": "Spider_410210",
    "count_view": 0
  },
  {
    "link_thumb": "https://live.staticflickr.com/65535/50023751787_e4435ac980_n.jpg",
    "id_album": "-755466332",
    "description": "Sheep_887676",
    "title": "Sheep_887676",
    "link_img": "https://live.staticflickr.com/65535/50023751787_f0ba38aa64_o.jpg",
    "id_image": "Sheep_887676",
    "count_view": 0
  },
  {
    "link_thumb": "https://live.staticflickr.com/65535/50019995421_7baf0385e9_n.jpg",
    "id_album": "1903411565",
    "description": "Deer_348182",
    "title": "Deer_348182",
    "link_img": "https://live.staticflickr.com/65535/50019995421_e723fcb732_o.jpg",
    "id_image": "Deer_348182",
    "count_view": 0
  },
  {
    "link_thumb": "https://live.staticflickr.com/65535/50020720103_a98fa06b40_n.jpg",
    "id_album": "-462831703",
    "description": "Cat_814505",
    "title": "Cat_814505",
    "link_img": "https://live.staticflickr.com/65535/50020720103_92900041e6_o.jpg",
    "id_image": "Cat_814505",
    "count_view": 0
  },
  {
    "link_thumb": "https://live.staticflickr.com/65535/50017816161_b2e9d21653_n.jpg",
    "id_album": "-462831705",
    "description": "Cat_178477",
    "title": "Cat_178477",
    "link_img": "https://live.staticflickr.com/65535/50017816161_ea4c477aa8_o.jpg",
    "id_image": "Cat_178477",
    "count_view": 0
  },
  {
    "link_thumb": "https://live.staticflickr.com/65535/50352509661_a6a101ba8b_n.jpg",
    "id_album": "-462831703",
    "description": "Cat_423643",
    "title": "Cat_423643",
    "link_img": "https://live.staticflickr.com/65535/50352509661_aed9432c5b_o.jpg",
    "id_image": "Cat_423643",
    "count_view": 0
  },
  {
    "link_thumb": "https://live.staticflickr.com/65535/50016821906_16a7555f9a_n.jpg",
    "id_album": "-1473450542",
    "description": "Alpaca_840628",
    "title": "Alpaca_840628",
    "link_img": "https://live.staticflickr.com/65535/50016821906_2cd0f1ec39_o.jpg",
    "id_image": "Alpaca_840628",
    "count_view": 0
  },
  {
    "link_thumb": "https://live.staticflickr.com/65535/50023673536_0a62fb0b3f_n.jpg",
    "id_album": "-1131363127",
    "description": "SnowLeopard_793344",
    "title": "SnowLeopard_793344",
    "link_img": "https://live.staticflickr.com/65535/50023673536_5e51767266_o.jpg",
    "id_image": "SnowLeopard_793344",
    "count_view": 0
  },
  {
    "link_thumb": "https://live.staticflickr.com/65535/50020756418_8bf821dc73_n.jpg",
    "id_album": "-405626519",
    "description": "GermanShepherd_733345",
    "title": "GermanShepherd_733345",
    "link_img": "https://live.staticflickr.com/65535/50020756418_371482c78a_o.jpg",
    "id_image": "GermanShepherd_733345",
    "count_view": 0
  },
  {
    "link_thumb": "https://live.staticflickr.com/65535/50023187097_4eda5e9267_n.jpg",
    "id_album": "-356780855",
    "description": "Puffin_714877",
    "title": "Puffin_714877",
    "link_img": "https://live.staticflickr.com/65535/50023187097_bd6548db40_o.jpg",
    "id_image": "Puffin_714877",
    "count_view": 0
  },
  {
    "link_thumb": "https://live.staticflickr.com/65535/50017451463_f4b0fec613_n.jpg",
    "id_album": "-462831702",
    "description": "Cat_327112",
    "title": "Cat_327112",
    "link_img": "https://live.staticflickr.com/65535/50017451463_4c764bd3e4_o.jpg",
    "id_image": "Cat_327112",
    "count_view": 0
  },
  {
    "link_thumb": "https://live.staticflickr.com/65535/50022554932_60cbfdfced_n.jpg",
    "id_album": "1957967135",
    "description": "Mouse_786742",
    "title": "Mouse_786742",
    "link_img": "https://live.staticflickr.com/65535/50022554932_60ede55571_o.jpg",
    "id_image": "Mouse_786742",
    "count_view": 0
  },
  {
    "link_thumb": "https://live.staticflickr.com/65535/50021963801_cca23ff79f_n.jpg",
    "id_album": "1392348450",
    "description": "Leopard_995948",
    "title": "Leopard_995948",
    "link_img": "https://live.staticflickr.com/65535/50021963801_b76baedb61_o.jpg",
    "id_image": "Leopard_995948",
    "count_view": 0
  },
  {
    "link_thumb": "https://live.staticflickr.com/65535/50021426322_aa17a6c158_n.jpg",
    "id_album": "-462831704",
    "description": "Cat_694147",
    "title": "Cat_694147",
    "link_img": "https://live.staticflickr.com/65535/50021426322_677c657da2_o.jpg",
    "id_image": "Cat_694147",
    "count_view": 0
  },
  {
    "link_thumb": "https://live.staticflickr.com/65535/50020568863_774089ab72_n.jpg",
    "id_album": "-462831704",
    "description": "Cat_554586",
    "title": "Cat_554586",
    "link_img": "https://live.staticflickr.com/65535/50020568863_a39ed5ac04_o.jpg",
    "id_image": "Cat_554586",
    "count_view": 0
  },
  {
    "link_thumb": "https://live.staticflickr.com/65535/50016436043_86ea7e17a7_n.jpg",
    "id_album": "231236068",
    "description": "BaldEagle_596627",
    "title": "BaldEagle_596627",
    "link_img": "https://live.staticflickr.com/65535/50016436043_e468c1f782_o.jpg",
    "id_image": "BaldEagle_596627",
    "count_view": 0
  },
  {
    "link_thumb": "https://live.staticflickr.com/65535/50020001667_751a6589da_n.jpg",
    "id_album": "1949822052",
    "description": "Chimpanzee_464635",
    "title": "Chimpanzee_464635",
    "link_img": "https://live.staticflickr.com/65535/50020001667_daa2a24883_o.jpg",
    "id_image": "Chimpanzee_464635",
    "count_view": 0
  },
  {
    "link_thumb": "https://live.staticflickr.com/65535/50024289086_21255b683e_n.jpg",
    "id_album": "-1103743486",
    "description": "Toucan_955102",
    "title": "Toucan_955102",
    "link_img": "https://live.staticflickr.com/65535/50024289086_bde6aaf1a3_o.jpg",
    "id_image": "Toucan_955102",
    "count_view": 0
  },
  {
    "link_thumb": "https://live.staticflickr.com/65535/50021101941_b5ed77662f_n.jpg",
    "id_album": "-462831704",
    "description": "Cat_543747",
    "title": "Cat_543747",
    "link_img": "https://live.staticflickr.com/65535/50021101941_a2a91253b7_o.jpg",
    "id_image": "Cat_543747",
    "count_view": 0
  },
  {
    "link_thumb": "https://live.staticflickr.com/65535/50019614193_8809744c96_n.jpg",
    "id_album": "-149330232",
    "description": "Dog_197483",
    "title": "Dog_197483",
    "link_img": "https://live.staticflickr.com/65535/50019614193_f967552339_o.jpg",
    "id_image": "Dog_197483",
    "count_view": 0
  },
  {
    "link_thumb": "https://live.staticflickr.com/65535/50017905106_7f02d6631c_n.jpg",
    "id_album": "-462831705",
    "description": "Cat_250943",
    "title": "Cat_250943",
    "link_img": "https://live.staticflickr.com/65535/50017905106_344fa7d378_o.jpg",
    "id_image": "Cat_250943",
    "count_view": 0
  },
  {
    "link_thumb": "https://live.staticflickr.com/65535/50024306177_2bbc163a77_n.jpg",
    "id_album": "405170427",
    "description": "Tiger_244523",
    "title": "Tiger_244523",
    "link_img": "https://live.staticflickr.com/65535/50024306177_e58f022a05_o.jpg",
    "id_image": "Tiger_244523",
    "count_view": 0
  },
  {
    "link_thumb": "https://live.staticflickr.com/65535/50018056386_31ebed17c1_n.jpg",
    "id_album": "-462831702",
    "description": "Cat_361595",
    "title": "Cat_361595",
    "link_img": "https://live.staticflickr.com/65535/50018056386_2f4beefa1f_o.jpg",
    "id_image": "Cat_361595",
    "count_view": 0
  },
  {
    "link_thumb": "https://live.staticflickr.com/65535/50021232627_3f002389e6_n.jpg",
    "id_album": "-128218148",
    "description": "Fox_592685",
    "title": "Fox_592685",
    "link_img": "https://live.staticflickr.com/65535/50021232627_0ab60fed19_o.jpg",
    "id_image": "Fox_592685",
    "count_view": 0
  },
  {
    "link_thumb": "https://live.staticflickr.com/65535/50021855191_65d58b3c02_n.jpg",
    "id_album": "-1882491687",
    "description": "Ladybug_506547",
    "title": "Ladybug_506547",
    "link_img": "https://live.staticflickr.com/65535/50021855191_aa7c9f33b5_o.jpg",
    "id_image": "Ladybug_506547",
    "count_view": 0
  },
  {
    "link_thumb": "https://live.staticflickr.com/65535/50020630113_15431c85ee_n.jpg",
    "id_album": "-462831704",
    "description": "Cat_692395",
    "title": "Cat_692395",
    "link_img": "https://live.staticflickr.com/65535/50020630113_0fa9445507_o.jpg",
    "id_image": "Cat_692395",
    "count_view": 0
  },
  {
    "link_thumb": "https://live.staticflickr.com/65535/50021164608_b8152b565f_n.jpg",
    "id_album": "1658866795",
    "description": "Insect_584286",
    "title": "Insect_584286",
    "link_img": "https://live.staticflickr.com/65535/50021164608_6e02c0bb9e_o.jpg",
    "id_image": "Insect_584286",
    "count_view": 0
  },
  {
    "link_thumb": "https://live.staticflickr.com/65535/50023745778_1776bd956c_n.jpg",
    "id_album": "901523298",
    "description": "TreeFrog_386498",
    "title": "TreeFrog_386498",
    "link_img": "https://live.staticflickr.com/65535/50023745778_9b46e65df5_o.jpg",
    "id_image": "TreeFrog_386498",
    "count_view": 0
  },
  {
    "link_thumb": "https://live.staticflickr.com/65535/50017538168_1a15ba4585_n.jpg",
    "id_album": "-462831702",
    "description": "Cat_364198",
    "title": "Cat_364198",
    "link_img": "https://live.staticflickr.com/65535/50017538168_0926f3077d_o.jpg",
    "id_image": "Cat_364198",
    "count_view": 0
  },
  {
    "link_thumb": "https://live.staticflickr.com/65535/50018699423_791e775239_n.jpg",
    "id_album": "-462831704",
    "description": "Cat_459377",
    "title": "Cat_459377",
    "link_img": "https://live.staticflickr.com/65535/50018699423_48deeda7a1_o.jpg",
    "id_image": "Cat_459377",
    "count_view": 0
  },
  {
    "link_thumb": "https://live.staticflickr.com/65535/50019686337_4123944a17_n.jpg",
    "id_album": "-462831703",
    "description": "Cat_905725",
    "title": "Cat_905725",
    "link_img": "https://live.staticflickr.com/65535/50019686337_87009c48d4_o.jpg",
    "id_image": "Cat_905725",
    "count_view": 0
  },
  {
    "link_thumb": "https://live.staticflickr.com/65535/50351932828_0344358303_n.jpg",
    "id_album": "-462831703",
    "description": "Cat_640360",
    "title": "Cat_640360",
    "link_img": "https://live.staticflickr.com/65535/50351932828_8b95fe9a4a_o.jpg",
    "id_image": "Cat_640360",
    "count_view": 0
  },
  {
    "link_thumb": "https://live.staticflickr.com/65535/50017080747_e71371c815_n.jpg",
    "id_album": "-1473450542",
    "description": "Alpaca_548459",
    "title": "Alpaca_548459",
    "link_img": "https://live.staticflickr.com/65535/50017080747_e6299019f5_o.jpg",
    "id_image": "Alpaca_548459",
    "count_view": 0
  },
  {
    "link_thumb": "https://live.staticflickr.com/65535/50017743786_256d51bd0a_n.jpg",
    "id_album": "-462831705",
    "description": "Cat_101534",
    "title": "Cat_101534",
    "link_img": "https://live.staticflickr.com/65535/50017743786_fb7ee6e013_o.jpg",
    "id_image": "Cat_101534",
    "count_view": 0
  },
  {
    "link_thumb": "https://live.staticflickr.com/65535/50016837931_80f5c4664d_n.jpg",
    "id_album": "-1741290715",
    "description": "Ant_574378",
    "title": "Ant_574378",
    "link_img": "https://live.staticflickr.com/65535/50016837931_b7d59ea8a1_o.jpg",
    "id_image": "Ant_574378",
    "count_view": 0
  },
  {
    "link_thumb": "https://live.staticflickr.com/65535/50351882353_75e47d37ff_n.jpg",
    "id_album": "-462831703",
    "description": "Cat_513259",
    "title": "Cat_513259",
    "link_img": "https://live.staticflickr.com/65535/50351882353_db2a554dfc_o.jpg",
    "id_image": "Cat_513259",
    "count_view": 0
  },
  {
    "link_thumb": "https://live.staticflickr.com/65535/50018240492_eb0221457e_n.jpg",
    "id_album": "-462831702",
    "description": "Cat_327206",
    "title": "Cat_327206",
    "link_img": "https://live.staticflickr.com/65535/50018240492_0d4f6a93b7_o.jpg",
    "id_image": "Cat_327206",
    "count_view": 0
  },
  {
    "link_thumb": "https://live.staticflickr.com/65535/50020221286_45e033ca35_n.jpg",
    "id_album": "-149330232",
    "description": "Dog_284532",
    "title": "Dog_284532",
    "link_img": "https://live.staticflickr.com/65535/50020221286_9cff6f3cdd_o.jpg",
    "id_image": "Dog_284532",
    "count_view": 0
  },
  {
    "link_thumb": "https://live.staticflickr.com/65535/50352765097_d7e35c979d_n.jpg",
    "id_album": "-462831703",
    "description": "Cat_555851",
    "title": "Cat_555851",
    "link_img": "https://live.staticflickr.com/65535/50352765097_1ba91ab3f0_o.jpg",
    "id_image": "Cat_555851",
    "count_view": 0
  },
  {
    "link_thumb": "https://live.staticflickr.com/65535/50017089247_4fbc18b9d7_n.jpg",
    "id_album": "-229810103",
    "description": "AmericanBison_878391",
    "title": "AmericanBison_878391",
    "link_img": "https://live.staticflickr.com/65535/50017089247_ca9dd180aa_o.jpg",
    "id_image": "AmericanBison_878391",
    "count_view": 0
  },
  {
    "link_thumb": "https://live.staticflickr.com/65535/50024267322_45a781f942_n.jpg",
    "id_album": "1579675410",
    "description": "Swan_407219",
    "title": "Swan_407219",
    "link_img": "https://live.staticflickr.com/65535/50024267322_dd67f618bc_o.jpg",
    "id_image": "Swan_407219",
    "count_view": 0
  },
  {
    "link_thumb": "https://live.staticflickr.com/65535/50019269223_ea6d5ab1da_n.jpg",
    "id_album": "-1462118852",
    "description": "Corgi_890573",
    "title": "Corgi_890573",
    "link_img": "https://live.staticflickr.com/65535/50019269223_d3c1342f15_o.jpg",
    "id_image": "Corgi_890573",
    "count_view": 0
  },
  {
    "link_thumb": "https://live.staticflickr.com/65535/50019918177_5a99f37e15_n.jpg",
    "id_album": "-766919393",
    "description": "Chameleon_716850",
    "title": "Chameleon_716850",
    "link_img": "https://live.staticflickr.com/65535/50019918177_a1c3aa5f2d_o.jpg",
    "id_image": "Chameleon_716850",
    "count_view": 0
  },
  {
    "link_thumb": "https://live.staticflickr.com/65535/50018005147_b54775f30d_n.jpg",
    "id_album": "-462831705",
    "description": "Cat_101816",
    "title": "Cat_101816",
    "link_img": "https://live.staticflickr.com/65535/50018005147_a5a39122d3_o.jpg",
    "id_image": "Cat_101816",
    "count_view": 0
  },
  {
    "link_thumb": "https://live.staticflickr.com/65535/50020369671_779a5bfa3e_n.jpg",
    "id_album": "-149330231",
    "description": "Dog_391407",
    "title": "Dog_391407",
    "link_img": "https://live.staticflickr.com/65535/50020369671_b9570ab648_o.jpg",
    "id_image": "Dog_391407",
    "count_view": 0
  },
  {
    "link_thumb": "https://live.staticflickr.com/65535/50017777867_2edf877008_n.jpg",
    "id_album": "1696155652",
    "description": "Boxer_245785",
    "title": "Boxer_245785",
    "link_img": "https://live.staticflickr.com/65535/50017777867_1cc7748be3_o.jpg",
    "id_image": "Boxer_245785",
    "count_view": 0
  },
  {
    "link_thumb": "https://live.staticflickr.com/65535/50023327051_c20b4a1d3f_n.jpg",
    "id_album": "1512228924",
    "description": "ScarletMacaw_505291",
    "title": "ScarletMacaw_505291",
    "link_img": "https://live.staticflickr.com/65535/50023327051_3a07f1c948_o.jpg",
    "id_image": "ScarletMacaw_505291",
    "count_view": 0
  },
  {
    "link_thumb": "https://live.staticflickr.com/65535/50021297476_611fdf296a_n.jpg",
    "id_album": "-405626519",
    "description": "GermanShepherd_728769",
    "title": "GermanShepherd_728769",
    "link_img": "https://live.staticflickr.com/65535/50021297476_9f648675ca_o.jpg",
    "id_image": "GermanShepherd_728769",
    "count_view": 0
  },
  {
    "link_thumb": "https://live.staticflickr.com/65535/50020541381_6c6b832f41_n.jpg",
    "id_album": "-149330231",
    "description": "Dog_905559",
    "title": "Dog_905559",
    "link_img": "https://live.staticflickr.com/65535/50020541381_1c4e852fe3_o.jpg",
    "id_image": "Dog_905559",
    "count_view": 0
  },
  {
    "link_thumb": "https://live.staticflickr.com/65535/50020067468_635908e617_n.jpg",
    "id_album": "-1859457960",
    "description": "Dove_547477",
    "title": "Dove_547477",
    "link_img": "https://live.staticflickr.com/65535/50020067468_907e071402_o.jpg",
    "id_image": "Dove_547477",
    "count_view": 0
  },
  {
    "link_thumb": "https://live.staticflickr.com/65535/50017653561_78759a5ae5_n.jpg",
    "id_album": "-401151552",
    "description": "Butterfly_715212",
    "title": "Butterfly_715212",
    "link_img": "https://live.staticflickr.com/65535/50017653561_89fa981bf7_o.jpg",
    "id_image": "Butterfly_715212",
    "count_view": 0
  },
  {
    "link_thumb": "https://live.staticflickr.com/65535/50020702631_a7ba0e65e3_n.jpg",
    "id_album": "-39098563",
    "description": "Eagle_384714",
    "title": "Eagle_384714",
    "link_img": "https://live.staticflickr.com/65535/50020702631_3d0c2de815_o.jpg",
    "id_image": "Eagle_384714",
    "count_view": 0
  },
  {
    "link_thumb": "https://live.staticflickr.com/65535/50016723078_0a5bc3bdb0_n.jpg",
    "id_album": "-1846011410",
    "description": "Bird_339367",
    "title": "Bird_339367",
    "link_img": "https://live.staticflickr.com/65535/50016723078_fcc5021f6c_o.jpg",
    "id_image": "Bird_339367",
    "count_view": 0
  },
  {
    "link_thumb": "https://live.staticflickr.com/65535/50017858497_f865937336_n.jpg",
    "id_album": "-401151552",
    "description": "Butterfly_438142",
    "title": "Butterfly_438142",
    "link_img": "https://live.staticflickr.com/65535/50017858497_99979944d7_o.jpg",
    "id_image": "Butterfly_438142",
    "count_view": 0
  },
  {
    "link_thumb": "https://live.staticflickr.com/65535/50020457702_60d42f65b3_n.jpg",
    "id_album": "-149330232",
    "description": "Dog_268470",
    "title": "Dog_268470",
    "link_img": "https://live.staticflickr.com/65535/50020457702_bc42fc8e35_o.jpg",
    "id_image": "Dog_268470",
    "count_view": 0
  },
  {
    "link_thumb": "https://live.staticflickr.com/65535/50021298943_2eabea1e41_n.jpg",
    "id_album": "-1882491687",
    "description": "Ladybug_229902",
    "title": "Ladybug_229902",
    "link_img": "https://live.staticflickr.com/65535/50021298943_5ee5840183_o.jpg",
    "id_image": "Ladybug_229902",
    "count_view": 0
  },
  {
    "link_thumb": "https://live.staticflickr.com/65535/50022119102_7b15fcebae_n.jpg",
    "id_album": "-1882491687",
    "description": "Ladybug_753273",
    "title": "Ladybug_753273",
    "link_img": "https://live.staticflickr.com/65535/50022119102_e5896013cc_o.jpg",
    "id_image": "Ladybug_753273",
    "count_view": 0
  },
  {
    "link_thumb": "https://live.staticflickr.com/65535/50023500543_e59152d1ba_n.jpg",
    "id_album": "405170427",
    "description": "Tiger_240981",
    "title": "Tiger_240981",
    "link_img": "https://live.staticflickr.com/65535/50023500543_a5d9aea185_o.jpg",
    "id_image": "Tiger_240981",
    "count_view": 0
  },
  {
    "link_thumb": "https://live.staticflickr.com/65535/50023140548_ff29108f2f_n.jpg",
    "id_album": "1933547265",
    "description": "SnowyOwl_383181",
    "title": "SnowyOwl_383181",
    "link_img": "https://live.staticflickr.com/65535/50023140548_a30d0cebf6_o.jpg",
    "id_image": "SnowyOwl_383181",
    "count_view": 0
  },
  {
    "link_thumb": "https://live.staticflickr.com/65535/50021556563_805a2b417c_n.jpg",
    "id_album": "-656526748",
    "description": "Lizard_130738",
    "title": "Lizard_130738",
    "link_img": "https://live.staticflickr.com/65535/50021556563_a1e40287e9_o.jpg",
    "id_image": "Lizard_130738",
    "count_view": 0
  },
  {
    "link_thumb": "https://live.staticflickr.com/65535/50019486961_ce1d1cca65_n.jpg",
    "id_album": "-462831703",
    "description": "Cat_931824",
    "title": "Cat_931824",
    "link_img": "https://live.staticflickr.com/65535/50019486961_96470f9e44_o.jpg",
    "id_image": "Cat_931824",
    "count_view": 0
  },
  {
    "link_thumb": "https://live.staticflickr.com/65535/50018653848_c98b31da7c_n.jpg",
    "id_album": "-462831702",
    "description": "Cat_431105",
    "title": "Cat_431105",
    "link_img": "https://live.staticflickr.com/65535/50018653848_7e41251ee8_o.jpg",
    "id_image": "Cat_431105",
    "count_view": 0
  },
  {
    "link_thumb": "https://live.staticflickr.com/65535/50017835527_06b7819d42_n.jpg",
    "id_album": "-401151552",
    "description": "Butterfly_368993",
    "title": "Butterfly_368993",
    "link_img": "https://live.staticflickr.com/65535/50017835527_5c862fc0a1_o.jpg",
    "id_image": "Butterfly_368993",
    "count_view": 0
  },
  {
    "link_thumb": "https://live.staticflickr.com/65535/50020128582_21c30f669c_n.jpg",
    "id_album": "-2144640780",
    "description": "Cow_977046",
    "title": "Cow_977046",
    "link_img": "https://live.staticflickr.com/65535/50020128582_b4c78a4d0f_o.jpg",
    "id_image": "Cow_977046",
    "count_view": 0
  },
  {
    "link_thumb": "https://live.staticflickr.com/65535/50021554737_d30d060607_n.jpg",
    "id_album": "-405626519",
    "description": "GermanShepherd_777859",
    "title": "GermanShepherd_777859",
    "link_img": "https://live.staticflickr.com/65535/50021554737_d135e7b0c9_o.jpg",
    "id_image": "GermanShepherd_777859",
    "count_view": 0
  },
  {
    "link_thumb": "https://live.staticflickr.com/65535/50019242308_ea14fddeff_n.jpg",
    "id_album": "791455625",
    "description": "Chipmunk_820825",
    "title": "Chipmunk_820825",
    "link_img": "https://live.staticflickr.com/65535/50019242308_74f1910dbf_o.jpg",
    "id_image": "Chipmunk_820825",
    "count_view": 0
  },
  {
    "link_thumb": "https://live.staticflickr.com/65535/50016424223_3b94f125c1_n.jpg",
    "id_album": "390697200",
    "description": "AustralianShepherd_982509",
    "title": "AustralianShepherd_982509",
    "link_img": "https://live.staticflickr.com/65535/50016424223_62aabdf70e_o.jpg",
    "id_image": "AustralianShepherd_982509",
    "count_view": 0
  },
  {
    "link_thumb": "https://live.staticflickr.com/65535/50024168271_6f05c8827c_n.jpg",
    "id_album": "-800019164",
    "description": "Snail_385162",
    "title": "Snail_385162",
    "link_img": "https://live.staticflickr.com/65535/50024168271_bb02d0c705_o.jpg",
    "id_image": "Snail_385162",
    "count_view": 0
  },
  {
    "link_thumb": "https://live.staticflickr.com/65535/50017531272_ab9b3caee1_n.jpg",
    "id_album": "-1846011410",
    "description": "Bird_359631",
    "title": "Bird_359631",
    "link_img": "https://live.staticflickr.com/65535/50017531272_e4251130f5_o.jpg",
    "id_image": "Bird_359631",
    "count_view": 0
  },
  {
    "link_thumb": "https://live.staticflickr.com/65535/50019467427_ce6747a69c_n.jpg",
    "id_album": "-462831704",
    "description": "Cat_441936",
    "title": "Cat_441936",
    "link_img": "https://live.staticflickr.com/65535/50019467427_a5371b6174_o.jpg",
    "id_image": "Cat_441936",
    "count_view": 0
  },
  {
    "link_thumb": "https://live.staticflickr.com/65535/50017179013_3552645eaa_n.jpg",
    "id_album": "-401151552",
    "description": "Butterfly_926933",
    "title": "Butterfly_926933",
    "link_img": "https://live.staticflickr.com/65535/50017179013_22c0af5f3b_o.jpg",
    "id_image": "Butterfly_926933",
    "count_view": 0
  },
  {
    "link_thumb": "https://live.staticflickr.com/65535/50017856562_8cd8c151b7_n.jpg",
    "id_album": "-401151552",
    "description": "Butterfly_432963",
    "title": "Butterfly_432963",
    "link_img": "https://live.staticflickr.com/65535/50017856562_8c0748728a_o.jpg",
    "id_image": "Butterfly_432963",
    "count_view": 0
  },
  {
    "link_thumb": "https://live.staticflickr.com/65535/50352730642_acfeaef284_n.jpg",
    "id_album": "-462831703",
    "description": "Cat_499892",
    "title": "Cat_499892",
    "link_img": "https://live.staticflickr.com/65535/50352730642_58068d4f59_o.jpg",
    "id_image": "Cat_499892",
    "count_view": 0
  },
  {
    "link_thumb": "https://live.staticflickr.com/65535/50023179173_401ffa406f_n.jpg",
    "id_album": "-1082521515",
    "description": "Spider_284701",
    "title": "Spider_284701",
    "link_img": "https://live.staticflickr.com/65535/50023179173_4609c5181d_o.jpg",
    "id_image": "Spider_284701",
    "count_view": 0
  },
  {
    "link_thumb": "https://live.staticflickr.com/65535/50016898776_86521fff3a_n.jpg",
    "id_album": "523598895",
    "description": "Artistic_349352",
    "title": "Artistic_349352",
    "link_img": "https://live.staticflickr.com/65535/50016898776_3db8200c7a_o.jpg",
    "id_image": "Artistic_349352",
    "count_view": 0
  },
  {
    "link_thumb": "https://live.staticflickr.com/65535/50021668376_80476e43ff_n.jpg",
    "id_album": "1658866795",
    "description": "Insect_391730",
    "title": "Insect_391730",
    "link_img": "https://live.staticflickr.com/65535/50021668376_1b3d93a9bc_o.jpg",
    "id_image": "Insect_391730",
    "count_view": 0
  },
  {
    "link_thumb": "https://live.staticflickr.com/65535/50020321338_33cdbfd763_n.jpg",
    "id_album": "-1118073211",
    "description": "Fish_46198",
    "title": "Fish_46198",
    "link_img": "https://live.staticflickr.com/65535/50020321338_66768dc19f_o.jpg",
    "id_image": "Fish_46198",
    "count_view": 0
  },
  {
    "link_thumb": "https://live.staticflickr.com/65535/50017268186_5b08fdc734_n.jpg",
    "id_album": "-1846011410",
    "description": "Bird_357027",
    "title": "Bird_357027",
    "link_img": "https://live.staticflickr.com/65535/50017268186_dbcd32a3c7_o.jpg",
    "id_image": "Bird_357027",
    "count_view": 0
  },
  {
    "link_thumb": "https://live.staticflickr.com/65535/50019212951_f4014bb37b_n.jpg",
    "id_album": "-462831704",
    "description": "Cat_443295",
    "title": "Cat_443295",
    "link_img": "https://live.staticflickr.com/65535/50019212951_87ea345d23_o.jpg",
    "id_image": "Cat_443295",
    "count_view": 0
  },
  {
    "link_thumb": "https://live.staticflickr.com/65535/50021008731_10e5040f34_n.jpg",
    "id_album": "-128218148",
    "description": "Fox_812294",
    "title": "Fox_812294",
    "link_img": "https://live.staticflickr.com/65535/50021008731_7a19333a51_o.jpg",
    "id_image": "Fox_812294",
    "count_view": 0
  },
  {
    "link_thumb": "https://live.staticflickr.com/65535/50016994703_96217c89bf_n.jpg",
    "id_album": "1696155652",
    "description": "Boxer_881899",
    "title": "Boxer_881899",
    "link_img": "https://live.staticflickr.com/65535/50016994703_92f63832f9_o.jpg",
    "id_image": "Boxer_881899",
    "count_view": 0
  },
  {
    "link_thumb": "https://live.staticflickr.com/65535/50021315752_899ba1de6c_n.jpg",
    "id_album": "844170697",
    "description": "Frog_411376",
    "title": "Frog_411376",
    "link_img": "https://live.staticflickr.com/65535/50021315752_8ab7357ce4_o.jpg",
    "id_image": "Frog_411376",
    "count_view": 0
  },
  {
    "link_thumb": "https://live.staticflickr.com/65535/50021824931_12fe4864f6_n.jpg",
    "id_album": "1307335982",
    "description": "LabradorRetriever_101937",
    "title": "LabradorRetriever_101937",
    "link_img": "https://live.staticflickr.com/65535/50021824931_9bbf80c812_o.jpg",
    "id_image": "LabradorRetriever_101937",
    "count_view": 0
  },
  {
    "link_thumb": "https://live.staticflickr.com/65535/50019174163_06b5b62830_n.jpg",
    "id_album": "-1481843714",
    "description": "Cheetah_403756",
    "title": "Cheetah_403756",
    "link_img": "https://live.staticflickr.com/65535/50019174163_d297a820c2_o.jpg",
    "id_image": "Cheetah_403756",
    "count_view": 0
  },
  {
    "link_thumb": "https://live.staticflickr.com/65535/50017814896_1d519761b3_n.jpg",
    "id_album": "-462831705",
    "description": "Cat_176794",
    "title": "Cat_176794",
    "link_img": "https://live.staticflickr.com/65535/50017814896_96378deb5c_o.jpg",
    "id_image": "Cat_176794",
    "count_view": 0
  },
  {
    "link_thumb": "https://live.staticflickr.com/65535/50023490611_a51a9a610f_n.jpg",
    "id_album": "-755466332",
    "description": "Sheep_790133",
    "title": "Sheep_790133",
    "link_img": "https://live.staticflickr.com/65535/50023490611_ed8bd9e95b_o.jpg",
    "id_image": "Sheep_790133",
    "count_view": 0
  },
  {
    "link_thumb": "https://live.staticflickr.com/65535/50023227352_d8b2e12ae8_n.jpg",
    "id_album": "-353898617",
    "description": "Puppy_364934",
    "title": "Puppy_364934",
    "link_img": "https://live.staticflickr.com/65535/50023227352_4e6a76c8a1_o.jpg",
    "id_image": "Puppy_364934",
    "count_view": 0
  },
  {
    "link_thumb": "https://live.staticflickr.com/65535/50021220152_2937f9e2b7_n.jpg",
    "id_album": "-128218148",
    "description": "Fox_437187",
    "title": "Fox_437187",
    "link_img": "https://live.staticflickr.com/65535/50021220152_df031b249d_o.jpg",
    "id_image": "Fox_437187",
    "count_view": 0
  },
  {
    "link_thumb": "https://live.staticflickr.com/65535/50023576038_3985dde768_n.jpg",
    "id_album": "405170427",
    "description": "Tiger_409613",
    "title": "Tiger_409613",
    "link_img": "https://live.staticflickr.com/65535/50023576038_4629df8d80_o.jpg",
    "id_image": "Tiger_409613",
    "count_view": 0
  },
  {
    "link_thumb": "https://live.staticflickr.com/65535/50020638842_966e2456fb_n.jpg",
    "id_album": "-149330231",
    "description": "Dog_407009",
    "title": "Dog_407009",
    "link_img": "https://live.staticflickr.com/65535/50020638842_7c312cc9fa_o.jpg",
    "id_image": "Dog_407009",
    "count_view": 0
  },
  {
    "link_thumb": "https://live.staticflickr.com/65535/50018309637_7d4d910298_n.jpg",
    "id_album": "-462831702",
    "description": "Cat_358980",
    "title": "Cat_358980",
    "link_img": "https://live.staticflickr.com/65535/50018309637_0e23389832_o.jpg",
    "id_image": "Cat_358980",
    "count_view": 0
  },
  {
    "link_thumb": "https://live.staticflickr.com/65535/50021233376_cbe9a78300_n.jpg",
    "id_album": "-462831703",
    "description": "Cat_765615",
    "title": "Cat_765615",
    "link_img": "https://live.staticflickr.com/65535/50021233376_daa99ee3e6_o.jpg",
    "id_image": "Cat_765615",
    "count_view": 0
  },
  {
    "link_thumb": "https://live.staticflickr.com/65535/50022943367_9597a7299f_n.jpg",
    "id_album": "392248205",
    "description": "Penguin_266842",
    "title": "Penguin_266842",
    "link_img": "https://live.staticflickr.com/65535/50022943367_f763fa2e9b_o.jpg",
    "id_image": "Penguin_266842",
    "count_view": 0
  },
  {
    "link_thumb": "https://live.staticflickr.com/65535/50019295248_1001e21792_n.jpg",
    "id_album": "-1868680171",
    "description": "Cougar_611025",
    "title": "Cougar_611025",
    "link_img": "https://live.staticflickr.com/65535/50019295248_758c59fea6_o.jpg",
    "id_image": "Cougar_611025",
    "count_view": 0
  },
  {
    "link_thumb": "https://live.staticflickr.com/65535/50352659196_f57d13ba57_n.jpg",
    "id_album": "-462831703",
    "description": "Cat_724216",
    "title": "Cat_724216",
    "link_img": "https://live.staticflickr.com/65535/50352659196_721bd9934f_o.jpg",
    "id_image": "Cat_724216",
    "count_view": 0
  },
  {
    "link_thumb": "https://live.staticflickr.com/65535/50017659022_f542e589ca_n.jpg",
    "id_album": "-1846011410",
    "description": "Bird_652333",
    "title": "Bird_652333",
    "link_img": "https://live.staticflickr.com/65535/50017659022_b1bcaf9081_o.jpg",
    "id_image": "Bird_652333",
    "count_view": 0
  },
  {
    "link_thumb": "https://live.staticflickr.com/65535/50016953671_4bded1c8c3_n.jpg",
    "id_album": "231236068",
    "description": "BaldEagle_358104",
    "title": "BaldEagle_358104",
    "link_img": "https://live.staticflickr.com/65535/50016953671_fa26f926c5_o.jpg",
    "id_image": "BaldEagle_358104",
    "count_view": 0
  },
  {
    "link_thumb": "https://live.staticflickr.com/65535/50018420952_d12526febc_n.jpg",
    "id_album": "-462831702",
    "description": "Cat_410552",
    "title": "Cat_410552",
    "link_img": "https://live.staticflickr.com/65535/50018420952_4fc607fd36_o.jpg",
    "id_image": "Cat_410552",
    "count_view": 0
  },
  {
    "link_thumb": "https://live.staticflickr.com/65535/50019942176_d6268df4de_n.jpg",
    "id_album": "1273365283",
    "description": "Cute_431112",
    "title": "Cute_431112",
    "link_img": "https://live.staticflickr.com/65535/50019942176_8fb8347d63_o.jpg",
    "id_image": "Cute_431112",
    "count_view": 0
  },
  {
    "link_thumb": "https://live.staticflickr.com/65535/50021361968_e7affab0e4_n.jpg",
    "id_album": "1392348450",
    "description": "Leopard_355665",
    "title": "Leopard_355665",
    "link_img": "https://live.staticflickr.com/65535/50021361968_421b1a9335_o.jpg",
    "id_image": "Leopard_355665",
    "count_view": 0
  },
  {
    "link_thumb": "https://live.staticflickr.com/65535/50017556613_e1462a3050_n.jpg",
    "id_album": "1696155652",
    "description": "Boxer_442017",
    "title": "Boxer_442017",
    "link_img": "https://live.staticflickr.com/65535/50017556613_05e50e00cb_o.jpg",
    "id_image": "Boxer_442017",
    "count_view": 0
  },
  {
    "link_thumb": "https://live.staticflickr.com/65535/50017570986_ae2f0b0d90_n.jpg",
    "id_album": "-401151552",
    "description": "Butterfly_366099",
    "title": "Butterfly_366099",
    "link_img": "https://live.staticflickr.com/65535/50017570986_006d4d35fc_o.jpg",
    "id_image": "Butterfly_366099",
    "count_view": 0
  },
  {
    "link_thumb": "https://live.staticflickr.com/65535/50024517552_44deb8b233_n.jpg",
    "id_album": "405170427",
    "description": "Tiger_997034",
    "title": "Tiger_997034",
    "link_img": "https://live.staticflickr.com/65535/50024517552_4bc2e13938_o.jpg",
    "id_image": "Tiger_997034",
    "count_view": 0
  },
  {
    "link_thumb": "https://live.staticflickr.com/65535/50018016047_003ff96aaf_n.jpg",
    "id_album": "-462831705",
    "description": "Cat_113087",
    "title": "Cat_113087",
    "link_img": "https://live.staticflickr.com/65535/50018016047_f07bb80471_o.jpg",
    "id_image": "Cat_113087",
    "count_view": 0
  },
  {
    "link_thumb": "https://live.staticflickr.com/65535/50022266496_cbb2447b9b_n.jpg",
    "id_album": "-817970387",
    "description": "Moose_341622",
    "title": "Moose_341622",
    "link_img": "https://live.staticflickr.com/65535/50022266496_b5aaa3ce49_o.jpg",
    "id_image": "Moose_341622",
    "count_view": 0
  },
  {
    "link_thumb": "https://live.staticflickr.com/65535/50017769241_53116438c6_n.jpg",
    "id_album": "-462831705",
    "description": "Cat_117393",
    "title": "Cat_117393",
    "link_img": "https://live.staticflickr.com/65535/50017769241_5e62cc0d4c_o.jpg",
    "id_image": "Cat_117393",
    "count_view": 0
  },
  {
    "link_thumb": "https://live.staticflickr.com/65535/50016948548_e675606225_n.jpg",
    "id_album": "-530283314",
    "description": "BlueandyellowMacaw_773009",
    "title": "BlueandyellowMacaw_773009",
    "link_img": "https://live.staticflickr.com/65535/50016948548_2db621404b_o.jpg",
    "id_image": "BlueandyellowMacaw_773009",
    "count_view": 0
  },
  {
    "link_thumb": "https://live.staticflickr.com/65535/50019743386_0dbb97cd2a_n.jpg",
    "id_album": "1949822052",
    "description": "Chimpanzee_378743",
    "title": "Chimpanzee_378743",
    "link_img": "https://live.staticflickr.com/65535/50019743386_a9b9cb6d3a_o.jpg",
    "id_image": "Chimpanzee_378743",
    "count_view": 0
  },
  {
    "link_thumb": "https://live.staticflickr.com/65535/50019347816_d3c3b4b101_n.jpg",
    "id_album": "-462831705",
    "description": "Cat_86698",
    "title": "Cat_86698",
    "link_img": "https://live.staticflickr.com/65535/50019347816_c7cdd9c166_o.jpg",
    "id_image": "Cat_86698",
    "count_view": 0
  },
  {
    "link_thumb": "https://live.staticflickr.com/65535/50019994738_5c4d12896e_n.jpg",
    "id_album": "-149330231",
    "description": "Dog_865140",
    "title": "Dog_865140",
    "link_img": "https://live.staticflickr.com/65535/50019994738_bb66479e93_o.jpg",
    "id_image": "Dog_865140",
    "count_view": 0
  },
  {
    "link_thumb": "https://live.staticflickr.com/65535/50021392168_d151bd8010_n.jpg",
    "id_album": "1392348450",
    "description": "Leopard_547472",
    "title": "Leopard_547472",
    "link_img": "https://live.staticflickr.com/65535/50021392168_b37045aa91_o.jpg",
    "id_image": "Leopard_547472",
    "count_view": 0
  },
  {
    "link_thumb": "https://live.staticflickr.com/65535/50023359361_6da6f5ba2c_n.jpg",
    "id_album": "1656131695",
    "description": "Seagull_382746",
    "title": "Seagull_382746",
    "link_img": "https://live.staticflickr.com/65535/50023359361_e7b41c5074_o.jpg",
    "id_image": "Seagull_382746",
    "count_view": 0
  },
  {
    "link_thumb": "https://live.staticflickr.com/65535/50022097572_ccf18bd00c_n.jpg",
    "id_album": "-1882491687",
    "description": "Ladybug_268477",
    "title": "Ladybug_268477",
    "link_img": "https://live.staticflickr.com/65535/50022097572_d70a13dc6a_o.jpg",
    "id_image": "Ladybug_268477",
    "count_view": 0
  },
  {
    "link_thumb": "https://live.staticflickr.com/65535/50018393077_971dc03078_n.jpg",
    "id_album": "-462831702",
    "description": "Cat_396333",
    "title": "Cat_396333",
    "link_img": "https://live.staticflickr.com/65535/50018393077_9e3e51afa0_o.jpg",
    "id_image": "Cat_396333",
    "count_view": 0
  },
  {
    "link_thumb": "https://live.staticflickr.com/65535/50021401536_4f2b45dab5_n.jpg",
    "id_album": "-1168906494",
    "description": "Grasshopper_425173",
    "title": "Grasshopper_425173",
    "link_img": "https://live.staticflickr.com/65535/50021401536_4d658f7979_o.jpg",
    "id_image": "Grasshopper_425173",
    "count_view": 0
  },
  {
    "link_thumb": "https://live.staticflickr.com/65535/50018771173_abcdc72f0c_n.jpg",
    "id_album": "-462831704",
    "description": "Cat_533662",
    "title": "Cat_533662",
    "link_img": "https://live.staticflickr.com/65535/50018771173_075d4a5232_o.jpg",
    "id_image": "Cat_533662",
    "count_view": 0
  },
  {
    "link_thumb": "https://live.staticflickr.com/65535/50018678238_5d961a1b80_n.jpg",
    "id_album": "-462831704",
    "description": "Cat_441406",
    "title": "Cat_441406",
    "link_img": "https://live.staticflickr.com/65535/50018678238_70d0210db8_o.jpg",
    "id_image": "Cat_441406",
    "count_view": 0
  },
  {
    "link_thumb": "https://live.staticflickr.com/65535/50017556186_c7a9454429_n.jpg",
    "id_album": "-401151552",
    "description": "Butterfly_282680",
    "title": "Butterfly_282680",
    "link_img": "https://live.staticflickr.com/65535/50017556186_93918ff799_o.jpg",
    "id_image": "Butterfly_282680",
    "count_view": 0
  },
  {
    "link_thumb": "https://live.staticflickr.com/65535/50021658567_101260c9a8_n.jpg",
    "id_album": "-1168906494",
    "description": "Grasshopper_788532",
    "title": "Grasshopper_788532",
    "link_img": "https://live.staticflickr.com/65535/50021658567_0d351cc457_o.jpg",
    "id_image": "Grasshopper_788532",
    "count_view": 0
  },
  {
    "link_thumb": "https://live.staticflickr.com/65535/50018116331_712cc00d28_n.jpg",
    "id_album": "-462831702",
    "description": "Cat_386122",
    "title": "Cat_386122",
    "link_img": "https://live.staticflickr.com/65535/50018116331_dac1cb23c8_o.jpg",
    "id_image": "Cat_386122",
    "count_view": 0
  },
  {
    "link_thumb": "https://live.staticflickr.com/65535/50019082278_7255e5eff4_n.jpg",
    "id_album": "-420782796",
    "description": "Caterpillar_926287",
    "title": "Caterpillar_926287",
    "link_img": "https://live.staticflickr.com/65535/50019082278_25a1e0a159_o.jpg",
    "id_image": "Caterpillar_926287",
    "count_view": 0
  },
  {
    "link_thumb": "https://live.staticflickr.com/65535/50024662917_e814dd36a9_n.jpg",
    "id_album": "786934945",
    "description": "Whale_485894",
    "title": "Whale_485894",
    "link_img": "https://live.staticflickr.com/65535/50024662917_e33007e119_o.jpg",
    "id_image": "Whale_485894",
    "count_view": 0
  },
  {
    "link_thumb": "https://live.staticflickr.com/65535/50021431848_fa1684de66_n.jpg",
    "id_album": "416744915",
    "description": "Lion_221902",
    "title": "Lion_221902",
    "link_img": "https://live.staticflickr.com/65535/50021431848_176f085557_o.jpg",
    "id_image": "Lion_221902",
    "count_view": 0
  },
  {
    "link_thumb": "https://live.staticflickr.com/65535/50017483622_66244a6212_n.jpg",
    "id_album": "-1846011410",
    "description": "Bird_263999",
    "title": "Bird_263999",
    "link_img": "https://live.staticflickr.com/65535/50017483622_7edb67319d_o.jpg",
    "id_image": "Bird_263999",
    "count_view": 0
  },
  {
    "link_thumb": "https://live.staticflickr.com/65535/50021834526_dedf00861d_n.jpg",
    "id_album": "1307335982",
    "description": "LabradorRetriever_874122",
    "title": "LabradorRetriever_874122",
    "link_img": "https://live.staticflickr.com/65535/50021834526_af39fa4fa5_o.jpg",
    "id_image": "LabradorRetriever_874122",
    "count_view": 0
  },
  {
    "link_thumb": "https://live.staticflickr.com/65535/50022635808_d515bf6c08_n.jpg",
    "id_album": "-434874555",
    "description": "RainbowLorikeet_597829",
    "title": "RainbowLorikeet_597829",
    "link_img": "https://live.staticflickr.com/65535/50022635808_c9dff97b54_o.jpg",
    "id_image": "RainbowLorikeet_597829",
    "count_view": 0
  },
  {
    "link_thumb": "https://live.staticflickr.com/65535/50020407536_9dd4e5d50e_n.jpg",
    "id_album": "-149330231",
    "description": "Dog_429527",
    "title": "Dog_429527",
    "link_img": "https://live.staticflickr.com/65535/50020407536_7f636df134_o.jpg",
    "id_image": "Dog_429527",
    "count_view": 0
  },
  {
    "link_thumb": "https://live.staticflickr.com/65535/50022138786_2e150119b8_n.jpg",
    "id_album": "1894617400",
    "description": "Lynx_369578",
    "title": "Lynx_369578",
    "link_img": "https://live.staticflickr.com/65535/50022138786_3f0813c4ba_o.jpg",
    "id_image": "Lynx_369578",
    "count_view": 0
  },
  {
    "link_thumb": "https://live.staticflickr.com/65535/50017437811_9458e3a91e_n.jpg",
    "id_album": "-1846011410",
    "description": "Bird_882499",
    "title": "Bird_882499",
    "link_img": "https://live.staticflickr.com/65535/50017437811_4ba72d0af8_o.jpg",
    "id_image": "Bird_882499",
    "count_view": 0
  },
  {
    "link_thumb": "https://live.staticflickr.com/65535/50016833236_00371264ce_n.jpg",
    "id_album": "-1741290715",
    "description": "Ant_391517",
    "title": "Ant_391517",
    "link_img": "https://live.staticflickr.com/65535/50016833236_e05671dd9a_o.jpg",
    "id_image": "Ant_391517",
    "count_view": 0
  },
  {
    "link_thumb": "https://live.staticflickr.com/65535/50017905611_51abae61c1_n.jpg",
    "id_album": "-462831705",
    "description": "Cat_251839",
    "title": "Cat_251839",
    "link_img": "https://live.staticflickr.com/65535/50017905611_0d8a0650da_o.jpg",
    "id_image": "Cat_251839",
    "count_view": 0
  },
  {
    "link_thumb": "https://live.staticflickr.com/65535/50017331692_a2b328eb1f_n.jpg",
    "id_album": "-422187261",
    "description": "Bear_708136",
    "title": "Bear_708136",
    "link_img": "https://live.staticflickr.com/65535/50017331692_3e4181cb21_o.jpg",
    "id_image": "Bear_708136",
    "count_view": 0
  },
  {
    "link_thumb": "https://live.staticflickr.com/65535/50020913937_ee4cde585b_n.jpg",
    "id_album": "1168627767",
    "description": "Duck_412127",
    "title": "Duck_412127",
    "link_img": "https://live.staticflickr.com/65535/50020913937_e126c826a5_o.jpg",
    "id_image": "Duck_412127",
    "count_view": 0
  },
  {
    "link_thumb": "https://live.staticflickr.com/65535/50023721583_ebd82ec8ac_n.jpg",
    "id_album": "-809392728",
    "description": "Titmouse_952270",
    "title": "Titmouse_952270",
    "link_img": "https://live.staticflickr.com/65535/50023721583_1bbc82c027_o.jpg",
    "id_image": "Titmouse_952270",
    "count_view": 0
  },
  {
    "link_thumb": "https://live.staticflickr.com/65535/50017560988_761f372c6c_n.jpg",
    "id_album": "-462831702",
    "description": "Cat_369571",
    "title": "Cat_369571",
    "link_img": "https://live.staticflickr.com/65535/50017560988_f9ab3c1c2e_o.jpg",
    "id_image": "Cat_369571",
    "count_view": 0
  },
  {
    "link_thumb": "https://live.staticflickr.com/65535/50022142751_0dcc72fd47_n.jpg",
    "id_album": "1894617400",
    "description": "Lynx_402857",
    "title": "Lynx_402857",
    "link_img": "https://live.staticflickr.com/65535/50022142751_0da7f8e060_o.jpg",
    "id_image": "Lynx_402857",
    "count_view": 0
  },
  {
    "link_thumb": "https://live.staticflickr.com/65535/50021959812_cddccba0c7_n.jpg",
    "id_album": "1658866795",
    "description": "Insect_574392",
    "title": "Insect_574392",
    "link_img": "https://live.staticflickr.com/65535/50021959812_3aee107ae1_o.jpg",
    "id_image": "Insect_574392",
    "count_view": 0
  },
  {
    "link_thumb": "https://live.staticflickr.com/65535/50017809087_808af0b19b_n.jpg",
    "id_album": "-401151552",
    "description": "Butterfly_234229",
    "title": "Butterfly_234229",
    "link_img": "https://live.staticflickr.com/65535/50017809087_40c02e61d7_o.jpg",
    "id_image": "Butterfly_234229",
    "count_view": 0
  },
  {
    "link_thumb": "https://live.staticflickr.com/65535/50020674533_182e9f3e08_n.jpg",
    "id_album": "-462831703",
    "description": "Cat_737799",
    "title": "Cat_737799",
    "link_img": "https://live.staticflickr.com/65535/50020674533_b72e481012_o.jpg",
    "id_image": "Cat_737799",
    "count_view": 0
  },
  {
    "link_thumb": "https://live.staticflickr.com/65535/50020887617_57acc7d97c_n.jpg",
    "id_album": "-405058657",
    "description": "Dragonfly_553661",
    "title": "Dragonfly_553661",
    "link_img": "https://live.staticflickr.com/65535/50020887617_01f935985e_o.jpg",
    "id_image": "Dragonfly_553661",
    "count_view": 0
  },
  {
    "link_thumb": "https://live.staticflickr.com/65535/50016405538_58399fddda_n.jpg",
    "id_album": "390697200",
    "description": "AustralianShepherd_1000315",
    "title": "AustralianShepherd_1000315",
    "link_img": "https://live.staticflickr.com/65535/50016405538_649422b409_o.jpg",
    "id_image": "AustralianShepherd_1000315",
    "count_view": 0
  },
  {
    "link_thumb": "https://live.staticflickr.com/65535/50020725053_501d321095_n.jpg",
    "id_album": "-462831703",
    "description": "Cat_826150",
    "title": "Cat_826150",
    "link_img": "https://live.staticflickr.com/65535/50020725053_dc944361e7_o.jpg",
    "id_image": "Cat_826150",
    "count_view": 0
  }
]