[
  {
    "link_thumb": "https://live.staticflickr.com/65535/50019817116_7983c0a53c_n.jpg",
    "id_album": "-1868680171",
    "description": "Cougar_436156",
    "title": "Cougar_436156",
    "link_img": "https://live.staticflickr.com/65535/50019817116_b225bddea7_o.jpg",
    "id_image": "Cougar_436156",
    "count_view": 0
  },
  {
    "link_thumb": "https://live.staticflickr.com/65535/50023321231_b560a05c62_n.jpg",
    "id_album": "1512228924",
    "description": "ScarletMacaw_243019",
    "title": "ScarletMacaw_243019",
    "link_img": "https://live.staticflickr.com/65535/50023321231_a9414f2ebf_o.jpg",
    "id_image": "ScarletMacaw_243019",
    "count_view": 0
  },
  {
    "link_thumb": "https://live.staticflickr.com/65535/50020625548_a8c59ac454_n.jpg",
    "id_album": "-462831704",
    "description": "Cat_686262",
    "title": "Cat_686262",
    "link_img": "https://live.staticflickr.com/65535/50020625548_ec6b0600fb_o.jpg",
    "id_image": "Cat_686262",
    "count_view": 0
  },
  {
    "link_thumb": "https://live.staticflickr.com/65535/50019954743_8f5de2e00e_n.jpg",
    "id_album": "-149330231",
    "description": "Dog_702268",
    "title": "Dog_702268",
    "link_img": "https://live.staticflickr.com/65535/50019954743_48690fded9_o.jpg",
    "id_image": "Dog_702268",
    "count_view": 0
  },
  {
    "link_thumb": "https://live.staticflickr.com/65535/50020928233_98b0c58ec4_n.jpg",
    "id_album": "-1933715543",
    "description": "Horse_225103",
    "title": "Horse_225103",
    "link_img": "https://live.staticflickr.com/65535/50020928233_e2ff3b6ce3_o.jpg",
    "id_image": "Horse_225103",
    "count_view": 0
  },
  {
    "link_thumb": "https://live.staticflickr.com/65535/50022649818_80a9bdca89_n.jpg",
    "id_album": "-1862965835",
    "description": "RedEyedTreeFrog_667437",
    "title": "RedEyedTreeFrog_667437",
    "link_img": "https://live.staticflickr.com/65535/50022649818_fe5acd4679_o.jpg",
    "id_image": "RedEyedTreeFrog_667437",
    "count_view": 0
  },
  {
    "link_thumb": "https://live.staticflickr.com/65535/50021173146_51c1fb4075_n.jpg",
    "id_album": "-462831704",
    "description": "Cat_693058",
    "title": "Cat_693058",
    "link_img": "https://live.staticflickr.com/65535/50021173146_8c519ddc41_o.jpg",
    "id_image": "Cat_693058",
    "count_view": 0
  },
  {
    "link_thumb": "https://live.staticflickr.com/65535/50022063583_9920d29395_n.jpg",
    "id_album": "-801414987",
    "description": "Peacock_786497",
    "title": "Peacock_786497",
    "link_img": "https://live.staticflickr.com/65535/50022063583_61d10b221f_o.jpg",
    "id_image": "Peacock_786497",
    "count_view": 0
  },
  {
    "link_thumb": "https://live.staticflickr.com/65535/50017403678_daf0dd1c3b_n.jpg",
    "id_album": "-462831702",
    "description": "Cat_275350",
    "title": "Cat_275350",
    "link_img": "https://live.staticflickr.com/65535/50017403678_92b6539f98_o.jpg",
    "id_image": "Cat_275350",
    "count_view": 0
  },
  {
    "link_thumb": "https://live.staticflickr.com/65535/50021389543_175a0bfe64_n.jpg",
    "id_album": "1392348450",
    "description": "Leopard_526064",
    "title": "Leopard_526064",
    "link_img": "https://live.staticflickr.com/65535/50021389543_8e51c364dc_o.jpg",
    "id_image": "Leopard_526064",
    "count_view": 0
  },
  {
    "link_thumb": "https://live.staticflickr.com/65535/50017306727_9ff590f3eb_n.jpg",
    "id_album": "-422187261",
    "description": "Bear_428194",
    "title": "Bear_428194",
    "link_img": "https://live.staticflickr.com/65535/50017306727_9879ed1f6b_o.jpg",
    "id_image": "Bear_428194",
    "count_view": 0
  },
  {
    "link_thumb": "https://live.staticflickr.com/65535/50017164192_37de9bd211_n.jpg",
    "id_album": "523598895",
    "description": "Artistic_421346",
    "title": "Artistic_421346",
    "link_img": "https://live.staticflickr.com/65535/50017164192_44806e7fdc_o.jpg",
    "id_image": "Artistic_421346",
    "count_view": 0
  },
  {
    "link_thumb": "https://live.staticflickr.com/65535/50017924347_d480b6366c_n.jpg",
    "id_album": "-401151552",
    "description": "Butterfly_773033",
    "title": "Butterfly_773033",
    "link_img": "https://live.staticflickr.com/65535/50017924347_2a6d8155c4_o.jpg",
    "id_image": "Butterfly_773033",
    "count_view": 0
  },
  {
    "link_thumb": "https://live.staticflickr.com/65535/50020801293_4d843c411a_n.jpg",
    "id_album": "-804131074",
    "description": "Goat_572174",
    "title": "Goat_572174",
    "link_img": "https://live.staticflickr.com/65535/50020801293_8f279d8a70_o.jpg",
    "id_image": "Goat_572174",
    "count_view": 0
  },
  {
    "link_thumb": "https://live.staticflickr.com/65535/50020957213_8073fc5d68_n.jpg",
    "id_album": "-1933715543",
    "description": "Horse_352255",
    "title": "Horse_352255",
    "link_img": "https://live.staticflickr.com/65535/50020957213_392a8306dc_o.jpg",
    "id_image": "Horse_352255",
    "count_view": 0
  },
  {
    "link_thumb": "https://live.staticflickr.com/65535/50022108662_444ef04eee_n.jpg",
    "id_album": "-1882491687",
    "description": "Ladybug_469610",
    "title": "Ladybug_469610",
    "link_img": "https://live.staticflickr.com/65535/50022108662_a059b62697_o.jpg",
    "id_image": "Ladybug_469610",
    "count_view": 0
  },
  {
    "link_thumb": "https://live.staticflickr.com/65535/50021128478_437674e744_n.jpg",
    "id_album": "1658866795",
    "description": "Insect_393095",
    "title": "Insect_393095",
    "link_img": "https://live.staticflickr.com/65535/50021128478_282f586796_o.jpg",
    "id_image": "Insect_393095",
    "count_view": 0
  },
  {
    "link_thumb": "https://live.staticflickr.com/65535/50023367042_734fa3458d_n.jpg",
    "id_album": "-1940643173",
    "description": "Rabbit_433170",
    "title": "Rabbit_433170",
    "link_img": "https://live.staticflickr.com/65535/50023367042_ce437085ba_o.jpg",
    "id_image": "Rabbit_433170",
    "count_view": 0
  },
  {
    "link_thumb": "https://live.staticflickr.com/65535/50021714062_4020840846_n.jpg",
    "id_album": "-1933715543",
    "description": "Horse_114797",
    "title": "Horse_114797",
    "link_img": "https://live.staticflickr.com/65535/50021714062_6a89ca9590_o.jpg",
    "id_image": "Horse_114797",
    "count_view": 0
  },
  {
    "link_thumb": "https://live.staticflickr.com/65535/50017980921_0567a455d6_n.jpg",
    "id_album": "-462831702",
    "description": "Cat_327167",
    "title": "Cat_327167",
    "link_img": "https://live.staticflickr.com/65535/50017980921_dd11fae46b_o.jpg",
    "id_image": "Cat_327167",
    "count_view": 0
  },
  {
    "link_thumb": "https://live.staticflickr.com/65535/50021491426_cf2eae1aeb_n.jpg",
    "id_album": "-1933715543",
    "description": "Horse_332476",
    "title": "Horse_332476",
    "link_img": "https://live.staticflickr.com/65535/50021491426_b6fc00695f_o.jpg",
    "id_image": "Horse_332476",
    "count_view": 0
  },
  {
    "link_thumb": "https://live.staticflickr.com/65535/50020266286_a14ab0faea_n.jpg",
    "id_album": "-149330232",
    "description": "Dog_335432",
    "title": "Dog_335432",
    "link_img": "https://live.staticflickr.com/65535/50020266286_e5d5d7b7d6_o.jpg",
    "id_image": "Dog_335432",
    "count_view": 0
  },
  {
    "link_thumb": "https://live.staticflickr.com/65535/50022234042_f3c5491286_n.jpg",
    "id_album": "416744915",
    "description": "Lion_235853",
    "title": "Lion_235853",
    "link_img": "https://live.staticflickr.com/65535/50022234042_fa3a1051d2_o.jpg",
    "id_image": "Lion_235853",
    "count_view": 0
  },
  {
    "link_thumb": "https://live.staticflickr.com/65535/50016436343_ebcfd9a4e9_n.jpg",
    "id_album": "231236068",
    "description": "BaldEagle_597035",
    "title": "BaldEagle_597035",
    "link_img": "https://live.staticflickr.com/65535/50016436343_75ee81dba1_o.jpg",
    "id_image": "BaldEagle_597035",
    "count_view": 0
  },
  {
    "link_thumb": "https://live.staticflickr.com/65535/50023740433_b999590aa5_n.jpg",
    "id_album": "-1103743486",
    "description": "Toucan_813984",
    "title": "Toucan_813984",
    "link_img": "https://live.staticflickr.com/65535/50023740433_d966d134bc_o.jpg",
    "id_image": "Toucan_813984",
    "count_view": 0
  },
  {
    "link_thumb": "https://live.staticflickr.com/65535/50024439041_e48bdb44fa_n.jpg",
    "id_album": "766572659",
    "description": "WhiteTiger_395482",
    "title": "WhiteTiger_395482",
    "link_img": "https://live.staticflickr.com/65535/50024439041_b13277baf2_o.jpg",
    "id_image": "WhiteTiger_395482",
    "count_view": 0
  },
  {
    "link_thumb": "https://live.staticflickr.com/65535/50017262078_b8b1791919_n.jpg",
    "id_album": "-462831705",
    "description": "Cat_158749",
    "title": "Cat_158749",
    "link_img": "https://live.staticflickr.com/65535/50017262078_9e2a7b915f_o.jpg",
    "id_image": "Cat_158749",
    "count_view": 0
  },
  {
    "link_thumb": "https://live.staticflickr.com/65535/50020628021_a9d17a9448_n.jpg",
    "id_album": "-405058657",
    "description": "Dragonfly_503775",
    "title": "Dragonfly_503775",
    "link_img": "https://live.staticflickr.com/65535/50020628021_6ca8fa1ccf_o.jpg",
    "id_image": "Dragonfly_503775",
    "count_view": 0
  },
  {
    "link_thumb": "https://live.staticflickr.com/65535/50022349216_128c68dbdd_n.jpg",
    "id_album": "588679857",
    "description": "Orangutan_367051",
    "title": "Orangutan_367051",
    "link_img": "https://live.staticflickr.com/65535/50022349216_d59b1046b8_o.jpg",
    "id_image": "Orangutan_367051",
    "count_view": 0
  },
  {
    "link_thumb": "https://live.staticflickr.com/65535/50021503521_1367628173_n.jpg",
    "id_album": "-1933715543",
    "description": "Horse_364983",
    "title": "Horse_364983",
    "link_img": "https://live.staticflickr.com/65535/50021503521_fefefaf2e9_o.jpg",
    "id_image": "Horse_364983",
    "count_view": 0
  },
  {
    "link_thumb": "https://live.staticflickr.com/65535/50021579271_cf8e6fd8be_n.jpg",
    "id_album": "-1933715543",
    "description": "Horse_876688",
    "title": "Horse_876688",
    "link_img": "https://live.staticflickr.com/65535/50021579271_1e2eb57840_o.jpg",
    "id_image": "Horse_876688",
    "count_view": 0
  },
  {
    "link_thumb": "https://live.staticflickr.com/65535/50019425547_1834539910_n.jpg",
    "id_album": "-462831702",
    "description": "Cat_425362",
    "title": "Cat_425362",
    "link_img": "https://live.staticflickr.com/65535/50019425547_73b7ed786f_o.jpg",
    "id_image": "Cat_425362",
    "count_view": 0
  },
  {
    "link_thumb": "https://live.staticflickr.com/65535/50019206758_df71e3d5c8_n.jpg",
    "id_album": "-1481843714",
    "description": "Cheetah_911506",
    "title": "Cheetah_911506",
    "link_img": "https://live.staticflickr.com/65535/50019206758_99341ba7a6_o.jpg",
    "id_image": "Cheetah_911506",
    "count_view": 0
  },
  {
    "link_thumb": "https://live.staticflickr.com/65535/50352735107_720c0492f9_n.jpg",
    "id_album": "-462831703",
    "description": "Cat_506065",
    "title": "Cat_506065",
    "link_img": "https://live.staticflickr.com/65535/50352735107_ced0b95ffd_o.jpg",
    "id_image": "Cat_506065",
    "count_view": 0
  },
  {
    "link_thumb": "https://live.staticflickr.com/65535/50021392202_40ea8a550f_n.jpg",
    "id_album": "-462831704",
    "description": "Cat_596663",
    "title": "Cat_596663",
    "link_img": "https://live.staticflickr.com/65535/50021392202_616215470d_o.jpg",
    "id_image": "Cat_596663",
    "count_view": 0
  },
  {
    "link_thumb": "https://live.staticflickr.com/65535/50023641023_d45fa8ed6a_n.jpg",
    "id_album": "405170427",
    "description": "Tiger_649150",
    "title": "Tiger_649150",
    "link_img": "https://live.staticflickr.com/65535/50023641023_41747fb890_o.jpg",
    "id_image": "Tiger_649150",
    "count_view": 0
  },
  {
    "link_thumb": "https://live.staticflickr.com/65535/50017333602_864fb872cf_n.jpg",
    "id_album": "-422187261",
    "description": "Bear_720770",
    "title": "Bear_720770",
    "link_img": "https://live.staticflickr.com/65535/50017333602_5f8e878734_o.jpg",
    "id_image": "Bear_720770",
    "count_view": 0
  },
  {
    "link_thumb": "https://live.staticflickr.com/65535/50016967826_ece7917923_n.jpg",
    "id_album": "231236068",
    "description": "BaldEagle_773350",
    "title": "BaldEagle_773350",
    "link_img": "https://live.staticflickr.com/65535/50016967826_439af81507_o.jpg",
    "id_image": "BaldEagle_773350",
    "count_view": 0
  },
  {
    "link_thumb": "https://live.staticflickr.com/65535/50019997958_5e28cf5026_n.jpg",
    "id_album": "-149330231",
    "description": "Dog_875739",
    "title": "Dog_875739",
    "link_img": "https://live.staticflickr.com/65535/50019997958_5e2ed663d4_o.jpg",
    "id_image": "Dog_875739",
    "count_view": 0
  },
  {
    "link_thumb": "https://live.staticflickr.com/65535/50019893057_45acbb1e1c_n.jpg",
    "id_album": "-766919393",
    "description": "Chameleon_218285",
    "title": "Chameleon_218285",
    "link_img": "https://live.staticflickr.com/65535/50019893057_408e05877e_o.jpg",
    "id_image": "Chameleon_218285",
    "count_view": 0
  },
  {
    "link_thumb": "https://live.staticflickr.com/65535/50017146841_b8dc5e3edb_n.jpg",
    "id_album": "1699594607",
    "description": "Bee_571393",
    "title": "Bee_571393",
    "link_img": "https://live.staticflickr.com/65535/50017146841_abeb87b1e6_o.jpg",
    "id_image": "Bee_571393",
    "count_view": 0
  },
  {
    "link_thumb": "https://live.staticflickr.com/65535/50020021098_f0816b8dab_n.jpg",
    "id_album": "-149330231",
    "description": "Dog_978405",
    "title": "Dog_978405",
    "link_img": "https://live.staticflickr.com/65535/50020021098_befc8ce1fa_o.jpg",
    "id_image": "Dog_978405",
    "count_view": 0
  },
  {
    "link_thumb": "https://live.staticflickr.com/65535/50017508822_8117b87fe9_n.jpg",
    "id_album": "-1846011410",
    "description": "Bird_338162",
    "title": "Bird_338162",
    "link_img": "https://live.staticflickr.com/65535/50017508822_ed2693f2c9_o.jpg",
    "id_image": "Bird_338162",
    "count_view": 0
  },
  {
    "link_thumb": "https://live.staticflickr.com/65535/50017907001_d76a838c80_n.jpg",
    "id_album": "-462831705",
    "description": "Cat_252739",
    "title": "Cat_252739",
    "link_img": "https://live.staticflickr.com/65535/50017907001_62838f7442_o.jpg",
    "id_image": "Cat_252739",
    "count_view": 0
  },
  {
    "link_thumb": "https://live.staticflickr.com/65535/50018270762_2d490a8189_n.jpg",
    "id_album": "-462831702",
    "description": "Cat_341085",
    "title": "Cat_341085",
    "link_img": "https://live.staticflickr.com/65535/50018270762_b85623202c_o.jpg",
    "id_image": "Cat_341085",
    "count_view": 0
  },
  {
    "link_thumb": "https://live.staticflickr.com/65535/50019715272_3027f221d2_n.jpg",
    "id_album": "-462831705",
    "description": "Cat_91481",
    "title": "Cat_91481",
    "link_img": "https://live.staticflickr.com/65535/50019715272_384d7e0dba_o.jpg",
    "id_image": "Cat_91481",
    "count_view": 0
  },
  {
    "link_thumb": "https://live.staticflickr.com/65535/50021296158_9f8afaa28b_n.jpg",
    "id_album": "-1882491687",
    "description": "Ladybug_103400",
    "title": "Ladybug_103400",
    "link_img": "https://live.staticflickr.com/65535/50021296158_1a8bf76433_o.jpg",
    "id_image": "Ladybug_103400",
    "count_view": 0
  },
  {
    "link_thumb": "https://live.staticflickr.com/65535/50352785977_b35793e07e_n.jpg",
    "id_album": "-462831703",
    "description": "Cat_611310",
    "title": "Cat_611310",
    "link_img": "https://live.staticflickr.com/65535/50352785977_439933d4ed_o.jpg",
    "id_image": "Cat_611310",
    "count_view": 0
  },
  {
    "link_thumb": "https://live.staticflickr.com/65535/50021912702_8a121dd9a1_n.jpg",
    "id_album": "1658866795",
    "description": "Insect_207693",
    "title": "Insect_207693",
    "link_img": "https://live.staticflickr.com/65535/50021912702_b19c3840a2_o.jpg",
    "id_image": "Insect_207693",
    "count_view": 0
  },
  {
    "link_thumb": "https://live.staticflickr.com/65535/50021413143_be4c349e1c_n.jpg",
    "id_album": "1392348450",
    "description": "Leopard_883522",
    "title": "Leopard_883522",
    "link_img": "https://live.staticflickr.com/65535/50021413143_1a0669c324_o.jpg",
    "id_image": "Leopard_883522",
    "count_view": 0
  },
  {
    "link_thumb": "https://live.staticflickr.com/65535/50020950271_d6ee807d66_n.jpg",
    "id_album": "-128218148",
    "description": "Fox_346200",
    "title": "Fox_346200",
    "link_img": "https://live.staticflickr.com/65535/50020950271_8444909482_o.jpg",
    "id_image": "Fox_346200",
    "count_view": 0
  },
  {
    "link_thumb": "https://live.staticflickr.com/65535/50017454581_c02d7efb90_n.jpg",
    "id_album": "-1561645279",
    "description": "BlackPanther_436668",
    "title": "BlackPanther_436668",
    "link_img": "https://live.staticflickr.com/65535/50017454581_af4b3a3a49_o.jpg",
    "id_image": "BlackPanther_436668",
    "count_view": 0
  },
  {
    "link_thumb": "https://live.staticflickr.com/65535/50018899403_2b0d7b0599_n.jpg",
    "id_album": "-462831703",
    "description": "Cat_905885",
    "title": "Cat_905885",
    "link_img": "https://live.staticflickr.com/65535/50018899403_3ff1c1df1f_o.jpg",
    "id_image": "Cat_905885",
    "count_view": 0
  },
  {
    "link_thumb": "https://live.staticflickr.com/65535/50352629277_b395e15016_n.jpg",
    "id_album": "-462831703",
    "description": "Cat_365206",
    "title": "Cat_365206",
    "link_img": "https://live.staticflickr.com/65535/50352629277_a6219da9ec_o.jpg",
    "id_image": "Cat_365206",
    "count_view": 0
  },
  {
    "link_thumb": "https://live.staticflickr.com/65535/50351783498_f3cd3c922c_n.jpg",
    "id_album": "-462831703",
    "description": "Cat_374050",
    "title": "Cat_374050",
    "link_img": "https://live.staticflickr.com/65535/50351783498_e854991646_o.jpg",
    "id_image": "Cat_374050",
    "count_view": 0
  },
  {
    "link_thumb": "https://live.staticflickr.com/65535/50019338273_24e56ba0ce_n.jpg",
    "id_album": "-2144640780",
    "description": "Cow_921602",
    "title": "Cow_921602",
    "link_img": "https://live.staticflickr.com/65535/50019338273_932301c7c0_o.jpg",
    "id_image": "Cow_921602",
    "count_view": 0
  },
  {
    "link_thumb": "https://live.staticflickr.com/65535/50023738297_fda5cd8132_n.jpg",
    "id_album": "-755466332",
    "description": "Sheep_477266",
    "title": "Sheep_477266",
    "link_img": "https://live.staticflickr.com/65535/50023738297_b4f1882435_o.jpg",
    "id_image": "Sheep_477266",
    "count_view": 0
  },
  {
    "link_thumb": "https://live.staticflickr.com/65535/50016363558_1ca9d1637b_n.jpg",
    "id_album": "523598895",
    "description": "Artistic_278871",
    "title": "Artistic_278871",
    "link_img": "https://live.staticflickr.com/65535/50016363558_6b8f93e633_o.jpg",
    "id_image": "Artistic_278871",
    "count_view": 0
  },
  {
    "link_thumb": "https://live.staticflickr.com/65535/50018202222_0a9a6cf650_n.jpg",
    "id_album": "-462831702",
    "description": "Cat_291148",
    "title": "Cat_291148",
    "link_img": "https://live.staticflickr.com/65535/50018202222_c747fceb2c_o.jpg",
    "id_image": "Cat_291148",
    "count_view": 0
  },
  {
    "link_thumb": "https://live.staticflickr.com/65535/50016552898_cbbdbc9f6e_n.jpg",
    "id_album": "-422187261",
    "description": "Bear_776452",
    "title": "Bear_776452",
    "link_img": "https://live.staticflickr.com/65535/50016552898_1e36ea2343_o.jpg",
    "id_image": "Bear_776452",
    "count_view": 0
  },
  {
    "link_thumb": "https://live.staticflickr.com/65535/50020649302_8945f2201f_n.jpg",
    "id_album": "-149330231",
    "description": "Dog_411201",
    "title": "Dog_411201",
    "link_img": "https://live.staticflickr.com/65535/50020649302_91c90024ba_o.jpg",
    "id_image": "Dog_411201",
    "count_view": 0
  },
  {
    "link_thumb": "https://live.staticflickr.com/65535/50023919958_74fc77bd95_n.jpg",
    "id_album": "-709711865",
    "description": "Wolf_229738",
    "title": "Wolf_229738",
    "link_img": "https://live.staticflickr.com/65535/50023919958_24a30ce1b0_o.jpg",
    "id_image": "Wolf_229738",
    "count_view": 0
  },
  {
    "link_thumb": "https://live.staticflickr.com/65535/50019616653_41e9625aea_n.jpg",
    "id_album": "-149330232",
    "description": "Dog_206798",
    "title": "Dog_206798",
    "link_img": "https://live.staticflickr.com/65535/50019616653_578af3a7d5_o.jpg",
    "id_image": "Dog_206798",
    "count_view": 0
  },
  {
    "link_thumb": "https://live.staticflickr.com/65535/50019549178_1b6e3f3177_n.jpg",
    "id_album": "297232732",
    "description": "Dinosaur_233592",
    "title": "Dinosaur_233592",
    "link_img": "https://live.staticflickr.com/65535/50019549178_f3fec4a975_o.jpg",
    "id_image": "Dinosaur_233592",
    "count_view": 0
  },
  {
    "link_thumb": "https://live.staticflickr.com/65535/50019732882_477d0e83ca_n.jpg",
    "id_album": "-462831703",
    "description": "Cat_924973",
    "title": "Cat_924973",
    "link_img": "https://live.staticflickr.com/65535/50019732882_784061093a_o.jpg",
    "id_image": "Cat_924973",
    "count_view": 0
  },
  {
    "link_thumb": "https://live.staticflickr.com/65535/50021006427_988250807e_n.jpg",
    "id_album": "1270947998",
    "description": "Elephant_367259",
    "title": "Elephant_367259",
    "link_img": "https://live.staticflickr.com/65535/50021006427_729d21ee68_o.jpg",
    "id_image": "Elephant_367259",
    "count_view": 0
  },
  {
    "link_thumb": "https://live.staticflickr.com/65535/50018291167_88a27f0d00_n.jpg",
    "id_album": "-462831702",
    "description": "Cat_349728",
    "title": "Cat_349728",
    "link_img": "https://live.staticflickr.com/65535/50018291167_f34ba435bc_o.jpg",
    "id_image": "Cat_349728",
    "count_view": 0
  },
  {
    "link_thumb": "https://live.staticflickr.com/65535/50016964576_26c4609f8d_n.jpg",
    "id_album": "231236068",
    "description": "BaldEagle_658865",
    "title": "BaldEagle_658865",
    "link_img": "https://live.staticflickr.com/65535/50016964576_7991924254_o.jpg",
    "id_image": "BaldEagle_658865",
    "count_view": 0
  },
  {
    "link_thumb": "https://live.staticflickr.com/65535/50017388448_a67568b3a3_n.jpg",
    "id_album": "-462831705",
    "description": "Cat_264655",
    "title": "Cat_264655",
    "link_img": "https://live.staticflickr.com/65535/50017388448_f423518639_o.jpg",
    "id_image": "Cat_264655",
    "count_view": 0
  },
  {
    "link_thumb": "https://live.staticflickr.com/65535/50351822123_b0c41f39f1_n.jpg",
    "id_album": "-462831703",
    "description": "Cat_433940",
    "title": "Cat_433940",
    "link_img": "https://live.staticflickr.com/65535/50351822123_75639290b7_o.jpg",
    "id_image": "Cat_433940",
    "count_view": 0
  },
  {
    "link_thumb": "https://live.staticflickr.com/65535/50023396426_0b5df23798_n.jpg",
    "id_album": "1961094930",
    "description": "Seal_118486",
    "title": "Seal_118486",
    "link_img": "https://live.staticflickr.com/65535/50023396426_84b5520f48_o.jpg",
    "id_image": "Seal_118486",
    "count_view": 0
  },
  {
    "link_thumb": "https://live.staticflickr.com/65535/50352773477_9172cf7e62_n.jpg",
    "id_album": "-462831703",
    "description": "Cat_581083",
    "title": "Cat_581083",
    "link_img": "https://live.staticflickr.com/65535/50352773477_fb865686cd_o.jpg",
    "id_image": "Cat_581083",
    "count_view": 0
  },
  {
    "link_thumb": "https://live.staticflickr.com/65535/50024302726_f980a67b42_n.jpg",
    "id_album": "46520366",
    "description": "Turtle_285609",
    "title": "Turtle_285609",
    "link_img": "https://live.staticflickr.com/65535/50024302726_92b33d4a07_o.jpg",
    "id_image": "Turtle_285609",
    "count_view": 0
  },
  {
    "link_thumb": "https://live.staticflickr.com/65535/50019669656_b85b9e9084_n.jpg",
    "id_album": "-766919393",
    "description": "Chameleon_848730",
    "title": "Chameleon_848730",
    "link_img": "https://live.staticflickr.com/65535/50019669656_1db2e190e8_o.jpg",
    "id_image": "Chameleon_848730",
    "count_view": 0
  },
  {
    "link_thumb": "https://live.staticflickr.com/65535/50017167133_5a649b9180_n.jpg",
    "id_album": "-401151552",
    "description": "Butterfly_926292",
    "title": "Butterfly_926292",
    "link_img": "https://live.staticflickr.com/65535/50017167133_fce976e761_o.jpg",
    "id_image": "Butterfly_926292",
    "count_view": 0
  },
  {
    "link_thumb": "https://live.staticflickr.com/65535/50018046561_0ddd7cc2e7_n.jpg",
    "id_album": "-462831702",
    "description": "Cat_357894",
    "title": "Cat_357894",
    "link_img": "https://live.staticflickr.com/65535/50018046561_78f9a5686c_o.jpg",
    "id_image": "Cat_357894",
    "count_view": 0
  },
  {
    "link_thumb": "https://live.staticflickr.com/65535/50019389901_5532a7750e_n.jpg",
    "id_album": "-462831703",
    "description": "Cat_881535",
    "title": "Cat_881535",
    "link_img": "https://live.staticflickr.com/65535/50019389901_51ffc1ac6d_o.jpg",
    "id_image": "Cat_881535",
    "count_view": 0
  },
  {
    "link_thumb": "https://live.staticflickr.com/65535/50020411103_96bea22fe0_n.jpg",
    "id_album": "-128218148",
    "description": "Fox_362751",
    "title": "Fox_362751",
    "link_img": "https://live.staticflickr.com/65535/50020411103_b749013878_o.jpg",
    "id_image": "Fox_362751",
    "count_view": 0
  },
  {
    "link_thumb": "https://live.staticflickr.com/65535/50021004856_3c48e5d9b3_n.jpg",
    "id_album": "-128218148",
    "description": "Fox_787840",
    "title": "Fox_787840",
    "link_img": "https://live.staticflickr.com/65535/50021004856_a7609446b2_o.jpg",
    "id_image": "Fox_787840",
    "count_view": 0
  },
  {
    "link_thumb": "https://live.staticflickr.com/65535/50019140386_6fa5e30043_n.jpg",
    "id_album": "-462831702",
    "description": "Cat_411509",
    "title": "Cat_411509",
    "link_img": "https://live.staticflickr.com/65535/50019140386_805c9782b5_o.jpg",
    "id_image": "Cat_411509",
    "count_view": 0
  },
  {
    "link_thumb": "https://live.staticflickr.com/65535/50352493351_46d81b2705_n.jpg",
    "id_album": "-462831703",
    "description": "Cat_394112",
    "title": "Cat_394112",
    "link_img": "https://live.staticflickr.com/65535/50352493351_4a6e5da464_o.jpg",
    "id_image": "Cat_394112",
    "count_view": 0
  },
  {
    "link_thumb": "https://live.staticflickr.com/65535/50020451516_40163d68f2_n.jpg",
    "id_album": "-149330231",
    "description": "Dog_528325",
    "title": "Dog_528325",
    "link_img": "https://live.staticflickr.com/65535/50020451516_4922710954_o.jpg",
    "id_image": "Dog_528325",
    "count_view": 0
  },
  {
    "link_thumb": "https://live.staticflickr.com/65535/50017119927_dca633f414_n.jpg",
    "id_album": "523598895",
    "description": "Artistic_111617",
    "title": "Artistic_111617",
    "link_img": "https://live.staticflickr.com/65535/50017119927_07a4dd89a1_o.jpg",
    "id_image": "Artistic_111617",
    "count_view": 0
  },
  {
    "link_thumb": "https://live.staticflickr.com/65535/50021247707_4fb1517a56_n.jpg",
    "id_album": "-128218148",
    "description": "Fox_718399",
    "title": "Fox_718399",
    "link_img": "https://live.staticflickr.com/65535/50021247707_1636b1d2b3_o.jpg",
    "id_image": "Fox_718399",
    "count_view": 0
  },
  {
    "link_thumb": "https://live.staticflickr.com/65535/50018961093_9f3b5e769b_n.jpg",
    "id_album": "-462831703",
    "description": "Cat_936461",
    "title": "Cat_936461",
    "link_img": "https://live.staticflickr.com/65535/50018961093_167dd1691a_o.jpg",
    "id_image": "Cat_936461",
    "count_view": 0
  },
  {
    "link_thumb": "https://live.staticflickr.com/65535/50020582212_887525c5e3_n.jpg",
    "id_album": "-149330232",
    "description": "Dog_364513",
    "title": "Dog_364513",
    "link_img": "https://live.staticflickr.com/65535/50020582212_183f3dbdd5_o.jpg",
    "id_image": "Dog_364513",
    "count_view": 0
  },
  {
    "link_thumb": "https://live.staticflickr.com/65535/50017561978_cfe81bba06_n.jpg",
    "id_album": "-462831702",
    "description": "Cat_369965",
    "title": "Cat_369965",
    "link_img": "https://live.staticflickr.com/65535/50017561978_998eec5054_o.jpg",
    "id_image": "Cat_369965",
    "count_view": 0
  },
  {
    "link_thumb": "https://live.staticflickr.com/65535/50018300647_c08fe0358d_n.jpg",
    "id_album": "-462831702",
    "description": "Cat_354604",
    "title": "Cat_354604",
    "link_img": "https://live.staticflickr.com/65535/50018300647_cc32083537_o.jpg",
    "id_image": "Cat_354604",
    "count_view": 0
  },
  {
    "link_thumb": "https://live.staticflickr.com/65535/50017464766_8109080666_n.jpg",
    "id_album": "-530283314",
    "description": "BlueandyellowMacaw_414405",
    "title": "BlueandyellowMacaw_414405",
    "link_img": "https://live.staticflickr.com/65535/50017464766_9afc813e7c_o.jpg",
    "id_image": "BlueandyellowMacaw_414405",
    "count_view": 0
  },
  {
    "link_thumb": "https://live.staticflickr.com/65535/50022775812_50e456bbec_n.jpg",
    "id_album": "-358592519",
    "description": "Panda_145977",
    "title": "Panda_145977",
    "link_img": "https://live.staticflickr.com/65535/50022775812_bf53ea971b_o.jpg",
    "id_image": "Panda_145977",
    "count_view": 0
  },
  {
    "link_thumb": "https://live.staticflickr.com/65535/50022572626_06548d2324_n.jpg",
    "id_album": "405592235",
    "description": "Parrot_525830",
    "title": "Parrot_525830",
    "link_img": "https://live.staticflickr.com/65535/50022572626_82fef4979a_o.jpg",
    "id_image": "Parrot_525830",
    "count_view": 0
  },
  {
    "link_thumb": "https://live.staticflickr.com/65535/50022283136_6b75fcaff9_n.jpg",
    "id_album": "1610416937",
    "description": "Moth_974120",
    "title": "Moth_974120",
    "link_img": "https://live.staticflickr.com/65535/50022283136_17d822564a_o.jpg",
    "id_image": "Moth_974120",
    "count_view": 0
  },
  {
    "link_thumb": "https://live.staticflickr.com/65535/50022425922_e904cfbaa3_n.jpg",
    "id_album": "1894617400",
    "description": "Lynx_881375",
    "title": "Lynx_881375",
    "link_img": "https://live.staticflickr.com/65535/50022425922_bf83474b5b_o.jpg",
    "id_image": "Lynx_881375",
    "count_view": 0
  },
  {
    "link_thumb": "https://live.staticflickr.com/65535/50018142346_a53b1dafc7_n.jpg",
    "id_album": "-462831702",
    "description": "Cat_402138",
    "title": "Cat_402138",
    "link_img": "https://live.staticflickr.com/65535/50018142346_90019f6707_o.jpg",
    "id_image": "Cat_402138",
    "count_view": 0
  },
  {
    "link_thumb": "https://live.staticflickr.com/65535/50022069067_9b527a370b_n.jpg",
    "id_album": "770105808",
    "description": "Kingfisher_927555",
    "title": "Kingfisher_927555",
    "link_img": "https://live.staticflickr.com/65535/50022069067_95748c0ce7_o.jpg",
    "id_image": "Kingfisher_927555",
    "count_view": 0
  },
  {
    "link_thumb": "https://live.staticflickr.com/65535/50017245192_954a65e03d_n.jpg",
    "id_album": "809937717",
    "description": "Beagle_249488",
    "title": "Beagle_249488",
    "link_img": "https://live.staticflickr.com/65535/50017245192_586d769e3a_o.jpg",
    "id_image": "Beagle_249488",
    "count_view": 0
  },
  {
    "link_thumb": "https://live.staticflickr.com/65535/50018389727_f9c1583ebe_n.jpg",
    "id_album": "-462831702",
    "description": "Cat_394304",
    "title": "Cat_394304",
    "link_img": "https://live.staticflickr.com/65535/50018389727_1901198531_o.jpg",
    "id_image": "Cat_394304",
    "count_view": 0
  },
  {
    "link_thumb": "https://live.staticflickr.com/65535/50022397447_b809c31014_n.jpg",
    "id_album": "1894617400",
    "description": "Lynx_368401",
    "title": "Lynx_368401",
    "link_img": "https://live.staticflickr.com/65535/50022397447_a1dd73916d_o.jpg",
    "id_image": "Lynx_368401",
    "count_view": 0
  },
  {
    "link_thumb": "https://live.staticflickr.com/65535/50017233421_5fda049d60_n.jpg",
    "id_album": "-1846011410",
    "description": "Bird_307832",
    "title": "Bird_307832",
    "link_img": "https://live.staticflickr.com/65535/50017233421_037a388ec4_o.jpg",
    "id_image": "Bird_307832",
    "count_view": 0
  },
  {
    "link_thumb": "https://live.staticflickr.com/65535/50017753866_488be920a2_n.jpg",
    "id_album": "-462831705",
    "description": "Cat_111240",
    "title": "Cat_111240",
    "link_img": "https://live.staticflickr.com/65535/50017753866_76fd12e189_o.jpg",
    "id_image": "Cat_111240",
    "count_view": 0
  },
  {
    "link_thumb": "https://live.staticflickr.com/65535/50021442793_e0443d017c_n.jpg",
    "id_album": "416744915",
    "description": "Lion_275659",
    "title": "Lion_275659",
    "link_img": "https://live.staticflickr.com/65535/50021442793_ef52927e8c_o.jpg",
    "id_image": "Lion_275659",
    "count_view": 0
  },
  {
    "link_thumb": "https://live.staticflickr.com/65535/50021600518_6245872660_n.jpg",
    "id_album": "1894617400",
    "description": "Lynx_398263",
    "title": "Lynx_398263",
    "link_img": "https://live.staticflickr.com/65535/50021600518_545977ff79_o.jpg",
    "id_image": "Lynx_398263",
    "count_view": 0
  },
  {
    "link_thumb": "https://live.staticflickr.com/65535/50021865726_9929405c07_n.jpg",
    "id_album": "-1882491687",
    "description": "Ladybug_812277",
    "title": "Ladybug_812277",
    "link_img": "https://live.staticflickr.com/65535/50021865726_816fbc190f_o.jpg",
    "id_image": "Ladybug_812277",
    "count_view": 0
  },
  {
    "link_thumb": "https://live.staticflickr.com/65535/50020369903_43f1c88fde_n.jpg",
    "id_album": "-1758557371",
    "description": "Flamingo_808527",
    "title": "Flamingo_808527",
    "link_img": "https://live.staticflickr.com/65535/50020369903_cef429765b_o.jpg",
    "id_image": "Flamingo_808527",
    "count_view": 0
  },
  {
    "link_thumb": "https://live.staticflickr.com/65535/50021450546_5c237cfd41_n.jpg",
    "id_album": "-362549635",
    "description": "Hippo_260400",
    "title": "Hippo_260400",
    "link_img": "https://live.staticflickr.com/65535/50021450546_3d9c8e707e_o.jpg",
    "id_image": "Hippo_260400",
    "count_view": 0
  },
  {
    "link_thumb": "https://live.staticflickr.com/65535/50021647947_2c5752c334_n.jpg",
    "id_album": "1950225324",
    "description": "Gorilla_596060",
    "title": "Gorilla_596060",
    "link_img": "https://live.staticflickr.com/65535/50021647947_70c0cea98b_o.jpg",
    "id_image": "Gorilla_596060",
    "count_view": 0
  },
  {
    "link_thumb": "https://live.staticflickr.com/65535/50022769903_8991fc2b15_n.jpg",
    "id_album": "1926701726",
    "description": "Robin_616088",
    "title": "Robin_616088",
    "link_img": "https://live.staticflickr.com/65535/50022769903_a48b290304_o.jpg",
    "id_image": "Robin_616088",
    "count_view": 0
  },
  {
    "link_thumb": "https://live.staticflickr.com/65535/50019111908_98f282b23c_n.jpg",
    "id_album": "-766919393",
    "description": "Chameleon_352803",
    "title": "Chameleon_352803",
    "link_img": "https://live.staticflickr.com/65535/50019111908_afb27655fc_o.jpg",
    "id_image": "Chameleon_352803",
    "count_view": 0
  },
  {
    "link_thumb": "https://live.staticflickr.com/65535/50017026908_a920b7abfe_n.jpg",
    "id_album": "-401151552",
    "description": "Butterfly_260621",
    "title": "Butterfly_260621",
    "link_img": "https://live.staticflickr.com/65535/50017026908_812f4f9e7b_o.jpg",
    "id_image": "Butterfly_260621",
    "count_view": 0
  },
  {
    "link_thumb": "https://live.staticflickr.com/65535/50020300477_17abea24f4_n.jpg",
    "id_album": "1903411565",
    "description": "Deer_714531",
    "title": "Deer_714531",
    "link_img": "https://live.staticflickr.com/65535/50020300477_227352a88c_o.jpg",
    "id_image": "Deer_714531",
    "count_view": 0
  },
  {
    "link_thumb": "https://live.staticflickr.com/65535/50018145931_2cce4ef2b8_n.jpg",
    "id_album": "-462831702",
    "description": "Cat_405116",
    "title": "Cat_405116",
    "link_img": "https://live.staticflickr.com/65535/50018145931_70ae304cde_o.jpg",
    "id_image": "Cat_405116",
    "count_view": 0
  },
  {
    "link_thumb": "https://live.staticflickr.com/65535/50020526741_587560bc56_n.jpg",
    "id_album": "-149330231",
    "description": "Dog_863828",
    "title": "Dog_863828",
    "link_img": "https://live.staticflickr.com/65535/50020526741_c97f6b1233_o.jpg",
    "id_image": "Dog_863828",
    "count_view": 0
  },
  {
    "link_thumb": "https://live.staticflickr.com/65535/50017578928_8d9da51c12_n.jpg",
    "id_album": "-462831702",
    "description": "Cat_380938",
    "title": "Cat_380938",
    "link_img": "https://live.staticflickr.com/65535/50017578928_1769c60a0e_o.jpg",
    "id_image": "Cat_380938",
    "count_view": 0
  },
  {
    "link_thumb": "https://live.staticflickr.com/65535/50017198763_95ac452901_n.jpg",
    "id_album": "-1131161368",
    "description": "Camel_412134",
    "title": "Camel_412134",
    "link_img": "https://live.staticflickr.com/65535/50017198763_4d1d883d58_o.jpg",
    "id_image": "Camel_412134",
    "count_view": 0
  },
  {
    "link_thumb": "https://live.staticflickr.com/65535/50021283081_170fef580a_n.jpg",
    "id_album": "-405626519",
    "description": "GermanShepherd_323393",
    "title": "GermanShepherd_323393",
    "link_img": "https://live.staticflickr.com/65535/50021283081_813296b01f_o.jpg",
    "id_image": "GermanShepherd_323393",
    "count_view": 0
  },
  {
    "link_thumb": "https://live.staticflickr.com/65535/50020724811_580db5447a_n.jpg",
    "id_album": "-39098563",
    "description": "Eagle_847779",
    "title": "Eagle_847779",
    "link_img": "https://live.staticflickr.com/65535/50020724811_b3bda2caf3_o.jpg",
    "id_image": "Eagle_847779",
    "count_view": 0
  },
  {
    "link_thumb": "https://live.staticflickr.com/65535/50017273921_87e6804a1d_n.jpg",
    "id_album": "-1846011410",
    "description": "Bird_364095",
    "title": "Bird_364095",
    "link_img": "https://live.staticflickr.com/65535/50017273921_e54a990937_o.jpg",
    "id_image": "Bird_364095",
    "count_view": 0
  },
  {
    "link_thumb": "https://live.staticflickr.com/65535/50017433036_f715b0503d_n.jpg",
    "id_album": "-1846011410",
    "description": "Bird_84772",
    "title": "Bird_84772",
    "link_img": "https://live.staticflickr.com/65535/50017433036_32bb9bf702_o.jpg",
    "id_image": "Bird_84772",
    "count_view": 0
  },
  {
    "link_thumb": "https://live.staticflickr.com/65535/50017356796_d338607c28_n.jpg",
    "id_album": "-1846011410",
    "description": "Bird_524505",
    "title": "Bird_524505",
    "link_img": "https://live.staticflickr.com/65535/50017356796_99d8421d5d_o.jpg",
    "id_image": "Bird_524505",
    "count_view": 0
  },
  {
    "link_thumb": "https://live.staticflickr.com/65535/50022233497_ec47a59365_n.jpg",
    "id_album": "416744915",
    "description": "Lion_231978",
    "title": "Lion_231978",
    "link_img": "https://live.staticflickr.com/65535/50022233497_c384bc9047_o.jpg",
    "id_image": "Lion_231978",
    "count_view": 0
  },
  {
    "link_thumb": "https://live.staticflickr.com/65535/50020422023_72a64b7076_n.jpg",
    "id_album": "-128218148",
    "description": "Fox_430894",
    "title": "Fox_430894",
    "link_img": "https://live.staticflickr.com/65535/50020422023_23fd5e85f6_o.jpg",
    "id_image": "Fox_430894",
    "count_view": 0
  },
  {
    "link_thumb": "https://live.staticflickr.com/65535/50022410388_738065ef46_n.jpg",
    "id_album": "-1431524681",
    "description": "Pug_595663",
    "title": "Pug_595663",
    "link_img": "https://live.staticflickr.com/65535/50022410388_f3dc06351a_o.jpg",
    "id_image": "Pug_595663",
    "count_view": 0
  },
  {
    "link_thumb": "https://live.staticflickr.com/65535/50352411041_50ccb3850d_n.jpg",
    "id_album": "-462831703",
    "description": "Cat_181037",
    "title": "Cat_181037",
    "link_img": "https://live.staticflickr.com/65535/50352411041_7534f1f83f_o.jpg",
    "id_image": "Cat_181037",
    "count_view": 0
  },
  {
    "link_thumb": "https://live.staticflickr.com/65535/50021071908_cac4fc165e_n.jpg",
    "id_album": "2144294979",
    "description": "Hummingbird_543075",
    "title": "Hummingbird_543075",
    "link_img": "https://live.staticflickr.com/65535/50021071908_0831500daf_o.jpg",
    "id_image": "Hummingbird_543075",
    "count_view": 0
  },
  {
    "link_thumb": "https://live.staticflickr.com/65535/50017906386_3a186ea0c5_n.jpg",
    "id_album": "-462831705",
    "description": "Cat_252249",
    "title": "Cat_252249",
    "link_img": "https://live.staticflickr.com/65535/50017906386_5e54dcb559_o.jpg",
    "id_image": "Cat_252249",
    "count_view": 0
  },
  {
    "link_thumb": "https://live.staticflickr.com/65535/50352700852_cf4a63123a_n.jpg",
    "id_album": "-462831703",
    "description": "Cat_460270",
    "title": "Cat_460270",
    "link_img": "https://live.staticflickr.com/65535/50352700852_70d8280cb5_o.jpg",
    "id_image": "Cat_460270",
    "count_view": 0
  },
  {
    "link_thumb": "https://live.staticflickr.com/65535/50020309533_edf6361949_n.jpg",
    "id_album": "-1118073211",
    "description": "Fish_367241",
    "title": "Fish_367241",
    "link_img": "https://live.staticflickr.com/65535/50020309533_89cd8b9fc3_o.jpg",
    "id_image": "Fish_367241",
    "count_view": 0
  },
  {
    "link_thumb": "https://live.staticflickr.com/65535/50016934493_de23d755d7_n.jpg",
    "id_album": "-530283314",
    "description": "BlueandyellowMacaw_254334",
    "title": "BlueandyellowMacaw_254334",
    "link_img": "https://live.staticflickr.com/65535/50016934493_1bccc0e7e2_o.jpg",
    "id_image": "BlueandyellowMacaw_254334",
    "count_view": 0
  },
  {
    "link_thumb": "https://live.staticflickr.com/65535/50016942626_f4216a5bca_n.jpg",
    "id_album": "390697200",
    "description": "AustralianShepherd_870352",
    "title": "AustralianShepherd_870352",
    "link_img": "https://live.staticflickr.com/65535/50016942626_6c429ca495_o.jpg",
    "id_image": "AustralianShepherd_870352",
    "count_view": 0
  },
  {
    "link_thumb": "https://live.staticflickr.com/65535/50020512652_c9533004fe_n.jpg",
    "id_album": "-149330232",
    "description": "Dog_331961",
    "title": "Dog_331961",
    "link_img": "https://live.staticflickr.com/65535/50020512652_f314da4007_o.jpg",
    "id_image": "Dog_331961",
    "count_view": 0
  },
  {
    "link_thumb": "https://live.staticflickr.com/65535/50022358877_6491a27350_n.jpg",
    "id_album": "-656526748",
    "description": "Lizard_188475",
    "title": "Lizard_188475",
    "link_img": "https://live.staticflickr.com/65535/50022358877_465d14073f_o.jpg",
    "id_image": "Lizard_188475",
    "count_view": 0
  },
  {
    "link_thumb": "https://live.staticflickr.com/65535/50016932178_1081fa6461_n.jpg",
    "id_album": "-1561645279",
    "description": "BlackPanther_788491",
    "title": "BlackPanther_788491",
    "link_img": "https://live.staticflickr.com/65535/50016932178_3cb79db41b_o.jpg",
    "id_image": "BlackPanther_788491",
    "count_view": 0
  },
  {
    "link_thumb": "https://live.staticflickr.com/65535/50024180701_ed28fe77aa_n.jpg",
    "id_album": "405170427",
    "description": "Tiger_588621",
    "title": "Tiger_588621",
    "link_img": "https://live.staticflickr.com/65535/50024180701_913acbe665_o.jpg",
    "id_image": "Tiger_588621",
    "count_view": 0
  },
  {
    "link_thumb": "https://live.staticflickr.com/65535/50352583841_455bdf0595_n.jpg",
    "id_album": "-462831703",
    "description": "Cat_521461",
    "title": "Cat_521461",
    "link_img": "https://live.staticflickr.com/65535/50352583841_f90af83bbf_o.jpg",
    "id_image": "Cat_521461",
    "count_view": 0
  },
  {
    "link_thumb": "https://live.staticflickr.com/65535/50022290971_8c1f99e6f4_n.jpg",
    "id_album": "1957967135",
    "description": "Mouse_593644",
    "title": "Mouse_593644",
    "link_img": "https://live.staticflickr.com/65535/50022290971_ca616fa754_o.jpg",
    "id_image": "Mouse_593644",
    "count_view": 0
  },
  {
    "link_thumb": "https://live.staticflickr.com/65535/50017107822_40baec958d_n.jpg",
    "id_album": "-834314226",
    "description": "ArcticFox_565202",
    "title": "ArcticFox_565202",
    "link_img": "https://live.staticflickr.com/65535/50017107822_9570900f32_o.jpg",
    "id_image": "ArcticFox_565202",
    "count_view": 0
  },
  {
    "link_thumb": "https://live.staticflickr.com/65535/50017524032_2430de8e4e_n.jpg",
    "id_album": "-1846011410",
    "description": "Bird_351104",
    "title": "Bird_351104",
    "link_img": "https://live.staticflickr.com/65535/50017524032_d5d8bc6e6f_o.jpg",
    "id_image": "Bird_351104",
    "count_view": 0
  },
  {
    "link_thumb": "https://live.staticflickr.com/65535/50020246746_7ba04f8fe3_n.jpg",
    "id_album": "-149330232",
    "description": "Dog_328668",
    "title": "Dog_328668",
    "link_img": "https://live.staticflickr.com/65535/50020246746_c50fca0363_o.jpg",
    "id_image": "Dog_328668",
    "count_view": 0
  },
  {
    "link_thumb": "https://live.staticflickr.com/65535/50021031193_a0ce631f4f_n.jpg",
    "id_album": "-1933715543",
    "description": "Horse_851637",
    "title": "Horse_851637",
    "link_img": "https://live.staticflickr.com/65535/50021031193_c56bb95f6b_o.jpg",
    "id_image": "Horse_851637",
    "count_view": 0
  },
  {
    "link_thumb": "https://live.staticflickr.com/65535/50021222197_98bff63c2f_n.jpg",
    "id_album": "-128218148",
    "description": "Fox_461731",
    "title": "Fox_461731",
    "link_img": "https://live.staticflickr.com/65535/50021222197_1fddb3bfc7_o.jpg",
    "id_image": "Fox_461731",
    "count_view": 0
  },
  {
    "link_thumb": "https://live.staticflickr.com/65535/50020283253_151fbfcf14_n.jpg",
    "id_album": "822895535",
    "description": "Falcon_778005",
    "title": "Falcon_778005",
    "link_img": "https://live.staticflickr.com/65535/50020283253_9a27224103_o.jpg",
    "id_image": "Falcon_778005",
    "count_view": 0
  },
  {
    "link_thumb": "https://live.staticflickr.com/65535/50021138813_de5d3021a6_n.jpg",
    "id_album": "1658866795",
    "description": "Insect_403693",
    "title": "Insect_403693",
    "link_img": "https://live.staticflickr.com/65535/50021138813_229d541864_o.jpg",
    "id_image": "Insect_403693",
    "count_view": 0
  },
  {
    "link_thumb": "https://live.staticflickr.com/65535/50020373363_06c84b9cb0_n.jpg",
    "id_album": "-1758557371",
    "description": "Flamingo_935031",
    "title": "Flamingo_935031",
    "link_img": "https://live.staticflickr.com/65535/50020373363_7d5748f6f7_o.jpg",
    "id_image": "Flamingo_935031",
    "count_view": 0
  },
  {
    "link_thumb": "https://live.staticflickr.com/65535/50020812713_e98c0f852b_n.jpg",
    "id_album": "2060159334",
    "description": "GoldenRetriever_688853",
    "title": "GoldenRetriever_688853",
    "link_img": "https://live.staticflickr.com/65535/50020812713_80a3a31144_o.jpg",
    "id_image": "GoldenRetriever_688853",
    "count_view": 0
  },
  {
    "link_thumb": "https://live.staticflickr.com/65535/50023241956_c378b39271_n.jpg",
    "id_album": "-2087362619",
    "description": "RedandgreenMacaw_349239",
    "title": "RedandgreenMacaw_349239",
    "link_img": "https://live.staticflickr.com/65535/50023241956_05fbee130f_o.jpg",
    "id_image": "RedandgreenMacaw_349239",
    "count_view": 0
  },
  {
    "link_thumb": "https://live.staticflickr.com/65535/50021674717_efd98c46fb_n.jpg",
    "id_album": "-1513987841",
    "description": "Hawk_438093",
    "title": "Hawk_438093",
    "link_img": "https://live.staticflickr.com/65535/50021674717_93d3ab4b0e_o.jpg",
    "id_image": "Hawk_438093",
    "count_view": 0
  },
  {
    "link_thumb": "https://live.staticflickr.com/65535/50024248612_65b8cc4b70_n.jpg",
    "id_album": "1244464375",
    "description": "Starfish_260631",
    "title": "Starfish_260631",
    "link_img": "https://live.staticflickr.com/65535/50024248612_d78e0677a5_o.jpg",
    "id_image": "Starfish_260631",
    "count_view": 0
  },
  {
    "link_thumb": "https://live.staticflickr.com/65535/50019132043_deac933283_n.jpg",
    "id_album": "-766919393",
    "description": "Chameleon_761835",
    "title": "Chameleon_761835",
    "link_img": "https://live.staticflickr.com/65535/50019132043_2c1b683c52_o.jpg",
    "id_image": "Chameleon_761835",
    "count_view": 0
  },
  {
    "link_thumb": "https://live.staticflickr.com/65535/50021905667_5a1ec8b81c_n.jpg",
    "id_album": "-737856092",
    "description": "Iguana_571518",
    "title": "Iguana_571518",
    "link_img": "https://live.staticflickr.com/65535/50021905667_e4c89c6e37_o.jpg",
    "id_image": "Iguana_571518",
    "count_view": 0
  },
  {
    "link_thumb": "https://live.staticflickr.com/65535/50019542412_a6b90ec69d_n.jpg",
    "id_album": "-462831704",
    "description": "Cat_523603",
    "title": "Cat_523603",
    "link_img": "https://live.staticflickr.com/65535/50019542412_faa4e361f6_o.jpg",
    "id_image": "Cat_523603",
    "count_view": 0
  },
  {
    "link_thumb": "https://live.staticflickr.com/65535/50017737422_8925f78554_n.jpg",
    "id_album": "-530283314",
    "description": "BlueandyellowMacaw_836901",
    "title": "BlueandyellowMacaw_836901",
    "link_img": "https://live.staticflickr.com/65535/50017737422_9fef03f64e_o.jpg",
    "id_image": "BlueandyellowMacaw_836901",
    "count_view": 0
  },
  {
    "link_thumb": "https://live.staticflickr.com/65535/50021824821_5001d9aee6_n.jpg",
    "id_album": "1307335982",
    "description": "LabradorRetriever_101818",
    "title": "LabradorRetriever_101818",
    "link_img": "https://live.staticflickr.com/65535/50021824821_26275d0277_o.jpg",
    "id_image": "LabradorRetriever_101818",
    "count_view": 0
  },
  {
    "link_thumb": "https://live.staticflickr.com/65535/50021268787_3dc134bb39_n.jpg",
    "id_album": "-128218148",
    "description": "Fox_877696",
    "title": "Fox_877696",
    "link_img": "https://live.staticflickr.com/65535/50021268787_468587459c_o.jpg",
    "id_image": "Fox_877696",
    "count_view": 0
  },
  {
    "link_thumb": "https://live.staticflickr.com/65535/50020850786_f37457b51f_n.jpg",
    "id_album": "-1118073211",
    "description": "Fish_408557",
    "title": "Fish_408557",
    "link_img": "https://live.staticflickr.com/65535/50020850786_20788fdac6_o.jpg",
    "id_image": "Fish_408557",
    "count_view": 0
  },
  {
    "link_thumb": "https://live.staticflickr.com/65535/50019958397_a7e231ed41_n.jpg",
    "id_album": "-1481843714",
    "description": "Cheetah_390808",
    "title": "Cheetah_390808",
    "link_img": "https://live.staticflickr.com/65535/50019958397_0cc5408df6_o.jpg",
    "id_image": "Cheetah_390808",
    "count_view": 0
  },
  {
    "link_thumb": "https://live.staticflickr.com/65535/50022079513_8c6806b4a8_n.jpg",
    "id_album": "1146438617",
    "description": "Pelican_369998",
    "title": "Pelican_369998",
    "link_img": "https://live.staticflickr.com/65535/50022079513_0c6a560b9b_o.jpg",
    "id_image": "Pelican_369998",
    "count_view": 0
  },
  {
    "link_thumb": "https://live.staticflickr.com/65535/50022423082_7f7a1dea3b_n.jpg",
    "id_album": "1894617400",
    "description": "Lynx_811562",
    "title": "Lynx_811562",
    "link_img": "https://live.staticflickr.com/65535/50022423082_5dbb8e6fe3_o.jpg",
    "id_image": "Lynx_811562",
    "count_view": 0
  },
  {
    "link_thumb": "https://live.staticflickr.com/65535/50017152293_1071930298_n.jpg",
    "id_album": "-401151552",
    "description": "Butterfly_857977",
    "title": "Butterfly_857977",
    "link_img": "https://live.staticflickr.com/65535/50017152293_93c0fa3915_o.jpg",
    "id_image": "Butterfly_857977",
    "count_view": 0
  },
  {
    "link_thumb": "https://live.staticflickr.com/65535/50022153841_0f0b47e1a7_n.jpg",
    "id_album": "1894617400",
    "description": "Lynx_652026",
    "title": "Lynx_652026",
    "link_img": "https://live.staticflickr.com/65535/50022153841_ae0e7d6b3e_o.jpg",
    "id_image": "Lynx_652026",
    "count_view": 0
  },
  {
    "link_thumb": "https://live.staticflickr.com/65535/50022155646_56f00d208a_n.jpg",
    "id_album": "1894617400",
    "description": "Lynx_686498",
    "title": "Lynx_686498",
    "link_img": "https://live.staticflickr.com/65535/50022155646_9980827e2d_o.jpg",
    "id_image": "Lynx_686498",
    "count_view": 0
  },
  {
    "link_thumb": "https://live.staticflickr.com/65535/50019338113_4aef3bb72c_n.jpg",
    "id_album": "-2144640780",
    "description": "Cow_921151",
    "title": "Cow_921151",
    "link_img": "https://live.staticflickr.com/65535/50019338113_20061bed19_o.jpg",
    "id_image": "Cow_921151",
    "count_view": 0
  },
  {
    "link_thumb": "https://live.staticflickr.com/65535/50020437031_c58343979b_n.jpg",
    "id_album": "-149330231",
    "description": "Dog_484418",
    "title": "Dog_484418",
    "link_img": "https://live.staticflickr.com/65535/50020437031_cf55245fde_o.jpg",
    "id_image": "Dog_484418",
    "count_view": 0
  },
  {
    "link_thumb": "https://live.staticflickr.com/65535/50019480161_31c77f657b_n.jpg",
    "id_album": "-462831703",
    "description": "Cat_928799",
    "title": "Cat_928799",
    "link_img": "https://live.staticflickr.com/65535/50019480161_412ac86a66_o.jpg",
    "id_image": "Cat_928799",
    "count_view": 0
  },
  {
    "link_thumb": "https://live.staticflickr.com/65535/50024476201_a838747428_n.jpg",
    "id_album": "-709711865",
    "description": "Wolf_329792",
    "title": "Wolf_329792",
    "link_img": "https://live.staticflickr.com/65535/50024476201_e0aceabeae_o.jpg",
    "id_image": "Wolf_329792",
    "count_view": 0
  },
  {
    "link_thumb": "https://live.staticflickr.com/65535/50018408372_903d9750f9_n.jpg",
    "id_album": "-462831702",
    "description": "Cat_406280",
    "title": "Cat_406280",
    "link_img": "https://live.staticflickr.com/65535/50018408372_67f50a11c4_o.jpg",
    "id_image": "Cat_406280",
    "count_view": 0
  },
  {
    "link_thumb": "https://live.staticflickr.com/65535/50019707756_3f5de76f76_n.jpg",
    "id_album": "-1481843714",
    "description": "Cheetah_433566",
    "title": "Cheetah_433566",
    "link_img": "https://live.staticflickr.com/65535/50019707756_f1d638e496_o.jpg",
    "id_image": "Cheetah_433566",
    "count_view": 0
  },
  {
    "link_thumb": "https://live.staticflickr.com/65535/50019837062_e5cf318314_n.jpg",
    "id_album": "-1930903528",
    "description": "CatDog_546330",
    "title": "CatDog_546330",
    "link_img": "https://live.staticflickr.com/65535/50019837062_c13f45b86a_o.jpg",
    "id_image": "CatDog_546330",
    "count_view": 0
  },
  {
    "link_thumb": "https://live.staticflickr.com/65535/50022528357_9379a18404_n.jpg",
    "id_album": "-817970387",
    "description": "Moose_366778",
    "title": "Moose_366778",
    "link_img": "https://live.staticflickr.com/65535/50022528357_e1550358e9_o.jpg",
    "id_image": "Moose_366778",
    "count_view": 0
  },
  {
    "link_thumb": "https://live.staticflickr.com/65535/50022324258_9dbce243ee_n.jpg",
    "id_album": "1008910300",
    "description": "PolarBear_905223",
    "title": "PolarBear_905223",
    "link_img": "https://live.staticflickr.com/65535/50022324258_7760eb675e_o.jpg",
    "id_image": "PolarBear_905223",
    "count_view": 0
  },
  {
    "link_thumb": "https://live.staticflickr.com/65535/50019368923_2857daa6a7_n.jpg",
    "id_album": "1475096665",
    "description": "Crocodile_805657",
    "title": "Crocodile_805657",
    "link_img": "https://live.staticflickr.com/65535/50019368923_4cc2bac789_o.jpg",
    "id_image": "Crocodile_805657",
    "count_view": 0
  },
  {
    "link_thumb": "https://live.staticflickr.com/65535/50020917478_0c5a159528_n.jpg",
    "id_album": "-1933715543",
    "description": "Horse_104626",
    "title": "Horse_104626",
    "link_img": "https://live.staticflickr.com/65535/50020917478_a351a0e8b8_o.jpg",
    "id_image": "Horse_104626",
    "count_view": 0
  },
  {
    "link_thumb": "https://live.staticflickr.com/65535/50019611051_c55082e5a5_n.jpg",
    "id_album": "-420782796",
    "description": "Caterpillar_659841",
    "title": "Caterpillar_659841",
    "link_img": "https://live.staticflickr.com/65535/50019611051_87e9dab294_o.jpg",
    "id_image": "Caterpillar_659841",
    "count_view": 0
  },
  {
    "link_thumb": "https://live.staticflickr.com/65535/50017299578_9eecc3ffab_n.jpg",
    "id_album": "-462831705",
    "description": "Cat_184301",
    "title": "Cat_184301",
    "link_img": "https://live.staticflickr.com/65535/50017299578_bb71a0ebd7_o.jpg",
    "id_image": "Cat_184301",
    "count_view": 0
  },
  {
    "link_thumb": "https://live.staticflickr.com/65535/50017176232_f208e2026b_n.jpg",
    "id_album": "523598895",
    "description": "Artistic_76293",
    "title": "Artistic_76293",
    "link_img": "https://live.staticflickr.com/65535/50017176232_2baec572c8_o.jpg",
    "id_image": "Artistic_76293",
    "count_view": 0
  },
  {
    "link_thumb": "https://live.staticflickr.com/65535/50017736047_ff713302b7_n.jpg",
    "id_album": "-530283314",
    "description": "BlueandyellowMacaw_774633",
    "title": "BlueandyellowMacaw_774633",
    "link_img": "https://live.staticflickr.com/65535/50017736047_619ed6df92_o.jpg",
    "id_image": "BlueandyellowMacaw_774633",
    "count_view": 0
  },
  {
    "link_thumb": "https://live.staticflickr.com/65535/50020421526_62115f5d6e_n.jpg",
    "id_album": "-149330231",
    "description": "Dog_455509",
    "title": "Dog_455509",
    "link_img": "https://live.staticflickr.com/65535/50020421526_7a6dea05e6_o.jpg",
    "id_image": "Dog_455509",
    "count_view": 0
  },
  {
    "link_thumb": "https://live.staticflickr.com/65535/50022689686_0b0605edec_n.jpg",
    "id_album": "392248205",
    "description": "Penguin_367220",
    "title": "Penguin_367220",
    "link_img": "https://live.staticflickr.com/65535/50022689686_50aa0dd7c4_o.jpg",
    "id_image": "Penguin_367220",
    "count_view": 0
  },
  {
    "link_thumb": "https://live.staticflickr.com/65535/50016882331_75d5380fbb_n.jpg",
    "id_album": "523598895",
    "description": "Artistic_220497",
    "title": "Artistic_220497",
    "link_img": "https://live.staticflickr.com/65535/50016882331_33a8cee23a_o.jpg",
    "id_image": "Artistic_220497",
    "count_view": 0
  },
  {
    "link_thumb": "https://live.staticflickr.com/65535/50020067032_4088a4269a_n.jpg",
    "id_album": "-1868680171",
    "description": "Cougar_370158",
    "title": "Cougar_370158",
    "link_img": "https://live.staticflickr.com/65535/50020067032_6fc66cc775_o.jpg",
    "id_image": "Cougar_370158",
    "count_view": 0
  },
  {
    "link_thumb": "https://live.staticflickr.com/65535/50017085751_b4d6f8b7d9_n.jpg",
    "id_album": "-422187261",
    "description": "Bear_819602",
    "title": "Bear_819602",
    "link_img": "https://live.staticflickr.com/65535/50017085751_be254d5723_o.jpg",
    "id_image": "Bear_819602",
    "count_view": 0
  },
  {
    "link_thumb": "https://live.staticflickr.com/65535/50020584102_eab9035335_n.jpg",
    "id_album": "-149330232",
    "description": "Dog_365108",
    "title": "Dog_365108",
    "link_img": "https://live.staticflickr.com/65535/50020584102_6acb2b5c92_o.jpg",
    "id_image": "Dog_365108",
    "count_view": 0
  },
  {
    "link_thumb": "https://live.staticflickr.com/65535/50022522798_3280e97ccf_n.jpg",
    "id_album": "-353898617",
    "description": "Puppy_854674",
    "title": "Puppy_854674",
    "link_img": "https://live.staticflickr.com/65535/50022522798_2337de2f34_o.jpg",
    "id_image": "Puppy_854674",
    "count_view": 0
  },
  {
    "link_thumb": "https://live.staticflickr.com/65535/50017174972_749c998c0d_n.jpg",
    "id_album": "523598895",
    "description": "Artistic_7123",
    "title": "Artistic_7123",
    "link_img": "https://live.staticflickr.com/65535/50017174972_39dfab6c19_o.jpg",
    "id_image": "Artistic_7123",
    "count_view": 0
  },
  {
    "link_thumb": "https://live.staticflickr.com/65535/50017793846_4bc18083ff_n.jpg",
    "id_album": "-462831705",
    "description": "Cat_165859",
    "title": "Cat_165859",
    "link_img": "https://live.staticflickr.com/65535/50017793846_999b416bf2_o.jpg",
    "id_image": "Cat_165859",
    "count_view": 0
  },
  {
    "link_thumb": "https://live.staticflickr.com/65535/50018159781_496c207f23_n.jpg",
    "id_album": "-462831702",
    "description": "Cat_410284",
    "title": "Cat_410284",
    "link_img": "https://live.staticflickr.com/65535/50018159781_8a9125a17f_o.jpg",
    "id_image": "Cat_410284",
    "count_view": 0
  },
  {
    "link_thumb": "https://live.staticflickr.com/65535/50022218982_c1758a5fe8_n.jpg",
    "id_album": "1392348450",
    "description": "Leopard_945813",
    "title": "Leopard_945813",
    "link_img": "https://live.staticflickr.com/65535/50022218982_d3b50b9855_o.jpg",
    "id_image": "Leopard_945813",
    "count_view": 0
  },
  {
    "link_thumb": "https://live.staticflickr.com/65535/50017240527_95387a4705_n.jpg",
    "id_album": "-80092825",
    "description": "Barnowl_432427",
    "title": "Barnowl_432427",
    "link_img": "https://live.staticflickr.com/65535/50017240527_5d88ff5b6f_o.jpg",
    "id_image": "Barnowl_432427",
    "count_view": 0
  },
  {
    "link_thumb": "https://live.staticflickr.com/65535/50022194302_fb6fa45425_n.jpg",
    "id_album": "1392348450",
    "description": "Leopard_570921",
    "title": "Leopard_570921",
    "link_img": "https://live.staticflickr.com/65535/50022194302_89e5456ab2_o.jpg",
    "id_image": "Leopard_570921",
    "count_view": 0
  },
  {
    "link_thumb": "https://live.staticflickr.com/65535/50021596147_8141f56f4a_n.jpg",
    "id_album": "-804131074",
    "description": "Goat_442866",
    "title": "Goat_442866",
    "link_img": "https://live.staticflickr.com/65535/50021596147_c8709c638b_o.jpg",
    "id_image": "Goat_442866",
    "count_view": 0
  },
  {
    "link_thumb": "https://live.staticflickr.com/65535/50021360691_0bcf86b19b_n.jpg",
    "id_album": "2060159334",
    "description": "GoldenRetriever_829447",
    "title": "GoldenRetriever_829447",
    "link_img": "https://live.staticflickr.com/65535/50021360691_4482649ed2_o.jpg",
    "id_image": "GoldenRetriever_829447",
    "count_view": 0
  },
  {
    "link_thumb": "https://live.staticflickr.com/65535/50021823841_57e6d4fdfc_n.jpg",
    "id_album": "771796001",
    "description": "Koala_820436",
    "title": "Koala_820436",
    "link_img": "https://live.staticflickr.com/65535/50021823841_d481f52daa_o.jpg",
    "id_image": "Koala_820436",
    "count_view": 0
  },
  {
    "link_thumb": "https://live.staticflickr.com/65535/50024477207_f77bc9e542_n.jpg",
    "id_album": "405170427",
    "description": "Tiger_817265",
    "title": "Tiger_817265",
    "link_img": "https://live.staticflickr.com/65535/50024477207_cef183009e_o.jpg",
    "id_image": "Tiger_817265",
    "count_view": 0
  },
  {
    "link_thumb": "https://live.staticflickr.com/65535/50021046586_28333a6b50_n.jpg",
    "id_album": "704811092",
    "description": "FrenchBulldog_770867",
    "title": "FrenchBulldog_770867",
    "link_img": "https://live.staticflickr.com/65535/50021046586_a5e4e92ae6_o.jpg",
    "id_image": "FrenchBulldog_770867",
    "count_view": 0
  },
  {
    "link_thumb": "https://live.staticflickr.com/65535/50022374678_8f3170a014_n.jpg",
    "id_album": "-356780855",
    "description": "Puffin_412317",
    "title": "Puffin_412317",
    "link_img": "https://live.staticflickr.com/65535/50022374678_7f7c1fceb1_o.jpg",
    "id_image": "Puffin_412317",
    "count_view": 0
  },
  {
    "link_thumb": "https://live.staticflickr.com/65535/50021323752_f9b5af1dc7_n.jpg",
    "id_album": "844170697",
    "description": "Frog_605617",
    "title": "Frog_605617",
    "link_img": "https://live.staticflickr.com/65535/50021323752_3c9dd0d4d8_o.jpg",
    "id_image": "Frog_605617",
    "count_view": 0
  },
  {
    "link_thumb": "https://live.staticflickr.com/65535/50019832406_d5d864b3f7_n.jpg",
    "id_album": "-1868680171",
    "description": "Cougar_996367",
    "title": "Cougar_996367",
    "link_img": "https://live.staticflickr.com/65535/50019832406_a78763b46d_o.jpg",
    "id_image": "Cougar_996367",
    "count_view": 0
  },
  {
    "link_thumb": "https://live.staticflickr.com/65535/50020986831_fdd2739c7c_n.jpg",
    "id_album": "-128218148",
    "description": "Fox_668855",
    "title": "Fox_668855",
    "link_img": "https://live.staticflickr.com/65535/50020986831_dc7e7d6675_o.jpg",
    "id_image": "Fox_668855",
    "count_view": 0
  },
  {
    "link_thumb": "https://live.staticflickr.com/65535/50023638182_5f484ec983_n.jpg",
    "id_album": "1656131695",
    "description": "Seagull_595128",
    "title": "Seagull_595128",
    "link_img": "https://live.staticflickr.com/65535/50023638182_960725dd1c_o.jpg",
    "id_image": "Seagull_595128",
    "count_view": 0
  },
  {
    "link_thumb": "https://live.staticflickr.com/65535/50019222288_4ab2926ac5_n.jpg",
    "id_album": "1949822052",
    "description": "Chimpanzee_786445",
    "title": "Chimpanzee_786445",
    "link_img": "https://live.staticflickr.com/65535/50019222288_7917039648_o.jpg",
    "id_image": "Chimpanzee_786445",
    "count_view": 0
  },
  {
    "link_thumb": "https://live.staticflickr.com/65535/50020819856_1c411b2cfc_n.jpg",
    "id_album": "822895535",
    "description": "Falcon_816115",
    "title": "Falcon_816115",
    "link_img": "https://live.staticflickr.com/65535/50020819856_7877f1b95c_o.jpg",
    "id_image": "Falcon_816115",
    "count_view": 0
  },
  {
    "link_thumb": "https://live.staticflickr.com/65535/50021191566_de2e37b20f_n.jpg",
    "id_album": "-462831704",
    "description": "Cat_708995",
    "title": "Cat_708995",
    "link_img": "https://live.staticflickr.com/65535/50021191566_022619a22f_o.jpg",
    "id_image": "Cat_708995",
    "count_view": 0
  },
  {
    "link_thumb": "https://live.staticflickr.com/65535/50017505727_88391aaf0d_n.jpg",
    "id_album": "-1846011410",
    "description": "Bird_334014",
    "title": "Bird_334014",
    "link_img": "https://live.staticflickr.com/65535/50017505727_fe3d2094f2_o.jpg",
    "id_image": "Bird_334014",
    "count_view": 0
  },
  {
    "link_thumb": "https://live.staticflickr.com/65535/50023471607_5d9e7ee57b_n.jpg",
    "id_album": "332874268",
    "description": "RedPanda_543291",
    "title": "RedPanda_543291",
    "link_img": "https://live.staticflickr.com/65535/50023471607_e96189c204_o.jpg",
    "id_image": "RedPanda_543291",
    "count_view": 0
  },
  {
    "link_thumb": "https://live.staticflickr.com/65535/50020554312_3d13d877ec_n.jpg",
    "id_album": "-149330232",
    "description": "Dog_349475",
    "title": "Dog_349475",
    "link_img": "https://live.staticflickr.com/65535/50020554312_f78be1b519_o.jpg",
    "id_image": "Dog_349475",
    "count_view": 0
  },
  {
    "link_thumb": "https://live.staticflickr.com/65535/50017902316_2d32990087_n.jpg",
    "id_album": "-462831705",
    "description": "Cat_247467",
    "title": "Cat_247467",
    "link_img": "https://live.staticflickr.com/65535/50017902316_b5961ec0e3_o.jpg",
    "id_image": "Cat_247467",
    "count_view": 0
  },
  {
    "link_thumb": "https://live.staticflickr.com/65535/50019520316_7f94f540d6_n.jpg",
    "id_album": "-462831703",
    "description": "Cat_957938",
    "title": "Cat_957938",
    "link_img": "https://live.staticflickr.com/65535/50019520316_2b9a37fc06_o.jpg",
    "id_image": "Cat_957938",
    "count_view": 0
  },
  {
    "link_thumb": "https://live.staticflickr.com/65535/50018021267_1e8a8eceee_n.jpg",
    "id_album": "-462831705",
    "description": "Cat_114686",
    "title": "Cat_114686",
    "link_img": "https://live.staticflickr.com/65535/50018021267_26cd8082bd_o.jpg",
    "id_image": "Cat_114686",
    "count_view": 0
  },
  {
    "link_thumb": "https://live.staticflickr.com/65535/50018049791_f07546483a_n.jpg",
    "id_album": "-462831702",
    "description": "Cat_359295",
    "title": "Cat_359295",
    "link_img": "https://live.staticflickr.com/65535/50018049791_64102b8100_o.jpg",
    "id_image": "Cat_359295",
    "count_view": 0
  },
  {
    "link_thumb": "https://live.staticflickr.com/65535/50020469848_09f8c61a15_n.jpg",
    "id_album": "-128218148",
    "description": "Fox_840848",
    "title": "Fox_840848",
    "link_img": "https://live.staticflickr.com/65535/50020469848_dca51913e1_o.jpg",
    "id_image": "Fox_840848",
    "count_view": 0
  },
  {
    "link_thumb": "https://live.staticflickr.com/65535/50017958752_727c141e57_n.jpg",
    "id_album": "-401151552",
    "description": "Butterfly_926366",
    "title": "Butterfly_926366",
    "link_img": "https://live.staticflickr.com/65535/50017958752_ed97f1fdc3_o.jpg",
    "id_image": "Butterfly_926366",
    "count_view": 0
  },
  {
    "link_thumb": "https://live.staticflickr.com/65535/50018079146_d8e5db5f56_n.jpg",
    "id_album": "-462831702",
    "description": "Cat_367342",
    "title": "Cat_367342",
    "link_img": "https://live.staticflickr.com/65535/50018079146_05658f004b_o.jpg",
    "id_image": "Cat_367342",
    "count_view": 0
  },
  {
    "link_thumb": "https://live.staticflickr.com/65535/50020163487_4c9cb1cf91_n.jpg",
    "id_album": "-392100404",
    "description": "Crow_439802",
    "title": "Crow_439802",
    "link_img": "https://live.staticflickr.com/65535/50020163487_7b3c11ef8f_o.jpg",
    "id_image": "Crow_439802",
    "count_view": 0
  },
  {
    "link_thumb": "https://live.staticflickr.com/65535/50020262151_a361b9664d_n.jpg",
    "id_album": "-149330232",
    "description": "Dog_334144",
    "title": "Dog_334144",
    "link_img": "https://live.staticflickr.com/65535/50020262151_2fcbcfb066_o.jpg",
    "id_image": "Dog_334144",
    "count_view": 0
  },
  {
    "link_thumb": "https://live.staticflickr.com/65535/50019580883_f5fef84cf0_n.jpg",
    "id_album": "-149330232",
    "description": "Dog_101892",
    "title": "Dog_101892",
    "link_img": "https://live.staticflickr.com/65535/50019580883_5040899f34_o.jpg",
    "id_image": "Dog_101892",
    "count_view": 0
  },
  {
    "link_thumb": "https://live.staticflickr.com/65535/50022135852_3d6deffaa8_n.jpg",
    "id_album": "1918884325",
    "description": "Lemur_766725",
    "title": "Lemur_766725",
    "link_img": "https://live.staticflickr.com/65535/50022135852_fa75a9d767_o.jpg",
    "id_image": "Lemur_766725",
    "count_view": 0
  },
  {
    "link_thumb": "https://live.staticflickr.com/65535/50023143136_e984feab6d_n.jpg",
    "id_album": "248289288",
    "description": "Raccoon_344295",
    "title": "Raccoon_344295",
    "link_img": "https://live.staticflickr.com/65535/50023143136_7451c645bd_o.jpg",
    "id_image": "Raccoon_344295",
    "count_view": 0
  },
  {
    "link_thumb": "https://live.staticflickr.com/65535/50017345766_dd7f621c05_n.jpg",
    "id_album": "-1846011410",
    "description": "Bird_462222",
    "title": "Bird_462222",
    "link_img": "https://live.staticflickr.com/65535/50017345766_057bdd5477_o.jpg",
    "id_image": "Bird_462222",
    "count_view": 0
  },
  {
    "link_thumb": "https://live.staticflickr.com/65535/50021316352_596e523142_n.jpg",
    "id_album": "844170697",
    "description": "Frog_427198",
    "title": "Frog_427198",
    "link_img": "https://live.staticflickr.com/65535/50021316352_97b331eedc_o.jpg",
    "id_image": "Frog_427198",
    "count_view": 0
  },
  {
    "link_thumb": "https://live.staticflickr.com/65535/50020896437_f6eb1fa571_n.jpg",
    "id_album": "-405058657",
    "description": "Dragonfly_803327",
    "title": "Dragonfly_803327",
    "link_img": "https://live.staticflickr.com/65535/50020896437_84d64ece8c_o.jpg",
    "id_image": "Dragonfly_803327",
    "count_view": 0
  },
  {
    "link_thumb": "https://live.staticflickr.com/65535/50016933571_8c63cbf3de_n.jpg",
    "id_album": "390697200",
    "description": "AustralianShepherd_687212",
    "title": "AustralianShepherd_687212",
    "link_img": "https://live.staticflickr.com/65535/50016933571_e74e342ce0_o.jpg",
    "id_image": "AustralianShepherd_687212",
    "count_view": 0
  },
  {
    "link_thumb": "https://live.staticflickr.com/65535/50017558388_db9a0ebfdd_n.jpg",
    "id_album": "-462831702",
    "description": "Cat_369229",
    "title": "Cat_369229",
    "link_img": "https://live.staticflickr.com/65535/50017558388_5d848af27b_o.jpg",
    "id_image": "Cat_369229",
    "count_view": 0
  },
  {
    "link_thumb": "https://live.staticflickr.com/65535/50021210681_f28d12092b_n.jpg",
    "id_album": "-462831704",
    "description": "Cat_729700",
    "title": "Cat_729700",
    "link_img": "https://live.staticflickr.com/65535/50021210681_4ffe8afbcf_o.jpg",
    "id_image": "Cat_729700",
    "count_view": 0
  },
  {
    "link_thumb": "https://live.staticflickr.com/65535/50352439251_33706c884e_n.jpg",
    "id_album": "-462831703",
    "description": "Cat_242728",
    "title": "Cat_242728",
    "link_img": "https://live.staticflickr.com/65535/50352439251_ce3f3bb73b_o.jpg",
    "id_image": "Cat_242728",
    "count_view": 0
  },
  {
    "link_thumb": "https://live.staticflickr.com/65535/50022011712_34c2c664b4_n.jpg",
    "id_album": "665694624",
    "description": "JapaneseMacaque_853392",
    "title": "JapaneseMacaque_853392",
    "link_img": "https://live.staticflickr.com/65535/50022011712_41d978f9de_o.jpg",
    "id_image": "JapaneseMacaque_853392",
    "count_view": 0
  },
  {
    "link_thumb": "https://live.staticflickr.com/65535/50020182906_a943b54536_n.jpg",
    "id_album": "-149330232",
    "description": "Dog_254121",
    "title": "Dog_254121",
    "link_img": "https://live.staticflickr.com/65535/50020182906_e36397975f_o.jpg",
    "id_image": "Dog_254121",
    "count_view": 0
  },
  {
    "link_thumb": "https://live.staticflickr.com/65535/50017023426_10e915cb61_n.jpg",
    "id_album": "-422187261",
    "description": "Bear_340416",
    "title": "Bear_340416",
    "link_img": "https://live.staticflickr.com/65535/50017023426_edf701593f_o.jpg",
    "id_image": "Bear_340416",
    "count_view": 0
  },
  {
    "link_thumb": "https://live.staticflickr.com/65535/50017989462_d20f6c1f50_n.jpg",
    "id_album": "-1131161368",
    "description": "Camel_799186",
    "title": "Camel_799186",
    "link_img": "https://live.staticflickr.com/65535/50017989462_29503e12b9_o.jpg",
    "id_image": "Camel_799186",
    "count_view": 0
  },
  {
    "link_thumb": "https://live.staticflickr.com/65535/50023888982_dcd393a32d_n.jpg",
    "id_album": "-1131363127",
    "description": "SnowLeopard_335275",
    "title": "SnowLeopard_335275",
    "link_img": "https://live.staticflickr.com/65535/50023888982_7bd8c5aff8_o.jpg",
    "id_image": "SnowLeopard_335275",
    "count_view": 0
  },
  {
    "link_thumb": "https://live.staticflickr.com/65535/50351922463_1ecf8fdd42_n.jpg",
    "id_album": "-462831703",
    "description": "Cat_594747",
    "title": "Cat_594747",
    "link_img": "https://live.staticflickr.com/65535/50351922463_27d89dd05d_o.jpg",
    "id_image": "Cat_594747",
    "count_view": 0
  },
  {
    "link_thumb": "https://live.staticflickr.com/65535/50021060778_3154ee045a_n.jpg",
    "id_album": "2144294979",
    "description": "Hummingbird_315374",
    "title": "Hummingbird_315374",
    "link_img": "https://live.staticflickr.com/65535/50021060778_f85db7703c_o.jpg",
    "id_image": "Hummingbird_315374",
    "count_view": 0
  },
  {
    "link_thumb": "https://live.staticflickr.com/65535/50019982092_f807b9140a_n.jpg",
    "id_album": "-1481843714",
    "description": "Cheetah_739835",
    "title": "Cheetah_739835",
    "link_img": "https://live.staticflickr.com/65535/50019982092_e6d4b8232b_o.jpg",
    "id_image": "Cheetah_739835",
    "count_view": 0
  },
  {
    "link_thumb": "https://live.staticflickr.com/65535/50024393937_2081ac2d51_n.jpg",
    "id_album": "405170427",
    "description": "Tiger_436294",
    "title": "Tiger_436294",
    "link_img": "https://live.staticflickr.com/65535/50024393937_4c4fd85749_o.jpg",
    "id_image": "Tiger_436294",
    "count_view": 0
  },
  {
    "link_thumb": "https://live.staticflickr.com/65535/50020104502_85a92a2957_n.jpg",
    "id_album": "-2144640780",
    "description": "Cow_441957",
    "title": "Cow_441957",
    "link_img": "https://live.staticflickr.com/65535/50020104502_44103c40f2_o.jpg",
    "id_image": "Cow_441957",
    "count_view": 0
  },
  {
    "link_thumb": "https://live.staticflickr.com/65535/50023311257_708aea7158_n.jpg",
    "id_album": "-353898617",
    "description": "Puppy_721925",
    "title": "Puppy_721925",
    "link_img": "https://live.staticflickr.com/65535/50023311257_66f43e46e3_o.jpg",
    "id_image": "Puppy_721925",
    "count_view": 0
  },
  {
    "link_thumb": "https://live.staticflickr.com/65535/50018803948_6f464e6c43_n.jpg",
    "id_album": "-462831703",
    "description": "Cat_861865",
    "title": "Cat_861865",
    "link_img": "https://live.staticflickr.com/65535/50018803948_04d7803e1f_o.jpg",
    "id_image": "Cat_861865",
    "count_view": 0
  },
  {
    "link_thumb": "https://live.staticflickr.com/65535/50022311208_a69c9849ce_n.jpg",
    "id_album": "1008910300",
    "description": "PolarBear_735336",
    "title": "PolarBear_735336",
    "link_img": "https://live.staticflickr.com/65535/50022311208_40185db714_o.jpg",
    "id_image": "PolarBear_735336",
    "count_view": 0
  },
  {
    "link_thumb": "https://live.staticflickr.com/65535/50021244177_5ec91429c7_n.jpg",
    "id_album": "-128218148",
    "description": "Fox_695280",
    "title": "Fox_695280",
    "link_img": "https://live.staticflickr.com/65535/50021244177_509c973e73_o.jpg",
    "id_image": "Fox_695280",
    "count_view": 0
  },
  {
    "link_thumb": "https://live.staticflickr.com/65535/50020498463_1682b03c48_n.jpg",
    "id_album": "704811092",
    "description": "FrenchBulldog_461839",
    "title": "FrenchBulldog_461839",
    "link_img": "https://live.staticflickr.com/65535/50020498463_4ee382d989_o.jpg",
    "id_image": "FrenchBulldog_461839",
    "count_view": 0
  },
  {
    "link_thumb": "https://live.staticflickr.com/65535/50018114721_f604667da8_n.jpg",
    "id_album": "-462831702",
    "description": "Cat_385198",
    "title": "Cat_385198",
    "link_img": "https://live.staticflickr.com/65535/50018114721_ae84597b31_o.jpg",
    "id_image": "Cat_385198",
    "count_view": 0
  },
  {
    "link_thumb": "https://live.staticflickr.com/65535/50022514258_5e31ab5895_n.jpg",
    "id_album": "-353898617",
    "description": "Puppy_728491",
    "title": "Puppy_728491",
    "link_img": "https://live.staticflickr.com/65535/50022514258_f60074c67e_o.jpg",
    "id_image": "Puppy_728491",
    "count_view": 0
  },
  {
    "link_thumb": "https://live.staticflickr.com/65535/50020605572_f12d5b05fa_n.jpg",
    "id_album": "-149330232",
    "description": "Dog_372728",
    "title": "Dog_372728",
    "link_img": "https://live.staticflickr.com/65535/50020605572_4c21eb43e8_o.jpg",
    "id_image": "Dog_372728",
    "count_view": 0
  },
  {
    "link_thumb": "https://live.staticflickr.com/65535/50017106406_4b7f5eac86_n.jpg",
    "id_album": "-422187261",
    "description": "Bear_945039",
    "title": "Bear_945039",
    "link_img": "https://live.staticflickr.com/65535/50017106406_a925169f7f_o.jpg",
    "id_image": "Bear_945039",
    "count_view": 0
  },
  {
    "link_thumb": "https://live.staticflickr.com/65535/50020890471_7e880a2f28_n.jpg",
    "id_album": "-1758557371",
    "description": "Flamingo_408456",
    "title": "Flamingo_408456",
    "link_img": "https://live.staticflickr.com/65535/50020890471_974f8c955e_o.jpg",
    "id_image": "Flamingo_408456",
    "count_view": 0
  },
  {
    "link_thumb": "https://live.staticflickr.com/65535/50021157803_85d51e630e_n.jpg",
    "id_album": "1658866795",
    "description": "Insect_434263",
    "title": "Insect_434263",
    "link_img": "https://live.staticflickr.com/65535/50021157803_b037cf558e_o.jpg",
    "id_image": "Insect_434263",
    "count_view": 0
  },
  {
    "link_thumb": "https://live.staticflickr.com/65535/50017174717_95de7daf24_n.jpg",
    "id_album": "523598895",
    "description": "Artistic_707379",
    "title": "Artistic_707379",
    "link_img": "https://live.staticflickr.com/65535/50017174717_ffff2c3a1a_o.jpg",
    "id_image": "Artistic_707379",
    "count_view": 0
  },
  {
    "link_thumb": "https://live.staticflickr.com/65535/50020483463_0741c0bbd2_n.jpg",
    "id_album": "-128218148",
    "description": "Fox_922537",
    "title": "Fox_922537",
    "link_img": "https://live.staticflickr.com/65535/50020483463_6cb01ec1b2_o.jpg",
    "id_image": "Fox_922537",
    "count_view": 0
  },
  {
    "link_thumb": "https://live.staticflickr.com/65535/50022942521_7a509f3752_n.jpg",
    "id_album": "-1431524681",
    "description": "Pug_262068",
    "title": "Pug_262068",
    "link_img": "https://live.staticflickr.com/65535/50022942521_735f315e55_o.jpg",
    "id_image": "Pug_262068",
    "count_view": 0
  },
  {
    "link_thumb": "https://live.staticflickr.com/65535/50020188626_1fb8f5970a_n.jpg",
    "id_album": "-149330232",
    "description": "Dog_261305",
    "title": "Dog_261305",
    "link_img": "https://live.staticflickr.com/65535/50020188626_3bb9d4af69_o.jpg",
    "id_image": "Dog_261305",
    "count_view": 0
  },
  {
    "link_thumb": "https://live.staticflickr.com/65535/50019438971_c869bb68ee_n.jpg",
    "id_album": "-462831703",
    "description": "Cat_912140",
    "title": "Cat_912140",
    "link_img": "https://live.staticflickr.com/65535/50019438971_af0ee070c7_o.jpg",
    "id_image": "Cat_912140",
    "count_view": 0
  },
  {
    "link_thumb": "https://live.staticflickr.com/65535/50019504287_e0a49d9500_n.jpg",
    "id_album": "-462831704",
    "description": "Cat_478023",
    "title": "Cat_478023",
    "link_img": "https://live.staticflickr.com/65535/50019504287_696f0011bc_o.jpg",
    "id_image": "Cat_478023",
    "count_view": 0
  },
  {
    "link_thumb": "https://live.staticflickr.com/65535/50022184341_d8a83a5fcc_n.jpg",
    "id_album": "-1720012921",
    "description": "Meerkat_415010",
    "title": "Meerkat_415010",
    "link_img": "https://live.staticflickr.com/65535/50022184341_e0393fa2eb_o.jpg",
    "id_image": "Meerkat_415010",
    "count_view": 0
  },
  {
    "link_thumb": "https://live.staticflickr.com/65535/50023543821_3180b241a4_n.jpg",
    "id_album": "-800019164",
    "description": "Snail_782580",
    "title": "Snail_782580",
    "link_img": "https://live.staticflickr.com/65535/50023543821_dae408f7e4_o.jpg",
    "id_image": "Snail_782580",
    "count_view": 0
  },
  {
    "link_thumb": "https://live.staticflickr.com/65535/50016973243_f9266995f7_n.jpg",
    "id_album": "782930701",
    "description": "BorderCollie_856961",
    "title": "BorderCollie_856961",
    "link_img": "https://live.staticflickr.com/65535/50016973243_af313f1f1d_o.jpg",
    "id_image": "BorderCollie_856961",
    "count_view": 0
  },
  {
    "link_thumb": "https://live.staticflickr.com/65535/50020571223_f4fd1b04cd_n.jpg",
    "id_album": "-462831704",
    "description": "Cat_556331",
    "title": "Cat_556331",
    "link_img": "https://live.staticflickr.com/65535/50020571223_841cf7f683_o.jpg",
    "id_image": "Cat_556331",
    "count_view": 0
  },
  {
    "link_thumb": "https://live.staticflickr.com/65535/50021646101_d351f7b88e_n.jpg",
    "id_album": "-737856092",
    "description": "Iguana_243029",
    "title": "Iguana_243029",
    "link_img": "https://live.staticflickr.com/65535/50021646101_3d437bd50b_o.jpg",
    "id_image": "Iguana_243029",
    "count_view": 0
  },
  {
    "link_thumb": "https://live.staticflickr.com/65535/50023738067_58a08c5751_n.jpg",
    "id_album": "-755466332",
    "description": "Sheep_476018",
    "title": "Sheep_476018",
    "link_img": "https://live.staticflickr.com/65535/50023738067_3a9571d8ef_o.jpg",
    "id_image": "Sheep_476018",
    "count_view": 0
  },
  {
    "link_thumb": "https://live.staticflickr.com/65535/50020493522_10e1e17266_n.jpg",
    "id_album": "-149330232",
    "description": "Dog_314478",
    "title": "Dog_314478",
    "link_img": "https://live.staticflickr.com/65535/50020493522_3ee9f88247_o.jpg",
    "id_image": "Dog_314478",
    "count_view": 0
  },
  {
    "link_thumb": "https://live.staticflickr.com/65535/50024054811_d6081d3eb1_n.jpg",
    "id_album": "405170427",
    "description": "Tiger_275703",
    "title": "Tiger_275703",
    "link_img": "https://live.staticflickr.com/65535/50024054811_d14135a9aa_o.jpg",
    "id_image": "Tiger_275703",
    "count_view": 0
  },
  {
    "link_thumb": "https://live.staticflickr.com/65535/50021280976_2251f8eaa8_n.jpg",
    "id_album": "-34696179",
    "description": "Gecko_821495",
    "title": "Gecko_821495",
    "link_img": "https://live.staticflickr.com/65535/50021280976_1a00deb279_o.jpg",
    "id_image": "Gecko_821495",
    "count_view": 0
  },
  {
    "link_thumb": "https://live.staticflickr.com/65535/50022100757_ca1de6a44b_n.jpg",
    "id_album": "-1882491687",
    "description": "Ladybug_366769",
    "title": "Ladybug_366769",
    "link_img": "https://live.staticflickr.com/65535/50022100757_25931bf1c9_o.jpg",
    "id_image": "Ladybug_366769",
    "count_view": 0
  },
  {
    "link_thumb": "https://live.staticflickr.com/65535/50016574388_7712a25f7e_n.jpg",
    "id_album": "-422187261",
    "description": "Bear_916097",
    "title": "Bear_916097",
    "link_img": "https://live.staticflickr.com/65535/50016574388_fef54bb07c_o.jpg",
    "id_image": "Bear_916097",
    "count_view": 0
  },
  {
    "link_thumb": "https://live.staticflickr.com/65535/50020531968_c0cd257dc1_n.jpg",
    "id_album": "844170697",
    "description": "Frog_741991",
    "title": "Frog_741991",
    "link_img": "https://live.staticflickr.com/65535/50020531968_5bb24d218d_o.jpg",
    "id_image": "Frog_741991",
    "count_view": 0
  },
  {
    "link_thumb": "https://live.staticflickr.com/65535/50021311973_7094458958_n.jpg",
    "id_album": "-1882491687",
    "description": "Ladybug_490673",
    "title": "Ladybug_490673",
    "link_img": "https://live.staticflickr.com/65535/50021311973_002a742042_o.jpg",
    "id_image": "Ladybug_490673",
    "count_view": 0
  },
  {
    "link_thumb": "https://live.staticflickr.com/65535/50019730171_4c6cd0d099_n.jpg",
    "id_album": "-1481843714",
    "description": "Cheetah_793683",
    "title": "Cheetah_793683",
    "link_img": "https://live.staticflickr.com/65535/50019730171_77c4d64ceb_o.jpg",
    "id_image": "Cheetah_793683",
    "count_view": 0
  },
  {
    "link_thumb": "https://live.staticflickr.com/65535/50018048536_5ea7d6d798_n.jpg",
    "id_album": "-462831702",
    "description": "Cat_358616",
    "title": "Cat_358616",
    "link_img": "https://live.staticflickr.com/65535/50018048536_90ffe0c71d_o.jpg",
    "id_image": "Cat_358616",
    "count_view": 0
  },
  {
    "link_thumb": "https://live.staticflickr.com/65535/50023701668_0a2649c382_n.jpg",
    "id_album": "405170427",
    "description": "Tiger_934396",
    "title": "Tiger_934396",
    "link_img": "https://live.staticflickr.com/65535/50023701668_f0841c23d1_o.jpg",
    "id_image": "Tiger_934396",
    "count_view": 0
  },
  {
    "link_thumb": "https://live.staticflickr.com/65535/50021847611_15a1003268_n.jpg",
    "id_album": "-1882491687",
    "description": "Ladybug_396483",
    "title": "Ladybug_396483",
    "link_img": "https://live.staticflickr.com/65535/50021847611_eee15ec6d9_o.jpg",
    "id_image": "Ladybug_396483",
    "count_view": 0
  },
  {
    "link_thumb": "https://live.staticflickr.com/65535/50017131992_2c706b089c_n.jpg",
    "id_album": "523598895",
    "description": "Artistic_159732",
    "title": "Artistic_159732",
    "link_img": "https://live.staticflickr.com/65535/50017131992_c953c5ebd6_o.jpg",
    "id_image": "Artistic_159732",
    "count_view": 0
  },
  {
    "link_thumb": "https://live.staticflickr.com/65535/50018281907_5b152813af_n.jpg",
    "id_album": "-462831702",
    "description": "Cat_346329",
    "title": "Cat_346329",
    "link_img": "https://live.staticflickr.com/65535/50018281907_1a8b26a22e_o.jpg",
    "id_image": "Cat_346329",
    "count_view": 0
  },
  {
    "link_thumb": "https://live.staticflickr.com/65535/50017624508_e78f09d560_n.jpg",
    "id_album": "-462831702",
    "description": "Cat_408000",
    "title": "Cat_408000",
    "link_img": "https://live.staticflickr.com/65535/50017624508_26d51d461f_o.jpg",
    "id_image": "Cat_408000",
    "count_view": 0
  },
  {
    "link_thumb": "https://live.staticflickr.com/65535/50023537963_e340c29391_n.jpg",
    "id_album": "405170427",
    "description": "Tiger_364876",
    "title": "Tiger_364876",
    "link_img": "https://live.staticflickr.com/65535/50023537963_f7d3cab58d_o.jpg",
    "id_image": "Tiger_364876",
    "count_view": 0
  },
  {
    "link_thumb": "https://live.staticflickr.com/65535/50016310998_3211e6b389_n.jpg",
    "id_album": "-1741290715",
    "description": "Ant_640704",
    "title": "Ant_640704",
    "link_img": "https://live.staticflickr.com/65535/50016310998_7d738d8b7b_o.jpg",
    "id_image": "Ant_640704",
    "count_view": 0
  },
  {
    "link_thumb": "https://live.staticflickr.com/65535/50018096057_a806c12841_n.jpg",
    "id_album": "-462831705",
    "description": "Cat_191468",
    "title": "Cat_191468",
    "link_img": "https://live.staticflickr.com/65535/50018096057_c7c3254a3f_o.jpg",
    "id_image": "Cat_191468",
    "count_view": 0
  },
  {
    "link_thumb": "https://live.staticflickr.com/65535/50023487997_753c278832_n.jpg",
    "id_album": "332874268",
    "description": "RedPanda_776083",
    "title": "RedPanda_776083",
    "link_img": "https://live.staticflickr.com/65535/50023487997_f397d0904c_o.jpg",
    "id_image": "RedPanda_776083",
    "count_view": 0
  },
  {
    "link_thumb": "https://live.staticflickr.com/65535/50021260511_307f6f34e1_n.jpg",
    "id_album": "-462831703",
    "description": "Cat_811498",
    "title": "Cat_811498",
    "link_img": "https://live.staticflickr.com/65535/50021260511_0c3f530346_o.jpg",
    "id_image": "Cat_811498",
    "count_view": 0
  },
  {
    "link_thumb": "https://live.staticflickr.com/65535/50018042122_c5c475bd67_n.jpg",
    "id_album": "-462831705",
    "description": "Cat_145272",
    "title": "Cat_145272",
    "link_img": "https://live.staticflickr.com/65535/50018042122_eac32d1b43_o.jpg",
    "id_image": "Cat_145272",
    "count_view": 0
  },
  {
    "link_thumb": "https://live.staticflickr.com/65535/50020178401_54e3cdbf74_n.jpg",
    "id_album": "-149330232",
    "description": "Dog_247395",
    "title": "Dog_247395",
    "link_img": "https://live.staticflickr.com/65535/50020178401_4ebef037ce_o.jpg",
    "id_image": "Dog_247395",
    "count_view": 0
  },
  {
    "link_thumb": "https://live.staticflickr.com/65535/50023348127_9c0e68ae12_n.jpg",
    "id_album": "-1940643173",
    "description": "Rabbit_229572",
    "title": "Rabbit_229572",
    "link_img": "https://live.staticflickr.com/65535/50023348127_6de317b3a3_o.jpg",
    "id_image": "Rabbit_229572",
    "count_view": 0
  },
  {
    "link_thumb": "https://live.staticflickr.com/65535/50016366783_e3360d00d4_n.jpg",
    "id_album": "523598895",
    "description": "Artistic_307352",
    "title": "Artistic_307352",
    "link_img": "https://live.staticflickr.com/65535/50016366783_9d0da02bb7_o.jpg",
    "id_image": "Artistic_307352",
    "count_view": 0
  },
  {
    "link_thumb": "https://live.staticflickr.com/65535/50024809967_295ce3e0c3_n.jpg",
    "id_album": "-709711865",
    "description": "Wolf_835195",
    "title": "Wolf_835195",
    "link_img": "https://live.staticflickr.com/65535/50024809967_e70daffc36_o.jpg",
    "id_image": "Wolf_835195",
    "count_view": 0
  },
  {
    "link_thumb": "https://live.staticflickr.com/65535/50019518186_b3e3e31a39_n.jpg",
    "id_album": "-462831703",
    "description": "Cat_956627",
    "title": "Cat_956627",
    "link_img": "https://live.staticflickr.com/65535/50019518186_b6b51e1d9a_o.jpg",
    "id_image": "Cat_956627",
    "count_view": 0
  },
  {
    "link_thumb": "https://live.staticflickr.com/65535/50023108086_7be2d457fa_n.jpg",
    "id_album": "-1940643173",
    "description": "Rabbit_427012",
    "title": "Rabbit_427012",
    "link_img": "https://live.staticflickr.com/65535/50023108086_16e367bfaa_o.jpg",
    "id_image": "Rabbit_427012",
    "count_view": 0
  },
  {
    "link_thumb": "https://live.staticflickr.com/65535/50018096392_bbf63e577a_n.jpg",
    "id_album": "-462831705",
    "description": "Cat_191491",
    "title": "Cat_191491",
    "link_img": "https://live.staticflickr.com/65535/50018096392_6821033af6_o.jpg",
    "id_image": "Cat_191491",
    "count_view": 0
  },
  {
    "link_thumb": "https://live.staticflickr.com/65535/50021072817_0b03ec121a_n.jpg",
    "id_album": "822895535",
    "description": "Falcon_572938",
    "title": "Falcon_572938",
    "link_img": "https://live.staticflickr.com/65535/50021072817_d2a3b407c1_o.jpg",
    "id_image": "Falcon_572938",
    "count_view": 0
  },
  {
    "link_thumb": "https://live.staticflickr.com/65535/50017956142_0f12877803_n.jpg",
    "id_album": "-401151552",
    "description": "Butterfly_926315",
    "title": "Butterfly_926315",
    "link_img": "https://live.staticflickr.com/65535/50017956142_e0576d5a6c_o.jpg",
    "id_image": "Butterfly_926315",
    "count_view": 0
  },
  {
    "link_thumb": "https://live.staticflickr.com/65535/50019173256_78eec0f259_n.jpg",
    "id_album": "-462831702",
    "description": "Cat_426728",
    "title": "Cat_426728",
    "link_img": "https://live.staticflickr.com/65535/50019173256_fedc1783c8_o.jpg",
    "id_image": "Cat_426728",
    "count_view": 0
  },
  {
    "link_thumb": "https://live.staticflickr.com/65535/50017884917_6690005a3d_n.jpg",
    "id_album": "-401151552",
    "description": "Butterfly_544170",
    "title": "Butterfly_544170",
    "link_img": "https://live.staticflickr.com/65535/50017884917_fcabf6144f_o.jpg",
    "id_image": "Butterfly_544170",
    "count_view": 0
  },
  {
    "link_thumb": "https://live.staticflickr.com/65535/50016432763_c279860dc6_n.jpg",
    "id_album": "231236068",
    "description": "BaldEagle_499471",
    "title": "BaldEagle_499471",
    "link_img": "https://live.staticflickr.com/65535/50016432763_9c1e52a6ae_o.jpg",
    "id_image": "BaldEagle_499471",
    "count_view": 0
  },
  {
    "link_thumb": "https://live.staticflickr.com/65535/50020014027_8d7cc865d9_n.jpg",
    "id_album": "791455625",
    "description": "Chipmunk_344994",
    "title": "Chipmunk_344994",
    "link_img": "https://live.staticflickr.com/65535/50020014027_0afa0e15f1_o.jpg",
    "id_image": "Chipmunk_344994",
    "count_view": 0
  },
  {
    "link_thumb": "https://live.staticflickr.com/65535/50021844096_f702e53206_n.jpg",
    "id_album": "-1882491687",
    "description": "Ladybug_347506",
    "title": "Ladybug_347506",
    "link_img": "https://live.staticflickr.com/65535/50021844096_c922b6b0c7_o.jpg",
    "id_image": "Ladybug_347506",
    "count_view": 0
  },
  {
    "link_thumb": "https://live.staticflickr.com/65535/50021772721_dabe614b3e_n.jpg",
    "id_album": "1562047127",
    "description": "Jellyfish_683480",
    "title": "Jellyfish_683480",
    "link_img": "https://live.staticflickr.com/65535/50021772721_49d4e75b53_o.jpg",
    "id_image": "Jellyfish_683480",
    "count_view": 0
  },
  {
    "link_thumb": "https://live.staticflickr.com/65535/50016827861_8a5141dd75_n.jpg",
    "id_album": "-229810103",
    "description": "AmericanBison_764753",
    "title": "AmericanBison_764753",
    "link_img": "https://live.staticflickr.com/65535/50016827861_6776b3a0be_o.jpg",
    "id_image": "AmericanBison_764753",
    "count_view": 0
  },
  {
    "link_thumb": "https://live.staticflickr.com/65535/50020493708_4cc57c2052_n.jpg",
    "id_album": "-128218148",
    "description": "Fox_993870",
    "title": "Fox_993870",
    "link_img": "https://live.staticflickr.com/65535/50020493708_c25473a3c6_o.jpg",
    "id_image": "Fox_993870",
    "count_view": 0
  },
  {
    "link_thumb": "https://live.staticflickr.com/65535/50020238307_aa371f7e4a_n.jpg",
    "id_album": "1903411565",
    "description": "Deer_201112",
    "title": "Deer_201112",
    "link_img": "https://live.staticflickr.com/65535/50020238307_007a800a4e_o.jpg",
    "id_image": "Deer_201112",
    "count_view": 0
  },
  {
    "link_thumb": "https://live.staticflickr.com/65535/50019474207_5149c4e2d0_n.jpg",
    "id_album": "-462831704",
    "description": "Cat_447292",
    "title": "Cat_447292",
    "link_img": "https://live.staticflickr.com/65535/50019474207_659091dec9_o.jpg",
    "id_image": "Cat_447292",
    "count_view": 0
  },
  {
    "link_thumb": "https://live.staticflickr.com/65535/50020296686_5974fb6069_n.jpg",
    "id_album": "-149330232",
    "description": "Dog_349134",
    "title": "Dog_349134",
    "link_img": "https://live.staticflickr.com/65535/50020296686_c2d833f282_o.jpg",
    "id_image": "Dog_349134",
    "count_view": 0
  },
  {
    "link_thumb": "https://live.staticflickr.com/65535/50021246482_dbec80ced4_n.jpg",
    "id_album": "-128218148",
    "description": "Fox_709903",
    "title": "Fox_709903",
    "link_img": "https://live.staticflickr.com/65535/50021246482_911ed2270b_o.jpg",
    "id_image": "Fox_709903",
    "count_view": 0
  },
  {
    "link_thumb": "https://live.staticflickr.com/65535/50016638348_cc2c7bd39e_n.jpg",
    "id_album": "1699594607",
    "description": "Bee_870582",
    "title": "Bee_870582",
    "link_img": "https://live.staticflickr.com/65535/50016638348_14178b08dd_o.jpg",
    "id_image": "Bee_870582",
    "count_view": 0
  },
  {
    "link_thumb": "https://live.staticflickr.com/65535/50016956256_0e8b6255af_n.jpg",
    "id_album": "231236068",
    "description": "BaldEagle_403514",
    "title": "BaldEagle_403514",
    "link_img": "https://live.staticflickr.com/65535/50016956256_e1f02ed4e1_o.jpg",
    "id_image": "BaldEagle_403514",
    "count_view": 0
  },
  {
    "link_thumb": "https://live.staticflickr.com/65535/50018226232_f19372b531_n.jpg",
    "id_album": "-462831702",
    "description": "Cat_323675",
    "title": "Cat_323675",
    "link_img": "https://live.staticflickr.com/65535/50018226232_fb1c931cdd_o.jpg",
    "id_image": "Cat_323675",
    "count_view": 0
  }
]