[
  {
    "link_thumb": "https://live.staticflickr.com/65535/50024295316_3b4e9ab0ee_n.jpg",
    "id_album": "901523298",
    "description": "TreeFrog_655355",
    "title": "TreeFrog_655355",
    "link_img": "https://live.staticflickr.com/65535/50024295316_ba0fc1afdb_o.jpg",
    "id_image": "TreeFrog_655355",
    "count_view": 0
  },
  {
    "link_thumb": "https://live.staticflickr.com/65535/50019226496_eaed6437b1_n.jpg",
    "id_album": "-462831704",
    "description": "Cat_456983",
    "title": "Cat_456983",
    "link_img": "https://live.staticflickr.com/65535/50019226496_0a9992c103_o.jpg",
    "id_image": "Cat_456983",
    "count_view": 0
  },
  {
    "link_thumb": "https://live.staticflickr.com/65535/50019386623_06fd61a94d_n.jpg",
    "id_album": "1273365283",
    "description": "Cute_212382",
    "title": "Cute_212382",
    "link_img": "https://live.staticflickr.com/65535/50019386623_21dfb9d95f_o.jpg",
    "id_image": "Cute_212382",
    "count_view": 0
  },
  {
    "link_thumb": "https://live.staticflickr.com/65535/50017641811_1061f799a0_n.jpg",
    "id_album": "-401151552",
    "description": "Butterfly_685282",
    "title": "Butterfly_685282",
    "link_img": "https://live.staticflickr.com/65535/50017641811_b65b8596e2_o.jpg",
    "id_image": "Butterfly_685282",
    "count_view": 0
  },
  {
    "link_thumb": "https://live.staticflickr.com/65535/50017337578_a6cc405224_n.jpg",
    "id_album": "-462831705",
    "description": "Cat_216793",
    "title": "Cat_216793",
    "link_img": "https://live.staticflickr.com/65535/50017337578_85312e0751_o.jpg",
    "id_image": "Cat_216793",
    "count_view": 0
  },
  {
    "link_thumb": "https://live.staticflickr.com/65535/50017811896_d28845aca5_n.jpg",
    "id_album": "-462831705",
    "description": "Cat_174587",
    "title": "Cat_174587",
    "link_img": "https://live.staticflickr.com/65535/50017811896_d8f593c148_o.jpg",
    "id_image": "Cat_174587",
    "count_view": 0
  },
  {
    "link_thumb": "https://live.staticflickr.com/65535/50022550322_d6a115483d_n.jpg",
    "id_album": "1957967135",
    "description": "Mouse_431069",
    "title": "Mouse_431069",
    "link_img": "https://live.staticflickr.com/65535/50022550322_ce8a0a8532_o.jpg",
    "id_image": "Mouse_431069",
    "count_view": 0
  },
  {
    "link_thumb": "https://live.staticflickr.com/65535/50019850306_4a8986ac7d_n.jpg",
    "id_album": "-2144640780",
    "description": "Cow_504667",
    "title": "Cow_504667",
    "link_img": "https://live.staticflickr.com/65535/50019850306_84673ebaf0_o.jpg",
    "id_image": "Cow_504667",
    "count_view": 0
  },
  {
    "link_thumb": "https://live.staticflickr.com/65535/50017383873_9768ca6b90_n.jpg",
    "id_album": "-462831705",
    "description": "Cat_261184",
    "title": "Cat_261184",
    "link_img": "https://live.staticflickr.com/65535/50017383873_8ae974450d_o.jpg",
    "id_image": "Cat_261184",
    "count_view": 0
  },
  {
    "link_thumb": "https://live.staticflickr.com/65535/50021120628_06d3babea6_n.jpg",
    "id_album": "1658866795",
    "description": "Insect_327744",
    "title": "Insect_327744",
    "link_img": "https://live.staticflickr.com/65535/50021120628_1dae29c535_o.jpg",
    "id_image": "Insect_327744",
    "count_view": 0
  },
  {
    "link_thumb": "https://live.staticflickr.com/65535/50018887918_46c69030cc_n.jpg",
    "id_album": "-462831703",
    "description": "Cat_901892",
    "title": "Cat_901892",
    "link_img": "https://live.staticflickr.com/65535/50018887918_5ca4277286_o.jpg",
    "id_image": "Cat_901892",
    "count_view": 0
  },
  {
    "link_thumb": "https://live.staticflickr.com/65535/50016371773_c129521dd4_n.jpg",
    "id_album": "523598895",
    "description": "Artistic_349114",
    "title": "Artistic_349114",
    "link_img": "https://live.staticflickr.com/65535/50016371773_cdb90901af_o.jpg",
    "id_image": "Artistic_349114",
    "count_view": 0
  },
  {
    "link_thumb": "https://live.staticflickr.com/65535/50022659793_531710e629_n.jpg",
    "id_album": "332874268",
    "description": "RedPanda_276204",
    "title": "RedPanda_276204",
    "link_img": "https://live.staticflickr.com/65535/50022659793_1becb5c1ae_o.jpg",
    "id_image": "RedPanda_276204",
    "count_view": 0
  },
  {
    "link_thumb": "https://live.staticflickr.com/65535/50020958896_0ece2f83af_n.jpg",
    "id_album": "-128218148",
    "description": "Fox_386688",
    "title": "Fox_386688",
    "link_img": "https://live.staticflickr.com/65535/50020958896_62e012f150_o.jpg",
    "id_image": "Fox_386688",
    "count_view": 0
  },
  {
    "link_thumb": "https://live.staticflickr.com/65535/50021887716_91c14fb3ac_n.jpg",
    "id_album": "1392348450",
    "description": "Leopard_209936",
    "title": "Leopard_209936",
    "link_img": "https://live.staticflickr.com/65535/50021887716_9bd8643d33_o.jpg",
    "id_image": "Leopard_209936",
    "count_view": 0
  },
  {
    "link_thumb": "https://live.staticflickr.com/65535/50019898798_fee8bb654c_n.jpg",
    "id_album": "-149330231",
    "description": "Dog_464836",
    "title": "Dog_464836",
    "link_img": "https://live.staticflickr.com/65535/50019898798_faf5c9e97f_o.jpg",
    "id_image": "Dog_464836",
    "count_view": 0
  },
  {
    "link_thumb": "https://live.staticflickr.com/65535/50020780807_9d4632c0be_n.jpg",
    "id_album": "-149330231",
    "description": "Dog_856013",
    "title": "Dog_856013",
    "link_img": "https://live.staticflickr.com/65535/50020780807_bcbb85db74_o.jpg",
    "id_image": "Dog_856013",
    "count_view": 0
  },
  {
    "link_thumb": "https://live.staticflickr.com/65535/50022654998_bf7f12e4ee_n.jpg",
    "id_album": "-1862965835",
    "description": "RedEyedTreeFrog_901732",
    "title": "RedEyedTreeFrog_901732",
    "link_img": "https://live.staticflickr.com/65535/50022654998_a699d0660d_o.jpg",
    "id_image": "RedEyedTreeFrog_901732",
    "count_view": 0
  },
  {
    "link_thumb": "https://live.staticflickr.com/65535/50022060101_9ed4c49bdb_n.jpg",
    "id_album": "416744915",
    "description": "Lion_786443",
    "title": "Lion_786443",
    "link_img": "https://live.staticflickr.com/65535/50022060101_e92a24e36b_o.jpg",
    "id_image": "Lion_786443",
    "count_view": 0
  },
  {
    "link_thumb": "https://live.staticflickr.com/65535/50351998128_76f18ccb46_n.jpg",
    "id_album": "-462831702",
    "description": "Cat_163691",
    "title": "Cat_163691",
    "link_img": "https://live.staticflickr.com/65535/50351998128_f73a773e97_o.jpg",
    "id_image": "Cat_163691",
    "count_view": 0
  },
  {
    "link_thumb": "https://live.staticflickr.com/65535/50020832103_028b4f6168_n.jpg",
    "id_album": "2060159334",
    "description": "GoldenRetriever_986369",
    "title": "GoldenRetriever_986369",
    "link_img": "https://live.staticflickr.com/65535/50020832103_c10c409869_o.jpg",
    "id_image": "GoldenRetriever_986369",
    "count_view": 0
  },
  {
    "link_thumb": "https://live.staticflickr.com/65535/50018161017_bbee29be18_n.jpg",
    "id_album": "-462831705",
    "description": "Cat_245829",
    "title": "Cat_245829",
    "link_img": "https://live.staticflickr.com/65535/50018161017_c828542014_o.jpg",
    "id_image": "Cat_245829",
    "count_view": 0
  },
  {
    "link_thumb": "https://live.staticflickr.com/65535/50018033982_527dd550c5_n.jpg",
    "id_album": "-462831705",
    "description": "Cat_117572",
    "title": "Cat_117572",
    "link_img": "https://live.staticflickr.com/65535/50018033982_dd86808567_o.jpg",
    "id_image": "Cat_117572",
    "count_view": 0
  },
  {
    "link_thumb": "https://live.staticflickr.com/65535/50017339808_48eabfface_n.jpg",
    "id_album": "-462831705",
    "description": "Cat_218075",
    "title": "Cat_218075",
    "link_img": "https://live.staticflickr.com/65535/50017339808_55a056f955_o.jpg",
    "id_image": "Cat_218075",
    "count_view": 0
  },
  {
    "link_thumb": "https://live.staticflickr.com/65535/50022134483_9e969e00e4_n.jpg",
    "id_album": "392248205",
    "description": "Penguin_108593",
    "title": "Penguin_108593",
    "link_img": "https://live.staticflickr.com/65535/50022134483_cac483a145_o.jpg",
    "id_image": "Penguin_108593",
    "count_view": 0
  },
  {
    "link_thumb": "https://live.staticflickr.com/65535/50021301833_df7c38dfc6_n.jpg",
    "id_album": "-1882491687",
    "description": "Ladybug_343157",
    "title": "Ladybug_343157",
    "link_img": "https://live.staticflickr.com/65535/50021301833_fb0a396504_o.jpg",
    "id_image": "Ladybug_343157",
    "count_view": 0
  },
  {
    "link_thumb": "https://live.staticflickr.com/65535/50023739282_4764d70ed7_n.jpg",
    "id_album": "-755466332",
    "description": "Sheep_492209",
    "title": "Sheep_492209",
    "link_img": "https://live.staticflickr.com/65535/50023739282_7d09fe00a8_o.jpg",
    "id_image": "Sheep_492209",
    "count_view": 0
  },
  {
    "link_thumb": "https://live.staticflickr.com/65535/50017088711_5c82c8505e_n.jpg",
    "id_album": "-422187261",
    "description": "Bear_855711",
    "title": "Bear_855711",
    "link_img": "https://live.staticflickr.com/65535/50017088711_8e0b0d8de5_o.jpg",
    "id_image": "Bear_855711",
    "count_view": 0
  },
  {
    "link_thumb": "https://live.staticflickr.com/65535/50021948702_0ac4dabf40_n.jpg",
    "id_album": "1658866795",
    "description": "Insect_404806",
    "title": "Insect_404806",
    "link_img": "https://live.staticflickr.com/65535/50021948702_67fcf92034_o.jpg",
    "id_image": "Insect_404806",
    "count_view": 0
  },
  {
    "link_thumb": "https://live.staticflickr.com/65535/50018308192_6ab1de7b57_n.jpg",
    "id_album": "-462831702",
    "description": "Cat_358344",
    "title": "Cat_358344",
    "link_img": "https://live.staticflickr.com/65535/50018308192_c8ec664861_o.jpg",
    "id_image": "Cat_358344",
    "count_view": 0
  },
  {
    "link_thumb": "https://live.staticflickr.com/65535/50021662956_1f610512f0_n.jpg",
    "id_album": "1658866795",
    "description": "Insect_303840",
    "title": "Insect_303840",
    "link_img": "https://live.staticflickr.com/65535/50021662956_68b2308771_o.jpg",
    "id_image": "Insect_303840",
    "count_view": 0
  },
  {
    "link_thumb": "https://live.staticflickr.com/65535/50019995932_594d65ae0c_n.jpg",
    "id_album": "-1481843714",
    "description": "Cheetah_997489",
    "title": "Cheetah_997489",
    "link_img": "https://live.staticflickr.com/65535/50019995932_c1029334d4_o.jpg",
    "id_image": "Cheetah_997489",
    "count_view": 0
  },
  {
    "link_thumb": "https://live.staticflickr.com/65535/50021667882_fa34dcbbe3_n.jpg",
    "id_album": "109779448",
    "description": "Hare_433435",
    "title": "Hare_433435",
    "link_img": "https://live.staticflickr.com/65535/50021667882_208cc8cbde_o.jpg",
    "id_image": "Hare_433435",
    "count_view": 0
  },
  {
    "link_thumb": "https://live.staticflickr.com/65535/50020217338_d8c59205cc_n.jpg",
    "id_album": "1270947998",
    "description": "Elephant_382525",
    "title": "Elephant_382525",
    "link_img": "https://live.staticflickr.com/65535/50020217338_3581a3ae8e_o.jpg",
    "id_image": "Elephant_382525",
    "count_view": 0
  },
  {
    "link_thumb": "https://live.staticflickr.com/65535/50019079843_9a96d43401_n.jpg",
    "id_album": "-420782796",
    "description": "Caterpillar_574450",
    "title": "Caterpillar_574450",
    "link_img": "https://live.staticflickr.com/65535/50019079843_3f782818b6_o.jpg",
    "id_image": "Caterpillar_574450",
    "count_view": 0
  },
  {
    "link_thumb": "https://live.staticflickr.com/65535/50016958711_3aa02b9616_n.jpg",
    "id_album": "231236068",
    "description": "BaldEagle_443233",
    "title": "BaldEagle_443233",
    "link_img": "https://live.staticflickr.com/65535/50016958711_69142bf9b2_o.jpg",
    "id_image": "BaldEagle_443233",
    "count_view": 0
  },
  {
    "link_thumb": "https://live.staticflickr.com/65535/50021822616_17c2ff8d06_n.jpg",
    "id_album": "771796001",
    "description": "Koala_688268",
    "title": "Koala_688268",
    "link_img": "https://live.staticflickr.com/65535/50021822616_0db33ed3b2_o.jpg",
    "id_image": "Koala_688268",
    "count_view": 0
  },
  {
    "link_thumb": "https://live.staticflickr.com/65535/50020714458_f7d97875ae_n.jpg",
    "id_album": "-462831703",
    "description": "Cat_798879",
    "title": "Cat_798879",
    "link_img": "https://live.staticflickr.com/65535/50020714458_c2b76583dc_o.jpg",
    "id_image": "Cat_798879",
    "count_view": 0
  },
  {
    "link_thumb": "https://live.staticflickr.com/65535/50019640626_fbae98377f_n.jpg",
    "id_album": "-766919393",
    "description": "Chameleon_335063",
    "title": "Chameleon_335063",
    "link_img": "https://live.staticflickr.com/65535/50019640626_aa143df159_o.jpg",
    "id_image": "Chameleon_335063",
    "count_view": 0
  },
  {
    "link_thumb": "https://live.staticflickr.com/65535/50020722753_6bd7b3f7da_n.jpg",
    "id_album": "-462831703",
    "description": "Cat_819594",
    "title": "Cat_819594",
    "link_img": "https://live.staticflickr.com/65535/50020722753_d28dcbb485_o.jpg",
    "id_image": "Cat_819594",
    "count_view": 0
  },
  {
    "link_thumb": "https://live.staticflickr.com/65535/50022522421_bb56624781_n.jpg",
    "id_album": "-358592519",
    "description": "Panda_337702",
    "title": "Panda_337702",
    "link_img": "https://live.staticflickr.com/65535/50022522421_0b365137e2_o.jpg",
    "id_image": "Panda_337702",
    "count_view": 0
  },
  {
    "link_thumb": "https://live.staticflickr.com/65535/50023460552_7a7cd9fe28_n.jpg",
    "id_album": "332874268",
    "description": "RedPanda_331296",
    "title": "RedPanda_331296",
    "link_img": "https://live.staticflickr.com/65535/50023460552_5ca6e622bb_o.jpg",
    "id_image": "RedPanda_331296",
    "count_view": 0
  },
  {
    "link_thumb": "https://live.staticflickr.com/65535/50023680643_d078099b5e_n.jpg",
    "id_album": "405170427",
    "description": "Tiger_864405",
    "title": "Tiger_864405",
    "link_img": "https://live.staticflickr.com/65535/50023680643_3a6e6d0345_o.jpg",
    "id_image": "Tiger_864405",
    "count_view": 0
  },
  {
    "link_thumb": "https://live.staticflickr.com/65535/50022143822_1fdfba7860_n.jpg",
    "id_album": "1392348450",
    "description": "Leopard_209926",
    "title": "Leopard_209926",
    "link_img": "https://live.staticflickr.com/65535/50022143822_7bc24cde82_o.jpg",
    "id_image": "Leopard_209926",
    "count_view": 0
  },
  {
    "link_thumb": "https://live.staticflickr.com/65535/50021607577_39afbf18ee_n.jpg",
    "id_album": "2060159334",
    "description": "GoldenRetriever_651120",
    "title": "GoldenRetriever_651120",
    "link_img": "https://live.staticflickr.com/65535/50021607577_f8a1f70656_o.jpg",
    "id_image": "GoldenRetriever_651120",
    "count_view": 0
  },
  {
    "link_thumb": "https://live.staticflickr.com/65535/50016840566_994832ec05_n.jpg",
    "id_album": "-1741290715",
    "description": "Ant_905014",
    "title": "Ant_905014",
    "link_img": "https://live.staticflickr.com/65535/50016840566_7fc5761029_o.jpg",
    "id_image": "Ant_905014",
    "count_view": 0
  },
  {
    "link_thumb": "https://live.staticflickr.com/65535/50020196473_5209e57744_n.jpg",
    "id_album": "1270947998",
    "description": "Elephant_116596",
    "title": "Elephant_116596",
    "link_img": "https://live.staticflickr.com/65535/50020196473_4655654667_o.jpg",
    "id_image": "Elephant_116596",
    "count_view": 0
  },
  {
    "link_thumb": "https://live.staticflickr.com/65535/50352573711_306f3d8e05_n.jpg",
    "id_album": "-462831703",
    "description": "Cat_503777",
    "title": "Cat_503777",
    "link_img": "https://live.staticflickr.com/65535/50352573711_fdc356fda5_o.jpg",
    "id_image": "Cat_503777",
    "count_view": 0
  },
  {
    "link_thumb": "https://live.staticflickr.com/65535/50023710188_68b8141f8c_n.jpg",
    "id_album": "405170427",
    "description": "Tiger_984207",
    "title": "Tiger_984207",
    "link_img": "https://live.staticflickr.com/65535/50023710188_1259f6c266_o.jpg",
    "id_image": "Tiger_984207",
    "count_view": 0
  },
  {
    "link_thumb": "https://live.staticflickr.com/65535/50021715992_1712f50811_n.jpg",
    "id_album": "-1933715543",
    "description": "Horse_128593",
    "title": "Horse_128593",
    "link_img": "https://live.staticflickr.com/65535/50021715992_b835272a71_o.jpg",
    "id_image": "Horse_128593",
    "count_view": 0
  },
  {
    "link_thumb": "https://live.staticflickr.com/65535/50017159891_78069d163e_n.jpg",
    "id_album": "1699594607",
    "description": "Bee_77166",
    "title": "Bee_77166",
    "link_img": "https://live.staticflickr.com/65535/50017159891_bb92c08096_o.jpg",
    "id_image": "Bee_77166",
    "count_view": 0
  },
  {
    "link_thumb": "https://live.staticflickr.com/65535/50020209723_8409ebb705_n.jpg",
    "id_album": "1270947998",
    "description": "Elephant_343107",
    "title": "Elephant_343107",
    "link_img": "https://live.staticflickr.com/65535/50020209723_f54a3bd70b_o.jpg",
    "id_image": "Elephant_343107",
    "count_view": 0
  },
  {
    "link_thumb": "https://live.staticflickr.com/65535/50021689276_cb0e47d39a_n.jpg",
    "id_album": "1658866795",
    "description": "Insect_404564",
    "title": "Insect_404564",
    "link_img": "https://live.staticflickr.com/65535/50021689276_106b436c8c_o.jpg",
    "id_image": "Insect_404564",
    "count_view": 0
  },
  {
    "link_thumb": "https://live.staticflickr.com/65535/50023521811_5777fb1110_n.jpg",
    "id_album": "-800019164",
    "description": "Snail_407689",
    "title": "Snail_407689",
    "link_img": "https://live.staticflickr.com/65535/50023521811_4d9aa344bd_o.jpg",
    "id_image": "Snail_407689",
    "count_view": 0
  },
  {
    "link_thumb": "https://live.staticflickr.com/65535/50023232676_62f7d80864_n.jpg",
    "id_album": "332874268",
    "description": "RedPanda_794950",
    "title": "RedPanda_794950",
    "link_img": "https://live.staticflickr.com/65535/50023232676_ff6bc6c589_o.jpg",
    "id_image": "RedPanda_794950",
    "count_view": 0
  },
  {
    "link_thumb": "https://live.staticflickr.com/65535/50021598706_12025948d4_n.jpg",
    "id_album": "773713550",
    "description": "Hoverfly_719403",
    "title": "Hoverfly_719403",
    "link_img": "https://live.staticflickr.com/65535/50021598706_c0e0283381_o.jpg",
    "id_image": "Hoverfly_719403",
    "count_view": 0
  },
  {
    "link_thumb": "https://live.staticflickr.com/65535/50017791282_f0a8770c32_n.jpg",
    "id_album": "-401151552",
    "description": "Butterfly_1002062",
    "title": "Butterfly_1002062",
    "link_img": "https://live.staticflickr.com/65535/50017791282_4054013d83_o.jpg",
    "id_image": "Butterfly_1002062",
    "count_view": 0
  },
  {
    "link_thumb": "https://live.staticflickr.com/65535/50351970153_af8e2f7406_n.jpg",
    "id_album": "-462831703",
    "description": "Cat_854761",
    "title": "Cat_854761",
    "link_img": "https://live.staticflickr.com/65535/50351970153_347d645336_o.jpg",
    "id_image": "Cat_854761",
    "count_view": 0
  },
  {
    "link_thumb": "https://live.staticflickr.com/65535/50021344062_d0a1f5aec3_n.jpg",
    "id_album": "-34696179",
    "description": "Gecko_346861",
    "title": "Gecko_346861",
    "link_img": "https://live.staticflickr.com/65535/50021344062_cf772ea0d8_o.jpg",
    "id_image": "Gecko_346861",
    "count_view": 0
  },
  {
    "link_thumb": "https://live.staticflickr.com/65535/50016685453_63d2fac069_n.jpg",
    "id_album": "-1846011410",
    "description": "Bird_208203",
    "title": "Bird_208203",
    "link_img": "https://live.staticflickr.com/65535/50016685453_064bb48cde_o.jpg",
    "id_image": "Bird_208203",
    "count_view": 0
  },
  {
    "link_thumb": "https://live.staticflickr.com/65535/50352398561_dd037fdd3e_n.jpg",
    "id_album": "-462831703",
    "description": "Cat_113902",
    "title": "Cat_113902",
    "link_img": "https://live.staticflickr.com/65535/50352398561_f50d5356d4_o.jpg",
    "id_image": "Cat_113902",
    "count_view": 0
  },
  {
    "link_thumb": "https://live.staticflickr.com/65535/50016386583_b338b69b98_n.jpg",
    "id_album": "523598895",
    "description": "Artistic_648222",
    "title": "Artistic_648222",
    "link_img": "https://live.staticflickr.com/65535/50016386583_b280d444c8_o.jpg",
    "id_image": "Artistic_648222",
    "count_view": 0
  },
  {
    "link_thumb": "https://live.staticflickr.com/65535/50020577146_7f58f82b28_n.jpg",
    "id_album": "-54509188",
    "description": "Dolphin_461194",
    "title": "Dolphin_461194",
    "link_img": "https://live.staticflickr.com/65535/50020577146_310699b749_o.jpg",
    "id_image": "Dolphin_461194",
    "count_view": 0
  },
  {
    "link_thumb": "https://live.staticflickr.com/65535/50017184463_c9f673f755_n.jpg",
    "id_album": "-401151552",
    "description": "Butterfly_931127",
    "title": "Butterfly_931127",
    "link_img": "https://live.staticflickr.com/65535/50017184463_0867a8f5e2_o.jpg",
    "id_image": "Butterfly_931127",
    "count_view": 0
  },
  {
    "link_thumb": "https://live.staticflickr.com/65535/50017052316_3329a78378_n.jpg",
    "id_album": "-422187261",
    "description": "Bear_524462",
    "title": "Bear_524462",
    "link_img": "https://live.staticflickr.com/65535/50017052316_25b1b2e94a_o.jpg",
    "id_image": "Bear_524462",
    "count_view": 0
  },
  {
    "link_thumb": "https://live.staticflickr.com/65535/50022621393_323d84f6d1_n.jpg",
    "id_album": "248289288",
    "description": "Raccoon_805237",
    "title": "Raccoon_805237",
    "link_img": "https://live.staticflickr.com/65535/50022621393_7b2536b0dc_o.jpg",
    "id_image": "Raccoon_805237",
    "count_view": 0
  },
  {
    "link_thumb": "https://live.staticflickr.com/65535/50020385621_d2f208c831_n.jpg",
    "id_album": "-149330231",
    "description": "Dog_408007",
    "title": "Dog_408007",
    "link_img": "https://live.staticflickr.com/65535/50020385621_f3ef91ed66_o.jpg",
    "id_image": "Dog_408007",
    "count_view": 0
  },
  {
    "link_thumb": "https://live.staticflickr.com/65535/50021296446_2d01996aa3_n.jpg",
    "id_album": "-405626519",
    "description": "GermanShepherd_709061",
    "title": "GermanShepherd_709061",
    "link_img": "https://live.staticflickr.com/65535/50021296446_136689cf65_o.jpg",
    "id_image": "GermanShepherd_709061",
    "count_view": 0
  },
  {
    "link_thumb": "https://live.staticflickr.com/65535/50021390428_bd06314e3c_n.jpg",
    "id_album": "1392348450",
    "description": "Leopard_529819",
    "title": "Leopard_529819",
    "link_img": "https://live.staticflickr.com/65535/50021390428_3e2936b3f9_o.jpg",
    "id_image": "Leopard_529819",
    "count_view": 0
  },
  {
    "link_thumb": "https://live.staticflickr.com/65535/50020172078_15dcc6eb62_n.jpg",
    "id_album": "-39098563",
    "description": "Eagle_407610",
    "title": "Eagle_407610",
    "link_img": "https://live.staticflickr.com/65535/50020172078_74e60165d6_o.jpg",
    "id_image": "Eagle_407610",
    "count_view": 0
  },
  {
    "link_thumb": "https://live.staticflickr.com/65535/50016895621_6675a307fd_n.jpg",
    "id_album": "523598895",
    "description": "Artistic_322549",
    "title": "Artistic_322549",
    "link_img": "https://live.staticflickr.com/65535/50016895621_574dd616de_o.jpg",
    "id_image": "Artistic_322549",
    "count_view": 0
  },
  {
    "link_thumb": "https://live.staticflickr.com/65535/50020418328_e5c0b4f6b6_n.jpg",
    "id_album": "-128218148",
    "description": "Fox_405708",
    "title": "Fox_405708",
    "link_img": "https://live.staticflickr.com/65535/50020418328_65d8457fb3_o.jpg",
    "id_image": "Fox_405708",
    "count_view": 0
  },
  {
    "link_thumb": "https://live.staticflickr.com/65535/50017280412_0780df34be_n.jpg",
    "id_album": "-422187261",
    "description": "Bear_323271",
    "title": "Bear_323271",
    "link_img": "https://live.staticflickr.com/65535/50017280412_1eefbd510b_o.jpg",
    "id_image": "Bear_323271",
    "count_view": 0
  },
  {
    "link_thumb": "https://live.staticflickr.com/65535/50021573623_23e83af06f_n.jpg",
    "id_album": "-656526748",
    "description": "Lizard_414370",
    "title": "Lizard_414370",
    "link_img": "https://live.staticflickr.com/65535/50021573623_e8bc7b891a_o.jpg",
    "id_image": "Lizard_414370",
    "count_view": 0
  },
  {
    "link_thumb": "https://live.staticflickr.com/65535/50021257136_fc7c594570_n.jpg",
    "id_album": "-462831703",
    "description": "Cat_800624",
    "title": "Cat_800624",
    "link_img": "https://live.staticflickr.com/65535/50021257136_e47b6d6370_o.jpg",
    "id_image": "Cat_800624",
    "count_view": 0
  },
  {
    "link_thumb": "https://live.staticflickr.com/65535/50021663111_7b5c3a91d1_n.jpg",
    "id_album": "1658866795",
    "description": "Insect_316345",
    "title": "Insect_316345",
    "link_img": "https://live.staticflickr.com/65535/50021663111_e0941cdfb9_o.jpg",
    "id_image": "Insect_316345",
    "count_view": 0
  },
  {
    "link_thumb": "https://live.staticflickr.com/65535/50016636883_627029b8c5_n.jpg",
    "id_album": "1699594607",
    "description": "Bee_820810",
    "title": "Bee_820810",
    "link_img": "https://live.staticflickr.com/65535/50016636883_79dcb280e4_o.jpg",
    "id_image": "Bee_820810",
    "count_view": 0
  },
  {
    "link_thumb": "https://live.staticflickr.com/65535/50016511443_baa633d6c5_n.jpg",
    "id_album": "-422187261",
    "description": "Bear_386979",
    "title": "Bear_386979",
    "link_img": "https://live.staticflickr.com/65535/50016511443_93184d5cc5_o.jpg",
    "id_image": "Bear_386979",
    "count_view": 0
  },
  {
    "link_thumb": "https://live.staticflickr.com/65535/50021350368_92668b6060_n.jpg",
    "id_album": "1392348450",
    "description": "Leopard_246393",
    "title": "Leopard_246393",
    "link_img": "https://live.staticflickr.com/65535/50021350368_18169b8358_o.jpg",
    "id_image": "Leopard_246393",
    "count_view": 0
  },
  {
    "link_thumb": "https://live.staticflickr.com/65535/50021410523_819b8eede1_n.jpg",
    "id_album": "1392348450",
    "description": "Leopard_857424",
    "title": "Leopard_857424",
    "link_img": "https://live.staticflickr.com/65535/50021410523_e2da6a2587_o.jpg",
    "id_image": "Leopard_857424",
    "count_view": 0
  },
  {
    "link_thumb": "https://live.staticflickr.com/65535/50022259436_f2112d6393_n.jpg",
    "id_album": "-784970094",
    "description": "Monkey_737411",
    "title": "Monkey_737411",
    "link_img": "https://live.staticflickr.com/65535/50022259436_1be2c11714_o.jpg",
    "id_image": "Monkey_737411",
    "count_view": 0
  },
  {
    "link_thumb": "https://live.staticflickr.com/65535/50017948322_5081a27820_n.jpg",
    "id_album": "-401151552",
    "description": "Butterfly_880813",
    "title": "Butterfly_880813",
    "link_img": "https://live.staticflickr.com/65535/50017948322_87cc6a138a_o.jpg",
    "id_image": "Butterfly_880813",
    "count_view": 0
  },
  {
    "link_thumb": "https://live.staticflickr.com/65535/50019549217_5316b2ee6f_n.jpg",
    "id_album": "-462831704",
    "description": "Cat_527452",
    "title": "Cat_527452",
    "link_img": "https://live.staticflickr.com/65535/50019549217_d223c76623_o.jpg",
    "id_image": "Cat_527452",
    "count_view": 0
  },
  {
    "link_thumb": "https://live.staticflickr.com/65535/50016752753_29d4f7ea97_n.jpg",
    "id_album": "-1846011410",
    "description": "Bird_367264",
    "title": "Bird_367264",
    "link_img": "https://live.staticflickr.com/65535/50016752753_2016174d66_o.jpg",
    "id_image": "Bird_367264",
    "count_view": 0
  },
  {
    "link_thumb": "https://live.staticflickr.com/65535/50022400457_fedd029ee6_n.jpg",
    "id_album": "1894617400",
    "description": "Lynx_390049",
    "title": "Lynx_390049",
    "link_img": "https://live.staticflickr.com/65535/50022400457_006acbebc8_o.jpg",
    "id_image": "Lynx_390049",
    "count_view": 0
  },
  {
    "link_thumb": "https://live.staticflickr.com/65535/50021694301_f8d5e94bbc_n.jpg",
    "id_album": "1658866795",
    "description": "Insect_404803",
    "title": "Insect_404803",
    "link_img": "https://live.staticflickr.com/65535/50021694301_1bf4f9277f_o.jpg",
    "id_image": "Insect_404803",
    "count_view": 0
  },
  {
    "link_thumb": "https://live.staticflickr.com/65535/50024431641_0c5b7697ca_n.jpg",
    "id_album": "766572659",
    "description": "WhiteTiger_326114",
    "title": "WhiteTiger_326114",
    "link_img": "https://live.staticflickr.com/65535/50024431641_b7edb26b3d_o.jpg",
    "id_image": "WhiteTiger_326114",
    "count_view": 0
  },
  {
    "link_thumb": "https://live.staticflickr.com/65535/50022559878_bdffa517c0_n.jpg",
    "id_album": "-1940643173",
    "description": "Rabbit_383348",
    "title": "Rabbit_383348",
    "link_img": "https://live.staticflickr.com/65535/50022559878_cf455d9b38_o.jpg",
    "id_image": "Rabbit_383348",
    "count_view": 0
  },
  {
    "link_thumb": "https://live.staticflickr.com/65535/50019176798_237e7f83f4_n.jpg",
    "id_album": "-1481843714",
    "description": "Cheetah_424849",
    "title": "Cheetah_424849",
    "link_img": "https://live.staticflickr.com/65535/50019176798_9633fb29d7_o.jpg",
    "id_image": "Cheetah_424849",
    "count_view": 0
  },
  {
    "link_thumb": "https://live.staticflickr.com/65535/50021897072_ee353f828a_n.jpg",
    "id_album": "-712553376",
    "description": "Husky_935024",
    "title": "Husky_935024",
    "link_img": "https://live.staticflickr.com/65535/50021897072_6604c115e5_o.jpg",
    "id_image": "Husky_935024",
    "count_view": 0
  },
  {
    "link_thumb": "https://live.staticflickr.com/65535/50024466022_fe278af85d_n.jpg",
    "id_album": "405170427",
    "description": "Tiger_74673",
    "title": "Tiger_74673",
    "link_img": "https://live.staticflickr.com/65535/50024466022_9ed6451732_o.jpg",
    "id_image": "Tiger_74673",
    "count_view": 0
  },
  {
    "link_thumb": "https://live.staticflickr.com/65535/50020610332_a8253140f0_n.jpg",
    "id_album": "-149330232",
    "description": "Dog_377293",
    "title": "Dog_377293",
    "link_img": "https://live.staticflickr.com/65535/50020610332_7de0639460_o.jpg",
    "id_image": "Dog_377293",
    "count_view": 0
  },
  {
    "link_thumb": "https://live.staticflickr.com/65535/50022114202_dc09132e20_n.jpg",
    "id_album": "-1882491687",
    "description": "Ladybug_603761",
    "title": "Ladybug_603761",
    "link_img": "https://live.staticflickr.com/65535/50022114202_756052532e_o.jpg",
    "id_image": "Ladybug_603761",
    "count_view": 0
  },
  {
    "link_thumb": "https://live.staticflickr.com/65535/50022623027_4d5ef85fa8_n.jpg",
    "id_album": "106807275",
    "description": "Otter_253272",
    "title": "Otter_253272",
    "link_img": "https://live.staticflickr.com/65535/50022623027_30aacc57e2_o.jpg",
    "id_image": "Otter_253272",
    "count_view": 0
  },
  {
    "link_thumb": "https://live.staticflickr.com/65535/50018018746_1dea763e4e_n.jpg",
    "id_album": "-462831702",
    "description": "Cat_343974",
    "title": "Cat_343974",
    "link_img": "https://live.staticflickr.com/65535/50018018746_16f9d0c5c8_o.jpg",
    "id_image": "Cat_343974",
    "count_view": 0
  },
  {
    "link_thumb": "https://live.staticflickr.com/65535/50351881318_e8ce5018fc_n.jpg",
    "id_album": "-462831703",
    "description": "Cat_511417",
    "title": "Cat_511417",
    "link_img": "https://live.staticflickr.com/65535/50351881318_11e41f8bc0_o.jpg",
    "id_image": "Cat_511417",
    "count_view": 0
  },
  {
    "link_thumb": "https://live.staticflickr.com/65535/50019298026_aaec15b467_n.jpg",
    "id_album": "-462831704",
    "description": "Cat_531485",
    "title": "Cat_531485",
    "link_img": "https://live.staticflickr.com/65535/50019298026_2c90f10c74_o.jpg",
    "id_image": "Cat_531485",
    "count_view": 0
  },
  {
    "link_thumb": "https://live.staticflickr.com/65535/50023468007_0a74b39159_n.jpg",
    "id_album": "332874268",
    "description": "RedPanda_405179",
    "title": "RedPanda_405179",
    "link_img": "https://live.staticflickr.com/65535/50023468007_56fde6c3a5_o.jpg",
    "id_image": "RedPanda_405179",
    "count_view": 0
  },
  {
    "link_thumb": "https://live.staticflickr.com/65535/50018364892_6856199a68_n.jpg",
    "id_album": "-462831702",
    "description": "Cat_378003",
    "title": "Cat_378003",
    "link_img": "https://live.staticflickr.com/65535/50018364892_0b8a407cdc_o.jpg",
    "id_image": "Cat_378003",
    "count_view": 0
  },
  {
    "link_thumb": "https://live.staticflickr.com/65535/50017325356_9c652ed6b4_n.jpg",
    "id_album": "-1846011410",
    "description": "Bird_426863",
    "title": "Bird_426863",
    "link_img": "https://live.staticflickr.com/65535/50017325356_8a4cb872de_o.jpg",
    "id_image": "Bird_426863",
    "count_view": 0
  },
  {
    "link_thumb": "https://live.staticflickr.com/65535/50019469376_22cd7648a5_n.jpg",
    "id_album": "-462831703",
    "description": "Cat_919152",
    "title": "Cat_919152",
    "link_img": "https://live.staticflickr.com/65535/50019469376_21b950cc4e_o.jpg",
    "id_image": "Cat_919152",
    "count_view": 0
  },
  {
    "link_thumb": "https://live.staticflickr.com/65535/50017418868_8b7500f1a4_n.jpg",
    "id_album": "-462831702",
    "description": "Cat_300671",
    "title": "Cat_300671",
    "link_img": "https://live.staticflickr.com/65535/50017418868_f694256b03_o.jpg",
    "id_image": "Cat_300671",
    "count_view": 0
  },
  {
    "link_thumb": "https://live.staticflickr.com/65535/50018032337_fcc52102d5_n.jpg",
    "id_album": "-462831705",
    "description": "Cat_117545",
    "title": "Cat_117545",
    "link_img": "https://live.staticflickr.com/65535/50018032337_4c1f1d7b31_o.jpg",
    "id_image": "Cat_117545",
    "count_view": 0
  },
  {
    "link_thumb": "https://live.staticflickr.com/65535/50352633287_667e37893e_n.jpg",
    "id_album": "-462831703",
    "description": "Cat_369032",
    "title": "Cat_369032",
    "link_img": "https://live.staticflickr.com/65535/50352633287_a9f77f625b_o.jpg",
    "id_image": "Cat_369032",
    "count_view": 0
  },
  {
    "link_thumb": "https://live.staticflickr.com/65535/50017202242_1c8d3651c8_n.jpg",
    "id_album": "390697200",
    "description": "AustralianShepherd_866167",
    "title": "AustralianShepherd_866167",
    "link_img": "https://live.staticflickr.com/65535/50017202242_bc5283c904_o.jpg",
    "id_image": "AustralianShepherd_866167",
    "count_view": 0
  },
  {
    "link_thumb": "https://live.staticflickr.com/65535/50017097517_13770ba18f_n.jpg",
    "id_album": "-1741290715",
    "description": "Ant_499037",
    "title": "Ant_499037",
    "link_img": "https://live.staticflickr.com/65535/50017097517_83a5ec1634_o.jpg",
    "id_image": "Ant_499037",
    "count_view": 0
  },
  {
    "link_thumb": "https://live.staticflickr.com/65535/50021198086_11187e898e_n.jpg",
    "id_album": "-462831704",
    "description": "Cat_715654",
    "title": "Cat_715654",
    "link_img": "https://live.staticflickr.com/65535/50021198086_3ce0737fde_o.jpg",
    "id_image": "Cat_715654",
    "count_view": 0
  },
  {
    "link_thumb": "https://live.staticflickr.com/65535/50021499061_5dac37aab0_n.jpg",
    "id_album": "-1933715543",
    "description": "Horse_349865",
    "title": "Horse_349865",
    "link_img": "https://live.staticflickr.com/65535/50021499061_962cdde476_o.jpg",
    "id_image": "Horse_349865",
    "count_view": 0
  },
  {
    "link_thumb": "https://live.staticflickr.com/65535/50021466733_2fa551bb62_n.jpg",
    "id_album": "416744915",
    "description": "Lion_396494",
    "title": "Lion_396494",
    "link_img": "https://live.staticflickr.com/65535/50021466733_f231332454_o.jpg",
    "id_image": "Lion_396494",
    "count_view": 0
  },
  {
    "link_thumb": "https://live.staticflickr.com/65535/50019616343_e8d3127024_n.jpg",
    "id_album": "-149330232",
    "description": "Dog_206604",
    "title": "Dog_206604",
    "link_img": "https://live.staticflickr.com/65535/50019616343_286b74a311_o.jpg",
    "id_image": "Dog_206604",
    "count_view": 0
  },
  {
    "link_thumb": "https://live.staticflickr.com/65535/50023340146_6a32ca8c3b_n.jpg",
    "id_album": "-419757464",
    "description": "SeaLife_265830",
    "title": "SeaLife_265830",
    "link_img": "https://live.staticflickr.com/65535/50023340146_f985ea7bbf_o.jpg",
    "id_image": "SeaLife_265830",
    "count_view": 0
  },
  {
    "link_thumb": "https://live.staticflickr.com/65535/50023462897_c01ae47f6d_n.jpg",
    "id_album": "332874268",
    "description": "RedPanda_355920",
    "title": "RedPanda_355920",
    "link_img": "https://live.staticflickr.com/65535/50023462897_6a3d130a26_o.jpg",
    "id_image": "RedPanda_355920",
    "count_view": 0
  },
  {
    "link_thumb": "https://live.staticflickr.com/65535/50016837931_80f5c4664d_n.jpg",
    "id_album": "-1741290715",
    "description": "Ant_574378",
    "title": "Ant_574378",
    "link_img": "https://live.staticflickr.com/65535/50016837931_b7d59ea8a1_o.jpg",
    "id_image": "Ant_574378",
    "count_view": 0
  },
  {
    "link_thumb": "https://live.staticflickr.com/65535/50022078377_0ce19210e0_n.jpg",
    "id_album": "771796001",
    "description": "Koala_731871",
    "title": "Koala_731871",
    "link_img": "https://live.staticflickr.com/65535/50022078377_b1a90b1af5_o.jpg",
    "id_image": "Koala_731871",
    "count_view": 0
  },
  {
    "link_thumb": "https://live.staticflickr.com/65535/50023293837_c137c61a6a_n.jpg",
    "id_album": "-353898617",
    "description": "Puppy_592845",
    "title": "Puppy_592845",
    "link_img": "https://live.staticflickr.com/65535/50023293837_76946bb8a0_o.jpg",
    "id_image": "Puppy_592845",
    "count_view": 0
  },
  {
    "link_thumb": "https://live.staticflickr.com/65535/50021421046_69ef6322c0_n.jpg",
    "id_album": "-1513987841",
    "description": "Hawk_406136",
    "title": "Hawk_406136",
    "link_img": "https://live.staticflickr.com/65535/50021421046_497cf74f1d_o.jpg",
    "id_image": "Hawk_406136",
    "count_view": 0
  },
  {
    "link_thumb": "https://live.staticflickr.com/65535/50023999863_327be92395_n.jpg",
    "id_album": "-709711865",
    "description": "Wolf_749836",
    "title": "Wolf_749836",
    "link_img": "https://live.staticflickr.com/65535/50023999863_497b441e75_o.jpg",
    "id_image": "Wolf_749836",
    "count_view": 0
  },
  {
    "link_thumb": "https://live.staticflickr.com/65535/50020624127_505972cd08_n.jpg",
    "id_album": "-149330231",
    "description": "Dog_390300",
    "title": "Dog_390300",
    "link_img": "https://live.staticflickr.com/65535/50020624127_86a2010c42_o.jpg",
    "id_image": "Dog_390300",
    "count_view": 0
  },
  {
    "link_thumb": "https://live.staticflickr.com/65535/50022209762_cd6861c357_n.jpg",
    "id_album": "1392348450",
    "description": "Leopard_840048",
    "title": "Leopard_840048",
    "link_img": "https://live.staticflickr.com/65535/50022209762_f8cf4699a9_o.jpg",
    "id_image": "Leopard_840048",
    "count_view": 0
  },
  {
    "link_thumb": "https://live.staticflickr.com/65535/50017492993_8c365c428e_n.jpg",
    "id_album": "-462831702",
    "description": "Cat_345386",
    "title": "Cat_345386",
    "link_img": "https://live.staticflickr.com/65535/50017492993_4d2067fc8a_o.jpg",
    "id_image": "Cat_345386",
    "count_view": 0
  },
  {
    "link_thumb": "https://live.staticflickr.com/65535/50020455003_50e76e6849_n.jpg",
    "id_album": "-128218148",
    "description": "Fox_741837",
    "title": "Fox_741837",
    "link_img": "https://live.staticflickr.com/65535/50020455003_4b6497cb45_o.jpg",
    "id_image": "Fox_741837",
    "count_view": 0
  },
  {
    "link_thumb": "https://live.staticflickr.com/65535/50019558028_8af8580967_n.jpg",
    "id_album": "297232732",
    "description": "Dinosaur_420428",
    "title": "Dinosaur_420428",
    "link_img": "https://live.staticflickr.com/65535/50019558028_39e58c3182_o.jpg",
    "id_image": "Dinosaur_420428",
    "count_view": 0
  },
  {
    "link_thumb": "https://live.staticflickr.com/65535/50021903832_b33c5a1fe7_n.jpg",
    "id_album": "-737856092",
    "description": "Iguana_440145",
    "title": "Iguana_440145",
    "link_img": "https://live.staticflickr.com/65535/50021903832_715606b5be_o.jpg",
    "id_image": "Iguana_440145",
    "count_view": 0
  },
  {
    "link_thumb": "https://live.staticflickr.com/65535/50023957517_991552a602_n.jpg",
    "id_album": "-359606417",
    "description": "Sparrow_294412",
    "title": "Sparrow_294412",
    "link_img": "https://live.staticflickr.com/65535/50023957517_494f4f4d98_o.jpg",
    "id_image": "Sparrow_294412",
    "count_view": 0
  },
  {
    "link_thumb": "https://live.staticflickr.com/65535/50021877386_c6f267cbd1_n.jpg",
    "id_album": "1918884325",
    "description": "Lemur_701181",
    "title": "Lemur_701181",
    "link_img": "https://live.staticflickr.com/65535/50021877386_8b20421ae7_o.jpg",
    "id_image": "Lemur_701181",
    "count_view": 0
  },
  {
    "link_thumb": "https://live.staticflickr.com/65535/50017164408_a63948d13c_n.jpg",
    "id_album": "-401151552",
    "description": "Butterfly_904909",
    "title": "Butterfly_904909",
    "link_img": "https://live.staticflickr.com/65535/50017164408_afd9710c08_o.jpg",
    "id_image": "Butterfly_904909",
    "count_view": 0
  },
  {
    "link_thumb": "https://live.staticflickr.com/65535/50351843953_0984b23251_n.jpg",
    "id_album": "-462831703",
    "description": "Cat_460126",
    "title": "Cat_460126",
    "link_img": "https://live.staticflickr.com/65535/50351843953_f623e6cd79_o.jpg",
    "id_image": "Cat_460126",
    "count_view": 0
  },
  {
    "link_thumb": "https://live.staticflickr.com/65535/50016645658_962d41d5db_n.jpg",
    "id_album": "172748811",
    "description": "Beeeater_341633",
    "title": "Beeeater_341633",
    "link_img": "https://live.staticflickr.com/65535/50016645658_1ab761e79b_o.jpg",
    "id_image": "Beeeater_341633",
    "count_view": 0
  },
  {
    "link_thumb": "https://live.staticflickr.com/65535/50020467551_eefbe9e7be_n.jpg",
    "id_album": "-149330231",
    "description": "Dog_599132",
    "title": "Dog_599132",
    "link_img": "https://live.staticflickr.com/65535/50020467551_511ce92dcc_o.jpg",
    "id_image": "Dog_599132",
    "count_view": 0
  },
  {
    "link_thumb": "https://live.staticflickr.com/65535/50022861736_33da29a800_n.jpg",
    "id_album": "1008910300",
    "description": "PolarBear_796454",
    "title": "PolarBear_796454",
    "link_img": "https://live.staticflickr.com/65535/50022861736_68c9f50bd6_o.jpg",
    "id_image": "PolarBear_796454",
    "count_view": 0
  },
  {
    "link_thumb": "https://live.staticflickr.com/65535/50022205242_bab945e78f_n.jpg",
    "id_album": "1392348450",
    "description": "Leopard_737447",
    "title": "Leopard_737447",
    "link_img": "https://live.staticflickr.com/65535/50022205242_35831dc023_o.jpg",
    "id_image": "Leopard_737447",
    "count_view": 0
  },
  {
    "link_thumb": "https://live.staticflickr.com/65535/50020484177_7e8dd2744d_n.jpg",
    "id_album": "-149330232",
    "description": "Dog_290325",
    "title": "Dog_290325",
    "link_img": "https://live.staticflickr.com/65535/50020484177_df9aa04926_o.jpg",
    "id_image": "Dog_290325",
    "count_view": 0
  },
  {
    "link_thumb": "https://live.staticflickr.com/65535/50021455607_2fb764283b_n.jpg",
    "id_album": "-462831705",
    "description": "Cat_72079",
    "title": "Cat_72079",
    "link_img": "https://live.staticflickr.com/65535/50021455607_6aff485836_o.jpg",
    "id_image": "Cat_72079",
    "count_view": 0
  },
  {
    "link_thumb": "https://live.staticflickr.com/65535/50019878538_35a6400ab2_n.jpg",
    "id_album": "-149330231",
    "description": "Dog_433639",
    "title": "Dog_433639",
    "link_img": "https://live.staticflickr.com/65535/50019878538_f613af6db0_o.jpg",
    "id_image": "Dog_433639",
    "count_view": 0
  },
  {
    "link_thumb": "https://live.staticflickr.com/65535/50020711871_2b31b6ce02_n.jpg",
    "id_album": "-39098563",
    "description": "Eagle_467760",
    "title": "Eagle_467760",
    "link_img": "https://live.staticflickr.com/65535/50020711871_1ea4cee1a0_o.jpg",
    "id_image": "Eagle_467760",
    "count_view": 0
  },
  {
    "link_thumb": "https://live.staticflickr.com/65535/50018269067_af6a06b426_n.jpg",
    "id_album": "-462831702",
    "description": "Cat_339418",
    "title": "Cat_339418",
    "link_img": "https://live.staticflickr.com/65535/50018269067_9997ac5ef8_o.jpg",
    "id_image": "Cat_339418",
    "count_view": 0
  },
  {
    "link_thumb": "https://live.staticflickr.com/65535/50021087441_59f10ca341_n.jpg",
    "id_album": "844170697",
    "description": "Frog_940163",
    "title": "Frog_940163",
    "link_img": "https://live.staticflickr.com/65535/50021087441_a1e83be611_o.jpg",
    "id_image": "Frog_940163",
    "count_view": 0
  },
  {
    "link_thumb": "https://live.staticflickr.com/65535/50021641726_5716093aba_n.jpg",
    "id_album": "-712553376",
    "description": "Husky_863638",
    "title": "Husky_863638",
    "link_img": "https://live.staticflickr.com/65535/50021641726_93359eb871_o.jpg",
    "id_image": "Husky_863638",
    "count_view": 0
  },
  {
    "link_thumb": "https://live.staticflickr.com/65535/50022747653_fbfe9efd1d_n.jpg",
    "id_album": "48367914",
    "description": "Rhino_456565",
    "title": "Rhino_456565",
    "link_img": "https://live.staticflickr.com/65535/50022747653_ea400554bd_o.jpg",
    "id_image": "Rhino_456565",
    "count_view": 0
  },
  {
    "link_thumb": "https://live.staticflickr.com/65535/50023093271_3023d30a0d_n.jpg",
    "id_album": "-1940643173",
    "description": "Rabbit_275692",
    "title": "Rabbit_275692",
    "link_img": "https://live.staticflickr.com/65535/50023093271_c12733df2f_o.jpg",
    "id_image": "Rabbit_275692",
    "count_view": 0
  },
  {
    "link_thumb": "https://live.staticflickr.com/65535/50017041278_ddd17da0f0_n.jpg",
    "id_album": "-401151552",
    "description": "Butterfly_352565",
    "title": "Butterfly_352565",
    "link_img": "https://live.staticflickr.com/65535/50017041278_5bc80fafff_o.jpg",
    "id_image": "Butterfly_352565",
    "count_view": 0
  },
  {
    "link_thumb": "https://live.staticflickr.com/65535/50017602166_55144a3bb2_n.jpg",
    "id_album": "-401151552",
    "description": "Butterfly_454126",
    "title": "Butterfly_454126",
    "link_img": "https://live.staticflickr.com/65535/50017602166_ff51c88cd7_o.jpg",
    "id_image": "Butterfly_454126",
    "count_view": 0
  },
  {
    "link_thumb": "https://live.staticflickr.com/65535/50018344122_95b44c78a5_n.jpg",
    "id_album": "-1741290715",
    "description": "Ant_506964",
    "title": "Ant_506964",
    "link_img": "https://live.staticflickr.com/65535/50018344122_dfd8fbe02c_o.jpg",
    "id_image": "Ant_506964",
    "count_view": 0
  },
  {
    "link_thumb": "https://live.staticflickr.com/65535/50020150952_41540a8f65_n.jpg",
    "id_album": "1475096665",
    "description": "Crocodile_431804",
    "title": "Crocodile_431804",
    "link_img": "https://live.staticflickr.com/65535/50020150952_c888b18b49_o.jpg",
    "id_image": "Crocodile_431804",
    "count_view": 0
  },
  {
    "link_thumb": "https://live.staticflickr.com/65535/50020552051_7b43bf118b_n.jpg",
    "id_album": "-149330231",
    "description": "Dog_968466",
    "title": "Dog_968466",
    "link_img": "https://live.staticflickr.com/65535/50020552051_a2cf35dac2_o.jpg",
    "id_image": "Dog_968466",
    "count_view": 0
  },
  {
    "link_thumb": "https://live.staticflickr.com/65535/50023272887_88bffe6548_n.jpg",
    "id_album": "-353898617",
    "description": "Puppy_536224",
    "title": "Puppy_536224",
    "link_img": "https://live.staticflickr.com/65535/50023272887_e557e10e0c_o.jpg",
    "id_image": "Puppy_536224",
    "count_view": 0
  },
  {
    "link_thumb": "https://live.staticflickr.com/65535/50023206168_78cbc9f0db_n.jpg",
    "id_album": "-1082521515",
    "description": "Spider_398741",
    "title": "Spider_398741",
    "link_img": "https://live.staticflickr.com/65535/50023206168_5938495d03_o.jpg",
    "id_image": "Spider_398741",
    "count_view": 0
  },
  {
    "link_thumb": "https://live.staticflickr.com/65535/50019694751_2e39fd73cc_n.jpg",
    "id_album": "-1481843714",
    "description": "Cheetah_352648",
    "title": "Cheetah_352648",
    "link_img": "https://live.staticflickr.com/65535/50019694751_119c22deab_o.jpg",
    "id_image": "Cheetah_352648",
    "count_view": 0
  },
  {
    "link_thumb": "https://live.staticflickr.com/65535/50021433136_b82742e102_n.jpg",
    "id_album": "1469520430",
    "description": "Hedgehog_534681",
    "title": "Hedgehog_534681",
    "link_img": "https://live.staticflickr.com/65535/50021433136_7b3cd69aa6_o.jpg",
    "id_image": "Hedgehog_534681",
    "count_view": 0
  },
  {
    "link_thumb": "https://live.staticflickr.com/65535/50019672642_2e0b1d4f50_n.jpg",
    "id_album": "-462831703",
    "description": "Cat_900689",
    "title": "Cat_900689",
    "link_img": "https://live.staticflickr.com/65535/50019672642_e304330097_o.jpg",
    "id_image": "Cat_900689",
    "count_view": 0
  },
  {
    "link_thumb": "https://live.staticflickr.com/65535/50016577658_dcf5b89d1c_n.jpg",
    "id_album": "-422187261",
    "description": "Bear_929280",
    "title": "Bear_929280",
    "link_img": "https://live.staticflickr.com/65535/50016577658_79e602208e_o.jpg",
    "id_image": "Bear_929280",
    "count_view": 0
  },
  {
    "link_thumb": "https://live.staticflickr.com/65535/50021241422_1282f1f2de_n.jpg",
    "id_album": "-128218148",
    "description": "Fox_676608",
    "title": "Fox_676608",
    "link_img": "https://live.staticflickr.com/65535/50021241422_3a9aa88a15_o.jpg",
    "id_image": "Fox_676608",
    "count_view": 0
  },
  {
    "link_thumb": "https://live.staticflickr.com/65535/50018645408_753239764d_n.jpg",
    "id_album": "-462831702",
    "description": "Cat_427147",
    "title": "Cat_427147",
    "link_img": "https://live.staticflickr.com/65535/50018645408_cb4d8e1a1d_o.jpg",
    "id_image": "Cat_427147",
    "count_view": 0
  },
  {
    "link_thumb": "https://live.staticflickr.com/65535/50021116178_053f54dab8_n.jpg",
    "id_album": "1658866795",
    "description": "Insect_207692",
    "title": "Insect_207692",
    "link_img": "https://live.staticflickr.com/65535/50021116178_9631f1e04b_o.jpg",
    "id_image": "Insect_207692",
    "count_view": 0
  },
  {
    "link_thumb": "https://live.staticflickr.com/65535/50017328451_3913baf100_n.jpg",
    "id_album": "-1846011410",
    "description": "Bird_430242",
    "title": "Bird_430242",
    "link_img": "https://live.staticflickr.com/65535/50017328451_6312f2d347_o.jpg",
    "id_image": "Bird_430242",
    "count_view": 0
  },
  {
    "link_thumb": "https://live.staticflickr.com/65535/50018965088_110435bbc2_n.jpg",
    "id_album": "-462831703",
    "description": "Cat_938153",
    "title": "Cat_938153",
    "link_img": "https://live.staticflickr.com/65535/50018965088_e665173f39_o.jpg",
    "id_image": "Cat_938153",
    "count_view": 0
  },
  {
    "link_thumb": "https://live.staticflickr.com/65535/50017947582_9f1ee413dc_n.jpg",
    "id_album": "-401151552",
    "description": "Butterfly_878280",
    "title": "Butterfly_878280",
    "link_img": "https://live.staticflickr.com/65535/50017947582_6d87bfa26d_o.jpg",
    "id_image": "Butterfly_878280",
    "count_view": 0
  },
  {
    "link_thumb": "https://live.staticflickr.com/65535/50018656973_23edcb01e4_n.jpg",
    "id_album": "-462831702",
    "description": "Cat_432481",
    "title": "Cat_432481",
    "link_img": "https://live.staticflickr.com/65535/50018656973_30601f2cab_o.jpg",
    "id_image": "Cat_432481",
    "count_view": 0
  },
  {
    "link_thumb": "https://live.staticflickr.com/65535/50023821327_10707b78fe_n.jpg",
    "id_album": "-1182356179",
    "description": "Snake_29080",
    "title": "Snake_29080",
    "link_img": "https://live.staticflickr.com/65535/50023821327_411e42563c_o.jpg",
    "id_image": "Snake_29080",
    "count_view": 0
  },
  {
    "link_thumb": "https://live.staticflickr.com/65535/50352475436_8e9026b048_n.jpg",
    "id_album": "-462831703",
    "description": "Cat_370097",
    "title": "Cat_370097",
    "link_img": "https://live.staticflickr.com/65535/50352475436_53a65257b8_o.jpg",
    "id_image": "Cat_370097",
    "count_view": 0
  },
  {
    "link_thumb": "https://live.staticflickr.com/65535/50023421447_e1199e4ddc_n.jpg",
    "id_album": "248289288",
    "description": "Raccoon_858151",
    "title": "Raccoon_858151",
    "link_img": "https://live.staticflickr.com/65535/50023421447_963c308c11_o.jpg",
    "id_image": "Raccoon_858151",
    "count_view": 0
  },
  {
    "link_thumb": "https://live.staticflickr.com/65535/50017747646_6f3cbccf0b_n.jpg",
    "id_album": "-462831705",
    "description": "Cat_103383",
    "title": "Cat_103383",
    "link_img": "https://live.staticflickr.com/65535/50017747646_c13e4eaccb_o.jpg",
    "id_image": "Cat_103383",
    "count_view": 0
  },
  {
    "link_thumb": "https://live.staticflickr.com/65535/50023722071_3a8cf88467_n.jpg",
    "id_album": "-1082521515",
    "description": "Spider_246204",
    "title": "Spider_246204",
    "link_img": "https://live.staticflickr.com/65535/50023722071_45888d9d05_o.jpg",
    "id_image": "Spider_246204",
    "count_view": 0
  },
  {
    "link_thumb": "https://live.staticflickr.com/65535/50023639598_605422d043_n.jpg",
    "id_album": "405170427",
    "description": "Tiger_598372",
    "title": "Tiger_598372",
    "link_img": "https://live.staticflickr.com/65535/50023639598_44889a88aa_o.jpg",
    "id_image": "Tiger_598372",
    "count_view": 0
  },
  {
    "link_thumb": "https://live.staticflickr.com/65535/50019181793_ae243d0682_n.jpg",
    "id_album": "-1481843714",
    "description": "Cheetah_458505",
    "title": "Cheetah_458505",
    "link_img": "https://live.staticflickr.com/65535/50019181793_7a891ce221_o.jpg",
    "id_image": "Cheetah_458505",
    "count_view": 0
  },
  {
    "link_thumb": "https://live.staticflickr.com/65535/50019734746_a8aed0795d_n.jpg",
    "id_album": "-1481843714",
    "description": "Cheetah_889341",
    "title": "Cheetah_889341",
    "link_img": "https://live.staticflickr.com/65535/50019734746_035dc55199_o.jpg",
    "id_image": "Cheetah_889341",
    "count_view": 0
  },
  {
    "link_thumb": "https://live.staticflickr.com/65535/50017348411_73c97ddc40_n.jpg",
    "id_album": "-1846011410",
    "description": "Bird_476559",
    "title": "Bird_476559",
    "link_img": "https://live.staticflickr.com/65535/50017348411_90d9b44252_o.jpg",
    "id_image": "Bird_476559",
    "count_view": 0
  },
  {
    "link_thumb": "https://live.staticflickr.com/65535/50021708426_dbec28044c_n.jpg",
    "id_album": "1658866795",
    "description": "Insect_585778",
    "title": "Insect_585778",
    "link_img": "https://live.staticflickr.com/65535/50021708426_f8dba6e507_o.jpg",
    "id_image": "Insect_585778",
    "count_view": 0
  },
  {
    "link_thumb": "https://live.staticflickr.com/65535/50022995086_f0d8263249_n.jpg",
    "id_album": "-353898617",
    "description": "Puppy_430216",
    "title": "Puppy_430216",
    "link_img": "https://live.staticflickr.com/65535/50022995086_b032a75c79_o.jpg",
    "id_image": "Puppy_430216",
    "count_view": 0
  },
  {
    "link_thumb": "https://live.staticflickr.com/65535/50017164973_9f67d4872e_n.jpg",
    "id_album": "-401151552",
    "description": "Butterfly_910273",
    "title": "Butterfly_910273",
    "link_img": "https://live.staticflickr.com/65535/50017164973_940603a674_o.jpg",
    "id_image": "Butterfly_910273",
    "count_view": 0
  },
  {
    "link_thumb": "https://live.staticflickr.com/65535/50017620521_b5ed00ba9f_n.jpg",
    "id_album": "-401151552",
    "description": "Butterfly_528790",
    "title": "Butterfly_528790",
    "link_img": "https://live.staticflickr.com/65535/50017620521_62c4a93ff4_o.jpg",
    "id_image": "Butterfly_528790",
    "count_view": 0
  },
  {
    "link_thumb": "https://live.staticflickr.com/65535/50019453913_4e539aaf6e_n.jpg",
    "id_album": "1903411565",
    "description": "Deer_267496",
    "title": "Deer_267496",
    "link_img": "https://live.staticflickr.com/65535/50019453913_03b32088dc_o.jpg",
    "id_image": "Deer_267496",
    "count_view": 0
  },
  {
    "link_thumb": "https://live.staticflickr.com/65535/50017989506_1226807511_n.jpg",
    "id_album": "-462831702",
    "description": "Cat_330494",
    "title": "Cat_330494",
    "link_img": "https://live.staticflickr.com/65535/50017989506_9bb43eb1f7_o.jpg",
    "id_image": "Cat_330494",
    "count_view": 0
  },
  {
    "link_thumb": "https://live.staticflickr.com/65535/50020546378_9317fb74cb_n.jpg",
    "id_album": "844170697",
    "description": "Frog_984669",
    "title": "Frog_984669",
    "link_img": "https://live.staticflickr.com/65535/50020546378_bf24508f58_o.jpg",
    "id_image": "Frog_984669",
    "count_view": 0
  },
  {
    "link_thumb": "https://live.staticflickr.com/65535/50023602766_619aecb8e5_n.jpg",
    "id_album": "-1182356179",
    "description": "Snake_587904",
    "title": "Snake_587904",
    "link_img": "https://live.staticflickr.com/65535/50023602766_a4d4fdec2f_o.jpg",
    "id_image": "Snake_587904",
    "count_view": 0
  },
  {
    "link_thumb": "https://live.staticflickr.com/65535/50023010536_943d1c1161_n.jpg",
    "id_album": "-353898617",
    "description": "Puppy_522512",
    "title": "Puppy_522512",
    "link_img": "https://live.staticflickr.com/65535/50023010536_42e051e92c_o.jpg",
    "id_image": "Puppy_522512",
    "count_view": 0
  },
  {
    "link_thumb": "https://live.staticflickr.com/65535/50016362908_fec56d1759_n.jpg",
    "id_album": "523598895",
    "description": "Artistic_272265",
    "title": "Artistic_272265",
    "link_img": "https://live.staticflickr.com/65535/50016362908_51744cc223_o.jpg",
    "id_image": "Artistic_272265",
    "count_view": 0
  },
  {
    "link_thumb": "https://live.staticflickr.com/65535/50020666786_164c56dca1_n.jpg",
    "id_album": "1168627767",
    "description": "Duck_656563",
    "title": "Duck_656563",
    "link_img": "https://live.staticflickr.com/65535/50020666786_f8bb927e80_o.jpg",
    "id_image": "Duck_656563",
    "count_view": 0
  },
  {
    "link_thumb": "https://live.staticflickr.com/65535/50017060851_4ba0afe9ef_n.jpg",
    "id_album": "-422187261",
    "description": "Bear_595632",
    "title": "Bear_595632",
    "link_img": "https://live.staticflickr.com/65535/50017060851_0bb0bd9331_o.jpg",
    "id_image": "Bear_595632",
    "count_view": 0
  },
  {
    "link_thumb": "https://live.staticflickr.com/65535/50018227202_2a8dffce7c_n.jpg",
    "id_album": "-462831702",
    "description": "Cat_323683",
    "title": "Cat_323683",
    "link_img": "https://live.staticflickr.com/65535/50018227202_b685c55d74_o.jpg",
    "id_image": "Cat_323683",
    "count_view": 0
  },
  {
    "link_thumb": "https://live.staticflickr.com/65535/50022817032_171fa35772_n.jpg",
    "id_album": "405592235",
    "description": "Parrot_225206",
    "title": "Parrot_225206",
    "link_img": "https://live.staticflickr.com/65535/50022817032_8886d4f07c_o.jpg",
    "id_image": "Parrot_225206",
    "count_view": 0
  },
  {
    "link_thumb": "https://live.staticflickr.com/65535/50019671353_6eddd27c59_n.jpg",
    "id_album": "-149330232",
    "description": "Dog_271722",
    "title": "Dog_271722",
    "link_img": "https://live.staticflickr.com/65535/50019671353_ea4f53a5af_o.jpg",
    "id_image": "Dog_271722",
    "count_view": 0
  },
  {
    "link_thumb": "https://live.staticflickr.com/65535/50017160687_6fbaf3561e_n.jpg",
    "id_album": "523598895",
    "description": "Artistic_361258",
    "title": "Artistic_361258",
    "link_img": "https://live.staticflickr.com/65535/50017160687_8f29555809_o.jpg",
    "id_image": "Artistic_361258",
    "count_view": 0
  },
  {
    "link_thumb": "https://live.staticflickr.com/65535/50024287281_49b25a272c_n.jpg",
    "id_album": "-1103743486",
    "description": "Toucan_903500",
    "title": "Toucan_903500",
    "link_img": "https://live.staticflickr.com/65535/50024287281_af64f784ff_o.jpg",
    "id_image": "Toucan_903500",
    "count_view": 0
  },
  {
    "link_thumb": "https://live.staticflickr.com/65535/50017065911_9b7f6b2c4a_n.jpg",
    "id_album": "-422187261",
    "description": "Bear_681267",
    "title": "Bear_681267",
    "link_img": "https://live.staticflickr.com/65535/50017065911_8c0aedd590_o.jpg",
    "id_image": "Bear_681267",
    "count_view": 0
  },
  {
    "link_thumb": "https://live.staticflickr.com/65535/50017259062_3776a01427_n.jpg",
    "id_album": "809937717",
    "description": "Beagle_877214",
    "title": "Beagle_877214",
    "link_img": "https://live.staticflickr.com/65535/50017259062_6fa10f9620_o.jpg",
    "id_image": "Beagle_877214",
    "count_view": 0
  },
  {
    "link_thumb": "https://live.staticflickr.com/65535/50019886162_769a09972b_n.jpg",
    "id_album": "1889777354",
    "description": "CGI_572306",
    "title": "CGI_572306",
    "link_img": "https://live.staticflickr.com/65535/50019886162_c6770a4021_o.jpg",
    "id_image": "CGI_572306",
    "count_view": 0
  },
  {
    "link_thumb": "https://live.staticflickr.com/65535/50020919372_4bcb89e6f3_n.jpg",
    "id_album": "1168627767",
    "description": "Duck_504764",
    "title": "Duck_504764",
    "link_img": "https://live.staticflickr.com/65535/50020919372_464b2c7727_o.jpg",
    "id_image": "Duck_504764",
    "count_view": 0
  },
  {
    "link_thumb": "https://live.staticflickr.com/65535/50019983136_ced8342dff_n.jpg",
    "id_album": "1903411565",
    "description": "Deer_259573",
    "title": "Deer_259573",
    "link_img": "https://live.staticflickr.com/65535/50019983136_c8c8d7fc63_o.jpg",
    "id_image": "Deer_259573",
    "count_view": 0
  },
  {
    "link_thumb": "https://live.staticflickr.com/65535/50020886833_65ceba1420_n.jpg",
    "id_album": "1469520430",
    "description": "Hedgehog_334933",
    "title": "Hedgehog_334933",
    "link_img": "https://live.staticflickr.com/65535/50020886833_048f181a7e_o.jpg",
    "id_image": "Hedgehog_334933",
    "count_view": 0
  },
  {
    "link_thumb": "https://live.staticflickr.com/65535/50021060778_3154ee045a_n.jpg",
    "id_album": "2144294979",
    "description": "Hummingbird_315374",
    "title": "Hummingbird_315374",
    "link_img": "https://live.staticflickr.com/65535/50021060778_f85db7703c_o.jpg",
    "id_image": "Hummingbird_315374",
    "count_view": 0
  },
  {
    "link_thumb": "https://live.staticflickr.com/65535/50020596572_5e63f816d8_n.jpg",
    "id_album": "-149330232",
    "description": "Dog_369496",
    "title": "Dog_369496",
    "link_img": "https://live.staticflickr.com/65535/50020596572_46ea8a6cf4_o.jpg",
    "id_image": "Dog_369496",
    "count_view": 0
  },
  {
    "link_thumb": "https://live.staticflickr.com/65535/50016420108_9bbe0bd588_n.jpg",
    "id_album": "390697200",
    "description": "AustralianShepherd_910236",
    "title": "AustralianShepherd_910236",
    "link_img": "https://live.staticflickr.com/65535/50016420108_649df297b2_o.jpg",
    "id_image": "AustralianShepherd_910236",
    "count_view": 0
  },
  {
    "link_thumb": "https://live.staticflickr.com/65535/50019360026_bbf2374724_n.jpg",
    "id_album": "-462831703",
    "description": "Cat_871915",
    "title": "Cat_871915",
    "link_img": "https://live.staticflickr.com/65535/50019360026_8eba4dd1bb_o.jpg",
    "id_image": "Cat_871915",
    "count_view": 0
  },
  {
    "link_thumb": "https://live.staticflickr.com/65535/50020315687_44875fd25a_n.jpg",
    "id_album": "1903411565",
    "description": "Deer_861015",
    "title": "Deer_861015",
    "link_img": "https://live.staticflickr.com/65535/50020315687_793a45f2d1_o.jpg",
    "id_image": "Deer_861015",
    "count_view": 0
  },
  {
    "link_thumb": "https://live.staticflickr.com/65535/50352012683_449fdf852f_n.jpg",
    "id_album": "-462831702",
    "description": "Cat_91505",
    "title": "Cat_91505",
    "link_img": "https://live.staticflickr.com/65535/50352012683_e62c3375d5_o.jpg",
    "id_image": "Cat_91505",
    "count_view": 0
  },
  {
    "link_thumb": "https://live.staticflickr.com/65535/50016532903_221a457b6f_n.jpg",
    "id_album": "-422187261",
    "description": "Bear_590441",
    "title": "Bear_590441",
    "link_img": "https://live.staticflickr.com/65535/50016532903_6a5472c9d1_o.jpg",
    "id_image": "Bear_590441",
    "count_view": 0
  },
  {
    "link_thumb": "https://live.staticflickr.com/65535/50018207337_cd5d2dec44_n.jpg",
    "id_album": "-462831702",
    "description": "Cat_300721",
    "title": "Cat_300721",
    "link_img": "https://live.staticflickr.com/65535/50018207337_065d120494_o.jpg",
    "id_image": "Cat_300721",
    "count_view": 0
  },
  {
    "link_thumb": "https://live.staticflickr.com/65535/50019896878_a5b8e9eca9_n.jpg",
    "id_album": "-149330231",
    "description": "Dog_464796",
    "title": "Dog_464796",
    "link_img": "https://live.staticflickr.com/65535/50019896878_56017ecf1f_o.jpg",
    "id_image": "Dog_464796",
    "count_view": 0
  },
  {
    "link_thumb": "https://live.staticflickr.com/65535/50021100143_9fa7201a8c_n.jpg",
    "id_album": "-712553376",
    "description": "Husky_901915",
    "title": "Husky_901915",
    "link_img": "https://live.staticflickr.com/65535/50021100143_e9f997270a_o.jpg",
    "id_image": "Husky_901915",
    "count_view": 0
  },
  {
    "link_thumb": "https://live.staticflickr.com/65535/50017113923_4cbd608d54_n.jpg",
    "id_album": "-401151552",
    "description": "Butterfly_675175",
    "title": "Butterfly_675175",
    "link_img": "https://live.staticflickr.com/65535/50017113923_46e78c1edc_o.jpg",
    "id_image": "Butterfly_675175",
    "count_view": 0
  },
  {
    "link_thumb": "https://live.staticflickr.com/65535/50023268453_81751ca658_n.jpg",
    "id_album": "702283289",
    "description": "Squirrel_196800",
    "title": "Squirrel_196800",
    "link_img": "https://live.staticflickr.com/65535/50023268453_96f936e8b0_o.jpg",
    "id_image": "Squirrel_196800",
    "count_view": 0
  },
  {
    "link_thumb": "https://live.staticflickr.com/65535/50017716822_93d804b242_n.jpg",
    "id_album": "-1561645279",
    "description": "BlackPanther_512018",
    "title": "BlackPanther_512018",
    "link_img": "https://live.staticflickr.com/65535/50017716822_4fdb0af52e_o.jpg",
    "id_image": "BlackPanther_512018",
    "count_view": 0
  },
  {
    "link_thumb": "https://live.staticflickr.com/65535/50021303998_f40a8ac6c7_n.jpg",
    "id_album": "-1882491687",
    "description": "Ladybug_380917",
    "title": "Ladybug_380917",
    "link_img": "https://live.staticflickr.com/65535/50021303998_4c4891a104_o.jpg",
    "id_image": "Ladybug_380917",
    "count_view": 0
  },
  {
    "link_thumb": "https://live.staticflickr.com/65535/50019553456_61215c84da_n.jpg",
    "id_album": "-462831703",
    "description": "Cat_983685",
    "title": "Cat_983685",
    "link_img": "https://live.staticflickr.com/65535/50019553456_1746b692f8_o.jpg",
    "id_image": "Cat_983685",
    "count_view": 0
  },
  {
    "link_thumb": "https://live.staticflickr.com/65535/50019113578_a26e3c5020_n.jpg",
    "id_album": "-766919393",
    "description": "Chameleon_382676",
    "title": "Chameleon_382676",
    "link_img": "https://live.staticflickr.com/65535/50019113578_4b92b61fe5_o.jpg",
    "id_image": "Chameleon_382676",
    "count_view": 0
  },
  {
    "link_thumb": "https://live.staticflickr.com/65535/50018931198_de1ff6da53_n.jpg",
    "id_album": "-462831705",
    "description": "Cat_91511",
    "title": "Cat_91511",
    "link_img": "https://live.staticflickr.com/65535/50018931198_bc4b0b6f20_o.jpg",
    "id_image": "Cat_91511",
    "count_view": 0
  },
  {
    "link_thumb": "https://live.staticflickr.com/65535/50016581843_f607ae0343_n.jpg",
    "id_album": "-422187261",
    "description": "Bear_950106",
    "title": "Bear_950106",
    "link_img": "https://live.staticflickr.com/65535/50016581843_3e042d26d8_o.jpg",
    "id_image": "Bear_950106",
    "count_view": 0
  },
  {
    "link_thumb": "https://live.staticflickr.com/65535/50017911787_d2e0643e27_n.jpg",
    "id_album": "-401151552",
    "description": "Butterfly_708386",
    "title": "Butterfly_708386",
    "link_img": "https://live.staticflickr.com/65535/50017911787_490b1036a2_o.jpg",
    "id_image": "Butterfly_708386",
    "count_view": 0
  },
  {
    "link_thumb": "https://live.staticflickr.com/65535/50023018446_074b8f49fc_n.jpg",
    "id_album": "-353898617",
    "description": "Puppy_548555",
    "title": "Puppy_548555",
    "link_img": "https://live.staticflickr.com/65535/50023018446_a084423606_o.jpg",
    "id_image": "Puppy_548555",
    "count_view": 0
  },
  {
    "link_thumb": "https://live.staticflickr.com/65535/50018196007_1e6572a977_n.jpg",
    "id_album": "-462831702",
    "description": "Cat_282803",
    "title": "Cat_282803",
    "link_img": "https://live.staticflickr.com/65535/50018196007_63f2ce1d2d_o.jpg",
    "id_image": "Cat_282803",
    "count_view": 0
  },
  {
    "link_thumb": "https://live.staticflickr.com/65535/50352405926_56926050bf_n.jpg",
    "id_album": "-462831703",
    "description": "Cat_170947",
    "title": "Cat_170947",
    "link_img": "https://live.staticflickr.com/65535/50352405926_e92461c419_o.jpg",
    "id_image": "Cat_170947",
    "count_view": 0
  },
  {
    "link_thumb": "https://live.staticflickr.com/65535/50021759596_0c8bc25d2b_n.jpg",
    "id_album": "1562047127",
    "description": "Jellyfish_121269",
    "title": "Jellyfish_121269",
    "link_img": "https://live.staticflickr.com/65535/50021759596_e86970289c_o.jpg",
    "id_image": "Jellyfish_121269",
    "count_view": 0
  },
  {
    "link_thumb": "https://live.staticflickr.com/65535/50019580153_78965ab6b8_n.jpg",
    "id_album": "-149330232",
    "description": "Dog_101868",
    "title": "Dog_101868",
    "link_img": "https://live.staticflickr.com/65535/50019580153_ce0d695faf_o.jpg",
    "id_image": "Dog_101868",
    "count_view": 0
  },
  {
    "link_thumb": "https://live.staticflickr.com/65535/50021061688_1edf9db947_n.jpg",
    "id_album": "2144294979",
    "description": "Hummingbird_334683",
    "title": "Hummingbird_334683",
    "link_img": "https://live.staticflickr.com/65535/50021061688_88c53897ab_o.jpg",
    "id_image": "Hummingbird_334683",
    "count_view": 0
  },
  {
    "link_thumb": "https://live.staticflickr.com/65535/50021123808_c0dd787a56_n.jpg",
    "id_album": "1658866795",
    "description": "Insect_389658",
    "title": "Insect_389658",
    "link_img": "https://live.staticflickr.com/65535/50021123808_b316425edc_o.jpg",
    "id_image": "Insect_389658",
    "count_view": 0
  },
  {
    "link_thumb": "https://live.staticflickr.com/65535/50021164422_2bf944b432_n.jpg",
    "id_album": "-1758557371",
    "description": "Flamingo_753456",
    "title": "Flamingo_753456",
    "link_img": "https://live.staticflickr.com/65535/50021164422_49b69d9052_o.jpg",
    "id_image": "Flamingo_753456",
    "count_view": 0
  },
  {
    "link_thumb": "https://live.staticflickr.com/65535/50017976961_4a61656e1e_n.jpg",
    "id_album": "-462831702",
    "description": "Cat_326191",
    "title": "Cat_326191",
    "link_img": "https://live.staticflickr.com/65535/50017976961_648f7a9059_o.jpg",
    "id_image": "Cat_326191",
    "count_view": 0
  },
  {
    "link_thumb": "https://live.staticflickr.com/65535/50022460867_e6d59b89fc_n.jpg",
    "id_album": "-784970094",
    "description": "Monkey_337110",
    "title": "Monkey_337110",
    "link_img": "https://live.staticflickr.com/65535/50022460867_56ea63b3b9_o.jpg",
    "id_image": "Monkey_337110",
    "count_view": 0
  },
  {
    "link_thumb": "https://live.staticflickr.com/65535/50017882252_b5fa5132ac_n.jpg",
    "id_album": "-401151552",
    "description": "Butterfly_530675",
    "title": "Butterfly_530675",
    "link_img": "https://live.staticflickr.com/65535/50017882252_c7243e5b36_o.jpg",
    "id_image": "Butterfly_530675",
    "count_view": 0
  },
  {
    "link_thumb": "https://live.staticflickr.com/65535/50017555226_60923a2aa6_n.jpg",
    "id_album": "-401151552",
    "description": "Butterfly_276055",
    "title": "Butterfly_276055",
    "link_img": "https://live.staticflickr.com/65535/50017555226_1a78257cdd_o.jpg",
    "id_image": "Butterfly_276055",
    "count_view": 0
  },
  {
    "link_thumb": "https://live.staticflickr.com/65535/50017297793_9b6df7d598_n.jpg",
    "id_album": "-462831705",
    "description": "Cat_181774",
    "title": "Cat_181774",
    "link_img": "https://live.staticflickr.com/65535/50017297793_6f95b5572d_o.jpg",
    "id_image": "Cat_181774",
    "count_view": 0
  },
  {
    "link_thumb": "https://live.staticflickr.com/65535/50024552351_b0a1ce0be9_n.jpg",
    "id_album": "-709711865",
    "description": "Wolf_867808",
    "title": "Wolf_867808",
    "link_img": "https://live.staticflickr.com/65535/50024552351_d99f40219e_o.jpg",
    "id_image": "Wolf_867808",
    "count_view": 0
  },
  {
    "link_thumb": "https://live.staticflickr.com/65535/50018309517_926502d126_n.jpg",
    "id_album": "-462831702",
    "description": "Cat_358969",
    "title": "Cat_358969",
    "link_img": "https://live.staticflickr.com/65535/50018309517_40148462b8_o.jpg",
    "id_image": "Cat_358969",
    "count_view": 0
  },
  {
    "link_thumb": "https://live.staticflickr.com/65535/50017389488_f35e1a3402_n.jpg",
    "id_album": "-462831705",
    "description": "Cat_26499",
    "title": "Cat_26499",
    "link_img": "https://live.staticflickr.com/65535/50017389488_d52fee2ee0_o.jpg",
    "id_image": "Cat_26499",
    "count_view": 0
  },
  {
    "link_thumb": "https://live.staticflickr.com/65535/50020863611_f3ebdf927b_n.jpg",
    "id_album": "-1118073211",
    "description": "Fish_541509",
    "title": "Fish_541509",
    "link_img": "https://live.staticflickr.com/65535/50020863611_055c01821c_o.jpg",
    "id_image": "Fish_541509",
    "count_view": 0
  },
  {
    "link_thumb": "https://live.staticflickr.com/65535/50017600051_a7ec533ce9_n.jpg",
    "id_album": "-401151552",
    "description": "Butterfly_443729",
    "title": "Butterfly_443729",
    "link_img": "https://live.staticflickr.com/65535/50017600051_f200065cf0_o.jpg",
    "id_image": "Butterfly_443729",
    "count_view": 0
  },
  {
    "link_thumb": "https://live.staticflickr.com/65535/50021272537_cbaa87d55a_n.jpg",
    "id_album": "-128218148",
    "description": "Fox_900322",
    "title": "Fox_900322",
    "link_img": "https://live.staticflickr.com/65535/50021272537_845b3e0cf8_o.jpg",
    "id_image": "Fox_900322",
    "count_view": 0
  },
  {
    "link_thumb": "https://live.staticflickr.com/65535/50351805833_a5660589c5_n.jpg",
    "id_album": "-462831703",
    "description": "Cat_413304",
    "title": "Cat_413304",
    "link_img": "https://live.staticflickr.com/65535/50351805833_ded12a573e_o.jpg",
    "id_image": "Cat_413304",
    "count_view": 0
  },
  {
    "link_thumb": "https://live.staticflickr.com/65535/50019820832_58af414414_n.jpg",
    "id_album": "-462831703",
    "description": "Cat_991370",
    "title": "Cat_991370",
    "link_img": "https://live.staticflickr.com/65535/50019820832_87852f8568_o.jpg",
    "id_image": "Cat_991370",
    "count_view": 0
  },
  {
    "link_thumb": "https://live.staticflickr.com/65535/50020334576_ae2d25798e_n.jpg",
    "id_album": "-149330232",
    "description": "Dog_367190",
    "title": "Dog_367190",
    "link_img": "https://live.staticflickr.com/65535/50020334576_27481b6b7d_o.jpg",
    "id_image": "Dog_367190",
    "count_view": 0
  },
  {
    "link_thumb": "https://live.staticflickr.com/65535/50021130067_25f958b858_n.jpg",
    "id_album": "-1118073211",
    "description": "Fish_818001",
    "title": "Fish_818001",
    "link_img": "https://live.staticflickr.com/65535/50021130067_9cd1f5fc7b_o.jpg",
    "id_image": "Fish_818001",
    "count_view": 0
  },
  {
    "link_thumb": "https://live.staticflickr.com/65535/50021447903_c17dc025bb_n.jpg",
    "id_album": "416744915",
    "description": "Lion_323327",
    "title": "Lion_323327",
    "link_img": "https://live.staticflickr.com/65535/50021447903_17dd1950c4_o.jpg",
    "id_image": "Lion_323327",
    "count_view": 0
  },
  {
    "link_thumb": "https://live.staticflickr.com/65535/50023487563_d00d8bdf7b_n.jpg",
    "id_album": "405170427",
    "description": "Tiger_207604",
    "title": "Tiger_207604",
    "link_img": "https://live.staticflickr.com/65535/50023487563_a13107d558_o.jpg",
    "id_image": "Tiger_207604",
    "count_view": 0
  },
  {
    "link_thumb": "https://live.staticflickr.com/65535/50017317033_cce7cf4595_n.jpg",
    "id_album": "-462831705",
    "description": "Cat_205393",
    "title": "Cat_205393",
    "link_img": "https://live.staticflickr.com/65535/50017317033_33cfd6ac32_o.jpg",
    "id_image": "Cat_205393",
    "count_view": 0
  },
  {
    "link_thumb": "https://live.staticflickr.com/65535/50017588777_8b5529871a_n.jpg",
    "id_album": "-1846011410",
    "description": "Bird_429639",
    "title": "Bird_429639",
    "link_img": "https://live.staticflickr.com/65535/50017588777_fb88165d68_o.jpg",
    "id_image": "Bird_429639",
    "count_view": 0
  },
  {
    "link_thumb": "https://live.staticflickr.com/65535/50020263988_a84ab62ecb_n.jpg",
    "id_album": "1270947998",
    "description": "Elephant_881383",
    "title": "Elephant_881383",
    "link_img": "https://live.staticflickr.com/65535/50020263988_acddb03432_o.jpg",
    "id_image": "Elephant_881383",
    "count_view": 0
  },
  {
    "link_thumb": "https://live.staticflickr.com/65535/50023352251_dc75db1207_n.jpg",
    "id_album": "1656131695",
    "description": "Seagull_327286",
    "title": "Seagull_327286",
    "link_img": "https://live.staticflickr.com/65535/50023352251_c938876755_o.jpg",
    "id_image": "Seagull_327286",
    "count_view": 0
  },
  {
    "link_thumb": "https://live.staticflickr.com/65535/50021373621_6fd0eab3d8_n.jpg",
    "id_album": "2060159334",
    "description": "GoldenRetriever_978545",
    "title": "GoldenRetriever_978545",
    "link_img": "https://live.staticflickr.com/65535/50021373621_66173a8de4_o.jpg",
    "id_image": "GoldenRetriever_978545",
    "count_view": 0
  },
  {
    "link_thumb": "https://live.staticflickr.com/65535/50019701898_48b5079a44_n.jpg",
    "id_album": "-149330232",
    "description": "Dog_310132",
    "title": "Dog_310132",
    "link_img": "https://live.staticflickr.com/65535/50019701898_f0a5ef6a72_o.jpg",
    "id_image": "Dog_310132",
    "count_view": 0
  },
  {
    "link_thumb": "https://live.staticflickr.com/65535/50019338273_24e56ba0ce_n.jpg",
    "id_album": "-2144640780",
    "description": "Cow_921602",
    "title": "Cow_921602",
    "link_img": "https://live.staticflickr.com/65535/50019338273_932301c7c0_o.jpg",
    "id_image": "Cow_921602",
    "count_view": 0
  },
  {
    "link_thumb": "https://live.staticflickr.com/65535/50016339348_b9792ec44e_n.jpg",
    "id_album": "523598895",
    "description": "Artistic_116379",
    "title": "Artistic_116379",
    "link_img": "https://live.staticflickr.com/65535/50016339348_8071d59c7a_o.jpg",
    "id_image": "Artistic_116379",
    "count_view": 0
  },
  {
    "link_thumb": "https://live.staticflickr.com/65535/50352591566_3375586e5c_n.jpg",
    "id_album": "-462831703",
    "description": "Cat_530604",
    "title": "Cat_530604",
    "link_img": "https://live.staticflickr.com/65535/50352591566_d5f97505a6_o.jpg",
    "id_image": "Cat_530604",
    "count_view": 0
  },
  {
    "link_thumb": "https://live.staticflickr.com/65535/50019685601_6b77fee930_n.jpg",
    "id_album": "-1481843714",
    "description": "Cheetah_262649",
    "title": "Cheetah_262649",
    "link_img": "https://live.staticflickr.com/65535/50019685601_d9e2fd35a8_o.jpg",
    "id_image": "Cheetah_262649",
    "count_view": 0
  },
  {
    "link_thumb": "https://live.staticflickr.com/65535/50023585608_58ab85f58c_n.jpg",
    "id_album": "405170427",
    "description": "Tiger_433007",
    "title": "Tiger_433007",
    "link_img": "https://live.staticflickr.com/65535/50023585608_fd473418ed_o.jpg",
    "id_image": "Tiger_433007",
    "count_view": 0
  },
  {
    "link_thumb": "https://live.staticflickr.com/65535/50016486258_8366bfc435_n.jpg",
    "id_album": "-422187261",
    "description": "Bear_260689",
    "title": "Bear_260689",
    "link_img": "https://live.staticflickr.com/65535/50016486258_fe7a1d2720_o.jpg",
    "id_image": "Bear_260689",
    "count_view": 0
  },
  {
    "link_thumb": "https://live.staticflickr.com/65535/50017207501_03372267b0_n.jpg",
    "id_album": "-1846011410",
    "description": "Bird_192002",
    "title": "Bird_192002",
    "link_img": "https://live.staticflickr.com/65535/50017207501_55505601b8_o.jpg",
    "id_image": "Bird_192002",
    "count_view": 0
  },
  {
    "link_thumb": "https://live.staticflickr.com/65535/50023663298_071f34ffa6_n.jpg",
    "id_album": "405170427",
    "description": "Tiger_755452",
    "title": "Tiger_755452",
    "link_img": "https://live.staticflickr.com/65535/50023663298_f405f53dd6_o.jpg",
    "id_image": "Tiger_755452",
    "count_view": 0
  },
  {
    "link_thumb": "https://live.staticflickr.com/65535/50016306023_cf6d4cf890_n.jpg",
    "id_album": "-1741290715",
    "description": "Ant_422890",
    "title": "Ant_422890",
    "link_img": "https://live.staticflickr.com/65535/50016306023_a8d35cda64_o.jpg",
    "id_image": "Ant_422890",
    "count_view": 0
  },
  {
    "link_thumb": "https://live.staticflickr.com/65535/50023622028_be2f35bd0a_n.jpg",
    "id_album": "-356780855",
    "description": "Puffin_49139",
    "title": "Puffin_49139",
    "link_img": "https://live.staticflickr.com/65535/50023622028_216dff729c_o.jpg",
    "id_image": "Puffin_49139",
    "count_view": 0
  },
  {
    "link_thumb": "https://live.staticflickr.com/65535/50017490171_0c464b8d46_n.jpg",
    "id_album": "782930701",
    "description": "BorderCollie_734403",
    "title": "BorderCollie_734403",
    "link_img": "https://live.staticflickr.com/65535/50017490171_4555038419_o.jpg",
    "id_image": "BorderCollie_734403",
    "count_view": 0
  },
  {
    "link_thumb": "https://live.staticflickr.com/65535/50020836866_3b1a899145_n.jpg",
    "id_album": "-1118073211",
    "description": "Fish_325965",
    "title": "Fish_325965",
    "link_img": "https://live.staticflickr.com/65535/50020836866_e5c079daef_o.jpg",
    "id_image": "Fish_325965",
    "count_view": 0
  },
  {
    "link_thumb": "https://live.staticflickr.com/65535/50018396797_6da41aa656_n.jpg",
    "id_album": "-462831702",
    "description": "Cat_397959",
    "title": "Cat_397959",
    "link_img": "https://live.staticflickr.com/65535/50018396797_08e149d6e5_o.jpg",
    "id_image": "Cat_397959",
    "count_view": 0
  },
  {
    "link_thumb": "https://live.staticflickr.com/65535/50020463448_5962bd2f9a_n.jpg",
    "id_album": "-128218148",
    "description": "Fox_793097",
    "title": "Fox_793097",
    "link_img": "https://live.staticflickr.com/65535/50020463448_871714566b_o.jpg",
    "id_image": "Fox_793097",
    "count_view": 0
  },
  {
    "link_thumb": "https://live.staticflickr.com/65535/50024454626_dd4b0dcb38_n.jpg",
    "id_album": "-709711865",
    "description": "Wolf_101887",
    "title": "Wolf_101887",
    "link_img": "https://live.staticflickr.com/65535/50024454626_b73008929b_o.jpg",
    "id_image": "Wolf_101887",
    "count_view": 0
  },
  {
    "link_thumb": "https://live.staticflickr.com/65535/50021116803_1baab67978_n.jpg",
    "id_album": "1658866795",
    "description": "Insect_234646",
    "title": "Insect_234646",
    "link_img": "https://live.staticflickr.com/65535/50021116803_899f29d78a_o.jpg",
    "id_image": "Insect_234646",
    "count_view": 0
  },
  {
    "link_thumb": "https://live.staticflickr.com/65535/50019460148_a1423e3d13_n.jpg",
    "id_album": "1903411565",
    "description": "Deer_325731",
    "title": "Deer_325731",
    "link_img": "https://live.staticflickr.com/65535/50019460148_6d6ef0812e_o.jpg",
    "id_image": "Deer_325731",
    "count_view": 0
  },
  {
    "link_thumb": "https://live.staticflickr.com/65535/50019418372_d330603049_n.jpg",
    "id_album": "-462831702",
    "description": "Cat_423080",
    "title": "Cat_423080",
    "link_img": "https://live.staticflickr.com/65535/50019418372_a37ba64b93_o.jpg",
    "id_image": "Cat_423080",
    "count_view": 0
  },
  {
    "link_thumb": "https://live.staticflickr.com/65535/50021088888_567c182fc7_n.jpg",
    "id_album": "-712553376",
    "description": "Husky_383154",
    "title": "Husky_383154",
    "link_img": "https://live.staticflickr.com/65535/50021088888_4f32511205_o.jpg",
    "id_image": "Husky_383154",
    "count_view": 0
  },
  {
    "link_thumb": "https://live.staticflickr.com/65535/50017396733_6fd38cc7aa_n.jpg",
    "id_album": "-462831705",
    "description": "Cat_272304",
    "title": "Cat_272304",
    "link_img": "https://live.staticflickr.com/65535/50017396733_585b40841b_o.jpg",
    "id_image": "Cat_272304",
    "count_view": 0
  },
  {
    "link_thumb": "https://live.staticflickr.com/65535/50021007028_d664de9c91_n.jpg",
    "id_album": "-1933715543",
    "description": "Horse_670442",
    "title": "Horse_670442",
    "link_img": "https://live.staticflickr.com/65535/50021007028_d749f96703_o.jpg",
    "id_image": "Horse_670442",
    "count_view": 0
  },
  {
    "link_thumb": "https://live.staticflickr.com/65535/50017513897_eec6bd0478_n.jpg",
    "id_album": "-1846011410",
    "description": "Bird_342897",
    "title": "Bird_342897",
    "link_img": "https://live.staticflickr.com/65535/50017513897_09550fa546_o.jpg",
    "id_image": "Bird_342897",
    "count_view": 0
  },
  {
    "link_thumb": "https://live.staticflickr.com/65535/50021343381_3bd9f895e2_n.jpg",
    "id_album": "-804131074",
    "description": "Goat_650231",
    "title": "Goat_650231",
    "link_img": "https://live.staticflickr.com/65535/50021343381_2f4b6454a1_o.jpg",
    "id_image": "Goat_650231",
    "count_view": 0
  },
  {
    "link_thumb": "https://live.staticflickr.com/65535/50021609321_a192cdd19a_n.jpg",
    "id_album": "2144294979",
    "description": "Hummingbird_397294",
    "title": "Hummingbird_397294",
    "link_img": "https://live.staticflickr.com/65535/50021609321_4e539bc9e3_o.jpg",
    "id_image": "Hummingbird_397294",
    "count_view": 0
  },
  {
    "link_thumb": "https://live.staticflickr.com/65535/50352685937_2e3f4e5513_n.jpg",
    "id_album": "-462831703",
    "description": "Cat_441941",
    "title": "Cat_441941",
    "link_img": "https://live.staticflickr.com/65535/50352685937_f3ddee5ec7_o.jpg",
    "id_image": "Cat_441941",
    "count_view": 0
  },
  {
    "link_thumb": "https://live.staticflickr.com/65535/50020533832_29f450b3f6_n.jpg",
    "id_album": "-149330232",
    "description": "Dog_339810",
    "title": "Dog_339810",
    "link_img": "https://live.staticflickr.com/65535/50020533832_778d7bbd47_o.jpg",
    "id_image": "Dog_339810",
    "count_view": 0
  },
  {
    "link_thumb": "https://live.staticflickr.com/65535/50022125803_c00bbc0651_n.jpg",
    "id_album": "1146438617",
    "description": "Pelican_901712",
    "title": "Pelican_901712",
    "link_img": "https://live.staticflickr.com/65535/50022125803_a8242eae03_o.jpg",
    "id_image": "Pelican_901712",
    "count_view": 0
  },
  {
    "link_thumb": "https://live.staticflickr.com/65535/50022147451_c8b943d56e_n.jpg",
    "id_album": "1894617400",
    "description": "Lynx_437094",
    "title": "Lynx_437094",
    "link_img": "https://live.staticflickr.com/65535/50022147451_b1e093c5bf_o.jpg",
    "id_image": "Lynx_437094",
    "count_view": 0
  },
  {
    "link_thumb": "https://live.staticflickr.com/65535/50021516892_e239db0b7c_n.jpg",
    "id_album": "-462831703",
    "description": "Cat_817280",
    "title": "Cat_817280",
    "link_img": "https://live.staticflickr.com/65535/50021516892_edf0dc9ebe_o.jpg",
    "id_image": "Cat_817280",
    "count_view": 0
  },
  {
    "link_thumb": "https://live.staticflickr.com/65535/50021333771_f80b4ffd7f_n.jpg",
    "id_album": "713572662",
    "description": "Giraffe_841091",
    "title": "Giraffe_841091",
    "link_img": "https://live.staticflickr.com/65535/50021333771_321b9e7b37_o.jpg",
    "id_image": "Giraffe_841091",
    "count_view": 0
  },
  {
    "link_thumb": "https://live.staticflickr.com/65535/50017057456_4cb4f9974b_n.jpg",
    "id_album": "-422187261",
    "description": "Bear_565171",
    "title": "Bear_565171",
    "link_img": "https://live.staticflickr.com/65535/50017057456_3f1d96b614_o.jpg",
    "id_image": "Bear_565171",
    "count_view": 0
  },
  {
    "link_thumb": "https://live.staticflickr.com/65535/50023474282_17928b0205_n.jpg",
    "id_album": "332874268",
    "description": "RedPanda_650157",
    "title": "RedPanda_650157",
    "link_img": "https://live.staticflickr.com/65535/50023474282_88ef867448_o.jpg",
    "id_image": "RedPanda_650157",
    "count_view": 0
  },
  {
    "link_thumb": "https://live.staticflickr.com/65535/50021390037_998f67a78e_n.jpg",
    "id_album": "-462831704",
    "description": "Cat_596073",
    "title": "Cat_596073",
    "link_img": "https://live.staticflickr.com/65535/50021390037_0450790137_o.jpg",
    "id_image": "Cat_596073",
    "count_view": 0
  },
  {
    "link_thumb": "https://live.staticflickr.com/65535/50017439228_231046b52b_n.jpg",
    "id_album": "-462831702",
    "description": "Cat_323686",
    "title": "Cat_323686",
    "link_img": "https://live.staticflickr.com/65535/50017439228_d0f03a002f_o.jpg",
    "id_image": "Cat_323686",
    "count_view": 0
  },
  {
    "link_thumb": "https://live.staticflickr.com/65535/50022072978_1413a30072_n.jpg",
    "id_album": "1146438617",
    "description": "Pelican_239785",
    "title": "Pelican_239785",
    "link_img": "https://live.staticflickr.com/65535/50022072978_f2e2cb95a8_o.jpg",
    "id_image": "Pelican_239785",
    "count_view": 0
  },
  {
    "link_thumb": "https://live.staticflickr.com/65535/50020949142_cf543ce901_n.jpg",
    "id_album": "-39098563",
    "description": "Eagle_343480",
    "title": "Eagle_343480",
    "link_img": "https://live.staticflickr.com/65535/50020949142_856ff3a48b_o.jpg",
    "id_image": "Eagle_343480",
    "count_view": 0
  },
  {
    "link_thumb": "https://live.staticflickr.com/65535/50021670232_9178e36d7c_n.jpg",
    "id_album": "109779448",
    "description": "Hare_914954",
    "title": "Hare_914954",
    "link_img": "https://live.staticflickr.com/65535/50021670232_f9c106eb83_o.jpg",
    "id_image": "Hare_914954",
    "count_view": 0
  },
  {
    "link_thumb": "https://live.staticflickr.com/65535/50017606546_12bafbdda3_n.jpg",
    "id_album": "-401151552",
    "description": "Butterfly_469359",
    "title": "Butterfly_469359",
    "link_img": "https://live.staticflickr.com/65535/50017606546_1007486f99_o.jpg",
    "id_image": "Butterfly_469359",
    "count_view": 0
  },
  {
    "link_thumb": "https://live.staticflickr.com/65535/50023260872_3d11a0b018_n.jpg",
    "id_album": "-353898617",
    "description": "Puppy_461908",
    "title": "Puppy_461908",
    "link_img": "https://live.staticflickr.com/65535/50023260872_18c8ac71ab_o.jpg",
    "id_image": "Puppy_461908",
    "count_view": 0
  },
  {
    "link_thumb": "https://live.staticflickr.com/65535/50016968871_90b643c633_n.jpg",
    "id_album": "231236068",
    "description": "BaldEagle_787268",
    "title": "BaldEagle_787268",
    "link_img": "https://live.staticflickr.com/65535/50016968871_83806a689e_o.jpg",
    "id_image": "BaldEagle_787268",
    "count_view": 0
  },
  {
    "link_thumb": "https://live.staticflickr.com/65535/50020104502_85a92a2957_n.jpg",
    "id_album": "-2144640780",
    "description": "Cow_441957",
    "title": "Cow_441957",
    "link_img": "https://live.staticflickr.com/65535/50020104502_44103c40f2_o.jpg",
    "id_image": "Cow_441957",
    "count_view": 0
  },
  {
    "link_thumb": "https://live.staticflickr.com/65535/50020060577_32aa115960_n.jpg",
    "id_album": "-1868680171",
    "description": "Cougar_224507",
    "title": "Cougar_224507",
    "link_img": "https://live.staticflickr.com/65535/50020060577_2142e76706_o.jpg",
    "id_image": "Cougar_224507",
    "count_view": 0
  },
  {
    "link_thumb": "https://live.staticflickr.com/65535/50018969228_0beebfc97e_n.jpg",
    "id_album": "-462831703",
    "description": "Cat_940657",
    "title": "Cat_940657",
    "link_img": "https://live.staticflickr.com/65535/50018969228_7e12314a93_o.jpg",
    "id_image": "Cat_940657",
    "count_view": 0
  },
  {
    "link_thumb": "https://live.staticflickr.com/65535/50020816998_aa9ffbf8ab_n.jpg",
    "id_album": "2060159334",
    "description": "GoldenRetriever_794911",
    "title": "GoldenRetriever_794911",
    "link_img": "https://live.staticflickr.com/65535/50020816998_a1c3b39ee3_o.jpg",
    "id_image": "GoldenRetriever_794911",
    "count_view": 0
  },
  {
    "link_thumb": "https://live.staticflickr.com/65535/50023219042_b3e645b7ff_n.jpg",
    "id_album": "-353898617",
    "description": "Puppy_352329",
    "title": "Puppy_352329",
    "link_img": "https://live.staticflickr.com/65535/50023219042_a99447824a_o.jpg",
    "id_image": "Puppy_352329",
    "count_view": 0
  },
  {
    "link_thumb": "https://live.staticflickr.com/65535/50021745821_bd74745cac_n.jpg",
    "id_album": "-843028318",
    "description": "Jaguar_945025",
    "title": "Jaguar_945025",
    "link_img": "https://live.staticflickr.com/65535/50021745821_2485875f0b_o.jpg",
    "id_image": "Jaguar_945025",
    "count_view": 0
  },
  {
    "link_thumb": "https://live.staticflickr.com/65535/50021174586_82c7e96ac4_n.jpg",
    "id_album": "-462831704",
    "description": "Cat_695718",
    "title": "Cat_695718",
    "link_img": "https://live.staticflickr.com/65535/50021174586_07b12954bd_o.jpg",
    "id_image": "Cat_695718",
    "count_view": 0
  },
  {
    "link_thumb": "https://live.staticflickr.com/65535/50023020806_5f2d45ea34_n.jpg",
    "id_album": "-353898617",
    "description": "Puppy_555067",
    "title": "Puppy_555067",
    "link_img": "https://live.staticflickr.com/65535/50023020806_fa4edf508b_o.jpg",
    "id_image": "Puppy_555067",
    "count_view": 0
  },
  {
    "link_thumb": "https://live.staticflickr.com/65535/50019380708_79cd828c99_n.jpg",
    "id_album": "-392100404",
    "description": "Crow_728713",
    "title": "Crow_728713",
    "link_img": "https://live.staticflickr.com/65535/50019380708_20557b06bc_o.jpg",
    "id_image": "Crow_728713",
    "count_view": 0
  },
  {
    "link_thumb": "https://live.staticflickr.com/65535/50023298352_d21c143dba_n.jpg",
    "id_album": "-353898617",
    "description": "Puppy_661284",
    "title": "Puppy_661284",
    "link_img": "https://live.staticflickr.com/65535/50023298352_0e69f0f1dc_o.jpg",
    "id_image": "Puppy_661284",
    "count_view": 0
  },
  {
    "link_thumb": "https://live.staticflickr.com/65535/50020876741_f463a89194_n.jpg",
    "id_album": "-1118073211",
    "description": "Fish_835447",
    "title": "Fish_835447",
    "link_img": "https://live.staticflickr.com/65535/50020876741_dbce786c80_o.jpg",
    "id_image": "Fish_835447",
    "count_view": 0
  },
  {
    "link_thumb": "https://live.staticflickr.com/65535/50020420963_7e32178c7b_n.jpg",
    "id_album": "-128218148",
    "description": "Fox_426660",
    "title": "Fox_426660",
    "link_img": "https://live.staticflickr.com/65535/50020420963_973abd853b_o.jpg",
    "id_image": "Fox_426660",
    "count_view": 0
  },
  {
    "link_thumb": "https://live.staticflickr.com/65535/50020404943_39854b90fb_n.jpg",
    "id_album": "-128218148",
    "description": "Fox_336578",
    "title": "Fox_336578",
    "link_img": "https://live.staticflickr.com/65535/50020404943_532cfeb011_o.jpg",
    "id_image": "Fox_336578",
    "count_view": 0
  },
  {
    "link_thumb": "https://live.staticflickr.com/65535/50023958703_91f8853c28_n.jpg",
    "id_album": "-709711865",
    "description": "Wolf_428478",
    "title": "Wolf_428478",
    "link_img": "https://live.staticflickr.com/65535/50023958703_8f7cd5ba3a_o.jpg",
    "id_image": "Wolf_428478",
    "count_view": 0
  },
  {
    "link_thumb": "https://live.staticflickr.com/65535/50019553571_cd1e99398f_n.jpg",
    "id_album": "-462831703",
    "description": "Cat_983697",
    "title": "Cat_983697",
    "link_img": "https://live.staticflickr.com/65535/50019553571_8ffdf88437_o.jpg",
    "id_image": "Cat_983697",
    "count_view": 0
  },
  {
    "link_thumb": "https://live.staticflickr.com/65535/50016357548_cb207b0af0_n.jpg",
    "id_album": "523598895",
    "description": "Artistic_232152",
    "title": "Artistic_232152",
    "link_img": "https://live.staticflickr.com/65535/50016357548_ea8ccec51b_o.jpg",
    "id_image": "Artistic_232152",
    "count_view": 0
  },
  {
    "link_thumb": "https://live.staticflickr.com/65535/50022141777_f705ed4945_n.jpg",
    "id_album": "1392348450",
    "description": "Leopard_198379",
    "title": "Leopard_198379",
    "link_img": "https://live.staticflickr.com/65535/50022141777_2a8ec1ceb4_o.jpg",
    "id_image": "Leopard_198379",
    "count_view": 0
  },
  {
    "link_thumb": "https://live.staticflickr.com/65535/50017030181_eb0f02f808_n.jpg",
    "id_album": "-422187261",
    "description": "Bear_361460",
    "title": "Bear_361460",
    "link_img": "https://live.staticflickr.com/65535/50017030181_85df3e03ae_o.jpg",
    "id_image": "Bear_361460",
    "count_view": 0
  },
  {
    "link_thumb": "https://live.staticflickr.com/65535/50021167077_561438af1d_n.jpg",
    "id_album": "-1758557371",
    "description": "Flamingo_814494",
    "title": "Flamingo_814494",
    "link_img": "https://live.staticflickr.com/65535/50021167077_98487760c4_o.jpg",
    "id_image": "Flamingo_814494",
    "count_view": 0
  },
  {
    "link_thumb": "https://live.staticflickr.com/65535/50019469166_982596b9b5_n.jpg",
    "id_album": "-462831703",
    "description": "Cat_919142",
    "title": "Cat_919142",
    "link_img": "https://live.staticflickr.com/65535/50019469166_a7233d2faf_o.jpg",
    "id_image": "Cat_919142",
    "count_view": 0
  }
]