[
  {
    "link_thumb": "https://live.staticflickr.com/65535/50023875952_d8a562cb39_n.jpg",
    "id_album": "-1131363127",
    "description": "SnowLeopard_106616",
    "title": "SnowLeopard_106616",
    "link_img": "https://live.staticflickr.com/65535/50023875952_002b75ea9a_o.jpg",
    "id_image": "SnowLeopard_106616",
    "count_view": 0
  },
  {
    "link_thumb": "https://live.staticflickr.com/65535/50022148411_5ea86eb7a7_n.jpg",
    "id_album": "1894617400",
    "description": "Lynx_442063",
    "title": "Lynx_442063",
    "link_img": "https://live.staticflickr.com/65535/50022148411_f54826f14d_o.jpg",
    "id_image": "Lynx_442063",
    "count_view": 0
  },
  {
    "link_thumb": "https://live.staticflickr.com/65535/50020143991_d8e8f7d765_n.jpg",
    "id_album": "-149330232",
    "description": "Dog_197406",
    "title": "Dog_197406",
    "link_img": "https://live.staticflickr.com/65535/50020143991_a3a9c0f0e1_o.jpg",
    "id_image": "Dog_197406",
    "count_view": 0
  },
  {
    "link_thumb": "https://live.staticflickr.com/65535/50016940673_77e23fd46b_n.jpg",
    "id_album": "-530283314",
    "description": "BlueandyellowMacaw_541868",
    "title": "BlueandyellowMacaw_541868",
    "link_img": "https://live.staticflickr.com/65535/50016940673_b71fee6b2e_o.jpg",
    "id_image": "BlueandyellowMacaw_541868",
    "count_view": 0
  },
  {
    "link_thumb": "https://live.staticflickr.com/65535/50017972057_9f7c0f09c9_n.jpg",
    "id_album": "-401151552",
    "description": "Butterfly_927180",
    "title": "Butterfly_927180",
    "link_img": "https://live.staticflickr.com/65535/50017972057_3828b5d1c0_o.jpg",
    "id_image": "Butterfly_927180",
    "count_view": 0
  },
  {
    "link_thumb": "https://live.staticflickr.com/65535/50020174168_18662143a5_n.jpg",
    "id_album": "-39098563",
    "description": "Eagle_428512",
    "title": "Eagle_428512",
    "link_img": "https://live.staticflickr.com/65535/50020174168_fd5b53ceae_o.jpg",
    "id_image": "Eagle_428512",
    "count_view": 0
  },
  {
    "link_thumb": "https://live.staticflickr.com/65535/50017809542_f3262a0e1b_n.jpg",
    "id_album": "-401151552",
    "description": "Butterfly_234449",
    "title": "Butterfly_234449",
    "link_img": "https://live.staticflickr.com/65535/50017809542_30a14be94c_o.jpg",
    "id_image": "Butterfly_234449",
    "count_view": 0
  },
  {
    "link_thumb": "https://live.staticflickr.com/65535/50019059978_b97064e832_n.jpg",
    "id_album": "-1930903528",
    "description": "CatDog_783616",
    "title": "CatDog_783616",
    "link_img": "https://live.staticflickr.com/65535/50019059978_8a009f18d2_o.jpg",
    "id_image": "CatDog_783616",
    "count_view": 0
  },
  {
    "link_thumb": "https://live.staticflickr.com/65535/50019605397_5ee475b0ba_n.jpg",
    "id_album": "-462831705",
    "description": "Cat_86695",
    "title": "Cat_86695",
    "link_img": "https://live.staticflickr.com/65535/50019605397_e6b8064559_o.jpg",
    "id_image": "Cat_86695",
    "count_view": 0
  },
  {
    "link_thumb": "https://live.staticflickr.com/65535/50016599223_c93eafbc6d_n.jpg",
    "id_album": "1699594607",
    "description": "Bee_340522",
    "title": "Bee_340522",
    "link_img": "https://live.staticflickr.com/65535/50016599223_12f77f20d2_o.jpg",
    "id_image": "Bee_340522",
    "count_view": 0
  },
  {
    "link_thumb": "https://live.staticflickr.com/65535/50024545787_47e7564478_n.jpg",
    "id_album": "-1103743486",
    "description": "Toucan_866865",
    "title": "Toucan_866865",
    "link_img": "https://live.staticflickr.com/65535/50024545787_c73cf50040_o.jpg",
    "id_image": "Toucan_866865",
    "count_view": 0
  },
  {
    "link_thumb": "https://live.staticflickr.com/65535/50017317598_331ee7d283_n.jpg",
    "id_album": "-462831705",
    "description": "Cat_205400",
    "title": "Cat_205400",
    "link_img": "https://live.staticflickr.com/65535/50017317598_2c74fa7949_o.jpg",
    "id_image": "Cat_205400",
    "count_view": 0
  },
  {
    "link_thumb": "https://live.staticflickr.com/65535/50018277787_8353790ba1_n.jpg",
    "id_album": "-462831702",
    "description": "Cat_343941",
    "title": "Cat_343941",
    "link_img": "https://live.staticflickr.com/65535/50018277787_091d743726_o.jpg",
    "id_image": "Cat_343941",
    "count_view": 0
  },
  {
    "link_thumb": "https://live.staticflickr.com/65535/50021038847_bc35611977_n.jpg",
    "id_album": "1270947998",
    "description": "Elephant_718903",
    "title": "Elephant_718903",
    "link_img": "https://live.staticflickr.com/65535/50021038847_43549ae51d_o.jpg",
    "id_image": "Elephant_718903",
    "count_view": 0
  },
  {
    "link_thumb": "https://live.staticflickr.com/65535/50018138197_5697cd33d9_n.jpg",
    "id_album": "-462831705",
    "description": "Cat_232185",
    "title": "Cat_232185",
    "link_img": "https://live.staticflickr.com/65535/50018138197_f5071a66af_o.jpg",
    "id_image": "Cat_232185",
    "count_view": 0
  },
  {
    "link_thumb": "https://live.staticflickr.com/65535/50017815846_71768bd5d2_n.jpg",
    "id_album": "-462831705",
    "description": "Cat_178316",
    "title": "Cat_178316",
    "link_img": "https://live.staticflickr.com/65535/50017815846_ff1cc4a5ce_o.jpg",
    "id_image": "Cat_178316",
    "count_view": 0
  },
  {
    "link_thumb": "https://live.staticflickr.com/65535/50016415798_30102b0e73_n.jpg",
    "id_album": "390697200",
    "description": "AustralianShepherd_867501",
    "title": "AustralianShepherd_867501",
    "link_img": "https://live.staticflickr.com/65535/50016415798_b9e5fd7a16_o.jpg",
    "id_image": "AustralianShepherd_867501",
    "count_view": 0
  },
  {
    "link_thumb": "https://live.staticflickr.com/65535/50024157546_0a5d3a0ba7_n.jpg",
    "id_album": "405170427",
    "description": "Tiger_543903",
    "title": "Tiger_543903",
    "link_img": "https://live.staticflickr.com/65535/50024157546_1ac8c2328c_o.jpg",
    "id_image": "Tiger_543903",
    "count_view": 0
  },
  {
    "link_thumb": "https://live.staticflickr.com/65535/50020387456_9f007fc660_n.jpg",
    "id_album": "-149330231",
    "description": "Dog_408931",
    "title": "Dog_408931",
    "link_img": "https://live.staticflickr.com/65535/50020387456_d33c9fe07d_o.jpg",
    "id_image": "Dog_408931",
    "count_view": 0
  },
  {
    "link_thumb": "https://live.staticflickr.com/65535/50016980716_4e83665f28_n.jpg",
    "id_album": "-80092825",
    "description": "Barnowl_753287",
    "title": "Barnowl_753287",
    "link_img": "https://live.staticflickr.com/65535/50016980716_972078515d_o.jpg",
    "id_image": "Barnowl_753287",
    "count_view": 0
  },
  {
    "link_thumb": "https://live.staticflickr.com/65535/50352423951_ef857175fa_n.jpg",
    "id_album": "-462831703",
    "description": "Cat_206694",
    "title": "Cat_206694",
    "link_img": "https://live.staticflickr.com/65535/50352423951_394afd4958_o.jpg",
    "id_image": "Cat_206694",
    "count_view": 0
  },
  {
    "link_thumb": "https://live.staticflickr.com/65535/50023886402_6e4a018b46_n.jpg",
    "id_album": "-1131363127",
    "description": "SnowLeopard_283356",
    "title": "SnowLeopard_283356",
    "link_img": "https://live.staticflickr.com/65535/50023886402_442d88b2a8_o.jpg",
    "id_image": "SnowLeopard_283356",
    "count_view": 0
  },
  {
    "link_thumb": "https://live.staticflickr.com/65535/50020737351_ecb4c6c51a_n.jpg",
    "id_album": "1270947998",
    "description": "Elephant_265636",
    "title": "Elephant_265636",
    "link_img": "https://live.staticflickr.com/65535/50020737351_24534d1965_o.jpg",
    "id_image": "Elephant_265636",
    "count_view": 0
  },
  {
    "link_thumb": "https://live.staticflickr.com/65535/50352648547_bc3ea67bab_n.jpg",
    "id_album": "-462831703",
    "description": "Cat_390249",
    "title": "Cat_390249",
    "link_img": "https://live.staticflickr.com/65535/50352648547_1e45fcf2fe_o.jpg",
    "id_image": "Cat_390249",
    "count_view": 0
  },
  {
    "link_thumb": "https://live.staticflickr.com/65535/50023105703_a8f7e3cc9e_n.jpg",
    "id_album": "-1131363127",
    "description": "SnowLeopard_437845",
    "title": "SnowLeopard_437845",
    "link_img": "https://live.staticflickr.com/65535/50023105703_cd483b5ca8_o.jpg",
    "id_image": "SnowLeopard_437845",
    "count_view": 0
  },
  {
    "link_thumb": "https://live.staticflickr.com/65535/50021610021_b002fb1708_n.jpg",
    "id_album": "2144294979",
    "description": "Hummingbird_411197",
    "title": "Hummingbird_411197",
    "link_img": "https://live.staticflickr.com/65535/50021610021_831c36967a_o.jpg",
    "id_image": "Hummingbird_411197",
    "count_view": 0
  },
  {
    "link_thumb": "https://live.staticflickr.com/65535/50017129601_3a9b032f4e_n.jpg",
    "id_album": "1699594607",
    "description": "Bee_364920",
    "title": "Bee_364920",
    "link_img": "https://live.staticflickr.com/65535/50017129601_f80df8be37_o.jpg",
    "id_image": "Bee_364920",
    "count_view": 0
  },
  {
    "link_thumb": "https://live.staticflickr.com/65535/50020759343_bb4c1c9e04_n.jpg",
    "id_album": "-405626519",
    "description": "GermanShepherd_786460",
    "title": "GermanShepherd_786460",
    "link_img": "https://live.staticflickr.com/65535/50020759343_97966c2324_o.jpg",
    "id_image": "GermanShepherd_786460",
    "count_view": 0
  },
  {
    "link_thumb": "https://live.staticflickr.com/65535/50018171987_854ef9c863_n.jpg",
    "id_album": "-462831705",
    "description": "Cat_261316",
    "title": "Cat_261316",
    "link_img": "https://live.staticflickr.com/65535/50018171987_40cb3b7dce_o.jpg",
    "id_image": "Cat_261316",
    "count_view": 0
  },
  {
    "link_thumb": "https://live.staticflickr.com/65535/50021265181_4a55083b08_n.jpg",
    "id_album": "-462831703",
    "description": "Cat_821315",
    "title": "Cat_821315",
    "link_img": "https://live.staticflickr.com/65535/50021265181_86f444a58f_o.jpg",
    "id_image": "Cat_821315",
    "count_view": 0
  },
  {
    "link_thumb": "https://live.staticflickr.com/65535/50019160581_03cf0b597f_n.jpg",
    "id_album": "-462831702",
    "description": "Cat_423082",
    "title": "Cat_423082",
    "link_img": "https://live.staticflickr.com/65535/50019160581_6801ea7b28_o.jpg",
    "id_image": "Cat_423082",
    "count_view": 0
  },
  {
    "link_thumb": "https://live.staticflickr.com/65535/50017165472_7e74c4a91b_n.jpg",
    "id_album": "523598895",
    "description": "Artistic_427172",
    "title": "Artistic_427172",
    "link_img": "https://live.staticflickr.com/65535/50017165472_4780d96ffe_o.jpg",
    "id_image": "Artistic_427172",
    "count_view": 0
  },
  {
    "link_thumb": "https://live.staticflickr.com/65535/50017743507_3b464f4491_n.jpg",
    "id_album": "782930701",
    "description": "BorderCollie_516893",
    "title": "BorderCollie_516893",
    "link_img": "https://live.staticflickr.com/65535/50017743507_f85e7744ac_o.jpg",
    "id_image": "BorderCollie_516893",
    "count_view": 0
  },
  {
    "link_thumb": "https://live.staticflickr.com/65535/50023241988_1182cb1be1_n.jpg",
    "id_album": "-1082521515",
    "description": "Spider_640702",
    "title": "Spider_640702",
    "link_img": "https://live.staticflickr.com/65535/50023241988_ce47c05d4f_o.jpg",
    "id_image": "Spider_640702",
    "count_view": 0
  },
  {
    "link_thumb": "https://live.staticflickr.com/65535/50351766713_0ecfe2343e_n.jpg",
    "id_album": "-462831703",
    "description": "Cat_360084",
    "title": "Cat_360084",
    "link_img": "https://live.staticflickr.com/65535/50351766713_49d720edba_o.jpg",
    "id_image": "Cat_360084",
    "count_view": 0
  },
  {
    "link_thumb": "https://live.staticflickr.com/65535/50019063178_55ac2fcb2f_n.jpg",
    "id_album": "-1930903528",
    "description": "CatDog_845441",
    "title": "CatDog_845441",
    "link_img": "https://live.staticflickr.com/65535/50019063178_94fcc718d0_o.jpg",
    "id_image": "CatDog_845441",
    "count_view": 0
  },
  {
    "link_thumb": "https://live.staticflickr.com/65535/50017234027_b71ac968e7_n.jpg",
    "id_album": "231236068",
    "description": "BaldEagle_932065",
    "title": "BaldEagle_932065",
    "link_img": "https://live.staticflickr.com/65535/50017234027_f8277814a1_o.jpg",
    "id_image": "BaldEagle_932065",
    "count_view": 0
  },
  {
    "link_thumb": "https://live.staticflickr.com/65535/50020143632_7e38356fb8_n.jpg",
    "id_album": "1475096665",
    "description": "Crocodile_178432",
    "title": "Crocodile_178432",
    "link_img": "https://live.staticflickr.com/65535/50020143632_53a287ab6f_o.jpg",
    "id_image": "Crocodile_178432",
    "count_view": 0
  },
  {
    "link_thumb": "https://live.staticflickr.com/65535/50017551737_e9b118c6ed_n.jpg",
    "id_album": "-1846011410",
    "description": "Bird_384758",
    "title": "Bird_384758",
    "link_img": "https://live.staticflickr.com/65535/50017551737_0981b41fdf_o.jpg",
    "id_image": "Bird_384758",
    "count_view": 0
  },
  {
    "link_thumb": "https://live.staticflickr.com/65535/50021745821_bd74745cac_n.jpg",
    "id_album": "-843028318",
    "description": "Jaguar_945025",
    "title": "Jaguar_945025",
    "link_img": "https://live.staticflickr.com/65535/50021745821_2485875f0b_o.jpg",
    "id_image": "Jaguar_945025",
    "count_view": 0
  },
  {
    "link_thumb": "https://live.staticflickr.com/65535/50019716638_7788730022_n.jpg",
    "id_album": "-149330232",
    "description": "Dog_329663",
    "title": "Dog_329663",
    "link_img": "https://live.staticflickr.com/65535/50019716638_659fd6d06c_o.jpg",
    "id_image": "Dog_329663",
    "count_view": 0
  },
  {
    "link_thumb": "https://live.staticflickr.com/65535/50020519468_783a63989e_n.jpg",
    "id_album": "844170697",
    "description": "Frog_410293",
    "title": "Frog_410293",
    "link_img": "https://live.staticflickr.com/65535/50020519468_893393347b_o.jpg",
    "id_image": "Frog_410293",
    "count_view": 0
  },
  {
    "link_thumb": "https://live.staticflickr.com/65535/50019560421_59abc59898_n.jpg",
    "id_album": "-462831703",
    "description": "Cat_986773",
    "title": "Cat_986773",
    "link_img": "https://live.staticflickr.com/65535/50019560421_555660d83c_o.jpg",
    "id_image": "Cat_986773",
    "count_view": 0
  },
  {
    "link_thumb": "https://live.staticflickr.com/65535/50022019292_8f7c8ac54f_n.jpg",
    "id_album": "1562047127",
    "description": "Jellyfish_461179",
    "title": "Jellyfish_461179",
    "link_img": "https://live.staticflickr.com/65535/50022019292_7be5a3f90c_o.jpg",
    "id_image": "Jellyfish_461179",
    "count_view": 0
  },
  {
    "link_thumb": "https://live.staticflickr.com/65535/50021982948_d5904093e0_n.jpg",
    "id_album": "-358592519",
    "description": "Panda_361491",
    "title": "Panda_361491",
    "link_img": "https://live.staticflickr.com/65535/50021982948_f2cfcab8c1_o.jpg",
    "id_image": "Panda_361491",
    "count_view": 0
  },
  {
    "link_thumb": "https://live.staticflickr.com/65535/50022586438_6c9814e92a_n.jpg",
    "id_album": "-1940643173",
    "description": "Rabbit_831933",
    "title": "Rabbit_831933",
    "link_img": "https://live.staticflickr.com/65535/50022586438_5b7fb1721e_o.jpg",
    "id_image": "Rabbit_831933",
    "count_view": 0
  },
  {
    "link_thumb": "https://live.staticflickr.com/65535/50021895577_f91c58d0cb_n.jpg",
    "id_album": "-712553376",
    "description": "Husky_891402",
    "title": "Husky_891402",
    "link_img": "https://live.staticflickr.com/65535/50021895577_cd393dfca0_o.jpg",
    "id_image": "Husky_891402",
    "count_view": 0
  },
  {
    "link_thumb": "https://live.staticflickr.com/65535/50022662602_922d2dfaaa_n.jpg",
    "id_album": "-1384601601",
    "description": "Owl_367687",
    "title": "Owl_367687",
    "link_img": "https://live.staticflickr.com/65535/50022662602_570db098b7_o.jpg",
    "id_image": "Owl_367687",
    "count_view": 0
  },
  {
    "link_thumb": "https://live.staticflickr.com/65535/50017343283_8d90bc1cb1_n.jpg",
    "id_album": "-462831705",
    "description": "Cat_220446",
    "title": "Cat_220446",
    "link_img": "https://live.staticflickr.com/65535/50017343283_bfc8f16125_o.jpg",
    "id_image": "Cat_220446",
    "count_view": 0
  },
  {
    "link_thumb": "https://live.staticflickr.com/65535/50022108861_fc0dafdd28_n.jpg",
    "id_album": "-656526748",
    "description": "Lizard_342793",
    "title": "Lizard_342793",
    "link_img": "https://live.staticflickr.com/65535/50022108861_bdeefbf172_o.jpg",
    "id_image": "Lizard_342793",
    "count_view": 0
  },
  {
    "link_thumb": "https://live.staticflickr.com/65535/50021094008_2ae647e5b3_n.jpg",
    "id_album": "-712553376",
    "description": "Husky_573696",
    "title": "Husky_573696",
    "link_img": "https://live.staticflickr.com/65535/50021094008_d8083590ea_o.jpg",
    "id_image": "Husky_573696",
    "count_view": 0
  },
  {
    "link_thumb": "https://live.staticflickr.com/65535/50022140438_c2177ea512_n.jpg",
    "id_album": "392248205",
    "description": "Penguin_247655",
    "title": "Penguin_247655",
    "link_img": "https://live.staticflickr.com/65535/50022140438_0ae3ca7826_o.jpg",
    "id_image": "Penguin_247655",
    "count_view": 0
  },
  {
    "link_thumb": "https://live.staticflickr.com/65535/50018196217_db593a8766_n.jpg",
    "id_album": "-462831702",
    "description": "Cat_283939",
    "title": "Cat_283939",
    "link_img": "https://live.staticflickr.com/65535/50018196217_3a0f55da91_o.jpg",
    "id_image": "Cat_283939",
    "count_view": 0
  },
  {
    "link_thumb": "https://live.staticflickr.com/65535/50017019348_2b9a4e20fc_n.jpg",
    "id_album": "-401151552",
    "description": "Butterfly_220553",
    "title": "Butterfly_220553",
    "link_img": "https://live.staticflickr.com/65535/50017019348_1166fcb093_o.jpg",
    "id_image": "Butterfly_220553",
    "count_view": 0
  },
  {
    "link_thumb": "https://live.staticflickr.com/65535/50023198902_cbf224ff53_n.jpg",
    "id_album": "-1431524681",
    "description": "Pug_247333",
    "title": "Pug_247333",
    "link_img": "https://live.staticflickr.com/65535/50023198902_125d363d0a_o.jpg",
    "id_image": "Pug_247333",
    "count_view": 0
  },
  {
    "link_thumb": "https://live.staticflickr.com/65535/50019702071_e30de5504b_n.jpg",
    "id_album": "-1481843714",
    "description": "Cheetah_396318",
    "title": "Cheetah_396318",
    "link_img": "https://live.staticflickr.com/65535/50019702071_43d3d5f3ce_o.jpg",
    "id_image": "Cheetah_396318",
    "count_view": 0
  },
  {
    "link_thumb": "https://live.staticflickr.com/65535/50017162642_a2f799f13e_n.jpg",
    "id_album": "523598895",
    "description": "Artistic_391292",
    "title": "Artistic_391292",
    "link_img": "https://live.staticflickr.com/65535/50017162642_3bf37f9bec_o.jpg",
    "id_image": "Artistic_391292",
    "count_view": 0
  },
  {
    "link_thumb": "https://live.staticflickr.com/65535/50019593742_f9c15a51e9_n.jpg",
    "id_album": "-462831703",
    "description": "Cat_863204",
    "title": "Cat_863204",
    "link_img": "https://live.staticflickr.com/65535/50019593742_21ef33fe01_o.jpg",
    "id_image": "Cat_863204",
    "count_view": 0
  },
  {
    "link_thumb": "https://live.staticflickr.com/65535/50021889961_682560e070_n.jpg",
    "id_album": "1392348450",
    "description": "Leopard_231312",
    "title": "Leopard_231312",
    "link_img": "https://live.staticflickr.com/65535/50021889961_2abdf2daff_o.jpg",
    "id_image": "Leopard_231312",
    "count_view": 0
  },
  {
    "link_thumb": "https://live.staticflickr.com/65535/50021745147_6a4787a778_n.jpg",
    "id_album": "-1933715543",
    "description": "Horse_340729",
    "title": "Horse_340729",
    "link_img": "https://live.staticflickr.com/65535/50021745147_8fa21830c0_o.jpg",
    "id_image": "Horse_340729",
    "count_view": 0
  },
  {
    "link_thumb": "https://live.staticflickr.com/65535/50018167102_4e1af3d25c_n.jpg",
    "id_album": "-462831705",
    "description": "Cat_253206",
    "title": "Cat_253206",
    "link_img": "https://live.staticflickr.com/65535/50018167102_ff42a2f2da_o.jpg",
    "id_image": "Cat_253206",
    "count_view": 0
  },
  {
    "link_thumb": "https://live.staticflickr.com/65535/50024119986_58aa9d6de3_n.jpg",
    "id_album": "405170427",
    "description": "Tiger_406916",
    "title": "Tiger_406916",
    "link_img": "https://live.staticflickr.com/65535/50024119986_6aa27645ec_o.jpg",
    "id_image": "Tiger_406916",
    "count_view": 0
  },
  {
    "link_thumb": "https://live.staticflickr.com/65535/50022883012_3c8c196df2_n.jpg",
    "id_album": "1146438617",
    "description": "Pelican_433512",
    "title": "Pelican_433512",
    "link_img": "https://live.staticflickr.com/65535/50022883012_4e3acd69a8_o.jpg",
    "id_image": "Pelican_433512",
    "count_view": 0
  },
  {
    "link_thumb": "https://live.staticflickr.com/65535/50020460803_c08ec17aff_n.jpg",
    "id_album": "-128218148",
    "description": "Fox_781449",
    "title": "Fox_781449",
    "link_img": "https://live.staticflickr.com/65535/50020460803_92f6ba0807_o.jpg",
    "id_image": "Fox_781449",
    "count_view": 0
  },
  {
    "link_thumb": "https://live.staticflickr.com/65535/50017383873_9768ca6b90_n.jpg",
    "id_album": "-462831705",
    "description": "Cat_261184",
    "title": "Cat_261184",
    "link_img": "https://live.staticflickr.com/65535/50017383873_8ae974450d_o.jpg",
    "id_image": "Cat_261184",
    "count_view": 0
  },
  {
    "link_thumb": "https://live.staticflickr.com/65535/50351790993_e0e796fb7c_n.jpg",
    "id_album": "-462831703",
    "description": "Cat_385769",
    "title": "Cat_385769",
    "link_img": "https://live.staticflickr.com/65535/50351790993_2c21d3f120_o.jpg",
    "id_image": "Cat_385769",
    "count_view": 0
  },
  {
    "link_thumb": "https://live.staticflickr.com/65535/50020072908_1f4ed3fc0f_n.jpg",
    "id_album": "-405058657",
    "description": "Dragonfly_208095",
    "title": "Dragonfly_208095",
    "link_img": "https://live.staticflickr.com/65535/50020072908_161612c2db_o.jpg",
    "id_image": "Dragonfly_208095",
    "count_view": 0
  },
  {
    "link_thumb": "https://live.staticflickr.com/65535/50022396026_ff776a51f7_n.jpg",
    "id_album": "-1384601601",
    "description": "Owl_343284",
    "title": "Owl_343284",
    "link_img": "https://live.staticflickr.com/65535/50022396026_aea1c96b56_o.jpg",
    "id_image": "Owl_343284",
    "count_view": 0
  },
  {
    "link_thumb": "https://live.staticflickr.com/65535/50352418481_e7965d7b43_n.jpg",
    "id_album": "-462831703",
    "description": "Cat_202771",
    "title": "Cat_202771",
    "link_img": "https://live.staticflickr.com/65535/50352418481_e6e6957b99_o.jpg",
    "id_image": "Cat_202771",
    "count_view": 0
  },
  {
    "link_thumb": "https://live.staticflickr.com/65535/50018397342_3d17f2d02f_n.jpg",
    "id_album": "-462831702",
    "description": "Cat_398186",
    "title": "Cat_398186",
    "link_img": "https://live.staticflickr.com/65535/50018397342_c41a767ddf_o.jpg",
    "id_image": "Cat_398186",
    "count_view": 0
  },
  {
    "link_thumb": "https://live.staticflickr.com/65535/50020820357_790c28b575_n.jpg",
    "id_album": "-54509188",
    "description": "Dolphin_249578",
    "title": "Dolphin_249578",
    "link_img": "https://live.staticflickr.com/65535/50020820357_b32642b186_o.jpg",
    "id_image": "Dolphin_249578",
    "count_view": 0
  },
  {
    "link_thumb": "https://live.staticflickr.com/65535/50017584482_518a2d5587_n.jpg",
    "id_album": "-1846011410",
    "description": "Bird_425587",
    "title": "Bird_425587",
    "link_img": "https://live.staticflickr.com/65535/50017584482_69d72f037d_o.jpg",
    "id_image": "Bird_425587",
    "count_view": 0
  },
  {
    "link_thumb": "https://live.staticflickr.com/65535/50017939146_af1b06c8d0_n.jpg",
    "id_album": "-462831702",
    "description": "Cat_286562",
    "title": "Cat_286562",
    "link_img": "https://live.staticflickr.com/65535/50017939146_6673988c27_o.jpg",
    "id_image": "Cat_286562",
    "count_view": 0
  },
  {
    "link_thumb": "https://live.staticflickr.com/65535/50019880423_873a197df4_n.jpg",
    "id_album": "-149330231",
    "description": "Dog_436207",
    "title": "Dog_436207",
    "link_img": "https://live.staticflickr.com/65535/50019880423_bb3fedbae4_o.jpg",
    "id_image": "Dog_436207",
    "count_view": 0
  },
  {
    "link_thumb": "https://live.staticflickr.com/65535/50019732123_d5728fcd9f_n.jpg",
    "id_album": "-149330232",
    "description": "Dog_334685",
    "title": "Dog_334685",
    "link_img": "https://live.staticflickr.com/65535/50019732123_e6e1c7e655_o.jpg",
    "id_image": "Dog_334685",
    "count_view": 0
  },
  {
    "link_thumb": "https://live.staticflickr.com/65535/50023251636_dc4339069f_n.jpg",
    "id_album": "-2087362619",
    "description": "RedandgreenMacaw_569384",
    "title": "RedandgreenMacaw_569384",
    "link_img": "https://live.staticflickr.com/65535/50023251636_17edf246b1_o.jpg",
    "id_image": "RedandgreenMacaw_569384",
    "count_view": 0
  },
  {
    "link_thumb": "https://live.staticflickr.com/65535/50019858318_1d795299dc_n.jpg",
    "id_album": "-149330231",
    "description": "Dog_410322",
    "title": "Dog_410322",
    "link_img": "https://live.staticflickr.com/65535/50019858318_f6a6ef91b9_o.jpg",
    "id_image": "Dog_410322",
    "count_view": 0
  },
  {
    "link_thumb": "https://live.staticflickr.com/65535/50017391821_2fc8e3238c_n.jpg",
    "id_album": "-1846011410",
    "description": "Bird_616078",
    "title": "Bird_616078",
    "link_img": "https://live.staticflickr.com/65535/50017391821_6252fcaa28_o.jpg",
    "id_image": "Bird_616078",
    "count_view": 0
  },
  {
    "link_thumb": "https://live.staticflickr.com/65535/50016297578_538f502210_n.jpg",
    "id_album": "-229810103",
    "description": "AmericanBison_596095",
    "title": "AmericanBison_596095",
    "link_img": "https://live.staticflickr.com/65535/50016297578_35842ac073_o.jpg",
    "id_image": "AmericanBison_596095",
    "count_view": 0
  },
  {
    "link_thumb": "https://live.staticflickr.com/65535/50021959231_beff98b9ce_n.jpg",
    "id_album": "1392348450",
    "description": "Leopard_928784",
    "title": "Leopard_928784",
    "link_img": "https://live.staticflickr.com/65535/50021959231_d2c1c3d4d3_o.jpg",
    "id_image": "Leopard_928784",
    "count_view": 0
  },
  {
    "link_thumb": "https://live.staticflickr.com/65535/50023742762_0d853ceb3b_n.jpg",
    "id_album": "-755466332",
    "description": "Sheep_636274",
    "title": "Sheep_636274",
    "link_img": "https://live.staticflickr.com/65535/50023742762_87984a3e76_o.jpg",
    "id_image": "Sheep_636274",
    "count_view": 0
  },
  {
    "link_thumb": "https://live.staticflickr.com/65535/50022625962_bdde2b8b98_n.jpg",
    "id_album": "106807275",
    "description": "Otter_366732",
    "title": "Otter_366732",
    "link_img": "https://live.staticflickr.com/65535/50022625962_3ac9620642_o.jpg",
    "id_image": "Otter_366732",
    "count_view": 0
  },
  {
    "link_thumb": "https://live.staticflickr.com/65535/50021259383_dc51eb0b49_n.jpg",
    "id_album": "770105808",
    "description": "Kingfisher_533673",
    "title": "Kingfisher_533673",
    "link_img": "https://live.staticflickr.com/65535/50021259383_68bcb96b54_o.jpg",
    "id_image": "Kingfisher_533673",
    "count_view": 0
  },
  {
    "link_thumb": "https://live.staticflickr.com/65535/50016338778_70016c96f6_n.jpg",
    "id_album": "523598895",
    "description": "Artistic_116197",
    "title": "Artistic_116197",
    "link_img": "https://live.staticflickr.com/65535/50016338778_3c4f8dd73a_o.jpg",
    "id_image": "Artistic_116197",
    "count_view": 0
  },
  {
    "link_thumb": "https://live.staticflickr.com/65535/50352557237_c7a02dfec2_n.jpg",
    "id_album": "-462831703",
    "description": "Cat_113587",
    "title": "Cat_113587",
    "link_img": "https://live.staticflickr.com/65535/50352557237_77e4b00966_o.jpg",
    "id_image": "Cat_113587",
    "count_view": 0
  },
  {
    "link_thumb": "https://live.staticflickr.com/65535/50020057783_9cd6e09908_n.jpg",
    "id_album": "-54509188",
    "description": "Dolphin_765715",
    "title": "Dolphin_765715",
    "link_img": "https://live.staticflickr.com/65535/50020057783_5d3b8db294_o.jpg",
    "id_image": "Dolphin_765715",
    "count_view": 0
  },
  {
    "link_thumb": "https://live.staticflickr.com/65535/50020412333_af67f25f3c_n.jpg",
    "id_album": "-128218148",
    "description": "Fox_370290",
    "title": "Fox_370290",
    "link_img": "https://live.staticflickr.com/65535/50020412333_4835e62848_o.jpg",
    "id_image": "Fox_370290",
    "count_view": 0
  },
  {
    "link_thumb": "https://live.staticflickr.com/65535/50020363921_dea7761cc8_n.jpg",
    "id_album": "-149330231",
    "description": "Dog_386668",
    "title": "Dog_386668",
    "link_img": "https://live.staticflickr.com/65535/50020363921_80f3f5d754_o.jpg",
    "id_image": "Dog_386668",
    "count_view": 0
  },
  {
    "link_thumb": "https://live.staticflickr.com/65535/50352598797_f2e8cf6002_n.jpg",
    "id_album": "-462831703",
    "description": "Cat_242820",
    "title": "Cat_242820",
    "link_img": "https://live.staticflickr.com/65535/50352598797_81fa242584_o.jpg",
    "id_image": "Cat_242820",
    "count_view": 0
  },
  {
    "link_thumb": "https://live.staticflickr.com/65535/50023967956_4b1363d912_n.jpg",
    "id_album": "702283289",
    "description": "Squirrel_915238",
    "title": "Squirrel_915238",
    "link_img": "https://live.staticflickr.com/65535/50023967956_dba691ec11_o.jpg",
    "id_image": "Squirrel_915238",
    "count_view": 0
  },
  {
    "link_thumb": "https://live.staticflickr.com/65535/50352747432_b827165d57_n.jpg",
    "id_album": "-462831703",
    "description": "Cat_526830",
    "title": "Cat_526830",
    "link_img": "https://live.staticflickr.com/65535/50352747432_e6a62abb9c_o.jpg",
    "id_image": "Cat_526830",
    "count_view": 0
  },
  {
    "link_thumb": "https://live.staticflickr.com/65535/50022769767_dfb0994204_n.jpg",
    "id_album": "-1384601601",
    "description": "Owl_977322",
    "title": "Owl_977322",
    "link_img": "https://live.staticflickr.com/65535/50022769767_23b5f1b901_o.jpg",
    "id_image": "Owl_977322",
    "count_view": 0
  },
  {
    "link_thumb": "https://live.staticflickr.com/65535/50019141671_04710257e6_n.jpg",
    "id_album": "-462831702",
    "description": "Cat_411964",
    "title": "Cat_411964",
    "link_img": "https://live.staticflickr.com/65535/50019141671_ddfb047d66_o.jpg",
    "id_image": "Cat_411964",
    "count_view": 0
  },
  {
    "link_thumb": "https://live.staticflickr.com/65535/50017755687_04a77430f0_n.jpg",
    "id_album": "782930701",
    "description": "BorderCollie_815580",
    "title": "BorderCollie_815580",
    "link_img": "https://live.staticflickr.com/65535/50017755687_b33ae121e5_o.jpg",
    "id_image": "BorderCollie_815580",
    "count_view": 0
  },
  {
    "link_thumb": "https://live.staticflickr.com/65535/50024053581_5035f06e5a_n.jpg",
    "id_album": "405170427",
    "description": "Tiger_263522",
    "title": "Tiger_263522",
    "link_img": "https://live.staticflickr.com/65535/50024053581_a54ca4817e_o.jpg",
    "id_image": "Tiger_263522",
    "count_view": 0
  },
  {
    "link_thumb": "https://live.staticflickr.com/65535/50021497902_9234ab184e_n.jpg",
    "id_album": "-462831703",
    "description": "Cat_784299",
    "title": "Cat_784299",
    "link_img": "https://live.staticflickr.com/65535/50021497902_179da560f0_o.jpg",
    "id_image": "Cat_784299",
    "count_view": 0
  },
  {
    "link_thumb": "https://live.staticflickr.com/65535/50019207706_2f8b49de56_n.jpg",
    "id_album": "-462831704",
    "description": "Cat_441228",
    "title": "Cat_441228",
    "link_img": "https://live.staticflickr.com/65535/50019207706_2e8ceb4f9b_o.jpg",
    "id_image": "Cat_441228",
    "count_view": 0
  },
  {
    "link_thumb": "https://live.staticflickr.com/65535/50019759123_9f6215ec92_n.jpg",
    "id_album": "-149330232",
    "description": "Dog_346222",
    "title": "Dog_346222",
    "link_img": "https://live.staticflickr.com/65535/50019759123_2c8135ea5f_o.jpg",
    "id_image": "Dog_346222",
    "count_view": 0
  },
  {
    "link_thumb": "https://live.staticflickr.com/65535/50021994272_cbf94af350_n.jpg",
    "id_album": "-843028318",
    "description": "Jaguar_777150",
    "title": "Jaguar_777150",
    "link_img": "https://live.staticflickr.com/65535/50021994272_f45bfd0af2_o.jpg",
    "id_image": "Jaguar_777150",
    "count_view": 0
  },
  {
    "link_thumb": "https://live.staticflickr.com/65535/50020667948_95631168f1_n.jpg",
    "id_album": "-462831704",
    "description": "Cat_730195",
    "title": "Cat_730195",
    "link_img": "https://live.staticflickr.com/65535/50020667948_1d6297b7f6_o.jpg",
    "id_image": "Cat_730195",
    "count_view": 0
  },
  {
    "link_thumb": "https://live.staticflickr.com/65535/50019997958_5e28cf5026_n.jpg",
    "id_album": "-149330231",
    "description": "Dog_875739",
    "title": "Dog_875739",
    "link_img": "https://live.staticflickr.com/65535/50019997958_5e2ed663d4_o.jpg",
    "id_image": "Dog_875739",
    "count_view": 0
  },
  {
    "link_thumb": "https://live.staticflickr.com/65535/50022869178_be8abf6d44_n.jpg",
    "id_album": "1961094930",
    "description": "Seal_432509",
    "title": "Seal_432509",
    "link_img": "https://live.staticflickr.com/65535/50022869178_559a04163e_o.jpg",
    "id_image": "Seal_432509",
    "count_view": 0
  },
  {
    "link_thumb": "https://live.staticflickr.com/65535/50019466591_c2e0a9b53e_n.jpg",
    "id_album": "-462831703",
    "description": "Cat_917448",
    "title": "Cat_917448",
    "link_img": "https://live.staticflickr.com/65535/50019466591_d92bebb799_o.jpg",
    "id_image": "Cat_917448",
    "count_view": 0
  },
  {
    "link_thumb": "https://live.staticflickr.com/65535/50016310688_3ba1e7115d_n.jpg",
    "id_album": "-1741290715",
    "description": "Ant_610077",
    "title": "Ant_610077",
    "link_img": "https://live.staticflickr.com/65535/50016310688_76ab0d5ddf_o.jpg",
    "id_image": "Ant_610077",
    "count_view": 0
  },
  {
    "link_thumb": "https://live.staticflickr.com/65535/50019965076_6cbef09535_n.jpg",
    "id_album": "-1783645069",
    "description": "Dalmatian_369454",
    "title": "Dalmatian_369454",
    "link_img": "https://live.staticflickr.com/65535/50019965076_7f8ed6fd5d_o.jpg",
    "id_image": "Dalmatian_369454",
    "count_view": 0
  },
  {
    "link_thumb": "https://live.staticflickr.com/65535/50017385147_2a2b6e5dc3_n.jpg",
    "id_album": "1699594607",
    "description": "Bee_327793",
    "title": "Bee_327793",
    "link_img": "https://live.staticflickr.com/65535/50017385147_3365f34cf5_o.jpg",
    "id_image": "Bee_327793",
    "count_view": 0
  },
  {
    "link_thumb": "https://live.staticflickr.com/65535/50021197402_2ed2497148_n.jpg",
    "id_album": "-128218148",
    "description": "Fox_320966",
    "title": "Fox_320966",
    "link_img": "https://live.staticflickr.com/65535/50021197402_4eccd061dd_o.jpg",
    "id_image": "Fox_320966",
    "count_view": 0
  },
  {
    "link_thumb": "https://live.staticflickr.com/65535/50019931368_c4d265cc64_n.jpg",
    "id_album": "-149330231",
    "description": "Dog_591249",
    "title": "Dog_591249",
    "link_img": "https://live.staticflickr.com/65535/50019931368_0c20095677_o.jpg",
    "id_image": "Dog_591249",
    "count_view": 0
  },
  {
    "link_thumb": "https://live.staticflickr.com/65535/50023579463_778c495040_n.jpg",
    "id_album": "405170427",
    "description": "Tiger_418418",
    "title": "Tiger_418418",
    "link_img": "https://live.staticflickr.com/65535/50023579463_7cd07fbb8c_o.jpg",
    "id_image": "Tiger_418418",
    "count_view": 0
  },
  {
    "link_thumb": "https://live.staticflickr.com/65535/50019603301_d145844554_n.jpg",
    "id_album": "-420782796",
    "description": "Caterpillar_391537",
    "title": "Caterpillar_391537",
    "link_img": "https://live.staticflickr.com/65535/50019603301_cf8f866b3f_o.jpg",
    "id_image": "Caterpillar_391537",
    "count_view": 0
  },
  {
    "link_thumb": "https://live.staticflickr.com/65535/50020538951_ae7ee0d408_n.jpg",
    "id_album": "-149330231",
    "description": "Dog_900337",
    "title": "Dog_900337",
    "link_img": "https://live.staticflickr.com/65535/50020538951_e3ce2195f0_o.jpg",
    "id_image": "Dog_900337",
    "count_view": 0
  },
  {
    "link_thumb": "https://live.staticflickr.com/65535/50021248806_5827643cd4_n.jpg",
    "id_album": "-462831703",
    "description": "Cat_789391",
    "title": "Cat_789391",
    "link_img": "https://live.staticflickr.com/65535/50021248806_fafbf0deb7_o.jpg",
    "id_image": "Cat_789391",
    "count_view": 0
  },
  {
    "link_thumb": "https://live.staticflickr.com/65535/50021881773_7d8a06edc3_n.jpg",
    "id_album": "-1384601601",
    "description": "Owl_431078",
    "title": "Owl_431078",
    "link_img": "https://live.staticflickr.com/65535/50021881773_a218898a15_o.jpg",
    "id_image": "Owl_431078",
    "count_view": 0
  },
  {
    "link_thumb": "https://live.staticflickr.com/65535/50022074842_064d954dfe_n.jpg",
    "id_album": "771796001",
    "description": "Koala_545329",
    "title": "Koala_545329",
    "link_img": "https://live.staticflickr.com/65535/50022074842_836f89383d_o.jpg",
    "id_image": "Koala_545329",
    "count_view": 0
  },
  {
    "link_thumb": "https://live.staticflickr.com/65535/50019867147_256052910e_n.jpg",
    "id_album": "-420782796",
    "description": "Caterpillar_574046",
    "title": "Caterpillar_574046",
    "link_img": "https://live.staticflickr.com/65535/50019867147_47638d8dcf_o.jpg",
    "id_image": "Caterpillar_574046",
    "count_view": 0
  },
  {
    "link_thumb": "https://live.staticflickr.com/65535/50022815197_be5828d7a0_n.jpg",
    "id_album": "405592235",
    "description": "Parrot_160400",
    "title": "Parrot_160400",
    "link_img": "https://live.staticflickr.com/65535/50022815197_1885beae8b_o.jpg",
    "id_image": "Parrot_160400",
    "count_view": 0
  },
  {
    "link_thumb": "https://live.staticflickr.com/65535/50016503718_c47389afe5_n.jpg",
    "id_album": "-422187261",
    "description": "Bear_361457",
    "title": "Bear_361457",
    "link_img": "https://live.staticflickr.com/65535/50016503718_fdca753f2c_o.jpg",
    "id_image": "Bear_361457",
    "count_view": 0
  },
  {
    "link_thumb": "https://live.staticflickr.com/65535/50019862373_70dc1740e1_n.jpg",
    "id_album": "-149330231",
    "description": "Dog_412312",
    "title": "Dog_412312",
    "link_img": "https://live.staticflickr.com/65535/50019862373_996b03e969_o.jpg",
    "id_image": "Dog_412312",
    "count_view": 0
  },
  {
    "link_thumb": "https://live.staticflickr.com/65535/50021110706_d1d5147428_n.jpg",
    "id_album": "-462831704",
    "description": "Cat_553104",
    "title": "Cat_553104",
    "link_img": "https://live.staticflickr.com/65535/50021110706_77ae96559a_o.jpg",
    "id_image": "Cat_553104",
    "count_view": 0
  },
  {
    "link_thumb": "https://live.staticflickr.com/65535/50020891737_2b7b8d96c0_n.jpg",
    "id_album": "-405058657",
    "description": "Dragonfly_646614",
    "title": "Dragonfly_646614",
    "link_img": "https://live.staticflickr.com/65535/50020891737_40fe0e1660_o.jpg",
    "id_image": "Dragonfly_646614",
    "count_view": 0
  },
  {
    "link_thumb": "https://live.staticflickr.com/65535/50020385011_d8462cce40_n.jpg",
    "id_album": "-149330231",
    "description": "Dog_407938",
    "title": "Dog_407938",
    "link_img": "https://live.staticflickr.com/65535/50020385011_aa4784d482_o.jpg",
    "id_image": "Dog_407938",
    "count_view": 0
  },
  {
    "link_thumb": "https://live.staticflickr.com/65535/50020746876_3341398e6c_n.jpg",
    "id_album": "1270947998",
    "description": "Elephant_350722",
    "title": "Elephant_350722",
    "link_img": "https://live.staticflickr.com/65535/50020746876_3cd3075655_o.jpg",
    "id_image": "Elephant_350722",
    "count_view": 0
  },
  {
    "link_thumb": "https://live.staticflickr.com/65535/50019785271_81224a080a_n.jpg",
    "id_album": "643379324",
    "description": "Clownfish_684512",
    "title": "Clownfish_684512",
    "link_img": "https://live.staticflickr.com/65535/50019785271_af526de3df_o.jpg",
    "id_image": "Clownfish_684512",
    "count_view": 0
  },
  {
    "link_thumb": "https://live.staticflickr.com/65535/50017381852_d1b288c021_n.jpg",
    "id_album": "1699594607",
    "description": "Bee_245642",
    "title": "Bee_245642",
    "link_img": "https://live.staticflickr.com/65535/50017381852_aea1634533_o.jpg",
    "id_image": "Bee_245642",
    "count_view": 0
  },
  {
    "link_thumb": "https://live.staticflickr.com/65535/50021421428_590977bf25_n.jpg",
    "id_album": "1392348450",
    "description": "Leopard_984810",
    "title": "Leopard_984810",
    "link_img": "https://live.staticflickr.com/65535/50021421428_07acfe01c7_o.jpg",
    "id_image": "Leopard_984810",
    "count_view": 0
  },
  {
    "link_thumb": "https://live.staticflickr.com/65535/50019423213_81853a70e9_n.jpg",
    "id_album": "1831085598",
    "description": "Dachshund_713342",
    "title": "Dachshund_713342",
    "link_img": "https://live.staticflickr.com/65535/50019423213_366759fcd3_o.jpg",
    "id_image": "Dachshund_713342",
    "count_view": 0
  },
  {
    "link_thumb": "https://live.staticflickr.com/65535/50023187097_4eda5e9267_n.jpg",
    "id_album": "-356780855",
    "description": "Puffin_714877",
    "title": "Puffin_714877",
    "link_img": "https://live.staticflickr.com/65535/50023187097_bd6548db40_o.jpg",
    "id_image": "Puffin_714877",
    "count_view": 0
  },
  {
    "link_thumb": "https://live.staticflickr.com/65535/50022298046_ef7a653c12_n.jpg",
    "id_album": "1957967135",
    "description": "Mouse_877313",
    "title": "Mouse_877313",
    "link_img": "https://live.staticflickr.com/65535/50022298046_bee8c4d51d_o.jpg",
    "id_image": "Mouse_877313",
    "count_view": 0
  },
  {
    "link_thumb": "https://live.staticflickr.com/65535/50022666913_a2b1e515b8_n.jpg",
    "id_album": "332874268",
    "description": "RedPanda_363259",
    "title": "RedPanda_363259",
    "link_img": "https://live.staticflickr.com/65535/50022666913_21bdca2e48_o.jpg",
    "id_image": "RedPanda_363259",
    "count_view": 0
  },
  {
    "link_thumb": "https://live.staticflickr.com/65535/50020468566_073cc6a43c_n.jpg",
    "id_album": "-149330231",
    "description": "Dog_638215",
    "title": "Dog_638215",
    "link_img": "https://live.staticflickr.com/65535/50020468566_47f3445c4e_o.jpg",
    "id_image": "Dog_638215",
    "count_view": 0
  },
  {
    "link_thumb": "https://live.staticflickr.com/65535/50017585086_257ab7fc35_n.jpg",
    "id_album": "-401151552",
    "description": "Butterfly_407479",
    "title": "Butterfly_407479",
    "link_img": "https://live.staticflickr.com/65535/50017585086_e188a582bb_o.jpg",
    "id_image": "Butterfly_407479",
    "count_view": 0
  },
  {
    "link_thumb": "https://live.staticflickr.com/65535/50019995512_5a7688ce04_n.jpg",
    "id_album": "-1481843714",
    "description": "Cheetah_990724",
    "title": "Cheetah_990724",
    "link_img": "https://live.staticflickr.com/65535/50019995512_d9cf2001e0_o.jpg",
    "id_image": "Cheetah_990724",
    "count_view": 0
  },
  {
    "link_thumb": "https://live.staticflickr.com/65535/50018670813_ce8837582a_n.jpg",
    "id_album": "-462831704",
    "description": "Cat_438697",
    "title": "Cat_438697",
    "link_img": "https://live.staticflickr.com/65535/50018670813_c7da5f9e32_o.jpg",
    "id_image": "Cat_438697",
    "count_view": 0
  },
  {
    "link_thumb": "https://live.staticflickr.com/65535/50020641688_78b08b6ecf_n.jpg",
    "id_album": "-462831704",
    "description": "Cat_704452",
    "title": "Cat_704452",
    "link_img": "https://live.staticflickr.com/65535/50020641688_d1b6a19191_o.jpg",
    "id_image": "Cat_704452",
    "count_view": 0
  },
  {
    "link_thumb": "https://live.staticflickr.com/65535/50352427406_cff419fd86_n.jpg",
    "id_album": "-462831703",
    "description": "Cat_211417",
    "title": "Cat_211417",
    "link_img": "https://live.staticflickr.com/65535/50352427406_d5caa94b57_o.jpg",
    "id_image": "Cat_211417",
    "count_view": 0
  },
  {
    "link_thumb": "https://live.staticflickr.com/65535/50018792433_49a13466ab_n.jpg",
    "id_album": "-462831703",
    "description": "Cat_852988",
    "title": "Cat_852988",
    "link_img": "https://live.staticflickr.com/65535/50018792433_96e780fa0d_o.jpg",
    "id_image": "Cat_852988",
    "count_view": 0
  },
  {
    "link_thumb": "https://live.staticflickr.com/65535/50017659431_32ab22786e_n.jpg",
    "id_album": "-401151552",
    "description": "Butterfly_742094",
    "title": "Butterfly_742094",
    "link_img": "https://live.staticflickr.com/65535/50017659431_b604bec36c_o.jpg",
    "id_image": "Butterfly_742094",
    "count_view": 0
  },
  {
    "link_thumb": "https://live.staticflickr.com/65535/50021149161_a83e434cf6_n.jpg",
    "id_album": "-462831704",
    "description": "Cat_649585",
    "title": "Cat_649585",
    "link_img": "https://live.staticflickr.com/65535/50021149161_fd1612509c_o.jpg",
    "id_image": "Cat_649585",
    "count_view": 0
  },
  {
    "link_thumb": "https://live.staticflickr.com/65535/50018096392_bbf63e577a_n.jpg",
    "id_album": "-462831705",
    "description": "Cat_191491",
    "title": "Cat_191491",
    "link_img": "https://live.staticflickr.com/65535/50018096392_6821033af6_o.jpg",
    "id_image": "Cat_191491",
    "count_view": 0
  },
  {
    "link_thumb": "https://live.staticflickr.com/65535/50022521723_4ab47d1f4d_n.jpg",
    "id_album": "-353898617",
    "description": "Puppy_833727",
    "title": "Puppy_833727",
    "link_img": "https://live.staticflickr.com/65535/50022521723_6ae860b558_o.jpg",
    "id_image": "Puppy_833727",
    "count_view": 0
  },
  {
    "link_thumb": "https://live.staticflickr.com/65535/50017139327_a9070b4233_n.jpg",
    "id_album": "523598895",
    "description": "Artistic_209489",
    "title": "Artistic_209489",
    "link_img": "https://live.staticflickr.com/65535/50017139327_c53e64dfec_o.jpg",
    "id_image": "Artistic_209489",
    "count_view": 0
  },
  {
    "link_thumb": "https://live.staticflickr.com/65535/50021146078_a9a961d178_n.jpg",
    "id_album": "1658866795",
    "description": "Insect_404560",
    "title": "Insect_404560",
    "link_img": "https://live.staticflickr.com/65535/50021146078_a4f2a26e7b_o.jpg",
    "id_image": "Insect_404560",
    "count_view": 0
  },
  {
    "link_thumb": "https://live.staticflickr.com/65535/50020021031_f71334eab3_n.jpg",
    "id_album": "1903411565",
    "description": "Deer_541625",
    "title": "Deer_541625",
    "link_img": "https://live.staticflickr.com/65535/50020021031_3f2953270c_o.jpg",
    "id_image": "Deer_541625",
    "count_view": 0
  },
  {
    "link_thumb": "https://live.staticflickr.com/65535/50017513897_eec6bd0478_n.jpg",
    "id_album": "-1846011410",
    "description": "Bird_342897",
    "title": "Bird_342897",
    "link_img": "https://live.staticflickr.com/65535/50017513897_09550fa546_o.jpg",
    "id_image": "Bird_342897",
    "count_view": 0
  },
  {
    "link_thumb": "https://live.staticflickr.com/65535/50021391798_ed6b824968_n.jpg",
    "id_album": "1392348450",
    "description": "Leopard_542633",
    "title": "Leopard_542633",
    "link_img": "https://live.staticflickr.com/65535/50021391798_f388dee144_o.jpg",
    "id_image": "Leopard_542633",
    "count_view": 0
  },
  {
    "link_thumb": "https://live.staticflickr.com/65535/50020691308_4a5851109f_n.jpg",
    "id_album": "-462831703",
    "description": "Cat_766629",
    "title": "Cat_766629",
    "link_img": "https://live.staticflickr.com/65535/50020691308_aacef0562f_o.jpg",
    "id_image": "Cat_766629",
    "count_view": 0
  },
  {
    "link_thumb": "https://live.staticflickr.com/65535/50022787008_4c66f0532b_n.jpg",
    "id_album": "-419757464",
    "description": "SeaLife_110379",
    "title": "SeaLife_110379",
    "link_img": "https://live.staticflickr.com/65535/50022787008_37cb0b3607_o.jpg",
    "id_image": "SeaLife_110379",
    "count_view": 0
  },
  {
    "link_thumb": "https://live.staticflickr.com/65535/50023756358_65cfb3d16a_n.jpg",
    "id_album": "46520366",
    "description": "Turtle_235107",
    "title": "Turtle_235107",
    "link_img": "https://live.staticflickr.com/65535/50023756358_e9ec1b4b9a_o.jpg",
    "id_image": "Turtle_235107",
    "count_view": 0
  },
  {
    "link_thumb": "https://live.staticflickr.com/65535/50017504363_39c5292c47_n.jpg",
    "id_album": "-462831702",
    "description": "Cat_349901",
    "title": "Cat_349901",
    "link_img": "https://live.staticflickr.com/65535/50017504363_076f72cfa6_o.jpg",
    "id_image": "Cat_349901",
    "count_view": 0
  },
  {
    "link_thumb": "https://live.staticflickr.com/65535/50024115396_8ede2d4c80_n.jpg",
    "id_album": "405170427",
    "description": "Tiger_398502",
    "title": "Tiger_398502",
    "link_img": "https://live.staticflickr.com/65535/50024115396_9d0c4df43a_o.jpg",
    "id_image": "Tiger_398502",
    "count_view": 0
  },
  {
    "link_thumb": "https://live.staticflickr.com/65535/50024154326_428285a4f9_n.jpg",
    "id_album": "405170427",
    "description": "Tiger_538916",
    "title": "Tiger_538916",
    "link_img": "https://live.staticflickr.com/65535/50024154326_e0fd4e99fd_o.jpg",
    "id_image": "Tiger_538916",
    "count_view": 0
  },
  {
    "link_thumb": "https://live.staticflickr.com/65535/50017763682_3fe82f7807_n.jpg",
    "id_album": "782930701",
    "description": "BorderCollie_866779",
    "title": "BorderCollie_866779",
    "link_img": "https://live.staticflickr.com/65535/50017763682_15aebceb35_o.jpg",
    "id_image": "BorderCollie_866779",
    "count_view": 0
  },
  {
    "link_thumb": "https://live.staticflickr.com/65535/50021100986_6072aa2307_n.jpg",
    "id_album": "-462831704",
    "description": "Cat_543320",
    "title": "Cat_543320",
    "link_img": "https://live.staticflickr.com/65535/50021100986_58a410fd2f_o.jpg",
    "id_image": "Cat_543320",
    "count_view": 0
  },
  {
    "link_thumb": "https://live.staticflickr.com/65535/50021488062_10ee4b11a8_n.jpg",
    "id_album": "-462831703",
    "description": "Cat_771815",
    "title": "Cat_771815",
    "link_img": "https://live.staticflickr.com/65535/50021488062_40fed7e0f2_o.jpg",
    "id_image": "Cat_771815",
    "count_view": 0
  },
  {
    "link_thumb": "https://live.staticflickr.com/65535/50021343222_cc60534f78_n.jpg",
    "id_album": "844170697",
    "description": "Frog_987663",
    "title": "Frog_987663",
    "link_img": "https://live.staticflickr.com/65535/50021343222_8036696cd0_o.jpg",
    "id_image": "Frog_987663",
    "count_view": 0
  },
  {
    "link_thumb": "https://live.staticflickr.com/65535/50016487848_c676e58282_n.jpg",
    "id_album": "-422187261",
    "description": "Bear_276104",
    "title": "Bear_276104",
    "link_img": "https://live.staticflickr.com/65535/50016487848_a43d5c7239_o.jpg",
    "id_image": "Bear_276104",
    "count_view": 0
  },
  {
    "link_thumb": "https://live.staticflickr.com/65535/50022509798_2e4bd860b3_n.jpg",
    "id_album": "-353898617",
    "description": "Puppy_694773",
    "title": "Puppy_694773",
    "link_img": "https://live.staticflickr.com/65535/50022509798_d3c0466c70_o.jpg",
    "id_image": "Puppy_694773",
    "count_view": 0
  },
  {
    "link_thumb": "https://live.staticflickr.com/65535/50018412612_935bff2314_n.jpg",
    "id_album": "-462831702",
    "description": "Cat_407409",
    "title": "Cat_407409",
    "link_img": "https://live.staticflickr.com/65535/50018412612_a129583882_o.jpg",
    "id_image": "Cat_407409",
    "count_view": 0
  },
  {
    "link_thumb": "https://live.staticflickr.com/65535/50019976862_e19f9707ca_n.jpg",
    "id_album": "-1481843714",
    "description": "Cheetah_686303",
    "title": "Cheetah_686303",
    "link_img": "https://live.staticflickr.com/65535/50019976862_a970b8d6e7_o.jpg",
    "id_image": "Cheetah_686303",
    "count_view": 0
  },
  {
    "link_thumb": "https://live.staticflickr.com/65535/50023376776_4d4058e6e6_n.jpg",
    "id_album": "1656131695",
    "description": "Seagull_534786",
    "title": "Seagull_534786",
    "link_img": "https://live.staticflickr.com/65535/50023376776_f53c0544c6_o.jpg",
    "id_image": "Seagull_534786",
    "count_view": 0
  },
  {
    "link_thumb": "https://live.staticflickr.com/65535/50019589962_98ba83f220_n.jpg",
    "id_album": "-462831703",
    "description": "Cat_859832",
    "title": "Cat_859832",
    "link_img": "https://live.staticflickr.com/65535/50019589962_be9b7e1b9e_o.jpg",
    "id_image": "Cat_859832",
    "count_view": 0
  },
  {
    "link_thumb": "https://live.staticflickr.com/65535/50017571711_29df8397ce_n.jpg",
    "id_album": "-401151552",
    "description": "Butterfly_366108",
    "title": "Butterfly_366108",
    "link_img": "https://live.staticflickr.com/65535/50017571711_76071928af_o.jpg",
    "id_image": "Butterfly_366108",
    "count_view": 0
  },
  {
    "link_thumb": "https://live.staticflickr.com/65535/50020658772_d828c4eae4_n.jpg",
    "id_album": "-149330231",
    "description": "Dog_421943",
    "title": "Dog_421943",
    "link_img": "https://live.staticflickr.com/65535/50020658772_75f73d97b4_o.jpg",
    "id_image": "Dog_421943",
    "count_view": 0
  },
  {
    "link_thumb": "https://live.staticflickr.com/65535/50021309698_d2b6113e5a_n.jpg",
    "id_album": "-1882491687",
    "description": "Ladybug_447497",
    "title": "Ladybug_447497",
    "link_img": "https://live.staticflickr.com/65535/50021309698_9965155326_o.jpg",
    "id_image": "Ladybug_447497",
    "count_view": 0
  },
  {
    "link_thumb": "https://live.staticflickr.com/65535/50020526093_66f9e1c00e_n.jpg",
    "id_album": "844170697",
    "description": "Frog_556330",
    "title": "Frog_556330",
    "link_img": "https://live.staticflickr.com/65535/50020526093_9e548121a0_o.jpg",
    "id_image": "Frog_556330",
    "count_view": 0
  },
  {
    "link_thumb": "https://live.staticflickr.com/65535/50019774021_c8f6315c1c_n.jpg",
    "id_album": "791455625",
    "description": "Chipmunk_882791",
    "title": "Chipmunk_882791",
    "link_img": "https://live.staticflickr.com/65535/50019774021_79c6c0bb6d_o.jpg",
    "id_image": "Chipmunk_882791",
    "count_view": 0
  },
  {
    "link_thumb": "https://live.staticflickr.com/65535/50024087476_9640144143_n.jpg",
    "id_album": "405170427",
    "description": "Tiger_367344",
    "title": "Tiger_367344",
    "link_img": "https://live.staticflickr.com/65535/50024087476_0b65959f41_o.jpg",
    "id_image": "Tiger_367344",
    "count_view": 0
  },
  {
    "link_thumb": "https://live.staticflickr.com/65535/50017429878_00dd21cfd5_n.jpg",
    "id_album": "-462831702",
    "description": "Cat_313210",
    "title": "Cat_313210",
    "link_img": "https://live.staticflickr.com/65535/50017429878_ced27d9493_o.jpg",
    "id_image": "Cat_313210",
    "count_view": 0
  },
  {
    "link_thumb": "https://live.staticflickr.com/65535/50023578463_07a7b910d8_n.jpg",
    "id_album": "405170427",
    "description": "Tiger_415030",
    "title": "Tiger_415030",
    "link_img": "https://live.staticflickr.com/65535/50023578463_224c4cd0f1_o.jpg",
    "id_image": "Tiger_415030",
    "count_view": 0
  },
  {
    "link_thumb": "https://live.staticflickr.com/65535/50024466417_0ef40e3498_n.jpg",
    "id_album": "405170427",
    "description": "Tiger_750224",
    "title": "Tiger_750224",
    "link_img": "https://live.staticflickr.com/65535/50024466417_10b8cd5722_o.jpg",
    "id_image": "Tiger_750224",
    "count_view": 0
  },
  {
    "link_thumb": "https://live.staticflickr.com/65535/50017968272_ac02981857_n.jpg",
    "id_album": "-401151552",
    "description": "Butterfly_926941",
    "title": "Butterfly_926941",
    "link_img": "https://live.staticflickr.com/65535/50017968272_53bccc74ac_o.jpg",
    "id_image": "Butterfly_926941",
    "count_view": 0
  },
  {
    "link_thumb": "https://live.staticflickr.com/65535/50022898637_1998292d26_n.jpg",
    "id_album": "1146438617",
    "description": "Pelican_456696",
    "title": "Pelican_456696",
    "link_img": "https://live.staticflickr.com/65535/50022898637_3359bdc1a4_o.jpg",
    "id_image": "Pelican_456696",
    "count_view": 0
  },
  {
    "link_thumb": "https://live.staticflickr.com/65535/50352512531_24ed6aef26_n.jpg",
    "id_album": "-462831703",
    "description": "Cat_426920",
    "title": "Cat_426920",
    "link_img": "https://live.staticflickr.com/65535/50352512531_7feb4e04c5_o.jpg",
    "id_image": "Cat_426920",
    "count_view": 0
  },
  {
    "link_thumb": "https://live.staticflickr.com/65535/50024397836_6a9c91db9c_n.jpg",
    "id_album": "786934945",
    "description": "Whale_368313",
    "title": "Whale_368313",
    "link_img": "https://live.staticflickr.com/65535/50024397836_3f7a480ac3_o.jpg",
    "id_image": "Whale_368313",
    "count_view": 0
  },
  {
    "link_thumb": "https://live.staticflickr.com/65535/50019785402_7800fb5e31_n.jpg",
    "id_album": "-462831703",
    "description": "Cat_963189",
    "title": "Cat_963189",
    "link_img": "https://live.staticflickr.com/65535/50019785402_973aa33167_o.jpg",
    "id_image": "Cat_963189",
    "count_view": 0
  },
  {
    "link_thumb": "https://live.staticflickr.com/65535/50023675118_2151474e50_n.jpg",
    "id_album": "405170427",
    "description": "Tiger_830433",
    "title": "Tiger_830433",
    "link_img": "https://live.staticflickr.com/65535/50023675118_bb05b28f48_o.jpg",
    "id_image": "Tiger_830433",
    "count_view": 0
  },
  {
    "link_thumb": "https://live.staticflickr.com/65535/50019444532_50c31656e2_n.jpg",
    "id_album": "-462831702",
    "description": "Cat_432323",
    "title": "Cat_432323",
    "link_img": "https://live.staticflickr.com/65535/50019444532_de2a3c508c_o.jpg",
    "id_image": "Cat_432323",
    "count_view": 0
  },
  {
    "link_thumb": "https://live.staticflickr.com/65535/50352661891_491f1c8e4e_n.jpg",
    "id_album": "-462831703",
    "description": "Cat_743762",
    "title": "Cat_743762",
    "link_img": "https://live.staticflickr.com/65535/50352661891_c993436b83_o.jpg",
    "id_image": "Cat_743762",
    "count_view": 0
  },
  {
    "link_thumb": "https://live.staticflickr.com/65535/50019088068_478650f93e_n.jpg",
    "id_album": "1889777354",
    "description": "CGI_116483",
    "title": "CGI_116483",
    "link_img": "https://live.staticflickr.com/65535/50019088068_315d0640c9_o.jpg",
    "id_image": "CGI_116483",
    "count_view": 0
  },
  {
    "link_thumb": "https://live.staticflickr.com/65535/50023157386_14d864b73f_n.jpg",
    "id_album": "248289288",
    "description": "Raccoon_650177",
    "title": "Raccoon_650177",
    "link_img": "https://live.staticflickr.com/65535/50023157386_4b4b396aea_o.jpg",
    "id_image": "Raccoon_650177",
    "count_view": 0
  },
  {
    "link_thumb": "https://live.staticflickr.com/65535/50019836933_09dd41f16d_n.jpg",
    "id_album": "-149330231",
    "description": "Dog_391252",
    "title": "Dog_391252",
    "link_img": "https://live.staticflickr.com/65535/50019836933_40135c9289_o.jpg",
    "id_image": "Dog_391252",
    "count_view": 0
  },
  {
    "link_thumb": "https://live.staticflickr.com/65535/50017643851_e062eb4e07_n.jpg",
    "id_album": "-401151552",
    "description": "Butterfly_690451",
    "title": "Butterfly_690451",
    "link_img": "https://live.staticflickr.com/65535/50017643851_aa8931c046_o.jpg",
    "id_image": "Butterfly_690451",
    "count_view": 0
  },
  {
    "link_thumb": "https://live.staticflickr.com/65535/50017687126_99fd8bf76f_n.jpg",
    "id_album": "-401151552",
    "description": "Butterfly_877888",
    "title": "Butterfly_877888",
    "link_img": "https://live.staticflickr.com/65535/50017687126_fec74921f1_o.jpg",
    "id_image": "Butterfly_877888",
    "count_view": 0
  },
  {
    "link_thumb": "https://live.staticflickr.com/65535/50021224696_4dfd574e80_n.jpg",
    "id_album": "-462831703",
    "description": "Cat_744420",
    "title": "Cat_744420",
    "link_img": "https://live.staticflickr.com/65535/50021224696_da1055e74b_o.jpg",
    "id_image": "Cat_744420",
    "count_view": 0
  },
  {
    "link_thumb": "https://live.staticflickr.com/65535/50019759513_d3e23b354b_n.jpg",
    "id_album": "-149330232",
    "description": "Dog_346380",
    "title": "Dog_346380",
    "link_img": "https://live.staticflickr.com/65535/50019759513_81762fc721_o.jpg",
    "id_image": "Dog_346380",
    "count_view": 0
  },
  {
    "link_thumb": "https://live.staticflickr.com/65535/50020376247_ea166ffa1f_n.jpg",
    "id_album": "-149330232",
    "description": "Dog_113328",
    "title": "Dog_113328",
    "link_img": "https://live.staticflickr.com/65535/50020376247_eec73ca3c7_o.jpg",
    "id_image": "Dog_113328",
    "count_view": 0
  },
  {
    "link_thumb": "https://live.staticflickr.com/65535/50018150666_bd052e0e59_n.jpg",
    "id_album": "-462831702",
    "description": "Cat_407291",
    "title": "Cat_407291",
    "link_img": "https://live.staticflickr.com/65535/50018150666_328e202142_o.jpg",
    "id_image": "Cat_407291",
    "count_view": 0
  },
  {
    "link_thumb": "https://live.staticflickr.com/65535/50021091737_996692efd4_n.jpg",
    "id_album": "-1118073211",
    "description": "Fish_325964",
    "title": "Fish_325964",
    "link_img": "https://live.staticflickr.com/65535/50021091737_1e3ca787a9_o.jpg",
    "id_image": "Fish_325964",
    "count_view": 0
  },
  {
    "link_thumb": "https://live.staticflickr.com/65535/50021092723_12521c8bb2_n.jpg",
    "id_album": "-712553376",
    "description": "Husky_505030",
    "title": "Husky_505030",
    "link_img": "https://live.staticflickr.com/65535/50021092723_f07ca888ff_o.jpg",
    "id_image": "Husky_505030",
    "count_view": 0
  },
  {
    "link_thumb": "https://live.staticflickr.com/65535/50019571177_30b98114c7_n.jpg",
    "id_album": "-462831703",
    "description": "Cat_841924",
    "title": "Cat_841924",
    "link_img": "https://live.staticflickr.com/65535/50019571177_56714fb828_o.jpg",
    "id_image": "Cat_841924",
    "count_view": 0
  },
  {
    "link_thumb": "https://live.staticflickr.com/65535/50022840147_2fa2438afa_n.jpg",
    "id_album": "-801414987",
    "description": "Peacock_125088",
    "title": "Peacock_125088",
    "link_img": "https://live.staticflickr.com/65535/50022840147_c88c5f54d1_o.jpg",
    "id_image": "Peacock_125088",
    "count_view": 0
  },
  {
    "link_thumb": "https://live.staticflickr.com/65535/50020333551_f7d47d29ae_n.jpg",
    "id_album": "-149330232",
    "description": "Dog_366944",
    "title": "Dog_366944",
    "link_img": "https://live.staticflickr.com/65535/50020333551_920a5f8b14_o.jpg",
    "id_image": "Dog_366944",
    "count_view": 0
  },
  {
    "link_thumb": "https://live.staticflickr.com/65535/50020217241_b1b2b0d6db_n.jpg",
    "id_album": "-149330232",
    "description": "Dog_277097",
    "title": "Dog_277097",
    "link_img": "https://live.staticflickr.com/65535/50020217241_9bc60e44bf_o.jpg",
    "id_image": "Dog_277097",
    "count_view": 0
  },
  {
    "link_thumb": "https://live.staticflickr.com/65535/50352706097_51199be588_n.jpg",
    "id_album": "-462831703",
    "description": "Cat_463941",
    "title": "Cat_463941",
    "link_img": "https://live.staticflickr.com/65535/50352706097_8b36b4fffe_o.jpg",
    "id_image": "Cat_463941",
    "count_view": 0
  },
  {
    "link_thumb": "https://live.staticflickr.com/65535/50017639742_c81d72f929_n.jpg",
    "id_album": "-1846011410",
    "description": "Bird_590257",
    "title": "Bird_590257",
    "link_img": "https://live.staticflickr.com/65535/50017639742_199f11b656_o.jpg",
    "id_image": "Bird_590257",
    "count_view": 0
  },
  {
    "link_thumb": "https://live.staticflickr.com/65535/50017951976_97da0e3678_n.jpg",
    "id_album": "-462831702",
    "description": "Cat_307297",
    "title": "Cat_307297",
    "link_img": "https://live.staticflickr.com/65535/50017951976_9de98d051d_o.jpg",
    "id_image": "Cat_307297",
    "count_view": 0
  },
  {
    "link_thumb": "https://live.staticflickr.com/65535/50020546193_06dfc1e573_n.jpg",
    "id_album": "844170697",
    "description": "Frog_983086",
    "title": "Frog_983086",
    "link_img": "https://live.staticflickr.com/65535/50020546193_0ecb71fa7b_o.jpg",
    "id_image": "Frog_983086",
    "count_view": 0
  },
  {
    "link_thumb": "https://live.staticflickr.com/65535/50019971381_b9576e67dc_n.jpg",
    "id_album": "-1783645069",
    "description": "Dalmatian_899918",
    "title": "Dalmatian_899918",
    "link_img": "https://live.staticflickr.com/65535/50019971381_561aa52313_o.jpg",
    "id_image": "Dalmatian_899918",
    "count_view": 0
  },
  {
    "link_thumb": "https://live.staticflickr.com/65535/50023572657_f83a454839_n.jpg",
    "id_album": "1926701726",
    "description": "Robin_707177",
    "title": "Robin_707177",
    "link_img": "https://live.staticflickr.com/65535/50023572657_6150f30dbb_o.jpg",
    "id_image": "Robin_707177",
    "count_view": 0
  },
  {
    "link_thumb": "https://live.staticflickr.com/65535/50016681963_7f2e32e69c_n.jpg",
    "id_album": "-1846011410",
    "description": "Bird_190953",
    "title": "Bird_190953",
    "link_img": "https://live.staticflickr.com/65535/50016681963_2a8f20875e_o.jpg",
    "id_image": "Bird_190953",
    "count_view": 0
  },
  {
    "link_thumb": "https://live.staticflickr.com/65535/50019731043_dda7cd20d2_n.jpg",
    "id_album": "-149330232",
    "description": "Dog_334559",
    "title": "Dog_334559",
    "link_img": "https://live.staticflickr.com/65535/50019731043_8e025b16d5_o.jpg",
    "id_image": "Dog_334559",
    "count_view": 0
  },
  {
    "link_thumb": "https://live.staticflickr.com/65535/50021424312_36685d316b_n.jpg",
    "id_album": "-462831704",
    "description": "Cat_689452",
    "title": "Cat_689452",
    "link_img": "https://live.staticflickr.com/65535/50021424312_fd763eac5f_o.jpg",
    "id_image": "Cat_689452",
    "count_view": 0
  },
  {
    "link_thumb": "https://live.staticflickr.com/65535/50022757741_1aeaf1b8bb_n.jpg",
    "id_album": "407660898",
    "description": "Pigeon_397053",
    "title": "Pigeon_397053",
    "link_img": "https://live.staticflickr.com/65535/50022757741_6d49073241_o.jpg",
    "id_image": "Pigeon_397053",
    "count_view": 0
  },
  {
    "link_thumb": "https://live.staticflickr.com/65535/50021499502_851607dc2e_n.jpg",
    "id_album": "-462831703",
    "description": "Cat_786739",
    "title": "Cat_786739",
    "link_img": "https://live.staticflickr.com/65535/50021499502_1cc3cbd2fc_o.jpg",
    "id_image": "Cat_786739",
    "count_view": 0
  },
  {
    "link_thumb": "https://live.staticflickr.com/65535/50020092086_e18d983934_n.jpg",
    "id_album": "297232732",
    "description": "Dinosaur_528445",
    "title": "Dinosaur_528445",
    "link_img": "https://live.staticflickr.com/65535/50020092086_e80a481cb6_o.jpg",
    "id_image": "Dinosaur_528445",
    "count_view": 0
  },
  {
    "link_thumb": "https://live.staticflickr.com/65535/50021200686_a452c3482d_n.jpg",
    "id_album": "-462831704",
    "description": "Cat_718474",
    "title": "Cat_718474",
    "link_img": "https://live.staticflickr.com/65535/50021200686_f6c1c06cb2_o.jpg",
    "id_image": "Cat_718474",
    "count_view": 0
  },
  {
    "link_thumb": "https://live.staticflickr.com/65535/50020456558_bfb2444462_n.jpg",
    "id_album": "-128218148",
    "description": "Fox_746646",
    "title": "Fox_746646",
    "link_img": "https://live.staticflickr.com/65535/50020456558_cc117acb46_o.jpg",
    "id_image": "Fox_746646",
    "count_view": 0
  },
  {
    "link_thumb": "https://live.staticflickr.com/65535/50019101778_1a48aa8f87_n.jpg",
    "id_album": "1889777354",
    "description": "CGI_884949",
    "title": "CGI_884949",
    "link_img": "https://live.staticflickr.com/65535/50019101778_698998e9b6_o.jpg",
    "id_image": "CGI_884949",
    "count_view": 0
  },
  {
    "link_thumb": "https://live.staticflickr.com/65535/50017535917_ffaae7f19d_n.jpg",
    "id_album": "-1846011410",
    "description": "Bird_364467",
    "title": "Bird_364467",
    "link_img": "https://live.staticflickr.com/65535/50017535917_0587dca387_o.jpg",
    "id_image": "Bird_364467",
    "count_view": 0
  },
  {
    "link_thumb": "https://live.staticflickr.com/65535/50021019928_cdcf85960c_n.jpg",
    "id_album": "-1933715543",
    "description": "Horse_761852",
    "title": "Horse_761852",
    "link_img": "https://live.staticflickr.com/65535/50021019928_ac7fa43f18_o.jpg",
    "id_image": "Horse_761852",
    "count_view": 0
  },
  {
    "link_thumb": "https://live.staticflickr.com/65535/50021133426_871a4a7799_n.jpg",
    "id_album": "-462831704",
    "description": "Cat_593670",
    "title": "Cat_593670",
    "link_img": "https://live.staticflickr.com/65535/50021133426_9d792fa84d_o.jpg",
    "id_image": "Cat_593670",
    "count_view": 0
  },
  {
    "link_thumb": "https://live.staticflickr.com/65535/50021750912_b53f1fc8a8_n.jpg",
    "id_album": "-1933715543",
    "description": "Horse_350817",
    "title": "Horse_350817",
    "link_img": "https://live.staticflickr.com/65535/50021750912_9fa519e2c7_o.jpg",
    "id_image": "Horse_350817",
    "count_view": 0
  },
  {
    "link_thumb": "https://live.staticflickr.com/65535/50019803923_7d08baefa4_n.jpg",
    "id_album": "-149330232",
    "description": "Dog_368044",
    "title": "Dog_368044",
    "link_img": "https://live.staticflickr.com/65535/50019803923_e9c24b121f_o.jpg",
    "id_image": "Dog_368044",
    "count_view": 0
  },
  {
    "link_thumb": "https://live.staticflickr.com/65535/50017155447_1eec331cfb_n.jpg",
    "id_album": "523598895",
    "description": "Artistic_318703",
    "title": "Artistic_318703",
    "link_img": "https://live.staticflickr.com/65535/50017155447_598b6f09dd_o.jpg",
    "id_image": "Artistic_318703",
    "count_view": 0
  },
  {
    "link_thumb": "https://live.staticflickr.com/65535/50021597201_4acdc695cd_n.jpg",
    "id_album": "773713550",
    "description": "Hoverfly_430104",
    "title": "Hoverfly_430104",
    "link_img": "https://live.staticflickr.com/65535/50021597201_b55823738f_o.jpg",
    "id_image": "Hoverfly_430104",
    "count_view": 0
  },
  {
    "link_thumb": "https://live.staticflickr.com/65535/50019876642_a847376d4a_n.jpg",
    "id_album": "1889777354",
    "description": "CGI_170032",
    "title": "CGI_170032",
    "link_img": "https://live.staticflickr.com/65535/50019876642_f95652601e_o.jpg",
    "id_image": "CGI_170032",
    "count_view": 0
  },
  {
    "link_thumb": "https://live.staticflickr.com/65535/50021311158_ec22708990_n.jpg",
    "id_album": "-1882491687",
    "description": "Ladybug_470353",
    "title": "Ladybug_470353",
    "link_img": "https://live.staticflickr.com/65535/50021311158_7044a5ff3c_o.jpg",
    "id_image": "Ladybug_470353",
    "count_view": 0
  },
  {
    "link_thumb": "https://live.staticflickr.com/65535/50019314888_2c522ce500_n.jpg",
    "id_album": "-2144640780",
    "description": "Cow_425019",
    "title": "Cow_425019",
    "link_img": "https://live.staticflickr.com/65535/50019314888_ca7db2f15b_o.jpg",
    "id_image": "Cow_425019",
    "count_view": 0
  },
  {
    "link_thumb": "https://live.staticflickr.com/65535/50020907518_b7d709a524_n.jpg",
    "id_album": "54253492",
    "description": "Heron_932911",
    "title": "Heron_932911",
    "link_img": "https://live.staticflickr.com/65535/50020907518_1e410036b2_o.jpg",
    "id_image": "Heron_932911",
    "count_view": 0
  },
  {
    "link_thumb": "https://live.staticflickr.com/65535/50017383997_2f2e593e4a_n.jpg",
    "id_album": "1699594607",
    "description": "Bee_306150",
    "title": "Bee_306150",
    "link_img": "https://live.staticflickr.com/65535/50017383997_18a7f83eed_o.jpg",
    "id_image": "Bee_306150",
    "count_view": 0
  },
  {
    "link_thumb": "https://live.staticflickr.com/65535/50020150592_7ed365416f_n.jpg",
    "id_album": "1475096665",
    "description": "Crocodile_428554",
    "title": "Crocodile_428554",
    "link_img": "https://live.staticflickr.com/65535/50020150592_f5c0d9d59f_o.jpg",
    "id_image": "Crocodile_428554",
    "count_view": 0
  },
  {
    "link_thumb": "https://live.staticflickr.com/65535/50018941018_bd66d631bf_n.jpg",
    "id_album": "-462831703",
    "description": "Cat_921475",
    "title": "Cat_921475",
    "link_img": "https://live.staticflickr.com/65535/50018941018_c7c98d07fc_o.jpg",
    "id_image": "Cat_921475",
    "count_view": 0
  },
  {
    "link_thumb": "https://live.staticflickr.com/65535/50021695837_bc0cd62994_n.jpg",
    "id_album": "54253492",
    "description": "Heron_433436",
    "title": "Heron_433436",
    "link_img": "https://live.staticflickr.com/65535/50021695837_6020811d54_o.jpg",
    "id_image": "Heron_433436",
    "count_view": 0
  },
  {
    "link_thumb": "https://live.staticflickr.com/65535/50021560787_3e4162205f_n.jpg",
    "id_album": "-405626519",
    "description": "GermanShepherd_875891",
    "title": "GermanShepherd_875891",
    "link_img": "https://live.staticflickr.com/65535/50021560787_1d3ee27b3a_o.jpg",
    "id_image": "GermanShepherd_875891",
    "count_view": 0
  },
  {
    "link_thumb": "https://live.staticflickr.com/65535/50351768873_5d43571ef3_n.jpg",
    "id_album": "-462831703",
    "description": "Cat_364103",
    "title": "Cat_364103",
    "link_img": "https://live.staticflickr.com/65535/50351768873_272902532d_o.jpg",
    "id_image": "Cat_364103",
    "count_view": 0
  },
  {
    "link_thumb": "https://live.staticflickr.com/65535/50022487538_6ddd8f0228_n.jpg",
    "id_album": "-353898617",
    "description": "Puppy_590493",
    "title": "Puppy_590493",
    "link_img": "https://live.staticflickr.com/65535/50022487538_e458c65134_o.jpg",
    "id_image": "Puppy_590493",
    "count_view": 0
  },
  {
    "link_thumb": "https://live.staticflickr.com/65535/50352605746_fe09ef0a26_n.jpg",
    "id_album": "-462831703",
    "description": "Cat_555850",
    "title": "Cat_555850",
    "link_img": "https://live.staticflickr.com/65535/50352605746_488f9d2e2a_o.jpg",
    "id_image": "Cat_555850",
    "count_view": 0
  },
  {
    "link_thumb": "https://live.staticflickr.com/65535/50017514756_163cdeb493_n.jpg",
    "id_album": "782930701",
    "description": "BorderCollie_983980",
    "title": "BorderCollie_983980",
    "link_img": "https://live.staticflickr.com/65535/50017514756_8d8cdfcbdc_o.jpg",
    "id_image": "BorderCollie_983980",
    "count_view": 0
  },
  {
    "link_thumb": "https://live.staticflickr.com/65535/50021180957_2e9bd5d2a6_n.jpg",
    "id_album": "-1694105481",
    "description": "Fly_739214",
    "title": "Fly_739214",
    "link_img": "https://live.staticflickr.com/65535/50021180957_cd35088d10_o.jpg",
    "id_image": "Fly_739214",
    "count_view": 0
  },
  {
    "link_thumb": "https://live.staticflickr.com/65535/50017910877_776d6d25be_n.jpg",
    "id_album": "-401151552",
    "description": "Butterfly_705724",
    "title": "Butterfly_705724",
    "link_img": "https://live.staticflickr.com/65535/50017910877_2f9cd09b66_o.jpg",
    "id_image": "Butterfly_705724",
    "count_view": 0
  },
  {
    "link_thumb": "https://live.staticflickr.com/65535/50019602858_ae634a67cb_n.jpg",
    "id_album": "-149330232",
    "description": "Dog_177046",
    "title": "Dog_177046",
    "link_img": "https://live.staticflickr.com/65535/50019602858_cdeedc84dc_o.jpg",
    "id_image": "Dog_177046",
    "count_view": 0
  },
  {
    "link_thumb": "https://live.staticflickr.com/65535/50019266071_ff3ab03705_n.jpg",
    "id_album": "-462831704",
    "description": "Cat_505711",
    "title": "Cat_505711",
    "link_img": "https://live.staticflickr.com/65535/50019266071_7d7f8bccbe_o.jpg",
    "id_image": "Cat_505711",
    "count_view": 0
  },
  {
    "link_thumb": "https://live.staticflickr.com/65535/50024333456_1cc3128db2_n.jpg",
    "id_album": "46520366",
    "description": "Turtle_997261",
    "title": "Turtle_997261",
    "link_img": "https://live.staticflickr.com/65535/50024333456_26c1aa1952_o.jpg",
    "id_image": "Turtle_997261",
    "count_view": 0
  },
  {
    "link_thumb": "https://live.staticflickr.com/65535/50016452973_694f3106f8_n.jpg",
    "id_album": "-80092825",
    "description": "Barnowl_534671",
    "title": "Barnowl_534671",
    "link_img": "https://live.staticflickr.com/65535/50016452973_d58eb4b7fe_o.jpg",
    "id_image": "Barnowl_534671",
    "count_view": 0
  },
  {
    "link_thumb": "https://live.staticflickr.com/65535/50022135716_dd8af39d78_n.jpg",
    "id_album": "1894617400",
    "description": "Lynx_354089",
    "title": "Lynx_354089",
    "link_img": "https://live.staticflickr.com/65535/50022135716_f9cbba75dd_o.jpg",
    "id_image": "Lynx_354089",
    "count_view": 0
  },
  {
    "link_thumb": "https://live.staticflickr.com/65535/50021716152_b051214882_n.jpg",
    "id_album": "-1933715543",
    "description": "Horse_148881",
    "title": "Horse_148881",
    "link_img": "https://live.staticflickr.com/65535/50021716152_0244f2a3ef_o.jpg",
    "id_image": "Horse_148881",
    "count_view": 0
  },
  {
    "link_thumb": "https://live.staticflickr.com/65535/50017010858_6eb0004f16_n.jpg",
    "id_album": "-401151552",
    "description": "Butterfly_157807",
    "title": "Butterfly_157807",
    "link_img": "https://live.staticflickr.com/65535/50017010858_d95eb7438f_o.jpg",
    "id_image": "Butterfly_157807",
    "count_view": 0
  },
  {
    "link_thumb": "https://live.staticflickr.com/65535/50017023488_4690ed32ff_n.jpg",
    "id_album": "-401151552",
    "description": "Butterfly_240249",
    "title": "Butterfly_240249",
    "link_img": "https://live.staticflickr.com/65535/50017023488_b819355522_o.jpg",
    "id_image": "Butterfly_240249",
    "count_view": 0
  },
  {
    "link_thumb": "https://live.staticflickr.com/65535/50016931313_e07d88a06b_n.jpg",
    "id_album": "-1561645279",
    "description": "BlackPanther_571641",
    "title": "BlackPanther_571641",
    "link_img": "https://live.staticflickr.com/65535/50016931313_a3781af461_o.jpg",
    "id_image": "BlackPanther_571641",
    "count_view": 0
  },
  {
    "link_thumb": "https://live.staticflickr.com/65535/50016427278_b77637f2c6_n.jpg",
    "id_album": "231236068",
    "description": "BaldEagle_358076",
    "title": "BaldEagle_358076",
    "link_img": "https://live.staticflickr.com/65535/50016427278_1ee77e7336_o.jpg",
    "id_image": "BaldEagle_358076",
    "count_view": 0
  },
  {
    "link_thumb": "https://live.staticflickr.com/65535/50022640198_41256c0142_n.jpg",
    "id_album": "-434874555",
    "description": "RainbowLorikeet_794935",
    "title": "RainbowLorikeet_794935",
    "link_img": "https://live.staticflickr.com/65535/50022640198_e7603a4343_o.jpg",
    "id_image": "RainbowLorikeet_794935",
    "count_view": 0
  },
  {
    "link_thumb": "https://live.staticflickr.com/65535/50020091068_765054739d_n.jpg",
    "id_album": "-405058657",
    "description": "Dragonfly_451574",
    "title": "Dragonfly_451574",
    "link_img": "https://live.staticflickr.com/65535/50020091068_2065b0db69_o.jpg",
    "id_image": "Dragonfly_451574",
    "count_view": 0
  },
  {
    "link_thumb": "https://live.staticflickr.com/65535/50016904401_2d62ddbd12_n.jpg",
    "id_album": "523598895",
    "description": "Artistic_425102",
    "title": "Artistic_425102",
    "link_img": "https://live.staticflickr.com/65535/50016904401_8c8faf2d40_o.jpg",
    "id_image": "Artistic_425102",
    "count_view": 0
  },
  {
    "link_thumb": "https://live.staticflickr.com/65535/50021331457_159ef70442_n.jpg",
    "id_album": "844170697",
    "description": "Frog_821945",
    "title": "Frog_821945",
    "link_img": "https://live.staticflickr.com/65535/50021331457_c48aa1f9a2_o.jpg",
    "id_image": "Frog_821945",
    "count_view": 0
  },
  {
    "link_thumb": "https://live.staticflickr.com/65535/50019811593_3741ec5442_n.jpg",
    "id_album": "-149330232",
    "description": "Dog_370626",
    "title": "Dog_370626",
    "link_img": "https://live.staticflickr.com/65535/50019811593_d22f2f6f71_o.jpg",
    "id_image": "Dog_370626",
    "count_view": 0
  },
  {
    "link_thumb": "https://live.staticflickr.com/65535/50021619767_9334fd88cc_n.jpg",
    "id_album": "2060159334",
    "description": "GoldenRetriever_891390",
    "title": "GoldenRetriever_891390",
    "link_img": "https://live.staticflickr.com/65535/50021619767_6870d67e10_o.jpg",
    "id_image": "GoldenRetriever_891390",
    "count_view": 0
  },
  {
    "link_thumb": "https://live.staticflickr.com/65535/50020601897_16e8574336_n.jpg",
    "id_album": "-149330232",
    "description": "Dog_370685",
    "title": "Dog_370685",
    "link_img": "https://live.staticflickr.com/65535/50020601897_59b2fa1b77_o.jpg",
    "id_image": "Dog_370685",
    "count_view": 0
  },
  {
    "link_thumb": "https://live.staticflickr.com/65535/50020514571_95eaaa966b_n.jpg",
    "id_album": "-149330231",
    "description": "Dog_791168",
    "title": "Dog_791168",
    "link_img": "https://live.staticflickr.com/65535/50020514571_db71295428_o.jpg",
    "id_image": "Dog_791168",
    "count_view": 0
  },
  {
    "link_thumb": "https://live.staticflickr.com/65535/50020525446_b39c6d5485_n.jpg",
    "id_album": "-149330231",
    "description": "Dog_860273",
    "title": "Dog_860273",
    "link_img": "https://live.staticflickr.com/65535/50020525446_dbf11f0fe8_o.jpg",
    "id_image": "Dog_860273",
    "count_view": 0
  },
  {
    "link_thumb": "https://live.staticflickr.com/65535/50020084213_52daccbae6_n.jpg",
    "id_album": "-405058657",
    "description": "Dragonfly_391781",
    "title": "Dragonfly_391781",
    "link_img": "https://live.staticflickr.com/65535/50020084213_ce2f05738c_o.jpg",
    "id_image": "Dragonfly_391781",
    "count_view": 0
  }
]