[
  {
    "total_img": 0,
    "number_page": 0,
    "title": "Dalmatian",
    "tag": "Dalmatian,",
    "description": "Dalmatian",
    "link_thumb": "https://live.staticflickr.com/65535/50019431653_6b60b5f135_n.jpg",
    "id_album": "-1783645069",
    "total_view": 60
  }
]